\relax 
\@writefile{toc}{\contentsline {section}{\numberline {1}Introduction}{1}}
\newlabel{sec:wstep}{{1}{1}}
\@writefile{toc}{\contentsline {section}{\numberline {2}Linearisation of nonlinear equations of the inverted pendulum dynamics at the equilibrium}{1}}
\newlabel{sec:pl}{{2}{1}}
\newlabel{eq:AB}{{1}{1}}
\@writefile{toc}{\contentsline {section}{\numberline {3}Pole placement control}{1}}
\newlabel{sec:pp}{{3}{1}}
\@writefile{toc}{\contentsline {subsection}{\numberline {3.1}Control algorithm}{1}}
\newlabel{sec:pp:as}{{3.1}{1}}
\newlabel{eq:contr}{{2}{1}}
\newlabel{eq:T}{{3}{1}}
\newlabel{eq:Fpp}{{4}{1}}
\newlabel{eq:wh:pp}{{5}{1}}
\@writefile{toc}{\contentsline {subsection}{\numberline {3.2}Summary of results of simulation studies and experimental research}{2}}
\newlabel{sec:pp:res}{{3.2}{2}}
\@writefile{lof}{\contentsline {figure}{\numberline {1}{\ignorespaces Results of simulation and experimental studies of a control system that is based on pole-placement algorithm}}{2}}
\@writefile{lof}{\contentsline {subfigure}{\numberline{(a)}{\ignorespaces {position of a cart (simulation)}}}{2}}
\@writefile{lof}{\contentsline {subfigure}{\numberline{(b)}{\ignorespaces {position of a cart (experiment)}}}{2}}
\@writefile{lof}{\contentsline {subfigure}{\numberline{(c)}{\ignorespaces {position of a pendulum (simulation)}}}{2}}
\@writefile{lof}{\contentsline {subfigure}{\numberline{(d)}{\ignorespaces {position of a pendulum (experiment)}}}{2}}
\@writefile{lof}{\contentsline {subfigure}{\numberline{(e)}{\ignorespaces {velocity of a cart (simulation)}}}{2}}
\@writefile{lof}{\contentsline {subfigure}{\numberline{(f)}{\ignorespaces {velocity of a cart (experiment)}}}{2}}
\@writefile{lof}{\contentsline {subfigure}{\numberline{(g)}{\ignorespaces {velocity of a pendulum (simulation)}}}{2}}
\@writefile{lof}{\contentsline {subfigure}{\numberline{(h)}{\ignorespaces {velocity of a pendulum (experiment)}}}{2}}
\@writefile{lof}{\contentsline {subfigure}{\numberline{(i)}{\ignorespaces {force (simulation)}}}{2}}
\@writefile{lof}{\contentsline {subfigure}{\numberline{(j)}{\ignorespaces {force (experiment)}}}{2}}
\newlabel{fig:stpp}{{1}{2}}
\@writefile{toc}{\contentsline {section}{\numberline {4}Linear-quadratic control}{2}}
\newlabel{sec:lq}{{4}{2}}
\@writefile{toc}{\contentsline {subsection}{\numberline {4.1}Control algorithm}{2}}
\newlabel{sec:lq:as}{{4.1}{2}}
\newlabel{eq:Flq}{{6}{2}}
\newlabel{eq:Flq1}{{7}{2}}
\newlabel{eq:ARE}{{8}{2}}
\@writefile{toc}{\contentsline {subsection}{\numberline {4.2}Summary of results of simulation studies and experimental research}{3}}
\newlabel{sec:lq:res}{{4.2}{3}}
\@writefile{lof}{\contentsline {figure}{\numberline {2}{\ignorespaces Results of simulation and experimental studies of a control system that is based on linear-quadratic algorithm}}{3}}
\@writefile{lof}{\contentsline {subfigure}{\numberline{(a)}{\ignorespaces {position of a cart (simulation)}}}{3}}
\@writefile{lof}{\contentsline {subfigure}{\numberline{(b)}{\ignorespaces {position of a cart (experiment)}}}{3}}
\@writefile{lof}{\contentsline {subfigure}{\numberline{(c)}{\ignorespaces {position of a pendulum (simulation)}}}{3}}
\@writefile{lof}{\contentsline {subfigure}{\numberline{(d)}{\ignorespaces {position of a pendulum (experiment)}}}{3}}
\@writefile{lof}{\contentsline {subfigure}{\numberline{(e)}{\ignorespaces {velocity of a cart (simulation)}}}{3}}
\@writefile{lof}{\contentsline {subfigure}{\numberline{(f)}{\ignorespaces {velocity of a cart (experiment)}}}{3}}
\@writefile{lof}{\contentsline {subfigure}{\numberline{(g)}{\ignorespaces {velocity of a pendulum (simulation)}}}{3}}
\@writefile{lof}{\contentsline {subfigure}{\numberline{(h)}{\ignorespaces {velocity of a pendulum (experiment)}}}{3}}
\@writefile{lof}{\contentsline {subfigure}{\numberline{(i)}{\ignorespaces {force (simulation)}}}{3}}
\@writefile{lof}{\contentsline {subfigure}{\numberline{(j)}{\ignorespaces {force (experiment)}}}{3}}
\newlabel{fig:stlq}{{2}{3}}
