%!PS-Adobe-3.0 EPSF-3.0
%%Creator: MATLAB, The MathWorks, Inc. Version 8.1.0.604 (R2013a). Operating System: Linux 4.9.0-040900-generic #201612111631 SMP Sun Dec 11 21:33:00 UTC 2016 x86_64.
%%Title: /home/lukas/Universidad/Master/2 Semester/Control Theory for Embedded Systems/lab/4lab/MATLAB/PWM_tracking_exp.eps
%%CreationDate: 12/17/2016  18:27:53
%%DocumentNeededFonts: Helvetica
%%DocumentProcessColors: Cyan Magenta Yellow Black
%%LanguageLevel: 2
%%Pages: 1
%%BoundingBox:    81   227   529   564
%%EndComments

%%BeginProlog
% MathWorks dictionary
/MathWorks 160 dict begin
% definition operators
/bdef {bind def} bind def
/ldef {load def} bind def
/xdef {exch def} bdef
/xstore {exch store} bdef
% operator abbreviations
/c  /clip ldef
/cc /concat ldef
/cp /closepath ldef
/gr /grestore ldef
/gs /gsave ldef
/mt /moveto ldef
/np /newpath ldef
/cm /currentmatrix ldef
/sm /setmatrix ldef
/rm /rmoveto ldef
/rl /rlineto ldef
/s {show newpath} bdef
/sc {setcmykcolor} bdef
/sr /setrgbcolor ldef
/sg /setgray ldef
/w /setlinewidth ldef
/j /setlinejoin ldef
/cap /setlinecap ldef
/rc {rectclip} bdef
/rf {rectfill} bdef
% page state control
/pgsv () def
/bpage {/pgsv save def} bdef
/epage {pgsv restore} bdef
/bplot /gsave ldef
/eplot {stroke grestore} bdef
% orientation switch
/portraitMode 0 def /landscapeMode 1 def /rotateMode 2 def
% coordinate system mappings
/dpi2point 0 def
% font control
/FontSize 0 def
/FMS {/FontSize xstore findfont [FontSize 0 0 FontSize neg 0 0]
  makefont setfont} bdef
/reencode {exch dup where {pop load} {pop StandardEncoding} ifelse
  exch dup 3 1 roll findfont dup length dict begin
  { 1 index /FID ne {def}{pop pop} ifelse } forall
  /Encoding exch def currentdict end definefont pop} bdef
/isroman {findfont /CharStrings get /Agrave known} bdef
/FMSR {3 1 roll 1 index dup isroman {reencode} {pop pop} ifelse
  exch FMS} bdef
/csm {1 dpi2point div -1 dpi2point div scale neg translate
 dup landscapeMode eq {pop -90 rotate}
  {rotateMode eq {90 rotate} if} ifelse} bdef
% line types: solid, dotted, dashed, dotdash
/SO { [] 0 setdash } bdef
/DO { [.5 dpi2point mul 4 dpi2point mul] 0 setdash } bdef
/DA { [6 dpi2point mul] 0 setdash } bdef
/DD { [.5 dpi2point mul 4 dpi2point mul 6 dpi2point mul 4
  dpi2point mul] 0 setdash } bdef
% macros for lines and objects
/L {lineto stroke} bdef
/MP {3 1 roll moveto 1 sub {rlineto} repeat} bdef
/AP {{rlineto} repeat} bdef
/PDlw -1 def
/W {/PDlw currentlinewidth def setlinewidth} def
/PP {closepath eofill} bdef
/DP {closepath stroke} bdef
/MR {4 -2 roll moveto dup  0 exch rlineto exch 0 rlineto
  neg 0 exch rlineto closepath} bdef
/FR {MR stroke} bdef
/PR {MR fill} bdef
/L1i {{currentfile picstr readhexstring pop} image} bdef
/tMatrix matrix def
/MakeOval {newpath tMatrix currentmatrix pop translate scale
0 0 1 0 360 arc tMatrix setmatrix} bdef
/FO {MakeOval stroke} bdef
/PO {MakeOval fill} bdef
/PD {currentlinewidth 2 div 0 360 arc fill
   PDlw -1 eq not {PDlw w /PDlw -1 def} if} def
/FA {newpath tMatrix currentmatrix pop translate scale
  0 0 1 5 -2 roll arc tMatrix setmatrix stroke} bdef
/PA {newpath tMatrix currentmatrix pop	translate 0 0 moveto scale
  0 0 1 5 -2 roll arc closepath tMatrix setmatrix fill} bdef
/FAn {newpath tMatrix currentmatrix pop translate scale
  0 0 1 5 -2 roll arcn tMatrix setmatrix stroke} bdef
/PAn {newpath tMatrix currentmatrix pop translate 0 0 moveto scale
  0 0 1 5 -2 roll arcn closepath tMatrix setmatrix fill} bdef
/vradius 0 def /hradius 0 def /lry 0 def
/lrx 0 def /uly 0 def /ulx 0 def /rad 0 def
/MRR {/vradius xdef /hradius xdef /lry xdef /lrx xdef /uly xdef
  /ulx xdef newpath tMatrix currentmatrix pop ulx hradius add uly
  vradius add translate hradius vradius scale 0 0 1 180 270 arc 
  tMatrix setmatrix lrx hradius sub uly vradius add translate
  hradius vradius scale 0 0 1 270 360 arc tMatrix setmatrix
  lrx hradius sub lry vradius sub translate hradius vradius scale
  0 0 1 0 90 arc tMatrix setmatrix ulx hradius add lry vradius sub
  translate hradius vradius scale 0 0 1 90 180 arc tMatrix setmatrix
  closepath} bdef
/FRR {MRR stroke } bdef
/PRR {MRR fill } bdef
/MlrRR {/lry xdef /lrx xdef /uly xdef /ulx xdef /rad lry uly sub 2 div def
  newpath tMatrix currentmatrix pop ulx rad add uly rad add translate
  rad rad scale 0 0 1 90 270 arc tMatrix setmatrix lrx rad sub lry rad
  sub translate rad rad scale 0 0 1 270 90 arc tMatrix setmatrix
  closepath} bdef
/FlrRR {MlrRR stroke } bdef
/PlrRR {MlrRR fill } bdef
/MtbRR {/lry xdef /lrx xdef /uly xdef /ulx xdef /rad lrx ulx sub 2 div def
  newpath tMatrix currentmatrix pop ulx rad add uly rad add translate
  rad rad scale 0 0 1 180 360 arc tMatrix setmatrix lrx rad sub lry rad
  sub translate rad rad scale 0 0 1 0 180 arc tMatrix setmatrix
  closepath} bdef
/FtbRR {MtbRR stroke } bdef
/PtbRR {MtbRR fill } bdef
/stri 6 array def /dtri 6 array def
/smat 6 array def /dmat 6 array def
/tmat1 6 array def /tmat2 6 array def /dif 3 array def
/asub {/ind2 exch def /ind1 exch def dup dup
  ind1 get exch ind2 get sub exch } bdef
/tri_to_matrix {
  2 0 asub 3 1 asub 4 0 asub 5 1 asub
  dup 0 get exch 1 get 7 -1 roll astore } bdef
/compute_transform {
  dmat dtri tri_to_matrix tmat1 invertmatrix 
  smat stri tri_to_matrix tmat2 concatmatrix } bdef
/ds {stri astore pop} bdef
/dt {dtri astore pop} bdef
/db {2 copy /cols xdef /rows xdef mul dup 3 mul string
  currentfile 
  3 index 0 eq {/ASCIIHexDecode filter}
  {/ASCII85Decode filter 3 index 2 eq {/RunLengthDecode filter} if }
  ifelse exch readstring pop
  dup 0 3 index getinterval /rbmap xdef
  dup 2 index dup getinterval /gbmap xdef
  1 index dup 2 mul exch getinterval /bbmap xdef pop pop}bdef
/it {gs np dtri aload pop moveto lineto lineto cp c
  cols rows 8 compute_transform 
  rbmap gbmap bbmap true 3 colorimage gr}bdef
/il {newpath moveto lineto stroke}bdef
currentdict end def
%%EndProlog

%%BeginSetup
MathWorks begin

0 cap

end
%%EndSetup

%%Page: 1 1
%%BeginPageSetup
%%PageBoundingBox:    81   227   529   564
MathWorks begin
bpage
%%EndPageSetup

%%BeginObject: obj1
bplot

/dpi2point 12 def
portraitMode 0972 6768 csm

    0     0  5376  4033 rc
85 dict begin %Colortable dictionary
/c0 { 0.000000 0.000000 0.000000 sr} bdef
/c1 { 1.000000 1.000000 1.000000 sr} bdef
/c2 { 0.900000 0.000000 0.000000 sr} bdef
/c3 { 0.000000 0.820000 0.000000 sr} bdef
/c4 { 0.000000 0.000000 0.800000 sr} bdef
/c5 { 0.910000 0.820000 0.320000 sr} bdef
/c6 { 1.000000 0.260000 0.820000 sr} bdef
/c7 { 0.000000 0.820000 0.820000 sr} bdef
c0
1 j
1 sg
   0    0 5377 4034 rf
6 w
0 3288 4166 0 0 -3288 699 3589 4 MP
PP
-4166 0 0 3288 4166 0 0 -3288 699 3589 5 MP stroke
4 w
DO
0 sg
 699 3589 mt  699  302 L
 699  302 mt  699  302 L
1219 3589 mt 1219  302 L
1219  302 mt 1219  302 L
1740 3589 mt 1740  302 L
1740  302 mt 1740  302 L
2261 3589 mt 2261  302 L
2261  302 mt 2261  302 L
2782 3589 mt 2782  302 L
2782  302 mt 2782  302 L
3302 3589 mt 3302  302 L
3302  302 mt 3302  302 L
3823 3589 mt 3823  302 L
3823  302 mt 3823  302 L
4344 3589 mt 4344  302 L
4344  302 mt 4344  302 L
4865 3589 mt 4865  302 L
4865  302 mt 4865  302 L
 699 3589 mt 4865 3589 L
4865 3589 mt 4865 3589 L
 699 3223 mt 4865 3223 L
4865 3223 mt 4865 3223 L
 699 2858 mt 4865 2858 L
4865 2858 mt 4865 2858 L
 699 2493 mt 4865 2493 L
4865 2493 mt 4865 2493 L
 699 2128 mt 4865 2128 L
4865 2128 mt 4865 2128 L
 699 1762 mt 4865 1762 L
4865 1762 mt 4865 1762 L
 699 1397 mt 4865 1397 L
4865 1397 mt 4865 1397 L
 699 1032 mt 4865 1032 L
4865 1032 mt 4865 1032 L
 699  667 mt 4865  667 L
4865  667 mt 4865  667 L
 699  302 mt 4865  302 L
4865  302 mt 4865  302 L
SO
6 w
 699 3589 mt 4865 3589 L
 699  301 mt 4865  301 L
 699 3589 mt  699  301 L
4865 3589 mt 4865  301 L
 699 3589 mt 4865 3589 L
 699 3589 mt  699  301 L
 699 3589 mt  699 3547 L
 699  302 mt  699  343 L
%%IncludeResource: font Helvetica
/Helvetica /ISOLatin1Encoding 120 FMSR

 666 3734 mt 
(0) s
1219 3589 mt 1219 3547 L
1219  302 mt 1219  343 L
1153 3734 mt 
(10) s
1740 3589 mt 1740 3547 L
1740  302 mt 1740  343 L
1674 3734 mt 
(20) s
2261 3589 mt 2261 3547 L
2261  302 mt 2261  343 L
2195 3734 mt 
(30) s
2782 3589 mt 2782 3547 L
2782  302 mt 2782  343 L
2716 3734 mt 
(40) s
3302 3589 mt 3302 3547 L
3302  302 mt 3302  343 L
3236 3734 mt 
(50) s
3823 3589 mt 3823 3547 L
3823  302 mt 3823  343 L
3757 3734 mt 
(60) s
4344 3589 mt 4344 3547 L
4344  302 mt 4344  343 L
4278 3734 mt 
(70) s
4865 3589 mt 4865 3547 L
4865  302 mt 4865  343 L
4799 3734 mt 
(80) s
 699 3589 mt  740 3589 L
4865 3589 mt 4823 3589 L
 461 3633 mt 
(-25) s
 699 3223 mt  740 3223 L
4865 3223 mt 4823 3223 L
 461 3267 mt 
(-20) s
 699 2858 mt  740 2858 L
4865 2858 mt 4823 2858 L
 461 2902 mt 
(-15) s
 699 2493 mt  740 2493 L
4865 2493 mt 4823 2493 L
 461 2537 mt 
(-10) s
 699 2128 mt  740 2128 L
4865 2128 mt 4823 2128 L
 528 2172 mt 
(-5) s
 699 1762 mt  740 1762 L
4865 1762 mt 4823 1762 L
 598 1806 mt 
(0) s
 699 1397 mt  740 1397 L
4865 1397 mt 4823 1397 L
 598 1441 mt 
(5) s
 699 1032 mt  740 1032 L
4865 1032 mt 4823 1032 L
 531 1076 mt 
(10) s
 699  667 mt  740  667 L
4865  667 mt 4823  667 L
 531  711 mt 
(15) s
 699  302 mt  740  302 L
4865  302 mt 4823  302 L
 531  346 mt 
(20) s
 699 3589 mt 4865 3589 L
 699  301 mt 4865  301 L
 699 3589 mt  699  301 L
4865 3589 mt 4865  301 L
gs 699 302 4167 3288 rc
/c8 { 0.000000 0.000000 1.000000 sr} bdef
c8
1 -10 0 -12 1 -16 0 -16 1 -19 0 -19 1 -19 0 -18 
1 -16 0 -17 1 -14 0 -12 1 -9 0 -8 1 -7 0 -6 
1 -5 1 -4 0 -3 1 -4 0 -3 1 -3 0 -2 1 -2 
0 -1 1 -1 1 -1 1 2 0 1 1 2 0 3 1 3 
0 4 1 4 0 4 1 5 0 5 1 5 0 6 1 6 
1 6 0 6 1 7 0 6 1 7 0 6 1 7 0 7 
1 6 0 7 1 6 0 6 1 6 0 5 1 4 0 5 
1 3 0 4 1 2 0 3 1 0 1 1 1 0 1 -1 
0 -2 1 -1 0 -2 1 -2 0 -1 1 -1 0 -1 1 -2 
0 -2 1 -1 1 -2 0 -1 1 -2 0 -3 1 -2 0 -4 
1 -3 0 -4 1 -5 0 -5 1 -5 1 -6 0 -5 1 -4 
0 -5 1 -4 0 -3 1 -3 0 -3 1 -1 0 -1 1 -1 
1 1 1 2 0 1 1 1 0 1 1 2 1 2 0 1 
1 2 1 1 0 2 1 3 0 4 1 4 0 6 1 7 
0 8 1 9 0 10 1 11 0 12 1 12 0 13 1 14 
0 12 1 14 0 11 1 12 0 10 1 9 0 7 1 6 
0 3 1 3 1 0 -1 0 2 -3 0 -4 1 -3 0 -6 
1 -6 0 -7 1 -7 0 -8 1 -8 0 -7 1 -7 0 -8 
1 -9 0 -8 1 -7 0 -8 1 -7 0 -7 1 -7 0 -7 
1 -6 1 -7 0 -5 1 -5 0 -5 1 -4 0 -4 1 -4 
0 -2 1 -2 0 -2 1 -1 0 -2 1 -1 0 -1 1 -2 
0 -1 1 -1 0 -2 1 -2 0 -2 1 -2 0 -3 1 -2 
0 -2 1 -3 1 -1 0 -2 1 -1 1 0 -1 0 2 2 
0 2 1 2 0 3 1 3 0 3 1 3 0 4 1 3 
0 3 1 3 0 4 1 4 0 4 1 4 0 4 1 4 
1 4 0 4 1 4 0 4 1 4 0 4 1 4 0 4 
1 2 0 3 1 3 0 3 1 1 0 2 1 0 1 0 
-1 0 2 -2 0 -2 1 -3 0 -3 1 -3 0 -3 1 -3 
1 -4 0 -3 1 -3 0 -3 1 -3 0 -2 1 -3 0 -3 
1 -2 0 -2 1 -3 0 -1 1 -1 0 -2 1 0 1 -1 
1 2 0 2 1 2 0 3 1 3 0 3 1 5 1 4 
0 5 1 5 0 5 1 6 0 5 1 6 0 6 1 6 
0 6 1 6 0 7 1 6 0 6 1 7 0 6 1 7 
0 7 1 6 0 7 1 7 0 8 1 7 1 9 0 9 
1 10 0 12 1 11 0 12 1 12 0 10 1 9 0 6 
1 2 0 -3 1 -7 0 -12 1 -17 0 -22 1 -24 0 -28 
1 -28 0 -28 1 -27 0 -26 1 -23 0 -22 1 -17 1 -15 
0 -12 1 -9 0 -7 4699 666 300 MP stroke
1 -6 0 -4 1 -2 0 -2 1 0 1 1 0 2 1 1 
0 2 1 2 0 3 1 1 0 3 1 2 0 3 1 2 
0 3 1 2 1 4 0 3 1 3 0 5 1 5 0 4 
1 6 0 6 1 7 0 8 1 9 0 8 1 10 0 9 
1 9 0 9 1 8 0 8 1 5 0 5 1 2 0 3 
1 -1 0 -1 1 -3 1 -3 0 -4 1 -4 0 -5 1 -4 
0 -3 1 -4 1 -2 1 1 0 2 1 2 0 4 1 4 
0 6 1 7 0 8 1 10 0 10 1 11 0 11 1 12 
1 9 0 10 1 6 0 3 1 -1 0 -5 1 -8 0 -14 
1 -15 0 -20 1 -20 0 -23 1 -21 0 -20 1 -19 0 -16 
1 -13 0 -10 1 -7 0 -4 1 -2 1 2 0 4 1 5 
1 7 0 8 1 8 0 11 1 11 0 13 1 13 0 14 
1 14 0 15 1 14 0 12 1 12 0 8 1 7 0 3 
1 2 0 -3 1 -3 0 -6 1 -7 0 -8 1 -8 1 -7 
0 -6 1 -2 0 -1 1 1 0 4 1 7 0 9 1 8 
0 10 1 8 0 6 1 4 1 -3 0 -8 1 -11 0 -14 
1 -15 0 -17 1 -15 0 -15 1 -12 0 -9 1 -5 1 -2 
0 4 1 7 0 10 1 13 0 15 1 15 0 15 1 14 
0 11 1 9 0 3 1 2 0 -5 1 -6 0 -10 1 -10 
0 -11 1 -7 0 -6 1 -3 1 3 1 5 0 6 1 7 
0 5 1 5 0 -1 1 -3 0 -8 1 -10 0 -13 1 -12 
0 -12 1 -8 0 -7 1 -2 0 3 1 6 0 10 1 12 
0 12 1 11 0 10 1 5 0 3 1 -4 1 -6 0 -9 
1 -10 0 -9 1 -6 0 -4 1 -1 0 2 1 3 0 6 
1 6 0 6 1 4 0 1 1 -5 0 -6 1 -8 0 -6 
1 -6 0 -2 1 0 0 3 1 5 0 7 1 9 1 7 
0 7 1 1 1 -7 0 -6 1 -7 0 -3 1 -4 1 -2 
-1 0 2 4 0 4 1 4 0 1 1 -1 0 -5 1 -3 
0 -2 1 -2 0 -1 1 1 1 1 0 2 1 3 0 2 
1 4 0 -3 1 -2 0 -4 1 -2 0 -4 1 -2 0 -2 
1 -2 1 -3 0 2 1 -4 0 -1 1 -4 0 -1 1 -2 
1 -1 1 1 1 -1 0 3 1 -3 1 -3 0 -1 1 -2 
0 -2 1 -1 0 -1 2 4 1 3 0 1 1 2 0 1 
1 1 0 1 1 2 0 4 1 0 1 5 1 1 0 -1 
1 -1 0 -2 1 0 1 0 0 4 1 -2 0 1 1 -1 
1 0 -1 0 2 4 0 2 1 4 0 -4 1 -2 0 -5 
1 -2 0 -3 1 -1 1 2 0 -1 1 -1 0 -8 1 -4 
0 -5 1 -2 1 1 4533 582 300 MP stroke
0 3 1 -3 0 -5 1 -9 0 -5 1 -5 1 -1 -1 0 
2 3 0 -6 1 -4 0 -5 1 -1 1 1 0 3 1 8 
0 4 1 3 0 -6 1 -2 0 -2 1 2 0 4 1 7 
0 8 1 -1 0 -4 1 -6 0 -1 1 2 0 7 1 9 
0 7 1 -2 0 -9 1 -6 0 -2 1 3 1 10 0 8 
1 3 0 -6 1 -10 0 -4 1 3 0 11 1 11 0 6 
1 -8 0 -10 1 -9 0 1 1 10 0 10 1 5 0 -8 
1 -12 0 -7 1 4 0 12 1 10 1 3 0 -11 1 -12 
0 -6 1 6 0 10 1 4 0 -5 1 -15 0 -12 1 -3 
0 8 1 8 0 -2 1 -12 0 -14 1 -7 0 5 1 10 
0 6 1 -7 0 -12 1 -7 0 3 1 11 1 9 1 -12 
0 -8 1 1 0 9 1 10 0 1 1 -8 0 -6 1 1 
0 8 1 11 0 4 1 -7 0 -4 1 1 0 7 1 8 
0 -2 1 -7 0 -4 1 -1 1 3 0 3 1 -5 0 -6 
1 -3 0 -1 1 3 0 1 1 -4 0 -4 1 -2 0 1 
1 2 0 -3 1 -5 0 -4 1 -2 0 -1 1 -4 0 -5 
1 -5 0 -2 1 -2 0 -2 1 -4 1 -3 0 -1 1 -1 
0 2 1 -1 0 -1 1 -1 1 3 1 1 1 -1 0 2 
1 3 0 1 1 -1 0 -1 1 2 0 2 1 1 0 -1 
1 -1 0 1 1 1 1 0 -1 0 2 -2 1 1 0 -1 
1 -1 0 -1 1 3 0 1 1 -2 0 -2 1 0 0 3 
1 -2 0 -3 1 -2 0 1 1 -2 0 -5 1 -3 1 2 
1 -3 0 -5 1 -2 0 2 1 3 0 -6 1 -5 1 4 
0 -3 1 -7 0 -4 1 2 1 -8 0 -4 1 2 0 7 
1 -4 0 -6 1 0 0 10 1 5 0 -5 1 0 1 8 
0 8 1 -6 0 -4 1 7 0 12 1 -5 0 -9 1 3 
0 10 1 -1 0 -11 1 1 0 11 1 -1 0 -13 1 -2 
0 11 1 2 0 -13 1 -3 0 10 1 -1 1 -13 0 -4 
1 11 0 1 1 -15 0 -2 1 9 0 -2 1 -12 1 11 
0 -1 1 -13 0 2 1 10 0 -5 1 -9 0 6 1 8 
0 -8 1 -8 0 4 1 6 0 -12 1 -4 1 6 0 -3 
1 -13 0 -4 1 5 0 -6 1 -11 0 -1 1 5 0 -11 
1 -7 0 4 1 2 0 -7 1 -1 0 7 1 1 0 -5 
1 2 0 10 1 -4 1 5 1 4 0 -2 1 0 0 5 
1 2 0 -2 1 2 0 7 1 -2 1 3 0 1 1 -1 
1 0 1 -2 0 -1 1 1 0 -2 1 -1 0 2 1 -2 
0 -3 1 3 1 -2 0 -3 1 0 0 -3 1 -4 0 -2 
1 -5 0 -4 1 -3 4370 756 300 MP stroke
0 -6 1 -5 0 -4 1 -6 0 -4 1 -5 0 -6 1 -4 
0 -4 1 -4 0 -3 1 -2 0 -1 1 -2 1 -1 0 -1 
1 5 0 -1 1 1 0 6 1 -1 0 1 1 7 0 1 
1 1 0 9 1 -1 0 2 1 10 1 1 0 12 1 0 
1 12 0 -1 1 -2 0 12 1 -4 1 -4 0 12 1 -6 
0 -5 1 11 0 -10 1 -4 0 9 1 -14 0 -2 1 6 
0 -16 1 -2 0 4 1 -18 0 2 1 -2 0 -17 1 4 
0 -6 1 -15 0 6 1 -9 0 -12 1 6 1 -13 0 -6 
1 5 0 -14 1 0 0 5 1 -13 0 5 1 2 0 -12 
1 10 0 -1 1 -8 0 13 1 -5 0 -4 1 12 0 -8 
1 3 0 11 1 -8 0 6 1 7 1 -8 0 11 1 1 
0 -3 1 12 0 -5 1 2 0 9 1 -4 0 6 1 4 
1 7 1 0 0 8 1 -2 0 2 1 3 0 -2 1 3 
0 -1 1 -1 0 2 1 -2 1 0 1 -2 0 1 1 -2 
0 -2 1 -1 0 -4 1 -2 0 -3 1 -4 0 -3 1 -4 
0 -1 1 -4 0 -1 1 -2 0 -2 1 2 0 -2 1 1 
0 -1 1 -1 1 2 0 -3 1 3 0 -5 1 -1 0 -5 
1 -5 1 -7 1 -10 0 -3 1 -7 0 -6 1 1 0 -9 
1 1 0 -11 1 -4 0 -6 1 -7 0 1 1 -10 1 -10 
1 -3 0 -2 1 -7 0 4 1 -7 0 3 1 -6 0 -1 
1 2 0 -4 1 7 0 -6 1 6 0 -2 1 1 0 7 
1 -3 0 12 1 -5 0 9 1 -1 0 4 1 7 1 -1 
0 15 1 -7 0 16 1 -3 0 14 1 3 0 8 1 12 
0 1 1 15 0 -4 1 17 0 -7 1 11 0 -4 1 7 
0 -5 2 -3 0 -1 1 -4 0 4 1 -3 1 2 0 -3 
1 6 0 -3 1 2 0 -4 1 3 0 -5 1 -4 0 -7 
1 -4 0 -11 1 -12 0 -12 1 -11 0 -13 1 -19 0 -14 
1 -17 0 -15 1 -20 0 -14 1 -16 1 -13 0 -17 1 -12 
0 -10 1 -11 0 -9 1 -9 0 -3 1 -10 0 -2 1 -7 
0 1 1 -8 0 3 1 -4 0 6 1 -2 0 7 1 8 
0 9 1 10 0 10 1 21 0 11 1 20 1 11 0 26 
1 10 0 20 1 9 0 20 1 7 0 11 1 4 0 7 
1 3 0 -2 1 0 0 -5 1 3 0 -12 1 2 0 -12 
1 4 0 -13 1 3 0 -9 1 4 1 -7 0 -1 1 -3 
0 -1 1 5 0 -8 1 10 0 -9 1 12 0 -11 1 10 
0 -8 1 7 0 -4 1 -7 0 1 1 -14 0 4 1 -20 
0 3 1 -19 0 1 1 -12 0 -6 1 -1 1 -11 0 7 
1 -14 0 11 1 -11 4209 1046 300 MP stroke
0 10 1 -4 0 -1 1 5 0 -9 1 9 0 -11 1 8 
0 -7 1 4 0 -1 1 -6 0 6 1 -9 0 7 1 -5 
0 3 1 -1 0 -5 1 2 1 -6 0 4 1 -6 0 2 
1 -2 0 -4 1 1 0 -4 1 5 0 -3 1 -2 1 -2 
0 1 1 -4 1 -3 0 -3 1 -3 0 -4 1 -3 0 -4 
1 -4 1 -4 0 -3 1 -2 0 -3 1 -2 0 -1 1 -2 
0 1 1 -2 0 2 2 4 1 3 0 1 1 1 0 5 
1 0 0 2 1 2 0 -1 1 5 1 0 1 5 0 -1 
1 1 0 4 1 -3 0 8 1 0 0 -4 1 8 0 -3 
1 -1 0 6 1 -8 0 4 1 2 0 -10 1 9 0 -5 
1 -10 0 6 1 -12 0 -5 1 4 1 -16 0 -2 1 1 
0 -16 1 8 0 -2 1 -12 0 10 1 -5 0 -8 1 10 
0 -9 1 -7 0 8 1 -14 0 -3 1 7 0 -17 1 0 
0 5 1 -12 0 7 1 6 0 -11 1 9 1 6 0 -7 
1 14 0 6 1 -8 0 8 1 2 0 -6 1 9 1 -10 
0 1 1 -5 0 -10 1 0 0 -3 1 -11 0 -7 1 -4 
0 -8 1 -2 1 -4 1 -3 0 1 1 -2 0 3 1 5 
1 -1 0 1 1 -2 0 -2 1 4 0 -3 1 -3 0 -2 
1 -3 0 -3 1 1 0 2 1 -2 0 1 1 1 0 -2 
1 -1 0 5 1 0 1 -2 1 -1 0 -3 1 -4 0 1 
1 1 0 -4 1 -4 0 3 1 -3 0 -6 1 0 0 4 
1 -4 0 -9 2 -11 0 -9 1 4 0 -3 1 -14 1 -8 
1 -8 0 -14 1 -1 0 1 1 -9 0 -13 1 1 0 -1 
1 -10 0 -6 1 8 0 1 1 -10 0 -1 1 10 0 -2 
1 -8 0 8 1 13 0 -1 1 -8 0 7 1 12 1 -3 
0 -8 1 10 0 11 1 -4 0 -10 1 5 0 11 1 -4 
0 -11 1 4 0 9 1 -3 0 -11 1 -4 0 6 1 -2 
0 -14 1 -9 0 4 1 -1 0 -9 1 -12 1 -2 0 3 
1 -5 0 -11 1 -1 0 6 1 -1 0 -4 1 -4 0 5 
1 3 0 -2 1 -4 0 2 1 4 0 -1 1 -3 0 -1 
1 3 0 1 1 -1 1 6 0 5 1 0 1 0 1 4 
0 4 1 0 0 -4 1 -4 0 -3 1 0 0 -3 1 -5 
0 -7 1 -7 0 -3 1 4 0 4 1 0 0 -4 1 -2 
0 9 1 13 0 9 1 0 0 -9 1 -11 1 -5 0 2 
1 3 0 -6 1 -17 0 -20 1 -13 0 2 1 8 0 6 
1 -2 0 -10 1 -14 0 -8 1 0 0 4 1 2 0 -5 
1 -9 0 -9 1 -6 0 3 1 9 1 8 0 5 1 1 
0 -1 1 -1 1 -2 4045 1441 300 MP stroke
0 -3 1 -8 0 -13 1 -14 0 -15 1 -15 0 -15 1 -15 
0 -12 1 -10 0 -6 1 -3 0 -2 1 -4 0 -4 1 -5 
0 -6 1 -6 1 -7 0 -10 1 -13 0 -16 1 -16 0 -14 
1 -12 0 -10 1 -8 0 -7 1 -5 1 5 0 12 1 17 
0 21 1 23 0 21 1 21 0 19 1 19 0 14 1 9 
1 4 0 -2 1 -4 0 -7 1 -6 0 -7 1 -8 0 -11 
1 -13 0 -18 1 -25 0 -28 1 -32 0 -32 1 -35 0 -36 
1 -39 0 -42 1 -39 0 -31 1 -17 0 -12 1 -16 0 -18 
1 -15 1 -10 0 -1 1 4 0 6 1 3 0 1 1 3 
0 12 1 21 0 23 1 24 0 26 1 32 0 37 1 38 
0 40 1 47 0 55 1 61 0 59 1 57 0 55 1 55 
1 59 0 63 1 65 0 60 1 51 0 46 1 47 0 51 
1 53 0 47 1 38 0 29 1 22 0 15 1 8 0 2 
1 -5 0 -12 1 -19 0 -23 1 -25 0 -27 1 -27 0 -26 
1 -25 1 -25 0 -24 1 -24 0 -22 1 -22 0 -21 1 -20 
0 -18 1 -18 0 -17 1 -17 0 -16 1 -16 0 -16 1 -16 
0 -17 1 -18 0 -18 1 -18 0 -18 1 -18 0 -17 1 -16 
1 -12 0 -11 1 -8 0 -5 1 -3 0 -1 1 1 1 1 
1 -4 0 -6 1 -10 0 -13 1 -16 0 -18 1 -21 0 -23 
1 -24 0 -25 1 -25 0 -25 1 -24 0 -23 1 -22 1 -20 
0 -19 1 -16 0 -14 1 -11 0 -7 1 -4 1 4 0 8 
1 12 0 16 1 19 0 22 1 23 0 22 1 21 0 17 
1 15 0 9 1 4 0 -3 1 -8 0 -12 1 -16 1 -15 
0 -17 1 -16 0 -16 1 -15 0 -15 1 -14 0 -15 1 -17 
0 -17 1 -22 0 -24 1 -24 0 -25 1 -23 0 -22 1 -19 
0 -15 1 -9 0 -4 1 3 0 10 1 17 1 21 0 25 
1 26 0 27 1 26 0 23 1 20 0 14 1 10 0 5 
1 1 0 -1 1 -4 0 -4 1 -7 0 -7 1 -7 0 -9 
1 -9 0 -11 1 -12 0 -10 1 -8 0 -6 1 -5 1 -3 
1 -1 -1 0 2 3 0 1 1 -2 0 -5 1 -7 0 -10 
1 -10 0 -11 1 -12 0 -14 1 -13 0 -15 1 -12 0 -9 
1 -5 0 -2 1 0 0 2 1 5 1 7 0 10 1 14 
0 16 1 12 0 9 1 4 0 3 1 3 0 5 1 9 
0 11 1 8 0 3 1 0 0 3 1 7 0 16 1 18 
0 12 1 1 0 -9 1 -7 0 5 1 10 1 8 0 1 
1 -13 0 -14 1 -8 1 3 0 -5 1 -19 0 -22 1 -15 
0 -11 1 -8 0 -16 1 -27 0 -28 1 -20 0 -10 1 -7 
0 -14 1 -24 0 -26 3887 2036 300 MP stroke
1 -17 1 -5 0 2 1 0 0 -11 1 -14 0 -5 1 8 
0 17 1 15 0 5 1 -1 0 4 1 9 0 15 1 13 
0 2 1 -3 0 -2 1 1 0 4 1 -1 0 -9 1 -10 
0 -7 1 -5 1 -4 0 -9 1 -8 0 -5 1 -2 0 2 
1 3 0 2 1 1 0 1 1 4 0 7 1 4 1 0 
-1 0 2 5 0 3 1 -1 0 -1 1 2 0 4 1 1 
1 -3 0 -2 1 1 1 -6 0 -5 1 -3 1 -10 0 -10 
1 -5 0 -1 1 -6 0 -11 1 -8 0 -2 1 2 0 -9 
1 -8 1 7 1 -6 0 -2 1 8 1 8 0 -6 1 -3 
0 9 1 11 0 -5 1 -8 0 7 1 12 0 -4 1 -11 
0 7 1 12 0 -4 1 -12 0 5 1 10 0 -7 1 -10 
0 5 1 8 0 -10 1 -8 1 4 0 3 1 -12 0 -6 
1 4 0 -5 1 -16 0 -7 1 -1 0 -15 1 -16 0 -6 
1 -4 0 -20 1 -15 0 -3 1 -7 0 -19 1 -9 0 4 
1 -7 0 -16 1 -3 0 7 1 -8 1 -10 0 6 1 9 
0 -8 1 -5 0 11 1 9 0 -6 1 3 0 15 1 8 
0 -3 1 6 0 13 1 3 0 3 1 9 0 13 1 5 
0 4 1 10 0 13 1 7 0 7 1 16 1 8 0 3 
1 9 0 9 1 2 0 8 1 6 0 -2 1 7 0 4 
1 -3 0 8 1 1 0 -7 1 7 0 -3 1 -12 0 4 
1 -10 0 -18 1 -1 0 -17 1 -22 1 -4 0 -24 1 -26 
0 -9 1 -27 0 -25 1 -12 0 -27 1 -23 0 -12 1 -24 
0 -15 1 -9 0 -15 1 -9 1 -1 0 -1 1 9 0 12 
1 6 0 18 1 21 0 10 1 24 1 20 0 7 1 23 
0 16 1 1 0 19 1 3 0 -2 1 12 0 -7 1 -2 
0 6 1 -12 0 -3 1 2 0 -11 1 2 0 -7 1 -7 
0 2 1 -11 0 -4 1 -1 1 -8 0 -4 1 -9 0 -8 
1 -2 0 -11 1 -7 0 -5 1 -10 0 -5 1 -11 0 -7 
1 -2 0 -7 1 -3 0 -5 1 -6 0 -1 1 -5 0 -3 
1 -1 0 -4 1 -1 0 -4 1 -3 1 2 0 -2 1 -1 
0 2 1 -2 0 4 1 1 1 5 1 6 0 2 1 2 
0 5 1 -1 0 7 1 -2 0 2 1 -3 0 -1 1 -2 
0 -6 1 1 1 -9 0 -1 1 -11 0 -5 1 -2 0 -10 
1 0 0 -13 1 -5 0 -11 1 -7 0 -4 1 -10 0 -1 
1 -13 0 -3 1 -7 0 -5 1 3 0 -7 1 3 1 -8 
-1 0 2 -1 1 7 0 -4 1 7 0 -4 1 4 0 6 
1 -1 0 13 1 -6 0 14 1 -4 0 8 1 4 0 2 
1 12 0 -5 1 17 3726 2436 300 MP stroke
0 -6 1 18 0 -4 1 12 0 4 1 7 1 10 1 11 
0 -4 1 10 0 -7 1 7 0 -6 1 4 0 -9 1 -1 
0 -7 1 -3 0 -7 1 -7 0 -7 1 -7 0 -11 1 -10 
0 -9 1 -11 0 -11 1 -12 0 -10 1 -10 1 -9 0 -10 
1 -5 0 -9 1 -3 0 -9 1 -1 0 -8 1 0 0 -10 
1 -1 0 -9 1 0 0 -9 1 0 0 -5 1 2 0 1 
1 3 0 10 1 7 0 16 1 8 1 23 0 10 1 22 
0 6 1 20 0 5 1 12 0 1 1 3 1 -7 0 -1 
1 -10 1 -14 0 1 1 -13 0 1 1 -15 0 2 1 -13 
0 -3 1 -12 0 -7 1 -10 1 -13 0 -8 1 -13 0 -4 
1 -15 0 -3 1 -13 0 3 1 -12 0 7 1 -7 0 9 
1 -5 0 10 1 -1 0 9 1 3 0 6 1 7 0 -2 
1 10 0 -8 1 13 0 -13 1 12 1 -11 0 7 1 -9 
0 1 1 -2 0 -9 1 7 0 -13 1 11 0 -15 1 12 
0 -10 1 7 0 -2 1 1 0 8 1 -10 0 12 1 -13 
0 10 1 -10 0 5 1 -3 1 -7 0 4 1 -13 0 10 
1 -12 0 10 1 -5 0 2 1 1 0 -6 1 9 0 -11 
1 9 0 -8 1 2 0 -2 1 -7 0 5 1 -10 0 9 
1 -5 0 5 1 1 0 -1 1 7 1 -5 0 10 1 -1 
0 4 1 1 0 -4 1 5 0 -2 1 5 0 -1 1 3 
0 1 1 -1 0 4 1 0 0 6 1 0 0 3 1 2 
1 4 1 5 1 1 0 1 1 4 0 -1 1 2 0 1 
1 -1 0 4 1 -1 0 -2 1 2 0 -3 1 1 0 -2 
1 -5 0 2 1 -5 0 -5 1 0 0 -6 1 -1 0 -3 
1 -9 0 3 1 -5 1 -4 0 3 1 -8 0 2 1 1 
0 -11 1 7 0 -5 1 -7 0 4 1 -12 0 -2 1 -1 
0 -14 1 2 0 -5 1 -13 0 6 1 -10 0 -5 1 5 
0 -13 1 3 1 1 0 -13 1 8 0 -5 1 -9 0 8 
1 -9 0 -1 1 7 0 -10 1 9 0 6 1 -8 0 16 
1 4 0 -1 1 19 0 1 1 5 0 19 1 -4 0 6 
1 16 0 -7 1 5 1 9 0 -11 1 3 0 4 1 -13 
0 1 1 1 0 -14 1 -2 1 -14 0 -3 1 0 0 -14 
1 -3 1 -12 0 -4 1 2 0 -12 1 -4 0 1 1 -9 
1 -4 0 3 1 -9 0 -4 1 4 0 -5 1 -3 0 6 
1 -3 0 -2 1 7 1 -1 0 7 1 1 1 6 1 0 
0 4 1 -1 0 -1 2 -3 1 -3 0 -1 1 -2 0 -3 
2 -2 0 2 1 -1 0 -1 1 4 0 -1 1 -1 0 2 
1 2 0 -2 1 -1 3563 2722 300 MP stroke
0 2 1 -1 0 -2 1 -2 0 2 1 -3 0 -5 1 1 
1 -1 0 -5 1 -2 0 1 1 -3 0 -4 1 2 0 3 
1 -4 0 -4 1 7 0 -1 1 -8 0 1 1 4 0 -5 
1 -9 0 2 1 2 0 -8 1 -11 0 7 1 -1 1 -13 
0 -3 1 6 0 -4 1 -12 1 6 0 -6 1 -12 0 5 
1 4 0 -11 1 -9 0 5 1 -1 0 -13 1 -8 0 6 
1 -5 0 -15 1 -4 0 6 1 -6 0 -12 1 4 1 7 
0 -6 1 -8 0 11 1 8 0 -6 1 0 0 14 1 8 
0 -7 1 2 0 17 1 7 0 -8 1 5 0 17 1 5 
0 -8 1 4 0 16 1 6 0 -9 1 2 1 13 0 4 
1 -9 0 -4 1 11 0 5 1 -8 0 -8 1 6 0 5 
1 -6 0 -11 1 3 0 5 1 -4 0 -12 1 -6 0 6 
1 -1 0 -7 1 -8 0 4 1 2 0 -4 1 -7 1 1 
0 6 1 -1 0 -5 1 -4 0 4 1 1 0 -4 1 -6 
0 -3 1 2 0 -3 1 -5 0 -6 1 1 0 -1 1 -4 
0 -4 1 -2 0 1 1 -2 0 -3 1 -6 1 -2 0 -1 
1 -3 0 -4 1 -5 0 -2 1 -1 0 -2 1 -3 0 -2 
1 2 1 -2 0 -2 1 0 0 2 1 1 1 1 0 4 
1 3 0 2 1 1 0 4 1 7 1 3 0 1 1 2 
0 3 1 6 0 3 1 1 0 1 1 2 0 4 1 6 
0 3 1 -1 0 -1 1 -2 0 6 1 3 0 -1 1 -6 
0 -9 1 -4 0 3 1 0 1 -5 0 -10 1 -12 0 -2 
1 3 0 1 1 -6 0 -11 1 -11 0 1 1 6 0 1 
1 -4 0 -11 1 -8 0 3 1 8 0 4 1 -5 0 -13 
1 -9 0 2 1 8 0 1 1 -8 1 -14 0 -12 1 -2 
0 6 1 1 0 -8 1 -15 0 -14 1 0 0 6 1 3 
0 -4 1 -11 0 -9 1 2 0 11 1 7 1 -8 0 -8 
1 5 0 12 1 10 1 3 0 -8 1 -8 0 2 1 13 
0 14 1 5 0 -7 1 -11 0 -3 1 8 0 14 1 10 
0 -2 1 -10 0 -9 1 2 0 12 1 13 0 6 1 -7 
0 -12 1 -10 0 4 1 10 1 10 0 3 1 -9 0 -12 
1 -8 0 3 1 10 0 10 1 3 0 -6 1 -11 0 -11 
1 1 0 7 1 10 0 4 1 -2 0 -7 1 -11 0 -3 
1 6 0 10 1 6 1 -4 1 -10 0 -8 1 -3 0 6 
1 6 0 2 1 -1 0 -3 1 -5 0 -6 1 0 0 5 
1 5 0 2 1 -2 0 -4 1 -6 0 -8 1 -6 0 1 
1 1 1 -1 1 -3 0 -3 1 -6 0 -3 1 -1 0 3 
1 1 0 -1 1 -2 3404 2976 300 MP stroke
0 -4 1 -5 0 -6 1 -4 0 -2 1 1 1 -1 1 -2 
0 -1 1 -4 1 1 0 3 1 2 1 -1 1 -3 0 -2 
1 -4 1 1 0 3 1 1 0 -1 1 1 1 2 0 2 
1 5 0 3 1 4 0 2 1 0 1 1 1 0 1 2 
1 4 0 1 1 1 0 1 2 2 0 3 1 2 0 5 
1 2 1 4 -1 0 2 -3 0 -4 1 -4 0 -6 1 -6 
0 -7 1 -5 0 -5 1 2 1 0 0 2 1 0 1 0 
0 -2 1 -1 0 -3 1 -2 0 -2 1 4 0 2 1 6 
0 3 1 2 0 -1 1 -2 0 -5 1 -7 0 -10 1 -11 
0 -9 1 -7 1 -2 1 6 0 4 1 4 0 2 1 1 
0 -1 1 -5 0 -5 1 -8 0 -6 1 -7 0 -2 1 1 
0 6 1 7 0 7 1 6 0 3 1 -1 0 -4 1 -7 
0 -9 1 -12 1 -13 0 -9 1 -8 0 -2 1 2 0 9 
1 10 0 12 1 11 0 10 1 7 0 4 1 2 0 -3 
1 -3 0 -7 1 -4 0 -4 1 0 0 2 1 6 0 8 
1 11 1 10 0 11 1 9 0 7 1 4 1 -2 0 -8 
1 -12 0 -14 1 -18 0 -19 1 -20 0 -19 1 -18 0 -18 
1 -13 0 -10 1 -4 0 -2 1 4 0 6 1 11 0 10 
1 10 1 11 0 7 1 4 0 -1 1 -4 0 -8 1 -9 
0 -12 1 -11 0 -10 1 -9 0 -6 1 -1 0 2 1 7 
0 8 1 10 0 7 1 6 0 2 1 -2 0 -4 1 -7 
1 -8 0 -11 1 -8 0 -8 1 -1 0 2 1 11 0 14 
1 19 0 20 1 20 0 19 1 17 0 15 1 12 0 8 
1 6 0 4 1 1 0 3 1 4 0 6 1 7 0 10 
1 10 1 11 0 9 1 10 0 8 1 9 0 6 1 4 
1 2 -1 0 2 -3 0 -3 1 -4 0 -3 1 -5 0 -5 
1 -4 0 -4 1 -4 0 -3 1 -4 0 -2 1 -3 0 -2 
1 -3 1 -3 0 -3 1 -4 0 -4 1 -5 0 -6 1 -7 
0 -8 1 -8 0 -9 1 -10 0 -11 1 -11 0 -11 1 -13 
0 -13 1 -13 0 -14 1 -14 0 -14 1 -14 0 -14 1 -14 
1 -13 0 -12 1 -9 0 -7 1 -7 0 -3 1 -2 0 4 
1 3 0 8 1 8 0 10 1 10 0 10 1 11 0 8 
1 8 0 5 1 4 0 1 1 -1 0 -3 1 -4 0 -6 
1 -6 1 -5 0 -5 1 -2 1 2 0 6 1 7 0 12 
1 13 0 16 1 16 0 17 1 15 0 15 1 14 0 12 
1 11 0 8 1 6 0 5 1 4 0 2 1 3 1 2 
0 1 1 1 0 1 2 2 1 0 1 0 0 -1 2 -2 
0 -1 1 -1 0 -1 3237 2988 300 MP stroke
1 -1 0 1 1 1 0 -1 1 2 0 2 1 3 1 4 
0 5 1 6 0 5 1 5 0 5 1 6 0 2 1 2 
0 -1 1 -4 0 -6 1 -9 0 -11 1 -13 0 -14 1 -17 
0 -16 1 -17 0 -18 1 -17 0 -17 1 -17 1 -15 0 -15 
1 -14 0 -14 1 -12 0 -12 1 -9 0 -8 1 -7 0 -5 
1 -4 0 -3 1 -1 0 1 1 2 0 5 1 6 0 8 
1 8 0 11 1 12 0 13 1 13 0 13 1 13 1 12 
0 12 1 9 0 10 1 7 0 6 1 4 0 3 1 2 
1 0 0 -2 1 -2 0 -3 1 -2 0 -3 1 -2 0 -3 
1 -2 0 -2 1 -1 0 -2 1 0 1 -1 0 -1 1 -1 
0 -1 1 -1 1 0 1 -1 1 0 1 2 0 1 1 1 
0 2 1 2 0 2 1 2 0 3 1 3 0 4 1 4 
0 4 1 5 1 5 0 6 1 5 0 5 1 4 1 1 
0 -6 1 -6 0 -12 1 -15 0 -19 1 -22 0 -25 1 -26 
0 -26 1 -28 0 -26 1 -26 0 -23 1 -22 0 -17 1 -15 
0 -11 1 -8 1 -4 0 1 1 5 0 8 1 11 0 16 
1 17 0 19 1 20 0 21 1 21 0 21 1 20 0 21 
1 20 0 18 1 20 0 19 1 19 0 19 1 18 0 16 
1 15 1 12 0 8 1 6 0 1 1 -1 0 -8 1 -10 
0 -13 1 -16 0 -17 1 -18 0 -18 1 -17 0 -17 1 -16 
0 -13 1 -14 0 -11 1 -10 0 -9 1 -9 0 -7 1 -8 
0 -6 1 -6 1 -5 0 -5 1 -5 0 -4 1 -5 0 -4 
1 -5 0 -4 1 -4 0 -4 1 -4 0 -4 1 -4 0 -5 
1 -4 0 -6 1 -5 0 -7 1 -8 0 -8 1 -7 0 -6 
1 -4 1 -2 0 2 1 7 0 10 1 18 0 21 1 27 
0 28 1 32 0 33 1 32 0 32 1 30 0 27 1 23 
0 21 1 15 0 15 1 11 0 10 1 7 0 7 1 5 
0 4 1 4 1 4 0 3 1 2 0 2 1 2 0 1 
1 2 1 1 1 0 1 -1 1 -1 1 -1 0 -2 1 -1 
0 -1 1 -1 0 -2 1 -3 1 -2 0 -3 1 -3 0 -3 
1 -3 0 -3 1 -4 0 -3 1 -3 0 -3 1 -3 0 -2 
1 -2 1 -7 0 -5 1 -5 0 -3 1 -2 0 -1 1 -1 
1 -1 0 -2 1 12 1 11 0 9 1 7 0 6 1 2 
0 1 1 -1 0 -2 1 -3 0 -11 1 -11 0 -11 1 -11 
0 -11 1 -9 0 -9 1 -8 0 -8 1 -6 0 -5 1 -4 
0 -3 1 -2 1 0 -1 0 2 4 0 3 1 4 0 5 
1 3 0 4 1 4 0 3 1 1 0 -1 1 -2 0 -4 
1 -6 0 -6 1 -6 3074 3044 300 MP stroke
0 -8 1 -9 0 -8 1 -9 0 -8 1 -6 0 -6 1 -4 
1 -5 0 -4 1 -3 0 -3 1 -3 0 -3 1 -2 0 -4 
1 -4 0 -4 1 -4 0 -4 1 -4 0 -4 1 -4 0 -5 
1 -3 0 -3 1 -3 0 -2 1 -1 1 -1 1 0 0 3 
1 2 0 4 1 4 0 5 1 5 0 6 1 5 0 6 
1 5 0 4 1 4 0 2 1 2 0 1 1 1 0 -1 
2 -3 0 -3 1 -3 0 -4 1 -4 1 -4 0 -4 1 -3 
0 -3 1 -1 0 1 1 3 0 6 1 7 0 11 1 12 
0 16 1 14 0 18 1 16 0 17 1 14 0 13 1 12 
0 9 1 7 0 5 1 3 1 -1 1 -3 0 -4 1 -5 
0 -6 1 -8 0 -8 1 -9 0 -9 1 -10 0 -11 1 -13 
0 -13 1 -15 0 -16 1 -15 0 -17 1 -14 0 -13 1 -12 
0 -7 1 -5 0 2 1 5 1 11 0 13 1 19 0 17 
1 19 0 19 1 17 0 16 1 11 0 8 1 5 0 2 
1 -1 0 -2 1 -2 0 -2 1 -1 1 3 0 6 1 6 
0 10 1 10 0 12 1 12 1 11 0 10 1 9 0 7 
1 4 1 4 -1 0 2 -3 0 -4 1 -6 0 -6 1 -7 
0 -8 1 -10 0 -11 1 -11 0 -14 1 -13 0 -15 1 -16 
0 -15 1 -14 1 -13 0 -11 1 -8 0 -5 1 -1 0 1 
1 6 0 8 1 10 0 11 1 12 0 11 1 9 0 7 
1 4 0 1 1 -3 0 -6 1 -8 0 -10 1 -11 0 -11 
1 -10 0 -7 1 -6 1 0 -1 0 2 6 0 7 1 10 
0 9 1 9 0 7 1 3 1 -3 0 -5 1 -9 0 -8 
1 -9 0 -6 1 -4 0 2 1 5 0 11 1 12 0 16 
1 15 1 14 0 11 1 8 0 3 1 -1 0 -4 1 -8 
0 -9 1 -10 0 -7 1 -6 1 1 0 6 1 6 0 6 
1 4 0 1 1 -1 0 -4 1 -6 0 -8 1 -7 0 -8 
1 -5 1 -2 0 5 1 7 0 10 1 10 0 8 1 7 
0 4 1 2 1 -2 0 -3 1 -3 0 -4 1 1 0 2 
1 4 0 3 1 2 0 1 1 1 0 -1 1 -1 1 0 
0 -2 1 1 0 3 1 7 0 6 1 7 0 4 1 4 
0 4 1 2 0 2 1 -1 1 0 0 3 1 3 0 5 
1 3 0 2 1 2 1 1 0 -1 1 -1 1 -2 0 2 
1 2 0 4 1 3 0 2 1 2 0 -1 2 -3 0 -4 
1 -3 0 -3 2 -2 1 -1 0 -1 1 -2 1 -4 1 -1 
0 -3 2 -2 0 1 1 -1 1 -3 1 -4 0 -1 1 -5 
1 0 1 1 0 2 1 2 0 -1 1 1 0 -1 1 3 
0 1 1 1 1 1 2906 2973 300 MP stroke
1 -1 0 -4 1 -3 0 -5 1 -1 0 -1 1 1 0 1 
1 -1 0 -1 1 -4 0 -1 1 1 0 6 1 7 0 4 
1 2 1 -3 0 -5 1 2 0 5 1 8 1 5 0 1 
1 1 0 -4 1 -3 1 9 0 10 1 7 0 3 1 -2 
0 -5 1 -7 1 5 0 9 1 5 1 -5 0 -10 1 -6 
0 1 1 10 1 9 0 5 1 -2 0 -10 1 -9 0 -4 
1 9 0 11 1 8 1 -9 0 -9 1 -5 0 8 1 14 
0 11 1 3 0 -8 1 -10 0 -6 1 9 0 13 1 11 
0 1 1 -11 1 -11 0 -5 1 8 0 14 1 9 0 -2 
1 -11 0 -11 1 -2 0 13 1 16 0 8 1 -2 0 -11 
1 -6 0 5 1 14 0 14 1 3 0 -9 1 -13 0 -5 
1 5 1 12 0 7 1 -7 0 -13 1 -12 0 2 1 10 
0 7 1 -1 0 -10 1 -12 0 -4 1 11 0 9 1 1 
0 -8 1 -10 0 -2 1 8 0 7 1 2 0 -6 1 -10 
0 -3 1 8 1 6 1 -5 0 -7 1 1 0 7 1 4 
1 -3 0 -3 1 5 0 6 1 4 0 1 1 -3 0 2 
1 8 0 5 1 3 1 -1 0 6 1 5 1 4 0 2 
1 -1 0 3 1 6 0 4 1 2 1 1 0 6 1 4 
0 4 1 0 0 -2 1 2 0 4 1 2 1 -5 0 -4 
1 1 1 -2 0 -3 1 -6 1 -1 1 -1 0 -1 1 -3 
0 -4 1 -2 1 -1 0 -3 1 -5 0 -3 1 -1 0 -1 
1 -3 0 -5 1 -4 0 -1 1 -1 0 -4 1 -5 0 -3 
1 -1 1 -2 0 -7 1 -4 1 -1 0 -6 1 -8 0 1 
1 3 0 -2 1 -10 0 1 1 9 0 1 1 -7 0 1 
1 14 0 8 1 -6 0 -2 1 17 0 14 1 -2 0 -2 
1 15 1 16 1 -5 0 14 1 19 0 3 1 -5 0 10 
1 18 0 5 1 -5 0 7 1 18 0 8 1 -7 0 1 
1 17 0 10 1 -6 0 -2 1 14 0 9 1 -7 0 -8 
1 11 1 10 0 -6 1 -11 0 5 1 10 0 -7 1 -14 
0 3 1 11 0 -6 1 -15 0 -1 1 10 0 -6 1 -16 
0 1 1 11 0 -6 1 -15 1 11 0 -6 1 -14 1 4 
0 11 1 -7 0 -10 1 6 0 8 1 -7 0 -9 1 11 
0 6 1 -8 0 -2 1 11 0 2 1 -6 0 3 1 12 
0 1 1 -8 0 8 1 6 0 -5 1 -3 0 7 1 2 
1 -7 0 -2 1 6 0 -1 1 -8 0 6 1 4 0 -3 
1 -1 0 4 1 1 0 -3 1 0 0 3 1 -1 0 -6 
1 2 1 -5 0 -1 1 1 0 -2 1 -3 1 -2 0 1 
1 -1 0 -4 1 1 2741 2775 300 MP stroke
0 1 1 -5 1 2 0 -2 1 1 0 2 1 -1 0 1 
1 3 0 1 1 2 0 4 1 3 0 2 1 4 0 3 
1 3 0 5 1 3 1 2 0 3 1 4 0 2 1 0 
0 3 1 0 0 -2 1 4 0 1 1 -3 0 5 1 1 
0 -5 1 7 0 2 1 -4 0 8 1 3 0 -7 1 8 
0 3 1 -6 1 7 0 3 1 -9 0 5 1 3 0 -9 
1 6 0 3 1 -10 0 4 1 5 0 -10 1 6 0 6 
1 -12 0 6 1 5 0 -12 1 9 0 4 1 -14 0 9 
1 1 0 -13 1 11 1 -3 0 -12 1 11 0 -7 1 -9 
0 13 1 -9 0 -3 1 11 0 -9 1 4 0 9 1 -8 
0 12 1 5 0 -6 1 13 1 -1 0 13 1 -5 0 6 
1 8 1 -6 0 10 1 4 0 -5 1 13 0 -1 1 -1 
0 10 1 -5 0 6 1 5 0 -6 1 11 1 -2 0 8 
1 -4 0 4 1 5 0 -6 1 8 1 -5 0 5 1 -4 
1 2 0 1 1 -6 0 4 1 -2 0 -3 1 2 0 -3 
1 2 1 -4 0 2 1 -1 0 -1 1 2 1 -3 -1 0 
2 -3 0 1 1 -1 0 -2 1 -1 1 -4 0 -1 1 -2 
0 -3 1 -1 0 -4 1 -1 0 -2 1 -3 1 -4 0 1 
1 -2 0 -1 1 1 0 -3 1 3 0 -3 1 4 1 -1 
0 2 1 -6 0 4 1 -6 1 7 1 -1 0 4 1 -4 
0 11 1 -4 0 13 1 0 0 4 1 5 0 -4 1 11 
0 -10 1 11 0 -8 1 5 0 -1 1 -2 0 8 1 -8 
0 14 1 -9 0 16 1 -6 1 11 1 0 0 7 1 -6 
0 13 1 -11 0 14 1 -11 0 9 1 -8 0 6 1 -2 
0 1 1 5 0 -2 1 12 0 -6 1 17 0 -1 1 18 
0 -1 1 20 1 2 0 13 1 5 0 7 1 7 0 -2 
1 8 0 -6 1 10 0 -11 1 10 0 -10 1 7 0 -10 
1 7 0 -6 1 1 0 -3 1 -3 0 1 1 -7 0 4 
1 -5 0 7 1 -7 1 11 0 -4 1 11 0 -4 1 10 
0 -2 1 6 0 -5 1 -2 0 -5 1 -13 0 -9 1 -18 
0 -9 1 -24 0 -10 1 -24 0 -6 1 -22 0 -4 1 -11 
0 2 1 -4 1 5 0 8 1 10 0 15 1 12 0 21 
1 15 0 20 1 11 0 20 1 11 0 13 1 6 0 8 
1 2 0 2 1 -3 0 -1 1 -6 0 -3 1 -11 0 -3 
1 -12 0 -3 1 -14 1 -1 0 -9 1 0 0 -6 1 -2 
0 1 1 -3 0 8 1 -7 0 15 1 -6 0 17 1 -6 
0 18 1 -1 0 15 1 5 0 8 1 15 0 2 1 17 
0 -5 1 17 1 -8 2580 2452 300 MP stroke
0 14 1 -9 0 9 1 -6 0 2 1 -1 0 -7 1 8 
0 -10 1 12 0 -12 1 15 0 -10 1 11 0 -5 1 4 
0 6 1 -5 0 9 1 -12 0 11 1 -14 0 9 1 -12 
1 -1 0 -2 1 -9 0 5 1 -12 0 9 1 -11 0 4 
1 -6 0 -2 1 6 0 -8 1 5 0 -9 1 1 0 -4 
1 0 0 2 1 -3 0 4 1 -5 0 3 1 1 1 2 
0 2 1 -1 0 2 1 -3 0 2 1 -1 1 2 0 -3 
1 3 0 1 1 2 0 5 1 2 0 6 1 5 0 5 
1 6 0 8 1 7 0 8 1 6 0 6 1 6 1 6 
0 6 1 2 0 4 1 1 1 3 0 -2 1 1 0 3 
1 -5 0 2 1 1 0 -3 1 7 0 -6 1 0 0 7 
1 -9 0 4 1 2 0 -8 1 8 1 -5 0 -7 1 9 
0 -12 1 -4 0 9 1 -12 0 1 1 5 0 -13 1 8 
0 7 1 -7 0 16 1 8 0 -3 1 22 0 11 1 5 
0 27 1 8 0 8 1 25 0 7 1 8 1 23 0 -5 
1 4 0 15 1 -11 1 5 0 -18 1 -5 0 -1 1 -20 
0 -4 1 -5 0 -19 1 -5 0 -2 1 -14 1 -1 0 -7 
1 3 0 6 1 0 0 8 1 11 1 3 0 8 1 11 
0 8 1 6 0 7 1 1 1 3 0 -2 1 -1 0 1 
1 -3 0 -4 1 1 1 0 0 3 1 2 0 -2 1 3 
0 2 1 1 1 2 0 4 1 2 0 1 1 4 0 4 
1 4 0 4 1 5 0 4 1 2 0 5 1 5 0 5 
1 3 0 5 1 3 0 2 1 3 0 4 1 2 0 1 
1 1 0 -3 1 -5 1 -1 1 -5 0 -4 1 0 0 -5 
1 -9 0 -2 1 3 0 -6 1 -7 1 1 0 -13 1 -9 
0 3 1 -3 0 -17 1 -9 0 4 1 -6 0 -18 1 -6 
1 9 0 -1 1 -12 0 1 1 17 0 7 1 -3 0 8 
1 22 0 18 1 3 0 11 1 26 0 21 1 4 0 10 
1 26 0 20 1 4 0 8 1 23 0 15 1 -3 0 4 
1 16 1 6 0 -11 1 -2 0 8 1 -7 0 -19 1 -7 
0 1 1 -15 0 -23 1 -11 0 -3 1 -19 0 -26 1 -15 
0 -5 1 -17 0 -23 1 -14 0 -10 1 -17 0 -21 1 -10 
1 -7 0 -9 1 -20 0 -14 1 -3 1 0 0 -2 1 -3 
0 1 1 9 0 14 1 19 0 13 1 8 0 11 1 18 
0 26 1 26 0 19 1 13 0 16 1 20 0 25 1 24 
1 14 0 10 1 11 0 14 1 15 0 9 1 -2 0 -2 
1 1 0 4 1 5 0 -4 1 -13 0 -11 1 -4 0 5 
1 5 0 -3 1 -11 2420 2049 300 MP stroke
0 -11 1 -3 0 10 1 15 1 10 0 -2 1 -9 0 -5 
1 2 0 12 1 12 0 4 1 -7 0 -11 1 -9 0 -4 
1 2 0 3 1 1 0 -3 1 -7 0 -4 1 2 0 6 
1 7 0 8 1 7 0 5 1 5 1 6 0 9 1 9 
0 9 1 10 0 9 1 8 0 8 1 7 0 6 1 5 
0 6 1 7 0 8 1 9 0 8 1 10 0 9 1 9 
0 9 1 6 0 5 1 2 1 1 1 -1 0 -2 1 -1 
0 -3 1 -4 0 -3 1 -6 0 -9 1 -13 0 -15 1 -16 
0 -16 1 -15 0 -13 1 -10 0 -5 1 1 0 7 1 14 
0 19 1 23 0 25 1 25 1 26 0 24 1 23 0 21 
1 19 0 20 1 21 0 21 1 21 0 20 1 20 0 25 
1 31 0 35 1 32 0 24 1 16 0 15 1 19 0 18 
1 14 0 4 1 -5 0 -13 1 -15 1 -15 0 -18 1 -31 
0 -43 1 -44 0 -45 1 -47 0 -57 1 -66 0 -71 1 -71 
0 -72 1 -69 0 -71 1 -77 0 -79 1 -77 0 -65 1 -55 
0 -47 1 -40 0 -33 1 -24 1 -12 0 -1 1 6 0 13 
1 15 0 19 1 21 0 22 1 22 0 22 1 22 0 21 
1 20 0 20 1 19 0 19 1 18 0 18 1 17 0 17 
1 17 0 15 1 16 0 15 1 14 1 14 0 14 1 13 
0 13 1 13 0 11 1 12 0 11 1 11 0 10 1 10 
0 9 1 9 0 8 1 9 0 8 1 7 0 7 1 7 
0 7 1 7 0 7 1 7 1 8 0 7 1 8 0 8 
1 7 0 8 1 6 0 7 1 5 0 6 1 3 0 2 
1 0 0 -3 1 -6 0 -9 1 -10 0 -14 1 -15 0 -16 
1 -15 0 -15 1 -11 0 -7 1 -2 1 3 0 8 1 13 
0 16 1 19 0 22 1 21 0 20 1 17 0 14 1 9 
0 6 1 3 1 -2 0 -5 1 -4 0 -2 1 0 0 3 
1 7 0 8 1 10 1 11 0 11 1 9 0 5 1 1 
0 -3 1 -5 0 -7 1 -7 0 -6 1 -6 0 -1 1 5 
0 11 1 15 0 19 1 19 0 17 1 15 0 10 1 8 
0 3 1 0 0 -3 1 -6 1 -5 0 -4 1 -3 0 -3 
1 -4 0 -4 1 -5 0 -5 1 -6 0 -7 1 -8 0 -10 
1 -10 0 -8 1 -4 1 3 0 4 1 5 0 4 1 2 
1 0 1 3 0 6 1 7 0 6 1 5 0 4 1 2 
0 6 1 12 0 17 1 16 0 13 1 10 0 7 1 3 
0 3 1 7 0 10 1 10 0 6 1 4 0 2 1 -1 
0 1 1 5 1 11 0 12 1 8 0 5 1 1 0 -4 
1 -8 0 -5 1 0 2262 1649 300 MP stroke
0 2 1 -2 0 -7 1 -13 0 -18 1 -14 0 -4 1 6 
0 8 1 0 0 -9 1 -13 0 -11 1 1 0 8 1 7 
1 -3 0 -13 1 -15 0 -7 1 3 0 5 1 0 0 -6 
1 -8 0 -2 1 7 0 11 1 8 0 4 1 3 0 11 
1 18 0 13 1 10 0 7 1 6 0 11 1 14 1 9 
0 3 1 -2 0 -1 1 7 0 4 1 1 0 -3 1 -6 
0 -5 1 1 0 1 1 -1 0 -3 1 -4 0 1 1 2 
0 3 1 2 1 -1 0 2 1 2 0 1 1 -1 1 -3 
0 1 1 2 1 1 1 2 0 3 1 1 0 -1 1 4 
0 4 1 4 0 2 1 1 0 5 1 4 0 2 1 -1 
0 4 1 5 0 2 1 -3 1 -4 0 3 1 4 0 -3 
1 -8 0 -1 1 4 0 -2 1 -11 0 -8 1 5 1 -13 
0 -10 1 7 0 4 1 -12 0 -8 1 8 0 7 1 -8 
0 -6 1 13 0 10 1 -6 1 -2 0 16 1 8 0 -2 
1 6 0 20 1 10 0 -2 1 11 0 19 1 6 1 16 
0 18 1 2 0 -2 1 15 0 13 1 -2 0 -1 1 17 
0 9 1 -8 1 -1 0 13 1 2 0 -10 1 2 0 13 
1 1 0 -12 1 1 0 8 1 -5 0 -10 1 6 0 5 
1 -11 0 -12 1 0 0 -3 1 -12 0 -8 1 0 0 -6 
1 -14 0 -9 1 -4 1 -7 0 -12 1 -6 0 -4 1 -13 
0 -14 1 -4 0 -7 1 -12 0 -2 1 -4 0 -9 1 1 
0 -1 1 -2 0 11 1 4 1 15 0 8 1 5 0 21 
1 11 1 5 0 21 1 11 0 9 1 22 0 13 1 7 
0 19 1 10 0 4 1 16 0 7 1 -3 0 6 1 2 
0 -8 1 2 0 -2 1 -14 0 -3 1 -3 0 -14 1 2 
1 -14 1 5 0 3 1 -8 0 13 1 7 0 -5 1 16 
0 4 1 -2 0 18 1 2 0 -4 1 15 0 -6 1 -3 
0 11 1 -12 0 -2 1 5 0 -14 1 3 0 1 1 -12 
1 6 0 -2 1 -7 0 11 1 -4 0 -1 1 9 0 -6 
1 7 0 4 1 -4 0 9 1 0 1 7 0 -1 1 5 
0 5 1 -3 0 8 1 2 0 -1 1 6 0 -2 1 3 
1 2 0 -4 1 2 0 -1 1 -3 0 1 1 -3 1 -1 
0 -5 1 2 0 -1 1 -1 0 2 1 -2 0 2 1 2 
0 -1 1 3 0 -2 1 3 1 0 0 2 1 -2 1 2 
0 -2 1 2 1 2 0 2 1 -3 0 5 1 -2 0 6 
1 2 1 5 0 -5 1 8 0 -3 1 7 0 2 1 2 
0 6 1 -4 0 12 1 -5 1 12 0 1 1 1 0 7 
1 -6 0 11 1 -6 2100 1300 300 MP stroke
0 11 1 -4 0 8 1 2 0 -3 1 11 0 -7 1 14 
0 -8 1 10 0 -5 1 4 0 4 1 -7 0 11 1 -10 
0 13 1 -9 1 10 0 -4 1 5 0 3 1 -5 0 11 
1 -9 0 13 1 -11 0 9 1 -8 0 5 1 -4 0 -3 
1 3 0 -9 1 8 0 -13 1 9 0 -12 1 10 0 -10 
1 5 1 -6 0 1 1 -1 0 -5 1 2 0 -8 1 5 
0 -9 1 3 0 -8 1 5 0 -8 1 0 0 -4 1 1 
0 -3 1 -2 0 -2 2 -3 0 2 1 1 0 2 1 -2 
1 4 0 1 1 3 0 -1 1 3 0 2 1 3 0 -2 
1 4 0 1 1 4 0 -2 1 4 0 3 1 3 0 -1 
1 4 0 3 1 2 1 2 0 3 1 0 1 1 1 5 
0 -1 1 4 0 -1 1 9 0 -3 1 8 1 9 0 -2 
1 8 0 2 1 7 0 2 1 4 0 7 1 2 0 7 
1 0 0 11 1 -6 0 10 1 -7 1 8 0 -10 1 7 
0 -9 1 2 0 -7 1 -2 0 1 1 -7 0 7 1 -9 
0 13 1 -12 0 14 1 -6 0 10 1 -1 0 2 1 9 
0 -6 1 12 0 -8 1 15 1 -9 0 10 1 -2 0 1 
1 5 0 -6 1 13 0 -9 1 12 0 -6 1 7 1 0 
0 11 1 -6 0 12 1 -8 0 7 1 -5 0 1 1 6 
0 -5 1 10 0 -9 1 7 1 -3 0 2 1 7 0 -1 
1 8 0 -6 1 4 0 -5 1 0 0 3 1 -4 0 3 
1 -7 0 1 1 -3 0 -1 1 3 0 -2 1 2 0 -4 
1 2 1 -1 1 1 0 -2 1 2 0 -2 1 2 0 1 
1 -1 0 3 1 -1 0 2 1 2 0 -1 1 3 1 2 
0 2 1 0 0 3 1 1 0 2 1 3 0 1 1 2 
0 4 1 0 1 4 1 2 0 4 1 -4 0 3 1 1 
1 4 0 -2 1 2 0 5 1 -5 0 3 1 3 0 -2 
1 8 0 -5 1 1 0 4 1 -9 0 3 1 1 0 -7 
1 7 1 -8 0 -5 1 8 0 -13 1 1 0 9 1 -10 
0 8 1 3 0 -10 1 13 0 1 1 -4 0 17 1 -4 
0 -2 1 14 0 -8 1 2 0 14 1 -8 0 5 1 9 
1 -9 0 9 1 8 0 -6 1 13 0 5 1 -6 0 14 
1 3 0 -4 1 15 1 -6 0 14 1 -4 0 -4 1 13 
0 -7 1 -4 0 11 1 -10 0 -4 1 12 0 -10 1 -4 
1 8 0 -12 1 -2 0 8 1 -10 0 -3 1 6 0 -11 
1 -2 0 6 1 -7 0 -2 1 4 0 -7 1 -1 0 5 
1 -4 1 4 0 -2 1 0 0 3 1 -1 1 0 0 3 
1 -2 1 1 1 -1 1937 1022 300 MP stroke
-1 0 2 4 0 1 1 1 0 3 1 4 0 1 1 4 
0 3 1 1 0 3 1 2 0 -1 1 4 0 3 1 -1 
0 4 1 4 1 2 0 4 1 4 0 4 1 6 0 3 
1 4 0 5 1 0 0 3 1 3 0 -2 1 2 1 1 
1 -2 -1 0 2 -1 0 -2 1 1 0 2 1 -6 1 0 
-1 0 2 -5 0 -3 1 0 1 -7 0 -3 1 3 0 -2 
1 -9 0 1 1 7 0 -7 1 -4 0 6 1 6 0 -6 
1 -2 0 11 1 8 0 -7 1 3 0 14 1 1 1 -5 
0 5 1 13 0 -2 1 -8 0 7 1 12 0 -7 1 -7 
0 8 1 7 0 -8 1 -8 0 11 1 8 0 -11 1 -6 
0 11 1 4 0 -11 1 -5 0 11 1 5 1 -12 0 -6 
1 11 0 4 1 -11 0 -6 1 12 0 8 1 -10 0 -6 
1 9 0 8 1 -6 0 -6 1 9 0 12 1 -5 0 -9 
1 4 0 12 1 -1 0 -9 1 1 0 9 1 1 1 -10 
0 -2 1 7 0 6 1 -10 0 -5 1 2 0 4 1 -3 
0 -8 1 -1 0 2 1 -2 0 -6 1 -1 0 2 1 4 
0 -1 1 -1 0 3 1 4 0 5 1 2 0 3 1 4 
1 5 0 4 1 2 0 5 1 4 0 5 1 4 0 2 
1 4 0 4 1 4 0 4 1 3 0 3 1 5 0 4 
1 4 0 3 1 4 0 3 1 3 0 3 1 3 1 2 
0 1 1 1 1 0 1 0 1 -2 0 -1 2 -3 0 -4 
1 -1 0 -1 1 -2 0 -4 1 -6 0 -3 1 -2 0 -2 
1 -3 0 -6 1 -3 1 -2 1 0 0 -3 1 -5 0 -2 
1 1 0 2 1 2 0 -5 1 -4 0 1 1 3 0 7 
1 -1 0 -6 1 -2 0 2 1 6 0 8 1 0 0 -8 
1 -3 1 3 0 10 1 9 0 -2 1 -7 0 -2 1 5 
0 11 1 10 0 1 1 -7 0 -3 1 5 0 12 1 12 
1 -8 0 -3 1 4 0 11 1 13 0 4 1 -8 0 -6 
1 2 1 11 0 12 1 1 0 -7 1 -10 0 -3 1 7 
0 11 1 6 0 -9 1 -12 0 -7 1 4 0 10 1 7 
0 -3 1 -13 0 -11 1 -2 0 10 1 12 0 2 1 -7 
1 -12 0 -8 1 4 0 11 1 10 0 -2 1 -11 0 -13 
1 -7 0 3 1 9 0 9 1 -4 0 -9 1 -12 0 -6 
1 2 0 8 1 11 0 2 1 -4 0 -9 1 -3 0 2 
1 8 1 12 0 9 1 3 0 -5 1 -4 0 -1 1 3 
0 8 1 8 0 8 1 -3 0 -4 1 -5 1 4 0 6 
1 10 0 5 1 0 0 -6 1 -2 0 -1 1 2 1 6 
0 5 1 5 0 -3 1776 760 300 MP stroke
1 -4 0 -3 1 -1 0 2 1 5 0 6 1 3 0 2 
1 -5 0 -3 1 -2 0 -1 1 1 0 1 1 3 0 -3 
1 -3 0 -5 1 -2 1 1 1 2 0 1 1 4 0 -1 
1 -1 0 -2 1 -1 1 1 1 0 -1 0 2 -2 1 -1 
0 1 1 2 0 2 1 1 0 2 1 2 0 -2 1 2 
1 -2 0 -1 1 -1 1 0 1 -2 0 -3 1 -1 0 -5 
1 1 1 2 0 1 1 3 0 2 1 2 0 3 1 2 
0 3 1 -2 1 -1 1 1 1 1 0 2 1 2 0 2 
1 1 0 4 1 -1 1 -1 0 1 1 1 0 2 1 2 
0 3 1 4 0 3 1 4 0 -1 1 -1 0 -6 1 -3 
0 -5 1 -2 1 1 1 3 0 4 1 6 0 5 1 6 
1 0 0 -4 1 -2 1 0 0 2 1 4 0 5 1 6 
0 8 1 7 0 5 1 0 0 -5 1 -7 0 -6 1 -7 
1 -3 0 -3 1 0 0 2 1 2 0 6 1 7 1 6 
-1 0 2 -7 0 -8 1 -8 0 -6 1 -4 0 -1 1 1 
0 4 1 7 0 8 1 8 0 8 1 4 1 -4 1 -9 
0 -10 1 -12 0 -9 1 -9 0 -5 1 -2 0 3 1 6 
0 9 1 11 0 10 1 11 0 7 1 7 1 -2 0 -6 
1 -8 0 -8 1 -7 0 -5 1 -3 1 2 0 5 1 9 
0 11 1 13 0 14 1 12 0 10 1 7 0 2 1 -3 
0 -8 1 -9 0 -13 1 -11 0 -13 1 -8 0 -8 1 -4 
1 4 0 6 1 9 0 9 1 7 1 8 0 3 1 3 
0 -3 1 -4 0 -9 1 -9 0 -13 1 -12 0 -11 1 -11 
0 -7 1 -8 0 -2 1 -1 0 3 1 6 0 7 1 12 
0 12 1 14 0 14 1 16 1 13 0 13 1 11 0 8 
1 6 0 2 1 0 0 -5 1 -6 0 -9 1 -9 0 -10 
1 -10 0 -10 1 -8 0 -7 1 -5 0 -3 1 -1 1 3 
0 4 1 7 0 7 1 11 1 11 0 13 1 14 0 15 
1 14 0 13 1 13 0 9 1 8 0 3 1 1 0 -4 
1 -6 0 -10 1 -11 0 -13 1 -15 0 -15 1 -14 0 -13 
1 -13 0 -10 1 -10 1 -7 0 -6 1 -4 0 -3 1 -1 
0 -2 1 1 0 1 1 3 0 2 1 4 0 5 1 6 
0 6 1 8 0 9 1 10 0 12 1 12 0 14 1 14 
0 16 1 16 0 17 1 15 1 16 0 14 1 10 0 10 
1 4 0 3 1 -1 0 -4 1 -9 0 -10 1 -13 0 -15 
1 -16 0 -16 1 -16 0 -15 1 -14 0 -13 1 -11 0 -9 
1 -8 0 -7 1 -4 1 -3 0 -2 1 0 0 2 1 2 
0 4 1 6 0 6 1611 653 300 MP stroke
1 7 0 7 1 9 0 8 1 8 0 7 1 8 0 7 
1 7 0 6 1 3 0 3 1 -1 0 -2 1 -5 0 -5 
1 -8 1 -10 0 -16 1 -15 0 -17 1 -17 0 -19 1 -17 
0 -17 1 -18 0 -16 1 -12 0 -9 1 -6 0 -5 1 1 
0 3 1 6 0 8 1 13 0 15 1 16 0 18 1 18 
0 21 1 20 1 20 0 20 1 21 0 18 1 19 0 16 
1 17 0 14 1 12 0 11 1 8 0 6 1 3 0 1 
1 -2 0 -3 1 -6 0 -7 1 -9 0 -10 1 -11 0 -10 
1 -11 1 -11 0 -9 1 -10 0 -8 1 -9 0 -7 1 -6 
0 -6 1 -5 0 -5 1 -4 0 -4 1 -2 0 -3 1 -1 
0 -1 1 -1 1 0 1 1 0 2 1 1 0 1 1 1 
1 1 0 1 1 1 1 -1 0 -2 1 -1 0 -2 1 -2 
0 -2 1 -3 0 -2 1 -4 0 -2 1 -1 0 -2 1 -1 
0 -1 1 -1 1 0 1 2 1 0 -1 0 2 2 0 2 
1 1 0 1 1 1 1 1 1 0 1 -1 1 -1 0 -1 
1 -1 0 -1 1 -1 0 1 1 -1 1 1 1 0 1 2 
0 1 1 2 0 2 1 2 0 3 1 4 0 4 1 4 
0 5 1 4 0 5 1 5 0 4 1 3 0 4 1 4 
0 3 1 3 0 3 1 3 0 3 1 2 1 3 0 3 
1 2 0 3 1 2 0 2 1 2 0 1 1 1 1 1 
1 -1 0 -2 1 -2 0 -2 1 -3 0 -2 1 -4 0 -3 
1 -3 0 -3 1 -2 0 -3 1 -2 1 -2 0 -1 1 -1 
1 -1 1 0 1 1 0 2 1 1 0 2 1 3 0 2 
1 4 0 3 1 3 0 5 1 4 0 4 1 4 0 4 
1 4 1 5 0 4 1 3 0 4 1 3 0 3 1 2 
0 2 1 2 0 1 1 1 1 0 -1 0 2 -2 0 -2 
1 -1 0 -3 1 -2 0 -2 1 -3 0 -3 1 -3 0 -2 
1 -4 1 -3 0 -3 1 -2 0 -3 1 -2 0 -2 1 -2 
0 -2 1 -2 0 -1 1 -3 0 -1 1 -2 0 -2 1 -3 
0 -2 1 -3 0 -2 1 -2 0 -3 1 -2 0 -3 1 -2 
0 -2 1 0 1 -2 1 0 1 1 0 1 1 2 0 1 
1 2 0 1 1 2 0 2 1 1 0 2 1 2 0 3 
1 2 0 4 1 4 0 4 1 5 0 7 1 7 1 8 
0 9 1 10 0 10 1 10 0 10 1 10 0 10 1 9 
0 9 1 7 0 6 1 4 0 4 1 3 0 2 1 0 
1 0 1 -1 1 0 -1 0 2 3 1 4 0 3 1 4 
0 3 1 3 0 1 1 -1 0 -2 1 -8 0 -9 1 -16 
0 -16 1 -20 0 -22 1444 486 300 MP stroke
1 -23 0 -24 1 -25 0 -24 1 -22 0 -21 1 -19 0 -17 
1 -15 1 -13 0 -12 1 -10 0 -9 1 -7 0 -7 1 -6 
0 -5 1 -5 0 -4 1 -4 0 -2 1 -3 0 -2 1 -2 
1 -1 1 1 0 1 1 3 0 3 1 4 0 4 1 5 
1 6 0 7 1 7 0 7 1 8 0 7 1 8 0 8 
1 9 0 8 1 9 0 8 1 9 0 9 1 9 0 10 
1 10 0 10 1 10 0 11 1 10 0 11 1 11 1 12 
0 12 1 13 0 12 1 14 0 12 1 13 0 10 1 10 
0 6 1 4 0 1 1 -4 0 -7 1 -11 0 -14 1 -17 
0 -18 1 -19 0 -19 1 -18 0 -17 1 -15 0 -14 1 -11 
1 -9 0 -8 1 -5 0 -3 1 -2 1 -2 -1 0 2 4 
0 3 1 6 0 5 1 6 0 6 1 6 0 7 1 6 
0 7 1 3 0 4 1 -1 0 1 1 -3 1 -3 0 -5 
1 -7 0 -7 1 -8 0 -7 1 -8 0 -5 1 -5 0 -3 
1 -3 1 1 0 4 1 4 0 7 1 8 0 9 1 13 
0 12 1 14 0 14 1 15 0 13 1 12 1 9 0 5 
1 2 0 -4 1 -6 0 -13 1 -13 0 -18 1 -17 0 -19 
1 -17 0 -15 1 -13 0 -9 1 -6 0 -3 1 2 0 4 
1 8 0 10 1 12 0 13 1 12 1 12 0 9 1 9 
0 4 1 2 0 -3 1 -5 0 -10 1 -10 0 -12 1 -12 
0 -11 1 -10 0 -6 1 -2 0 1 1 6 0 8 1 11 
0 12 1 14 0 13 1 10 0 8 1 3 1 1 0 -6 
1 -7 0 -13 1 -13 0 -15 1 -14 0 -12 1 -9 0 -6 
1 -1 0 4 1 8 0 12 1 14 0 13 1 15 0 13 
1 10 0 7 1 2 0 -1 1 -7 0 -8 1 -10 1 -7 
0 -8 1 -3 0 -1 1 2 0 5 1 7 0 8 1 7 
0 6 1 1 0 -1 1 -9 0 -11 1 -14 0 -14 1 -14 
0 -10 1 -8 0 -3 1 2 0 6 1 11 1 12 0 14 
1 11 0 11 1 5 0 3 1 -4 0 -5 1 -8 0 -5 
1 -5 0 -1 1 1 0 2 1 4 0 5 1 6 0 5 
1 3 0 -3 1 -6 0 -10 1 -9 0 -9 1 -4 1 -2 
0 1 1 3 0 5 1 9 0 8 1 9 0 5 1 3 
0 -3 1 -2 0 -4 1 -1 1 -2 -1 0 2 3 0 2 
1 2 0 3 1 -3 0 -2 1 -4 1 -2 0 -3 1 -2 
0 -2 1 0 1 0 0 4 1 -1 1 -3 0 -3 1 -4 
0 -3 1 -4 0 -2 1 -3 0 -4 1 -3 0 -5 1 -4 
0 -6 1 -3 0 -2 1 -1 1 -1 0 1 1 1 0 3 
1 6 0 3 1 7 1284 613 300 MP stroke
0 4 1 3 0 2 1 2 0 1 1 2 0 3 1 2 
0 7 1 8 0 8 1 2 0 3 1 2 0 3 1 5 
1 5 0 8 1 0 0 -12 1 -13 0 -10 1 -9 0 -8 
1 -6 0 -10 1 -10 0 -16 1 -14 0 -5 1 -4 0 -3 
1 -2 0 -1 1 -3 1 -5 0 -2 1 -2 1 0 1 0 
0 3 1 0 0 2 1 -3 1 -1 0 1 1 1 0 3 
1 7 0 2 1 3 0 -2 1 0 1 1 0 4 1 4 
0 7 1 0 0 -2 1 -4 1 -1 0 1 1 4 0 8 
1 8 0 6 1 -3 0 -3 1 -3 0 1 1 7 0 9 
1 9 0 -1 1 -6 0 -9 1 -3 0 4 1 9 0 11 
1 3 0 -6 1 -12 0 -7 1 0 1 8 0 11 1 2 
0 -7 1 -13 0 -8 1 2 0 10 1 12 0 3 1 -6 
0 -12 1 -6 0 5 1 12 0 9 1 -3 0 -12 1 -11 
0 -3 1 6 0 9 1 2 1 -12 0 -15 1 -10 0 1 
1 6 1 -9 0 -16 1 -15 0 -5 1 6 0 6 1 -5 
0 -14 1 -14 0 -4 1 6 0 10 1 5 0 -6 1 -11 
0 -3 1 7 0 13 1 9 1 -1 0 -8 1 -4 0 5 
1 12 0 11 1 0 0 -7 1 -3 0 3 1 9 0 8 
1 0 0 -8 1 -4 1 6 0 6 1 -6 0 -7 1 -4 
0 1 1 4 0 1 1 -6 1 -5 0 -1 1 1 0 4 
1 0 0 -4 1 -2 1 5 0 4 1 -3 1 -2 -1 0 
2 5 1 -2 0 -1 1 -1 0 2 1 3 1 -1 1 0 
-1 0 2 4 0 2 1 -1 1 0 1 2 -1 0 2 -3 
0 -2 1 1 0 -1 1 -2 0 -3 1 -3 0 -2 1 -3 
0 -3 1 -4 0 -3 1 -4 0 -4 1 -4 1 -3 0 -1 
1 -3 0 -3 1 -3 0 -1 1 2 0 -2 1 -3 0 -2 
1 1 0 2 1 -3 0 -2 1 -1 0 4 1 1 0 -3 
1 -1 0 2 1 6 0 -2 1 -3 1 1 0 5 1 0 
0 -7 1 -2 0 2 1 5 0 -7 1 -7 0 -1 1 6 
1 -7 0 -3 1 6 0 6 1 -7 0 -5 1 7 0 10 
1 -4 0 -8 1 3 0 11 1 1 1 -10 0 -1 1 11 
0 1 1 -11 0 -4 1 10 0 6 1 -12 0 -7 1 8 
0 6 1 -10 0 -8 1 9 0 9 1 -10 0 -9 1 8 
0 8 1 -8 0 -8 1 9 1 10 0 -11 1 -6 0 10 
1 6 0 -9 1 -4 0 10 1 5 0 -12 1 -2 0 10 
1 -2 0 -9 1 0 0 8 1 -6 0 -10 1 0 0 6 
1 -11 0 -7 1 3 0 -3 1 -11 1 -5 0 3 1 -5 
0 -11 1 -2 0 4 1122 786 300 MP stroke
1 -12 0 -5 1 3 0 -2 1 -9 0 -3 1 4 0 -3 
1 -9 0 1 1 6 0 -9 1 -4 0 5 1 2 0 -4 
1 1 1 7 0 2 1 -1 0 4 1 10 0 -1 1 3 
0 8 1 3 0 3 1 4 0 8 1 6 0 2 1 5 
0 11 1 3 0 2 1 10 0 2 1 0 0 6 1 1 
0 -2 1 2 1 -2 0 -4 1 -1 0 -4 1 -6 0 -1 
1 -5 0 -7 1 -3 0 -4 1 -8 0 -4 1 -3 0 -10 
1 -6 0 -4 1 -10 0 -7 1 -3 0 -11 1 -8 0 -3 
1 -9 0 -6 1 -1 1 -6 0 -6 1 0 0 -2 1 -4 
0 2 1 2 0 -4 1 2 0 6 1 -4 0 5 1 7 
0 -5 1 4 0 8 1 -6 0 3 1 8 0 -9 1 1 
0 8 1 -11 1 2 0 7 1 -11 0 2 1 8 0 -10 
1 6 0 10 1 -10 0 10 1 10 0 -8 1 12 0 7 
1 -9 0 14 1 1 0 -7 1 13 0 -5 1 -6 0 10 
1 -10 0 -1 1 7 1 -14 0 3 1 1 0 -13 1 6 
0 -6 1 -7 0 7 1 -11 0 -2 1 6 0 -11 1 2 
0 2 1 -8 0 5 1 -7 0 -5 1 4 0 -10 1 -2 
0 1 1 -8 1 1 0 -5 1 -4 0 4 1 -7 0 -1 
1 3 0 -5 1 3 0 -5 1 -2 0 3 1 -5 1 1 
0 -2 1 3 1 -1 0 6 1 -1 0 3 1 3 0 -1 
1 4 1 1 1 4 0 -1 1 2 0 2 1 0 0 4 
1 0 0 3 1 -1 0 -1 1 1 0 -2 1 4 0 -4 
1 0 0 -3 1 -3 0 -2 1 -5 0 1 1 -7 1 -3 
0 -6 1 -6 0 -1 1 -9 0 -1 1 -9 0 -3 1 -3 
0 -7 1 1 0 -10 1 -1 0 -8 1 -3 0 -1 1 -5 
0 3 1 -8 0 2 1 -4 1 6 0 -3 1 9 1 -6 
0 7 1 -3 0 3 1 7 0 -4 1 12 0 -9 1 10 
0 -5 1 7 0 5 1 0 0 10 1 -7 0 14 1 -9 
0 14 1 -7 0 8 1 -3 0 -1 1 2 1 -10 0 4 
1 -14 0 6 1 -18 0 4 1 -15 0 2 1 -11 0 -3 
1 -2 0 -4 1 1 0 -8 1 8 0 -11 1 8 0 -10 
1 8 0 -11 1 4 0 -7 1 4 0 -4 1 0 1 1 
0 -2 1 3 0 -4 1 8 0 -7 1 5 0 -7 1 4 
0 -10 1 2 0 -7 1 3 0 -8 1 2 0 -1 1 4 
0 1 1 3 0 10 1 3 0 8 1 3 1 13 0 3 
1 8 0 1 1 11 0 2 1 5 0 -1 1 8 1 -1 
0 -3 1 0 0 -5 1 -7 0 -8 1 -10 0 -8 1 -15 
0 -10 1 -15 0 -10 964 1026 300 MP stroke
1 -15 0 -8 1 -11 1 -4 0 -8 1 -1 0 -3 1 4 
1 7 0 1 1 11 0 1 1 9 0 1 1 9 0 1 
1 3 0 2 1 1 0 5 1 -5 0 8 1 -7 0 11 
1 -10 0 10 1 -9 1 8 0 -6 1 -1 0 -1 1 -7 
0 4 1 -16 0 7 1 -16 0 8 1 -12 0 1 1 -5 
0 -3 1 2 0 -11 1 8 0 -15 1 8 0 -12 1 -1 
0 -7 1 -8 1 0 0 -17 1 4 0 -19 1 5 0 -13 
1 -3 0 -4 1 -9 0 5 1 -13 0 9 1 -12 0 9 
1 -6 0 2 1 4 0 -5 1 10 0 -8 1 12 0 -5 
1 11 0 2 1 0 1 9 0 -5 1 12 0 -2 1 8 
0 3 1 5 0 4 1 2 0 9 1 3 0 10 1 2 
0 6 1 5 0 3 1 7 1 5 1 1 0 3 1 -3 
1 1 1 -3 0 1 1 -5 0 -5 1 -1 0 -6 1 0 
0 -4 1 -7 0 -1 1 -7 0 -7 1 -2 0 -8 1 -1 
0 -4 1 -12 0 2 1 -8 0 -9 1 1 0 -10 1 1 
1 -4 0 -13 1 2 0 -6 1 -11 0 5 1 -10 0 -5 
1 2 0 -15 1 4 0 -3 1 -12 0 7 1 -5 0 -6 
1 10 0 -9 1 1 0 9 1 -11 0 9 1 2 1 -13 
0 6 1 -3 0 -12 1 10 0 -7 1 -9 0 11 1 -8 
0 2 1 16 0 -4 1 5 0 15 1 -2 0 11 1 14 
0 -2 1 4 0 6 1 -6 0 1 1 2 0 -10 1 -10 
1 -6 0 -13 1 -13 0 -6 1 -13 0 -17 1 -6 0 -11 
1 -13 0 1 1 -5 0 -9 1 3 0 -1 1 -2 0 10 
1 2 1 7 0 2 1 0 0 7 1 3 1 -2 1 -1 
0 -2 1 1 0 1 1 -1 1 -1 0 -2 1 1 0 6 
1 -1 1 1 0 -1 1 -3 1 5 0 -2 1 -2 0 -2 
1 0 0 -3 1 -1 1 8 0 3 1 -2 0 -1 1 6 
0 -1 1 -5 0 5 1 5 0 -6 1 -11 0 2 1 -3 
0 -12 1 -9 0 7 1 -3 0 -15 1 -5 0 5 1 -7 
0 -13 1 4 1 7 0 -7 1 -12 0 5 1 6 0 -10 
1 -7 0 12 1 8 0 -8 1 -6 0 12 1 7 0 -8 
1 -4 0 12 1 9 0 -9 1 -8 0 8 1 6 0 -10 
1 -11 0 5 1 5 1 -10 0 -16 1 -4 0 3 1 -10 
0 -20 1 -6 0 4 1 -8 0 -19 1 -11 0 4 1 -3 
0 -16 1 -8 0 10 1 5 0 -8 1 -7 0 12 1 13 
0 1 1 -1 0 16 1 17 1 7 0 5 1 12 0 17 
1 9 0 5 1 10 0 14 1 6 0 3 1 2 0 8 
1 11 0 4 1 1 803 1271 300 MP stroke
1 3 0 5 1 2 0 -5 1 -9 0 -11 1 -12 1 -9 
0 -12 1 -15 0 -20 1 -22 0 -16 1 -12 0 -12 1 -13 
0 -15 1 -13 0 -6 1 -5 0 -6 1 -5 0 -4 1 0 
1 -2 0 -2 1 -2 0 1 1 5 0 3 1 1 1 -1 
0 4 1 14 0 13 1 9 0 2 1 1 0 4 1 11 
0 13 1 7 0 -4 1 -12 0 -7 1 6 0 12 1 8 
0 -1 1 -11 0 -13 1 -5 0 4 1 9 1 6 0 -2 
1 -7 0 -7 1 -2 0 6 1 9 0 6 1 1 0 -4 
1 -9 0 -13 1 -15 0 -14 1 -12 0 -13 1 -15 0 -16 
1 -16 0 -17 1 -14 0 -8 1 1 0 4 1 3 1 1 
0 -1 1 -3 0 -3 1 -2 1 -1 0 -2 1 -5 0 -5 
1 -3 0 -2 1 3 0 9 1 12 0 12 1 9 0 6 
1 3 0 2 1 1 0 -1 1 -3 1 -6 0 -8 1 -9 
0 -11 1 -12 0 -13 1 -12 0 -13 1 -13 0 -11 1 -12 
0 -9 1 -6 1 5 0 8 1 8 0 7 1 5 0 3 
1 0 0 -2 1 -5 0 -9 1 -11 1 -13 0 -13 1 -15 
0 -14 1 -13 0 -11 1 -10 0 -10 1 -8 0 -6 1 -2 
0 2 1 10 0 15 1 17 0 18 1 17 0 19 1 17 
0 16 1 14 0 14 1 12 1 11 0 13 1 12 0 14 
1 14 0 14 1 13 0 11 1 9 0 5 1 3 0 1 
1 -1 0 -1 1 -2 0 -2 1 -1 0 -2 1 -2 0 -1 
1 -3 0 -4 1 -6 0 -7 1 -8 1 -10 0 -11 1 -12 
0 -13 1 -13 0 -13 1 -12 0 -12 1 -12 0 -11 1 -11 
0 -10 1 -10 0 -9 1 -9 0 -9 1 -9 0 -8 1 -8 
0 -7 1 -7 0 -7 1 -6 0 -6 699 1762 198 MP stroke
gr

c8
0 sg
2558 3877 mt 
(seconds) s
 379 2093 mt  -90 rotate
(PWM) s
90 rotate
2485  207 mt 
(experiment) s

end %%Color Dict

eplot
%%EndObject

epage
end

showpage

%%Trailer
%%EOF
