%!PS-Adobe-3.0 EPSF-3.0
%%Creator: MATLAB, The MathWorks, Inc. Version 8.1.0.604 (R2013a). Operating System: Linux 4.9.0-040900-generic #201612111631 SMP Sun Dec 11 21:33:00 UTC 2016 x86_64.
%%Title: /home/lukas/Universidad/Master/2 Semester/Control Theory for Embedded Systems/lab/4lab/MATLAB/PWM_tracking.eps
%%CreationDate: 12/17/2016  18:28:26
%%DocumentNeededFonts: Helvetica
%%DocumentProcessColors: Cyan Magenta Yellow Black
%%LanguageLevel: 2
%%Pages: 1
%%BoundingBox:    81   227   529   564
%%EndComments

%%BeginProlog
% MathWorks dictionary
/MathWorks 160 dict begin
% definition operators
/bdef {bind def} bind def
/ldef {load def} bind def
/xdef {exch def} bdef
/xstore {exch store} bdef
% operator abbreviations
/c  /clip ldef
/cc /concat ldef
/cp /closepath ldef
/gr /grestore ldef
/gs /gsave ldef
/mt /moveto ldef
/np /newpath ldef
/cm /currentmatrix ldef
/sm /setmatrix ldef
/rm /rmoveto ldef
/rl /rlineto ldef
/s {show newpath} bdef
/sc {setcmykcolor} bdef
/sr /setrgbcolor ldef
/sg /setgray ldef
/w /setlinewidth ldef
/j /setlinejoin ldef
/cap /setlinecap ldef
/rc {rectclip} bdef
/rf {rectfill} bdef
% page state control
/pgsv () def
/bpage {/pgsv save def} bdef
/epage {pgsv restore} bdef
/bplot /gsave ldef
/eplot {stroke grestore} bdef
% orientation switch
/portraitMode 0 def /landscapeMode 1 def /rotateMode 2 def
% coordinate system mappings
/dpi2point 0 def
% font control
/FontSize 0 def
/FMS {/FontSize xstore findfont [FontSize 0 0 FontSize neg 0 0]
  makefont setfont} bdef
/reencode {exch dup where {pop load} {pop StandardEncoding} ifelse
  exch dup 3 1 roll findfont dup length dict begin
  { 1 index /FID ne {def}{pop pop} ifelse } forall
  /Encoding exch def currentdict end definefont pop} bdef
/isroman {findfont /CharStrings get /Agrave known} bdef
/FMSR {3 1 roll 1 index dup isroman {reencode} {pop pop} ifelse
  exch FMS} bdef
/csm {1 dpi2point div -1 dpi2point div scale neg translate
 dup landscapeMode eq {pop -90 rotate}
  {rotateMode eq {90 rotate} if} ifelse} bdef
% line types: solid, dotted, dashed, dotdash
/SO { [] 0 setdash } bdef
/DO { [.5 dpi2point mul 4 dpi2point mul] 0 setdash } bdef
/DA { [6 dpi2point mul] 0 setdash } bdef
/DD { [.5 dpi2point mul 4 dpi2point mul 6 dpi2point mul 4
  dpi2point mul] 0 setdash } bdef
% macros for lines and objects
/L {lineto stroke} bdef
/MP {3 1 roll moveto 1 sub {rlineto} repeat} bdef
/AP {{rlineto} repeat} bdef
/PDlw -1 def
/W {/PDlw currentlinewidth def setlinewidth} def
/PP {closepath eofill} bdef
/DP {closepath stroke} bdef
/MR {4 -2 roll moveto dup  0 exch rlineto exch 0 rlineto
  neg 0 exch rlineto closepath} bdef
/FR {MR stroke} bdef
/PR {MR fill} bdef
/L1i {{currentfile picstr readhexstring pop} image} bdef
/tMatrix matrix def
/MakeOval {newpath tMatrix currentmatrix pop translate scale
0 0 1 0 360 arc tMatrix setmatrix} bdef
/FO {MakeOval stroke} bdef
/PO {MakeOval fill} bdef
/PD {currentlinewidth 2 div 0 360 arc fill
   PDlw -1 eq not {PDlw w /PDlw -1 def} if} def
/FA {newpath tMatrix currentmatrix pop translate scale
  0 0 1 5 -2 roll arc tMatrix setmatrix stroke} bdef
/PA {newpath tMatrix currentmatrix pop	translate 0 0 moveto scale
  0 0 1 5 -2 roll arc closepath tMatrix setmatrix fill} bdef
/FAn {newpath tMatrix currentmatrix pop translate scale
  0 0 1 5 -2 roll arcn tMatrix setmatrix stroke} bdef
/PAn {newpath tMatrix currentmatrix pop translate 0 0 moveto scale
  0 0 1 5 -2 roll arcn closepath tMatrix setmatrix fill} bdef
/vradius 0 def /hradius 0 def /lry 0 def
/lrx 0 def /uly 0 def /ulx 0 def /rad 0 def
/MRR {/vradius xdef /hradius xdef /lry xdef /lrx xdef /uly xdef
  /ulx xdef newpath tMatrix currentmatrix pop ulx hradius add uly
  vradius add translate hradius vradius scale 0 0 1 180 270 arc 
  tMatrix setmatrix lrx hradius sub uly vradius add translate
  hradius vradius scale 0 0 1 270 360 arc tMatrix setmatrix
  lrx hradius sub lry vradius sub translate hradius vradius scale
  0 0 1 0 90 arc tMatrix setmatrix ulx hradius add lry vradius sub
  translate hradius vradius scale 0 0 1 90 180 arc tMatrix setmatrix
  closepath} bdef
/FRR {MRR stroke } bdef
/PRR {MRR fill } bdef
/MlrRR {/lry xdef /lrx xdef /uly xdef /ulx xdef /rad lry uly sub 2 div def
  newpath tMatrix currentmatrix pop ulx rad add uly rad add translate
  rad rad scale 0 0 1 90 270 arc tMatrix setmatrix lrx rad sub lry rad
  sub translate rad rad scale 0 0 1 270 90 arc tMatrix setmatrix
  closepath} bdef
/FlrRR {MlrRR stroke } bdef
/PlrRR {MlrRR fill } bdef
/MtbRR {/lry xdef /lrx xdef /uly xdef /ulx xdef /rad lrx ulx sub 2 div def
  newpath tMatrix currentmatrix pop ulx rad add uly rad add translate
  rad rad scale 0 0 1 180 360 arc tMatrix setmatrix lrx rad sub lry rad
  sub translate rad rad scale 0 0 1 0 180 arc tMatrix setmatrix
  closepath} bdef
/FtbRR {MtbRR stroke } bdef
/PtbRR {MtbRR fill } bdef
/stri 6 array def /dtri 6 array def
/smat 6 array def /dmat 6 array def
/tmat1 6 array def /tmat2 6 array def /dif 3 array def
/asub {/ind2 exch def /ind1 exch def dup dup
  ind1 get exch ind2 get sub exch } bdef
/tri_to_matrix {
  2 0 asub 3 1 asub 4 0 asub 5 1 asub
  dup 0 get exch 1 get 7 -1 roll astore } bdef
/compute_transform {
  dmat dtri tri_to_matrix tmat1 invertmatrix 
  smat stri tri_to_matrix tmat2 concatmatrix } bdef
/ds {stri astore pop} bdef
/dt {dtri astore pop} bdef
/db {2 copy /cols xdef /rows xdef mul dup 3 mul string
  currentfile 
  3 index 0 eq {/ASCIIHexDecode filter}
  {/ASCII85Decode filter 3 index 2 eq {/RunLengthDecode filter} if }
  ifelse exch readstring pop
  dup 0 3 index getinterval /rbmap xdef
  dup 2 index dup getinterval /gbmap xdef
  1 index dup 2 mul exch getinterval /bbmap xdef pop pop}bdef
/it {gs np dtri aload pop moveto lineto lineto cp c
  cols rows 8 compute_transform 
  rbmap gbmap bbmap true 3 colorimage gr}bdef
/il {newpath moveto lineto stroke}bdef
currentdict end def
%%EndProlog

%%BeginSetup
MathWorks begin

0 cap

end
%%EndSetup

%%Page: 1 1
%%BeginPageSetup
%%PageBoundingBox:    81   227   529   564
MathWorks begin
bpage
%%EndPageSetup

%%BeginObject: obj1
bplot

/dpi2point 12 def
portraitMode 0972 6768 csm

    0     0  5376  4033 rc
85 dict begin %Colortable dictionary
/c0 { 0.000000 0.000000 0.000000 sr} bdef
/c1 { 1.000000 1.000000 1.000000 sr} bdef
/c2 { 0.900000 0.000000 0.000000 sr} bdef
/c3 { 0.000000 0.820000 0.000000 sr} bdef
/c4 { 0.000000 0.000000 0.800000 sr} bdef
/c5 { 0.910000 0.820000 0.320000 sr} bdef
/c6 { 1.000000 0.260000 0.820000 sr} bdef
/c7 { 0.000000 0.820000 0.820000 sr} bdef
c0
1 j
1 sg
   0    0 5377 4034 rf
6 w
0 3287 4166 0 0 -3287 699 3589 4 MP
PP
-4166 0 0 3287 4166 0 0 -3287 699 3589 5 MP stroke
4 w
DO
0 sg
 699 3589 mt  699  302 L
 699  302 mt  699  302 L
1393 3589 mt 1393  302 L
1393  302 mt 1393  302 L
2087 3589 mt 2087  302 L
2087  302 mt 2087  302 L
2782 3589 mt 2782  302 L
2782  302 mt 2782  302 L
3476 3589 mt 3476  302 L
3476  302 mt 3476  302 L
4170 3589 mt 4170  302 L
4170  302 mt 4170  302 L
4865 3589 mt 4865  302 L
4865  302 mt 4865  302 L
 699 3589 mt 4865 3589 L
4865 3589 mt 4865 3589 L
 699 3041 mt 4865 3041 L
4865 3041 mt 4865 3041 L
 699 2493 mt 4865 2493 L
4865 2493 mt 4865 2493 L
 699 1945 mt 4865 1945 L
4865 1945 mt 4865 1945 L
 699 1397 mt 4865 1397 L
4865 1397 mt 4865 1397 L
 699  849 mt 4865  849 L
4865  849 mt 4865  849 L
 699  302 mt 4865  302 L
4865  302 mt 4865  302 L
SO
6 w
 699 3589 mt 4865 3589 L
 699  302 mt 4865  302 L
 699 3589 mt  699  302 L
4865 3589 mt 4865  302 L
 699 3589 mt 4865 3589 L
 699 3589 mt  699  302 L
 699 3589 mt  699 3547 L
 699  302 mt  699  343 L
%%IncludeResource: font Helvetica
/Helvetica /ISOLatin1Encoding 120 FMSR

 666 3734 mt 
(0) s
1393 3589 mt 1393 3547 L
1393  302 mt 1393  343 L
1327 3734 mt 
(20) s
2087 3589 mt 2087 3547 L
2087  302 mt 2087  343 L
2021 3734 mt 
(40) s
2782 3589 mt 2782 3547 L
2782  302 mt 2782  343 L
2716 3734 mt 
(60) s
3476 3589 mt 3476 3547 L
3476  302 mt 3476  343 L
3410 3734 mt 
(80) s
4170 3589 mt 4170 3547 L
4170  302 mt 4170  343 L
4070 3734 mt 
(100) s
4865 3589 mt 4865 3547 L
4865  302 mt 4865  343 L
4765 3734 mt 
(120) s
 699 3589 mt  740 3589 L
4865 3589 mt 4823 3589 L
 328 3633 mt 
(-3000) s
 699 3041 mt  740 3041 L
4865 3041 mt 4823 3041 L
 328 3085 mt 
(-2000) s
 699 2493 mt  740 2493 L
4865 2493 mt 4823 2493 L
 328 2537 mt 
(-1000) s
 699 1945 mt  740 1945 L
4865 1945 mt 4823 1945 L
 598 1989 mt 
(0) s
 699 1397 mt  740 1397 L
4865 1397 mt 4823 1397 L
 398 1441 mt 
(1000) s
 699  849 mt  740  849 L
4865  849 mt 4823  849 L
 398  893 mt 
(2000) s
 699  302 mt  740  302 L
4865  302 mt 4823  302 L
 398  346 mt 
(3000) s
 699 3589 mt 4865 3589 L
 699  302 mt 4865  302 L
 699 3589 mt  699  302 L
4865 3589 mt 4865  302 L
gs 699 302 4167 3288 rc
/c8 { 0.000000 0.000000 1.000000 sr} bdef
c8
10 -39 14 -54 13 -46 9 -35 9 -33 15 -51 12 -40 9 -29 
9 -28 15 -46 12 -34 7 -22 8 -21 16 -41 12 -27 10 -23 
11 -26 15 -28 13 -25 12 -19 9 -14 11 -15 12 -16 14 -14 
13 -11 10 -8 10 -6 14 -6 12 -3 11 -1 9 0 11 2 
14 4 13 7 12 8 9 8 10 10 13 14 14 18 12 17 
10 17 10 17 14 26 12 26 10 21 10 22 11 27 14 35 
13 37 11 31 10 28 10 31 12 40 14 46 12 42 10 35 
10 37 14 52 13 47 10 40 9 37 11 46 14 56 13 57 
11 48 10 41 10 44 12 56 14 63 13 56 10 46 10 47 
14 66 12 58 10 45 9 46 14 66 13 60 10 49 10 44 
10 50 14 63 13 64 12 53 9 44 10 44 12 55 14 62 
13 56 10 45 9 40 11 46 13 55 14 55 11 45 10 38 
10 38 12 45 14 50 12 44 10 35 10 31 11 35 13 41 
13 39 12 32 9 26 11 26 12 30 13 31 12 26 11 21 
10 19 11 19 13 21 13 18 11 15 10 11 10 10 12 11 
13 9 13 6 10 4 10 2 14 0 12 -1 10 -3 9 -3 
12 -7 14 -10 13 -11 10 -12 9 -11 11 -13 13 -20 14 -22 
11 -21 10 -19 10 -20 12 -26 13 -32 13 -31 10 -28 10 -26 
11 -30 13 -39 13 -42 12 -37 9 -33 10 -34 12 -42 14 -49 
12 -48 11 -40 9 -38 11 -44 13 -52 13 -55 12 -49 10 -43 
10 -45 12 -52 13 -60 12 -56 11 -48 10 -46 11 -51 12 -59 
13 -61 12 -53 10 -48 10 -49 12 -57 13 -61 12 -57 11 -50 
10 -50 14 -64 12 -53 9 -44 10 -44 12 -54 14 -62 12 -57 
11 -44 9 -40 11 -45 13 -55 14 -56 11 -45 9 -37 10 -37 
12 -45 14 -50 13 -45 10 -35 9 -31 11 -34 13 -41 14 -39 
11 -32 10 -26 10 -25 12 -30 13 -31 13 -27 10 -21 10 -18 
11 -19 13 -21 13 -18 11 -15 10 -11 10 -10 12 -10 14 -9 
12 -6 10 -4 10 -2 11 0 13 1 13 3 11 5 10 6 
10 7 13 11 13 13 12 15 10 14 11 16 13 22 12 21 
10 19 9 19 12 26 14 33 13 32 10 27 9 25 11 30 
13 39 14 43 11 37 10 32 10 34 11 42 14 49 13 48 
10 41 10 37 10 42 13 53 14 56 11 49 10 42 10 44 
12 52 13 60 13 57 10 48 10 44 10 51 13 60 13 61 
12 54 10 47 10 48 12 56 13 62 12 58 11 50 10 46 
11 52 12 58 13 59 11 52 10 45 11 47 12 53 13 56 
12 52 10 44 10 42 12 46 12 50 13 49 11 43 10 38 
11 39 12 42 12 43 12 40 11 33 10 33 11 33 13 36 
12 33 11 29 10 25 1429 529 300 MP stroke
11 26 12 26 12 25 12 22 11 19 10 17 12 17 12 17 
12 14 11 11 11 9 11 8 11 7 12 5 12 3 11 1 
10 0 12 -2 12 -4 12 -6 11 -8 10 -8 11 -11 12 -13 
12 -15 11 -16 11 -17 11 -18 11 -21 12 -24 12 -25 11 -24 
11 -26 11 -28 11 -31 12 -32 11 -33 11 -32 11 -35 11 -36 
12 -39 11 -39 11 -39 11 -39 11 -42 11 -43 11 -45 11 -44 
11 -43 10 -44 11 -46 11 -48 11 -46 10 -45 10 -45 10 -45 
10 -45 10 -44 9 -43 12 -56 10 -44 8 -39 7 -32 5 -25 
5 -23 5 -23 4 -18 3 -14 3 -15 3 -14 2 -10 2 -9 
1 -7 2 -7 1 -6 1 -4 0 -3 1 -3 0 -2 699 1945 80 MP stroke
/c9 { 0.000000 0.500000 0.000000 sr} bdef
c9
10 -39 14 -54 13 -46 9 -35 9 -34 15 -50 12 -40 9 -29 
9 -28 15 -46 12 -34 7 -22 8 -21 16 -41 12 -27 10 -23 
11 -26 15 -28 13 -25 12 -19 9 -14 11 -15 12 -16 14 -14 
13 -11 10 -8 10 -6 14 -6 12 -3 11 -1 9 0 11 2 
14 4 13 7 12 8 9 8 10 10 13 14 14 18 12 17 
10 17 10 17 14 26 12 26 10 21 10 22 11 27 14 35 
13 37 11 31 10 28 10 31 12 40 14 46 12 42 10 35 
10 37 14 52 13 47 10 40 9 37 11 46 14 56 13 57 
11 48 10 41 10 44 12 56 14 63 13 56 10 46 10 47 
14 66 12 58 10 45 9 46 14 66 13 60 10 49 10 44 
10 50 14 63 13 64 12 53 9 44 10 44 12 55 14 62 
13 56 10 45 9 40 11 46 13 55 14 55 11 45 10 38 
10 38 12 45 14 50 12 44 10 35 10 31 11 35 13 41 
13 39 12 32 9 26 11 26 12 30 13 31 12 26 11 21 
10 19 11 19 13 21 13 18 11 15 10 11 10 10 12 11 
13 9 13 6 10 4 10 2 14 0 12 -1 10 -3 9 -3 
12 -7 14 -10 13 -11 10 -12 9 -11 11 -13 13 -20 14 -22 
11 -21 10 -19 10 -20 12 -26 13 -32 13 -31 10 -28 10 -26 
11 -30 13 -39 13 -42 12 -37 9 -33 10 -34 12 -42 14 -49 
12 -48 11 -40 9 -38 11 -44 13 -52 13 -55 12 -49 10 -43 
10 -45 12 -52 13 -60 12 -56 11 -48 10 -46 11 -51 12 -59 
13 -61 12 -53 10 -48 10 -49 12 -57 13 -61 12 -57 11 -50 
10 -50 14 -64 12 -53 9 -44 10 -44 12 -54 14 -62 12 -57 
11 -44 9 -40 11 -45 13 -55 14 -56 11 -45 9 -37 10 -37 
12 -45 14 -50 13 -45 10 -35 9 -31 11 -34 13 -41 14 -39 
11 -32 10 -26 10 -25 12 -30 13 -31 13 -27 10 -21 10 -18 
11 -19 13 -21 13 -18 11 -15 10 -11 10 -10 12 -10 14 -9 
12 -6 10 -4 10 -2 11 0 13 1 13 3 11 5 10 6 
10 7 13 11 13 13 12 15 10 14 11 16 13 22 12 21 
10 19 9 19 12 26 14 33 13 32 10 27 9 25 11 30 
13 39 14 43 11 37 10 32 10 34 11 42 14 49 13 48 
10 41 10 37 10 42 13 53 14 56 11 49 10 42 10 44 
12 52 13 60 13 57 10 48 10 44 10 51 13 60 13 61 
12 54 10 47 10 48 12 56 13 62 12 58 11 50 10 46 
11 52 12 58 13 59 11 52 10 45 11 47 12 53 13 56 
12 52 10 44 10 42 12 46 12 50 13 49 11 43 10 38 
11 39 12 42 12 43 12 40 11 33 10 33 11 33 13 36 
12 33 11 29 10 25 1429 529 300 MP stroke
11 26 12 26 12 25 12 22 11 19 10 17 12 17 12 17 
12 14 11 11 11 9 11 8 11 7 12 5 12 3 11 1 
10 0 12 -2 12 -4 12 -6 11 -8 10 -8 11 -11 12 -13 
12 -15 11 -16 11 -17 11 -18 11 -21 12 -24 12 -25 11 -24 
11 -26 11 -28 11 -31 12 -32 11 -33 11 -32 11 -35 11 -36 
12 -39 11 -39 11 -39 11 -39 11 -42 11 -43 11 -45 11 -44 
11 -43 10 -44 11 -46 11 -48 11 -46 10 -45 10 -45 10 -45 
10 -45 10 -44 9 -43 12 -56 10 -44 8 -39 7 -32 5 -26 
5 -22 5 -22 4 -15 3 -13 3 -14 3 -17 2 -14 2 -12 
1 -11 2 -9 1 -4 1 -3 1 -1 699 1945 78 MP stroke
gr

c9
0 sg
2558 3877 mt 
(seconds) s
 246 2051 mt  -90 rotate
(rpm) s
90 rotate
2618  207 mt 
(model) s
 682 3632 mt 
( ) s
4849  344 mt 
( ) s
1 sg
0 334 659 0 0 -334 4146 696 4 MP
PP
-659 0 0 334 659 0 0 -334 4146 696 5 MP stroke
4 w
DO
SO
6 w
0 sg
4146  696 mt 4805  696 L
4146  362 mt 4805  362 L
4146  696 mt 4146  362 L
4805  696 mt 4805  362 L
4146  696 mt 4805  696 L
4146  696 mt 4146  362 L
4146  696 mt 4805  696 L
4146  362 mt 4805  362 L
4146  696 mt 4146  362 L
4805  696 mt 4805  362 L
4630  498 mt 
(wd) s
gs 4146 362 660 335 rc
c8
371 0 4220 455 2 MP stroke
gr

c8
0 sg
4630  645 mt 
(w) s
gs 4146 362 660 335 rc
c9
371 0 4220 602 2 MP stroke
gr

c9

end %%Color Dict

eplot
%%EndObject

epage
end

showpage

%%Trailer
%%EOF
