%!PS-Adobe-3.0 EPSF-3.0
%%Creator: MATLAB, The MathWorks, Inc. Version 8.1.0.604 (R2013a). Operating System: Linux 4.9.0-040900-generic #201612111631 SMP Sun Dec 11 21:33:00 UTC 2016 x86_64.
%%Title: /home/lukas/Universidad/Master/2 Semester/Control Theory for Embedded Systems/lab/4lab/MATLAB/y_yd_tracking.eps
%%CreationDate: 12/17/2016  18:28:16
%%DocumentNeededFonts: Helvetica
%%DocumentProcessColors: Cyan Magenta Yellow Black
%%LanguageLevel: 2
%%Pages: 1
%%BoundingBox:    81   227   529   564
%%EndComments

%%BeginProlog
% MathWorks dictionary
/MathWorks 160 dict begin
% definition operators
/bdef {bind def} bind def
/ldef {load def} bind def
/xdef {exch def} bdef
/xstore {exch store} bdef
% operator abbreviations
/c  /clip ldef
/cc /concat ldef
/cp /closepath ldef
/gr /grestore ldef
/gs /gsave ldef
/mt /moveto ldef
/np /newpath ldef
/cm /currentmatrix ldef
/sm /setmatrix ldef
/rm /rmoveto ldef
/rl /rlineto ldef
/s {show newpath} bdef
/sc {setcmykcolor} bdef
/sr /setrgbcolor ldef
/sg /setgray ldef
/w /setlinewidth ldef
/j /setlinejoin ldef
/cap /setlinecap ldef
/rc {rectclip} bdef
/rf {rectfill} bdef
% page state control
/pgsv () def
/bpage {/pgsv save def} bdef
/epage {pgsv restore} bdef
/bplot /gsave ldef
/eplot {stroke grestore} bdef
% orientation switch
/portraitMode 0 def /landscapeMode 1 def /rotateMode 2 def
% coordinate system mappings
/dpi2point 0 def
% font control
/FontSize 0 def
/FMS {/FontSize xstore findfont [FontSize 0 0 FontSize neg 0 0]
  makefont setfont} bdef
/reencode {exch dup where {pop load} {pop StandardEncoding} ifelse
  exch dup 3 1 roll findfont dup length dict begin
  { 1 index /FID ne {def}{pop pop} ifelse } forall
  /Encoding exch def currentdict end definefont pop} bdef
/isroman {findfont /CharStrings get /Agrave known} bdef
/FMSR {3 1 roll 1 index dup isroman {reencode} {pop pop} ifelse
  exch FMS} bdef
/csm {1 dpi2point div -1 dpi2point div scale neg translate
 dup landscapeMode eq {pop -90 rotate}
  {rotateMode eq {90 rotate} if} ifelse} bdef
% line types: solid, dotted, dashed, dotdash
/SO { [] 0 setdash } bdef
/DO { [.5 dpi2point mul 4 dpi2point mul] 0 setdash } bdef
/DA { [6 dpi2point mul] 0 setdash } bdef
/DD { [.5 dpi2point mul 4 dpi2point mul 6 dpi2point mul 4
  dpi2point mul] 0 setdash } bdef
% macros for lines and objects
/L {lineto stroke} bdef
/MP {3 1 roll moveto 1 sub {rlineto} repeat} bdef
/AP {{rlineto} repeat} bdef
/PDlw -1 def
/W {/PDlw currentlinewidth def setlinewidth} def
/PP {closepath eofill} bdef
/DP {closepath stroke} bdef
/MR {4 -2 roll moveto dup  0 exch rlineto exch 0 rlineto
  neg 0 exch rlineto closepath} bdef
/FR {MR stroke} bdef
/PR {MR fill} bdef
/L1i {{currentfile picstr readhexstring pop} image} bdef
/tMatrix matrix def
/MakeOval {newpath tMatrix currentmatrix pop translate scale
0 0 1 0 360 arc tMatrix setmatrix} bdef
/FO {MakeOval stroke} bdef
/PO {MakeOval fill} bdef
/PD {currentlinewidth 2 div 0 360 arc fill
   PDlw -1 eq not {PDlw w /PDlw -1 def} if} def
/FA {newpath tMatrix currentmatrix pop translate scale
  0 0 1 5 -2 roll arc tMatrix setmatrix stroke} bdef
/PA {newpath tMatrix currentmatrix pop	translate 0 0 moveto scale
  0 0 1 5 -2 roll arc closepath tMatrix setmatrix fill} bdef
/FAn {newpath tMatrix currentmatrix pop translate scale
  0 0 1 5 -2 roll arcn tMatrix setmatrix stroke} bdef
/PAn {newpath tMatrix currentmatrix pop translate 0 0 moveto scale
  0 0 1 5 -2 roll arcn closepath tMatrix setmatrix fill} bdef
/vradius 0 def /hradius 0 def /lry 0 def
/lrx 0 def /uly 0 def /ulx 0 def /rad 0 def
/MRR {/vradius xdef /hradius xdef /lry xdef /lrx xdef /uly xdef
  /ulx xdef newpath tMatrix currentmatrix pop ulx hradius add uly
  vradius add translate hradius vradius scale 0 0 1 180 270 arc 
  tMatrix setmatrix lrx hradius sub uly vradius add translate
  hradius vradius scale 0 0 1 270 360 arc tMatrix setmatrix
  lrx hradius sub lry vradius sub translate hradius vradius scale
  0 0 1 0 90 arc tMatrix setmatrix ulx hradius add lry vradius sub
  translate hradius vradius scale 0 0 1 90 180 arc tMatrix setmatrix
  closepath} bdef
/FRR {MRR stroke } bdef
/PRR {MRR fill } bdef
/MlrRR {/lry xdef /lrx xdef /uly xdef /ulx xdef /rad lry uly sub 2 div def
  newpath tMatrix currentmatrix pop ulx rad add uly rad add translate
  rad rad scale 0 0 1 90 270 arc tMatrix setmatrix lrx rad sub lry rad
  sub translate rad rad scale 0 0 1 270 90 arc tMatrix setmatrix
  closepath} bdef
/FlrRR {MlrRR stroke } bdef
/PlrRR {MlrRR fill } bdef
/MtbRR {/lry xdef /lrx xdef /uly xdef /ulx xdef /rad lrx ulx sub 2 div def
  newpath tMatrix currentmatrix pop ulx rad add uly rad add translate
  rad rad scale 0 0 1 180 360 arc tMatrix setmatrix lrx rad sub lry rad
  sub translate rad rad scale 0 0 1 0 180 arc tMatrix setmatrix
  closepath} bdef
/FtbRR {MtbRR stroke } bdef
/PtbRR {MtbRR fill } bdef
/stri 6 array def /dtri 6 array def
/smat 6 array def /dmat 6 array def
/tmat1 6 array def /tmat2 6 array def /dif 3 array def
/asub {/ind2 exch def /ind1 exch def dup dup
  ind1 get exch ind2 get sub exch } bdef
/tri_to_matrix {
  2 0 asub 3 1 asub 4 0 asub 5 1 asub
  dup 0 get exch 1 get 7 -1 roll astore } bdef
/compute_transform {
  dmat dtri tri_to_matrix tmat1 invertmatrix 
  smat stri tri_to_matrix tmat2 concatmatrix } bdef
/ds {stri astore pop} bdef
/dt {dtri astore pop} bdef
/db {2 copy /cols xdef /rows xdef mul dup 3 mul string
  currentfile 
  3 index 0 eq {/ASCIIHexDecode filter}
  {/ASCII85Decode filter 3 index 2 eq {/RunLengthDecode filter} if }
  ifelse exch readstring pop
  dup 0 3 index getinterval /rbmap xdef
  dup 2 index dup getinterval /gbmap xdef
  1 index dup 2 mul exch getinterval /bbmap xdef pop pop}bdef
/it {gs np dtri aload pop moveto lineto lineto cp c
  cols rows 8 compute_transform 
  rbmap gbmap bbmap true 3 colorimage gr}bdef
/il {newpath moveto lineto stroke}bdef
currentdict end def
%%EndProlog

%%BeginSetup
MathWorks begin

0 cap

end
%%EndSetup

%%Page: 1 1
%%BeginPageSetup
%%PageBoundingBox:    81   227   529   564
MathWorks begin
bpage
%%EndPageSetup

%%BeginObject: obj1
bplot

/dpi2point 12 def
portraitMode 0972 6768 csm

    0     0  5376  4033 rc
85 dict begin %Colortable dictionary
/c0 { 0.000000 0.000000 0.000000 sr} bdef
/c1 { 1.000000 1.000000 1.000000 sr} bdef
/c2 { 0.900000 0.000000 0.000000 sr} bdef
/c3 { 0.000000 0.820000 0.000000 sr} bdef
/c4 { 0.000000 0.000000 0.800000 sr} bdef
/c5 { 0.910000 0.820000 0.320000 sr} bdef
/c6 { 1.000000 0.260000 0.820000 sr} bdef
/c7 { 0.000000 0.820000 0.820000 sr} bdef
c0
1 j
1 sg
   0    0 5377 4034 rf
6 w
0 3288 4166 0 0 -3288 699 3589 4 MP
PP
-4166 0 0 3288 4166 0 0 -3288 699 3589 5 MP stroke
4 w
DO
0 sg
 699 3589 mt  699  302 L
 699  302 mt  699  302 L
1393 3589 mt 1393  302 L
1393  302 mt 1393  302 L
2087 3589 mt 2087  302 L
2087  302 mt 2087  302 L
2782 3589 mt 2782  302 L
2782  302 mt 2782  302 L
3476 3589 mt 3476  302 L
3476  302 mt 3476  302 L
4170 3589 mt 4170  302 L
4170  302 mt 4170  302 L
4865 3589 mt 4865  302 L
4865  302 mt 4865  302 L
 699 3589 mt 4865 3589 L
4865 3589 mt 4865 3589 L
 699 3178 mt 4865 3178 L
4865 3178 mt 4865 3178 L
 699 2767 mt 4865 2767 L
4865 2767 mt 4865 2767 L
 699 2356 mt 4865 2356 L
4865 2356 mt 4865 2356 L
 699 1945 mt 4865 1945 L
4865 1945 mt 4865 1945 L
 699 1534 mt 4865 1534 L
4865 1534 mt 4865 1534 L
 699 1123 mt 4865 1123 L
4865 1123 mt 4865 1123 L
 699  712 mt 4865  712 L
4865  712 mt 4865  712 L
 699  302 mt 4865  302 L
4865  302 mt 4865  302 L
SO
6 w
 699 3589 mt 4865 3589 L
 699  301 mt 4865  301 L
 699 3589 mt  699  301 L
4865 3589 mt 4865  301 L
 699 3589 mt 4865 3589 L
 699 3589 mt  699  301 L
 699 3589 mt  699 3547 L
 699  302 mt  699  343 L
%%IncludeResource: font Helvetica
/Helvetica /ISOLatin1Encoding 120 FMSR

 666 3734 mt 
(0) s
1393 3589 mt 1393 3547 L
1393  302 mt 1393  343 L
1327 3734 mt 
(20) s
2087 3589 mt 2087 3547 L
2087  302 mt 2087  343 L
2021 3734 mt 
(40) s
2782 3589 mt 2782 3547 L
2782  302 mt 2782  343 L
2716 3734 mt 
(60) s
3476 3589 mt 3476 3547 L
3476  302 mt 3476  343 L
3410 3734 mt 
(80) s
4170 3589 mt 4170 3547 L
4170  302 mt 4170  343 L
4070 3734 mt 
(100) s
4865 3589 mt 4865 3547 L
4865  302 mt 4865  343 L
4765 3734 mt 
(120) s
 699 3589 mt  740 3589 L
4865 3589 mt 4823 3589 L
 461 3633 mt 
(-20) s
 699 3178 mt  740 3178 L
4865 3178 mt 4823 3178 L
 461 3222 mt 
(-15) s
 699 2767 mt  740 2767 L
4865 2767 mt 4823 2767 L
 461 2811 mt 
(-10) s
 699 2356 mt  740 2356 L
4865 2356 mt 4823 2356 L
 528 2400 mt 
(-5) s
 699 1945 mt  740 1945 L
4865 1945 mt 4823 1945 L
 598 1989 mt 
(0) s
 699 1534 mt  740 1534 L
4865 1534 mt 4823 1534 L
 598 1578 mt 
(5) s
 699 1123 mt  740 1123 L
4865 1123 mt 4823 1123 L
 531 1167 mt 
(10) s
 699  712 mt  740  712 L
4865  712 mt 4823  712 L
 531  756 mt 
(15) s
 699  302 mt  740  302 L
4865  302 mt 4823  302 L
 531  346 mt 
(20) s
 699 3589 mt 4865 3589 L
 699  301 mt 4865  301 L
 699 3589 mt  699  301 L
4865 3589 mt 4865  301 L
gs 699 302 4167 3288 rc
/c8 { 0.000000 0.000000 1.000000 sr} bdef
c8
10 -35 14 -49 13 -41 9 -32 9 -30 15 -47 12 -36 9 -27 
9 -26 15 -42 12 -32 7 -20 8 -20 16 -39 12 -26 10 -22 
11 -25 15 -27 13 -25 12 -19 9 -15 11 -15 12 -17 14 -17 
13 -12 10 -10 10 -7 14 -10 12 -6 11 -3 9 -3 11 -1 
14 0 13 3 12 3 9 5 10 5 13 9 14 12 12 12 
10 11 10 13 14 19 12 19 10 16 10 16 11 21 14 27 
13 28 11 25 10 22 10 25 12 31 14 37 12 34 10 29 
10 29 14 43 13 38 10 32 9 31 11 38 14 47 13 47 
11 40 10 34 10 37 12 47 14 53 13 47 10 39 10 40 
14 56 12 49 10 39 9 39 14 56 13 52 10 42 10 38 
10 43 14 55 13 55 12 46 9 39 10 38 12 48 14 55 
13 49 10 40 9 35 11 41 13 49 14 49 11 41 10 33 
10 35 12 40 14 45 12 40 10 32 10 29 11 33 13 37 
13 36 12 30 9 25 11 25 12 28 13 30 12 25 11 21 
10 18 11 20 13 21 13 19 11 15 10 12 10 12 12 12 
13 11 13 9 10 6 10 5 14 4 12 2 10 0 9 -1 
12 -2 14 -5 13 -6 10 -7 9 -7 11 -9 13 -14 14 -15 
11 -15 10 -14 10 -15 12 -19 13 -25 13 -24 10 -21 10 -21 
11 -23 13 -31 13 -33 12 -30 9 -26 10 -28 12 -34 14 -40 
12 -38 11 -33 9 -32 11 -35 13 -44 13 -45 12 -41 10 -36 
10 -37 12 -44 13 -50 12 -47 11 -41 10 -38 11 -44 12 -50 
13 -52 12 -45 10 -41 10 -42 12 -49 13 -53 12 -49 11 -43 
10 -43 14 -56 12 -46 9 -38 10 -38 12 -48 14 -55 12 -50 
11 -39 9 -35 11 -40 13 -49 14 -50 11 -40 9 -34 10 -33 
12 -41 14 -45 13 -40 10 -32 9 -29 11 -31 13 -38 14 -37 
11 -30 10 -24 10 -24 12 -28 13 -30 13 -26 10 -20 10 -18 
11 -19 13 -21 13 -20 11 -15 10 -12 10 -11 12 -12 14 -12 
12 -8 10 -6 10 -5 11 -3 13 -3 13 0 11 1 10 2 
10 4 13 6 13 8 12 9 10 10 11 11 13 16 12 15 
10 13 9 15 12 19 14 25 13 24 10 21 9 20 11 24 
13 30 14 34 11 30 10 26 10 27 11 33 14 41 13 39 
10 33 10 30 10 35 13 44 14 46 11 41 10 35 10 36 
12 44 13 51 13 47 10 41 10 38 10 42 13 51 13 52 
12 46 10 40 10 41 12 49 13 53 12 50 11 43 10 40 
11 45 12 51 13 52 11 45 10 39 11 41 12 47 13 49 
12 46 10 40 10 37 12 41 12 45 13 44 11 38 10 35 
11 35 12 38 12 40 12 35 11 32 10 29 11 32 13 33 
12 31 11 27 10 24 1429 777 300 MP stroke
11 25 12 25 12 25 12 22 11 19 10 17 12 18 12 17 
12 15 11 13 11 10 11 10 11 9 12 8 12 5 11 4 
10 3 12 1 12 0 12 -2 11 -4 10 -4 11 -7 12 -8 
12 -10 11 -10 11 -12 11 -13 11 -15 12 -18 12 -18 11 -19 
11 -19 11 -22 11 -24 12 -25 11 -26 11 -25 11 -27 11 -30 
12 -31 11 -32 11 -31 11 -32 11 -33 11 -36 11 -37 11 -36 
11 -35 10 -37 11 -38 11 -40 11 -38 10 -38 10 -38 10 -37 
10 -39 10 -36 9 -37 12 -47 10 -37 8 -33 7 -28 5 -22 
5 -22 5 -23 4 -17 3 -12 3 -6 3 3 2 9 2 6 
1 -1 2 -12 1 -24 1 -31 0 -31 1 -36 0 -31 699 1945 80 MP stroke
gr

c8
0 sg
2558 3877 mt 
(seconds) s
 379 2093 mt  -90 rotate
(PWM) s
90 rotate
2618  207 mt 
(model) s

end %%Color Dict

eplot
%%EndObject

epage
end

showpage

%%Trailer
%%EOF
