%!PS-Adobe-3.0 EPSF-3.0
%%Creator: MATLAB, The MathWorks, Inc. Version 8.1.0.604 (R2013a). Operating System: Linux 4.9.0-040900-generic #201612111631 SMP Sun Dec 11 21:33:00 UTC 2016 x86_64.
%%Title: /home/lukas/Universidad/Master/2 Semester/Control Theory for Embedded Systems/lab/4lab/MATLAB/y_yd_tracking_exp.eps
%%CreationDate: 12/17/2016  18:23:44
%%DocumentNeededFonts: Helvetica
%%DocumentProcessColors: Cyan Magenta Yellow Black
%%LanguageLevel: 2
%%Pages: 1
%%BoundingBox:    81   227   529   564
%%EndComments

%%BeginProlog
% MathWorks dictionary
/MathWorks 160 dict begin
% definition operators
/bdef {bind def} bind def
/ldef {load def} bind def
/xdef {exch def} bdef
/xstore {exch store} bdef
% operator abbreviations
/c  /clip ldef
/cc /concat ldef
/cp /closepath ldef
/gr /grestore ldef
/gs /gsave ldef
/mt /moveto ldef
/np /newpath ldef
/cm /currentmatrix ldef
/sm /setmatrix ldef
/rm /rmoveto ldef
/rl /rlineto ldef
/s {show newpath} bdef
/sc {setcmykcolor} bdef
/sr /setrgbcolor ldef
/sg /setgray ldef
/w /setlinewidth ldef
/j /setlinejoin ldef
/cap /setlinecap ldef
/rc {rectclip} bdef
/rf {rectfill} bdef
% page state control
/pgsv () def
/bpage {/pgsv save def} bdef
/epage {pgsv restore} bdef
/bplot /gsave ldef
/eplot {stroke grestore} bdef
% orientation switch
/portraitMode 0 def /landscapeMode 1 def /rotateMode 2 def
% coordinate system mappings
/dpi2point 0 def
% font control
/FontSize 0 def
/FMS {/FontSize xstore findfont [FontSize 0 0 FontSize neg 0 0]
  makefont setfont} bdef
/reencode {exch dup where {pop load} {pop StandardEncoding} ifelse
  exch dup 3 1 roll findfont dup length dict begin
  { 1 index /FID ne {def}{pop pop} ifelse } forall
  /Encoding exch def currentdict end definefont pop} bdef
/isroman {findfont /CharStrings get /Agrave known} bdef
/FMSR {3 1 roll 1 index dup isroman {reencode} {pop pop} ifelse
  exch FMS} bdef
/csm {1 dpi2point div -1 dpi2point div scale neg translate
 dup landscapeMode eq {pop -90 rotate}
  {rotateMode eq {90 rotate} if} ifelse} bdef
% line types: solid, dotted, dashed, dotdash
/SO { [] 0 setdash } bdef
/DO { [.5 dpi2point mul 4 dpi2point mul] 0 setdash } bdef
/DA { [6 dpi2point mul] 0 setdash } bdef
/DD { [.5 dpi2point mul 4 dpi2point mul 6 dpi2point mul 4
  dpi2point mul] 0 setdash } bdef
% macros for lines and objects
/L {lineto stroke} bdef
/MP {3 1 roll moveto 1 sub {rlineto} repeat} bdef
/AP {{rlineto} repeat} bdef
/PDlw -1 def
/W {/PDlw currentlinewidth def setlinewidth} def
/PP {closepath eofill} bdef
/DP {closepath stroke} bdef
/MR {4 -2 roll moveto dup  0 exch rlineto exch 0 rlineto
  neg 0 exch rlineto closepath} bdef
/FR {MR stroke} bdef
/PR {MR fill} bdef
/L1i {{currentfile picstr readhexstring pop} image} bdef
/tMatrix matrix def
/MakeOval {newpath tMatrix currentmatrix pop translate scale
0 0 1 0 360 arc tMatrix setmatrix} bdef
/FO {MakeOval stroke} bdef
/PO {MakeOval fill} bdef
/PD {currentlinewidth 2 div 0 360 arc fill
   PDlw -1 eq not {PDlw w /PDlw -1 def} if} def
/FA {newpath tMatrix currentmatrix pop translate scale
  0 0 1 5 -2 roll arc tMatrix setmatrix stroke} bdef
/PA {newpath tMatrix currentmatrix pop	translate 0 0 moveto scale
  0 0 1 5 -2 roll arc closepath tMatrix setmatrix fill} bdef
/FAn {newpath tMatrix currentmatrix pop translate scale
  0 0 1 5 -2 roll arcn tMatrix setmatrix stroke} bdef
/PAn {newpath tMatrix currentmatrix pop translate 0 0 moveto scale
  0 0 1 5 -2 roll arcn closepath tMatrix setmatrix fill} bdef
/vradius 0 def /hradius 0 def /lry 0 def
/lrx 0 def /uly 0 def /ulx 0 def /rad 0 def
/MRR {/vradius xdef /hradius xdef /lry xdef /lrx xdef /uly xdef
  /ulx xdef newpath tMatrix currentmatrix pop ulx hradius add uly
  vradius add translate hradius vradius scale 0 0 1 180 270 arc 
  tMatrix setmatrix lrx hradius sub uly vradius add translate
  hradius vradius scale 0 0 1 270 360 arc tMatrix setmatrix
  lrx hradius sub lry vradius sub translate hradius vradius scale
  0 0 1 0 90 arc tMatrix setmatrix ulx hradius add lry vradius sub
  translate hradius vradius scale 0 0 1 90 180 arc tMatrix setmatrix
  closepath} bdef
/FRR {MRR stroke } bdef
/PRR {MRR fill } bdef
/MlrRR {/lry xdef /lrx xdef /uly xdef /ulx xdef /rad lry uly sub 2 div def
  newpath tMatrix currentmatrix pop ulx rad add uly rad add translate
  rad rad scale 0 0 1 90 270 arc tMatrix setmatrix lrx rad sub lry rad
  sub translate rad rad scale 0 0 1 270 90 arc tMatrix setmatrix
  closepath} bdef
/FlrRR {MlrRR stroke } bdef
/PlrRR {MlrRR fill } bdef
/MtbRR {/lry xdef /lrx xdef /uly xdef /ulx xdef /rad lrx ulx sub 2 div def
  newpath tMatrix currentmatrix pop ulx rad add uly rad add translate
  rad rad scale 0 0 1 180 360 arc tMatrix setmatrix lrx rad sub lry rad
  sub translate rad rad scale 0 0 1 0 180 arc tMatrix setmatrix
  closepath} bdef
/FtbRR {MtbRR stroke } bdef
/PtbRR {MtbRR fill } bdef
/stri 6 array def /dtri 6 array def
/smat 6 array def /dmat 6 array def
/tmat1 6 array def /tmat2 6 array def /dif 3 array def
/asub {/ind2 exch def /ind1 exch def dup dup
  ind1 get exch ind2 get sub exch } bdef
/tri_to_matrix {
  2 0 asub 3 1 asub 4 0 asub 5 1 asub
  dup 0 get exch 1 get 7 -1 roll astore } bdef
/compute_transform {
  dmat dtri tri_to_matrix tmat1 invertmatrix 
  smat stri tri_to_matrix tmat2 concatmatrix } bdef
/ds {stri astore pop} bdef
/dt {dtri astore pop} bdef
/db {2 copy /cols xdef /rows xdef mul dup 3 mul string
  currentfile 
  3 index 0 eq {/ASCIIHexDecode filter}
  {/ASCII85Decode filter 3 index 2 eq {/RunLengthDecode filter} if }
  ifelse exch readstring pop
  dup 0 3 index getinterval /rbmap xdef
  dup 2 index dup getinterval /gbmap xdef
  1 index dup 2 mul exch getinterval /bbmap xdef pop pop}bdef
/it {gs np dtri aload pop moveto lineto lineto cp c
  cols rows 8 compute_transform 
  rbmap gbmap bbmap true 3 colorimage gr}bdef
/il {newpath moveto lineto stroke}bdef
currentdict end def
%%EndProlog

%%BeginSetup
MathWorks begin

0 cap

end
%%EndSetup

%%Page: 1 1
%%BeginPageSetup
%%PageBoundingBox:    81   227   529   564
MathWorks begin
bpage
%%EndPageSetup

%%BeginObject: obj1
bplot

/dpi2point 12 def
portraitMode 0972 6768 csm

    0     0  5376  4033 rc
85 dict begin %Colortable dictionary
/c0 { 0.000000 0.000000 0.000000 sr} bdef
/c1 { 1.000000 1.000000 1.000000 sr} bdef
/c2 { 0.900000 0.000000 0.000000 sr} bdef
/c3 { 0.000000 0.820000 0.000000 sr} bdef
/c4 { 0.000000 0.000000 0.800000 sr} bdef
/c5 { 0.910000 0.820000 0.320000 sr} bdef
/c6 { 1.000000 0.260000 0.820000 sr} bdef
/c7 { 0.000000 0.820000 0.820000 sr} bdef
c0
1 j
1 sg
   0    0 5377 4034 rf
6 w
0 3287 4166 0 0 -3287 699 3589 4 MP
PP
-4166 0 0 3287 4166 0 0 -3287 699 3589 5 MP stroke
4 w
DO
0 sg
 699 3589 mt  699  302 L
 699  302 mt  699  302 L
1219 3589 mt 1219  302 L
1219  302 mt 1219  302 L
1740 3589 mt 1740  302 L
1740  302 mt 1740  302 L
2261 3589 mt 2261  302 L
2261  302 mt 2261  302 L
2782 3589 mt 2782  302 L
2782  302 mt 2782  302 L
3302 3589 mt 3302  302 L
3302  302 mt 3302  302 L
3823 3589 mt 3823  302 L
3823  302 mt 3823  302 L
4344 3589 mt 4344  302 L
4344  302 mt 4344  302 L
4865 3589 mt 4865  302 L
4865  302 mt 4865  302 L
 699 3589 mt 4865 3589 L
4865 3589 mt 4865 3589 L
 699 3178 mt 4865 3178 L
4865 3178 mt 4865 3178 L
 699 2767 mt 4865 2767 L
4865 2767 mt 4865 2767 L
 699 2356 mt 4865 2356 L
4865 2356 mt 4865 2356 L
 699 1945 mt 4865 1945 L
4865 1945 mt 4865 1945 L
 699 1534 mt 4865 1534 L
4865 1534 mt 4865 1534 L
 699 1123 mt 4865 1123 L
4865 1123 mt 4865 1123 L
 699  712 mt 4865  712 L
4865  712 mt 4865  712 L
 699  302 mt 4865  302 L
4865  302 mt 4865  302 L
SO
6 w
 699 3589 mt 4865 3589 L
 699  302 mt 4865  302 L
 699 3589 mt  699  302 L
4865 3589 mt 4865  302 L
 699 3589 mt 4865 3589 L
 699 3589 mt  699  302 L
 699 3589 mt  699 3547 L
 699  302 mt  699  343 L
%%IncludeResource: font Helvetica
/Helvetica /ISOLatin1Encoding 120 FMSR

 666 3734 mt 
(0) s
1219 3589 mt 1219 3547 L
1219  302 mt 1219  343 L
1153 3734 mt 
(10) s
1740 3589 mt 1740 3547 L
1740  302 mt 1740  343 L
1674 3734 mt 
(20) s
2261 3589 mt 2261 3547 L
2261  302 mt 2261  343 L
2195 3734 mt 
(30) s
2782 3589 mt 2782 3547 L
2782  302 mt 2782  343 L
2716 3734 mt 
(40) s
3302 3589 mt 3302 3547 L
3302  302 mt 3302  343 L
3236 3734 mt 
(50) s
3823 3589 mt 3823 3547 L
3823  302 mt 3823  343 L
3757 3734 mt 
(60) s
4344 3589 mt 4344 3547 L
4344  302 mt 4344  343 L
4278 3734 mt 
(70) s
4865 3589 mt 4865 3547 L
4865  302 mt 4865  343 L
4799 3734 mt 
(80) s
 699 3589 mt  740 3589 L
4865 3589 mt 4823 3589 L
 328 3633 mt 
(-4000) s
 699 3178 mt  740 3178 L
4865 3178 mt 4823 3178 L
 328 3222 mt 
(-3000) s
 699 2767 mt  740 2767 L
4865 2767 mt 4823 2767 L
 328 2811 mt 
(-2000) s
 699 2356 mt  740 2356 L
4865 2356 mt 4823 2356 L
 328 2400 mt 
(-1000) s
 699 1945 mt  740 1945 L
4865 1945 mt 4823 1945 L
 598 1989 mt 
(0) s
 699 1534 mt  740 1534 L
4865 1534 mt 4823 1534 L
 398 1578 mt 
(1000) s
 699 1123 mt  740 1123 L
4865 1123 mt 4823 1123 L
 398 1167 mt 
(2000) s
 699  712 mt  740  712 L
4865  712 mt 4823  712 L
 398  756 mt 
(3000) s
 699  302 mt  740  302 L
4865  302 mt 4823  302 L
 398  346 mt 
(4000) s
 699 3589 mt 4865 3589 L
 699  302 mt 4865  302 L
 699 3589 mt  699  302 L
4865 3589 mt 4865  302 L
gs 699 302 4167 3288 rc
/c8 { 0.000000 0.000000 1.000000 sr} bdef
c8
1 0 1 0 1 1 1 0 1 0 1 1 1 0 1 0 
1 0 1 1 1 0 1 0 1 0 1 1 1 0 1 0 
1 1 1 0 1 0 1 0 1 1 1 0 1 0 1 0 
1 0 1 1 1 0 1 0 1 0 1 0 1 1 1 0 
1 0 1 0 1 0 1 1 1 0 1 0 1 0 1 0 
1 0 1 0 1 1 1 0 1 0 1 0 1 0 1 0 
1 0 1 0 1 1 1 0 1 0 1 0 1 0 1 0 
1 0 1 0 1 0 1 0 1 0 1 0 1 0 1 0 
1 0 1 1 1 0 1 0 1 0 1 0 1 0 1 0 
1 0 1 0 1 0 1 0 1 0 1 0 1 0 1 0 
1 -1 1 0 1 0 1 0 1 0 1 0 1 0 1 0 
1 0 1 0 1 0 1 0 1 0 1 0 1 -1 1 0 
1 0 1 0 1 0 1 0 1 0 1 0 1 0 1 -1 
1 0 1 0 1 0 1 0 1 0 1 0 1 -1 1 0 
1 0 1 0 1 0 1 -1 1 0 1 0 1 0 1 0 
1 -1 1 0 1 0 1 0 1 -1 1 0 1 0 1 0 
1 -1 1 0 1 0 1 0 1 -1 1 0 1 0 1 0 
1 -1 1 0 1 0 1 -1 1 0 1 0 1 -1 1 0 
1 0 1 -1 1 0 1 0 1 0 1 -1 1 0 1 -1 
1 0 1 0 1 -1 1 0 1 -1 1 0 1 0 1 -1 
1 0 1 0 1 -1 1 0 1 -1 1 0 1 -1 1 0 
1 0 1 -1 1 0 1 -1 1 0 1 0 1 -1 1 0 
1 -1 1 0 1 -1 1 0 1 -1 1 0 1 -1 1 0 
1 -1 1 0 1 -1 1 0 1 -1 1 0 1 -1 1 -1 
1 0 1 -1 1 0 1 -1 1 0 1 -1 1 0 1 -1 
1 0 1 -1 1 -1 1 0 1 -1 1 -1 1 0 1 -1 
1 0 1 -1 1 0 1 -1 1 -1 1 0 1 -1 1 -1 
1 0 1 -1 1 -1 1 0 1 -1 1 -1 1 0 1 -1 
1 -1 1 0 1 -1 1 -1 1 0 1 -1 1 -1 1 -1 
1 0 1 -1 1 -1 1 0 1 -1 1 -1 1 -1 1 0 
1 -1 1 -1 1 -1 1 0 1 -1 1 -1 1 -1 1 0 
1 -1 1 -1 1 -1 1 -1 1 0 1 -1 1 -1 1 -1 
1 -1 1 -1 1 -1 1 0 1 -1 1 -1 1 -1 1 0 
1 -1 1 -1 1 -1 1 -1 1 -1 1 -1 1 -1 1 -1 
1 -1 1 0 1 -1 1 -1 1 -1 1 -1 1 -1 1 -1 
1 -1 1 -1 1 -1 1 -1 1 -1 1 0 1 -1 1 -1 
1 -1 1 -1 1 -1 1 -1 1 -1 1 -1 1 -1 1 -1 
1 -1 1 -1 1 -1 4562 827 300 MP stroke
1 -1 1 -1 1 -1 1 -1 1 -1 1 -1 1 -1 1 -1 
1 -1 1 -1 1 -1 1 -1 1 -1 1 -1 1 -1 1 -1 
1 -1 0 -1 2 -2 1 -1 1 -1 1 -1 1 -1 1 -1 
1 -1 1 -1 1 -1 1 -1 0 -1 2 -2 1 -1 1 -1 
1 -1 1 -1 0 -1 2 -2 1 0 0 -1 2 -2 1 -1 
1 -1 1 -1 0 -1 2 -2 1 -1 1 -1 0 -1 2 -2 
1 -1 1 0 -1 0 2 -2 1 -1 1 -1 0 -1 2 -2 
1 -1 0 -1 2 -2 1 -1 1 -1 1 -1 1 -1 0 -1 
2 -2 1 -1 0 -1 2 -2 1 -1 0 -1 2 -2 1 -1 
0 -1 2 -2 1 -1 1 -1 1 -1 0 -1 2 -2 1 -1 
0 -1 2 -2 1 -1 0 -1 1 -1 1 -1 0 -1 2 -2 
1 0 -1 0 2 -2 1 -1 0 -1 1 -1 1 -1 0 -1 
2 -2 0 -1 2 -2 1 -1 0 -1 2 -2 1 -1 1 -1 
0 -1 1 -1 1 -1 0 -1 2 -2 0 -1 2 -2 0 -1 
2 -2 0 -1 2 -2 1 -1 0 -1 1 -1 1 0 -1 0 
2 -2 0 -1 2 -2 0 -1 2 -2 0 -1 2 -2 0 -1 
1 -1 1 -1 0 -1 1 -1 1 -1 1 -1 0 -1 2 -2 
0 -1 1 -1 1 -1 0 -1 1 -1 1 -1 0 -1 1 -1 
0 -1 2 -2 0 -1 2 -2 0 -1 1 -1 1 0 -1 0 
2 -2 0 -1 1 -1 1 -1 0 -1 1 -1 0 -1 2 -2 
0 -1 1 -1 1 -1 0 -1 1 -1 0 -1 2 -2 1 -1 
0 -1 1 -1 1 -1 0 -1 1 -1 0 -1 2 -2 0 -1 
1 -1 0 -1 2 -2 0 -1 1 -1 0 -1 2 -2 0 -1 
1 -1 1 -1 1 -1 0 -1 1 -1 0 -1 1 -1 1 -1 
0 -1 1 -1 0 -1 1 -1 0 -1 2 -2 0 -1 1 -1 
0 -1 2 -2 1 -1 0 -1 1 -1 0 -1 1 -1 1 -1 
0 -1 1 -1 0 -1 1 -1 0 -1 2 -2 0 -1 1 -1 
0 -1 1 -1 0 -1 2 -2 0 -1 1 -1 1 -1 0 -1 
1 -1 1 -1 0 -1 1 -1 0 -1 1 -1 0 -1 1 -1 
0 -1 2 -2 0 -1 1 -1 0 -1 1 -1 0 -1 1 -1 
1 -1 1 -1 0 -1 1 -1 0 -1 1 -1 0 -1 1 -1 
0 -1 2 -2 0 -1 1 -1 0 -1 1 -1 0 -1 1 -1 
0 -1 1 -1 0 -1 2 -2 0 -1 1 -1 1 -1 0 -1 
1 -1 0 -1 1 -1 0 -1 1 -1 1 -1 0 -1 1 -1 
0 -1 1 -1 0 -1 1 -1 0 -1 1 -1 0 -1 1 -1 
0 -1 1 -1 0 -1 2 -2 1 -1 0 -1 1 -1 0 -1 
1 -1 0 -1 1 -1 0 -1 1 -1 0 -1 1 -1 0 -1 
1 -1 0 -1 1 -1 4329 1162 300 MP stroke
1 -1 0 -1 1 -1 0 -1 1 -1 0 -1 1 -1 1 -1 
0 -1 1 -1 0 -1 1 -1 0 -1 1 -1 0 -1 1 -1 
0 -1 1 -1 0 -1 1 -1 0 -1 1 -1 0 -1 1 -1 
0 -1 2 -2 0 -1 1 -1 0 -1 1 -1 1 -1 0 -1 
1 -1 0 -1 1 -1 0 -1 1 -1 0 -1 1 -1 0 -1 
1 -1 0 -1 1 -1 0 -1 1 -1 0 -1 1 -1 0 -1 
1 -1 0 -1 1 -1 0 -1 1 -1 1 -1 0 -1 1 -1 
0 -1 1 -1 0 -1 1 -1 0 -1 1 -1 0 -1 1 -1 
0 -1 1 -1 0 -1 1 -1 0 -1 1 -1 0 -1 1 -1 
0 -1 1 -1 0 -1 1 -1 0 -1 1 -1 1 -1 0 -1 
1 -1 0 -1 1 -1 0 -1 1 -1 0 -1 1 -1 0 -1 
1 -1 0 -1 1 -1 0 -1 1 -1 0 -1 1 -1 0 -1 
1 -1 0 -1 1 -1 0 -2 1 -1 1 -1 0 -1 1 -1 
0 -1 1 -1 0 -1 1 -1 0 -1 1 -1 0 -1 1 -1 
0 -1 1 -1 0 -1 1 -1 0 -1 1 -1 0 -1 1 -1 
0 -1 1 -1 0 -1 1 -1 0 -1 1 -1 1 -1 0 -2 
1 -1 0 -1 1 -1 0 -1 1 -1 0 -1 1 -1 0 -1 
1 -1 0 -1 1 -1 0 -1 1 -1 0 -1 1 -1 0 -1 
1 -1 0 -1 1 -2 0 -1 1 -1 1 -1 0 -1 1 -1 
0 -1 1 -1 0 -1 1 -1 0 -1 1 -1 0 -1 1 -1 
0 -1 1 -1 0 -2 1 -1 0 -1 1 -1 0 -1 1 -1 
0 -1 1 -1 0 -1 1 -1 0 -1 1 -1 1 -1 0 -1 
1 -2 0 -1 1 -1 0 -1 1 -1 0 -1 1 -1 0 -1 
1 -1 0 -1 1 -1 0 -1 1 -1 0 -2 1 -1 0 -1 
1 -1 0 -1 1 -1 0 -1 1 -1 1 -1 0 -1 1 -1 
0 -2 1 -1 0 -1 1 -1 0 -1 1 -1 0 -1 1 -1 
0 -1 1 -1 0 -1 1 -2 0 -1 1 -1 0 -1 1 -1 
0 -1 1 -1 0 -1 1 -1 0 -1 1 -2 1 -1 0 -1 
1 -1 0 -1 1 -1 0 -1 1 -1 0 -1 1 -2 0 -1 
1 -1 0 -1 1 -1 0 -1 1 -1 0 -1 1 -1 0 -2 
1 -1 0 -1 1 -1 0 -1 1 -1 0 -1 1 -1 1 -1 
0 -2 1 -1 0 -1 1 -1 0 -1 1 -1 0 -1 1 -1 
0 -1 1 -2 0 -1 1 -1 0 -1 1 -1 0 -1 1 -1 
0 -1 1 -2 0 -1 1 -1 0 -1 1 -1 1 -1 0 -1 
1 -1 0 -2 1 -1 0 -1 1 -1 0 -1 1 -1 0 -1 
1 -2 0 -1 1 -1 0 -1 1 -1 0 -1 1 -1 0 -1 
1 -2 0 -1 1 -1 0 -1 1 -1 0 -1 1 -1 1 -2 
0 -1 1 -1 0 -1 4172 1480 300 MP stroke
1 -1 0 -1 1 -1 0 -2 1 -1 0 -1 1 -1 0 -1 
1 -1 0 -1 1 -2 0 -1 1 -1 0 -1 1 -1 0 -1 
1 -1 0 -2 1 -1 1 -1 0 -1 1 -1 0 -1 1 -2 
0 -1 1 -1 0 -1 1 -1 0 -1 1 -1 0 -2 1 -1 
0 -1 1 -1 0 -1 1 -1 0 -2 1 -1 0 -1 1 -1 
0 -1 1 -1 0 -2 1 -1 1 -1 0 -1 1 -1 0 -1 
1 -1 0 -2 1 -1 0 -1 1 -1 0 -1 1 -1 0 -2 
1 -1 0 -1 1 -1 0 -1 1 -1 0 -2 1 -1 0 -1 
1 -1 0 -1 1 -1 1 -2 0 -1 1 -1 0 -1 1 -1 
0 -2 1 -1 0 -1 1 -1 0 -1 1 -1 0 -2 1 -1 
0 -1 1 -1 0 -1 1 -1 0 -2 1 -1 0 -1 1 -1 
0 -1 1 -1 0 -2 1 -1 1 -1 0 -1 1 -1 0 -2 
1 -1 0 -1 1 -1 0 -1 1 -1 0 -2 1 -1 0 -1 
1 -1 0 -1 1 -2 0 -1 1 -1 0 -1 1 -1 0 -2 
1 -1 0 -1 1 -1 1 -1 0 -1 1 -2 0 -1 1 -1 
0 -1 1 -1 0 -2 1 -1 0 -1 1 -1 0 -1 1 -2 
0 -1 1 -1 0 -1 1 -1 0 -1 1 -2 0 -1 1 -1 
0 -1 1 -1 0 -2 1 -1 1 -1 0 -1 1 -1 0 -2 
1 -1 0 -1 1 -1 0 -1 1 -2 0 -1 1 -1 0 -1 
1 -1 0 -2 1 -1 0 -1 1 -1 0 -1 1 -2 0 -1 
1 -1 0 -1 1 -1 1 -2 0 -1 1 -1 0 -1 1 -1 
0 -2 1 -1 0 -1 1 -1 0 -1 1 -2 0 -1 1 -1 
0 -1 1 -1 0 -2 1 -1 0 -1 1 -1 0 -2 1 -1 
0 -1 1 -1 0 -1 1 -2 1 -1 0 -1 1 -1 0 -1 
1 -2 0 -1 1 -1 0 -1 1 -1 0 -2 1 -1 0 -1 
1 -1 0 -1 1 -2 0 -1 1 -1 0 -1 1 -2 0 -1 
1 -1 0 -1 1 -1 0 -2 1 -1 1 -1 0 -1 1 -1 
0 -2 1 -1 0 -1 1 -1 0 -2 1 -1 0 -1 1 -1 
0 -1 1 -2 0 -1 1 -1 0 -1 1 -1 0 -2 1 -1 
0 -1 1 -1 0 -2 1 -1 1 -1 0 -1 1 -1 0 -2 
1 -1 0 -1 1 -1 0 -2 1 -1 0 -1 1 -1 0 -1 
1 -2 0 -1 1 -1 0 -1 1 -2 0 -1 1 -1 0 -1 
1 -1 0 -2 1 -1 0 -1 1 -1 1 -2 0 -1 1 -1 
0 -1 1 -1 0 -2 1 -1 0 -1 1 -1 0 -2 1 -1 
0 -1 1 -1 0 -1 1 -2 0 -1 1 -1 0 -1 1 -2 
0 -1 1 -1 0 -1 1 -1 1 -2 0 -1 1 -1 0 -1 
1 -2 0 -1 1 -1 0 -1 1 -2 0 -1 1 -1 0 -1 
1 -1 0 -2 1 -1 4016 1837 300 MP stroke
0 -1 1 -1 0 -2 1 -1 0 -1 1 -1 0 -1 1 -2 
0 -1 1 -1 1 -1 0 -2 1 -1 0 -1 1 -1 0 -2 
1 -1 0 -1 1 -1 0 -1 1 -2 0 -1 1 -1 0 -1 
1 -2 0 -1 1 -1 0 -1 1 -2 0 -1 1 -1 0 -1 
1 -1 1 -2 0 -1 1 -1 0 -1 1 -2 0 -1 1 -1 
0 -1 1 -2 0 -1 1 -1 0 -1 1 -1 0 -2 1 -1 
0 -1 1 -1 0 -2 1 -1 0 -1 1 -1 0 -2 1 -1 
0 -1 1 -1 1 -1 0 -2 1 -1 0 -1 1 -1 0 -2 
1 -1 0 -1 1 -1 0 -2 1 -1 0 -1 1 -1 0 -2 
1 -1 0 -1 1 -1 0 -1 1 -2 0 -1 1 -1 0 -1 
1 -2 1 -1 0 -1 1 -1 0 -2 1 -1 0 -1 1 -1 
0 -1 1 -2 0 -1 1 -1 0 -1 1 -2 0 -1 1 -1 
0 -1 1 -2 0 -1 1 -1 0 -1 1 -1 0 -2 1 -1 
0 -1 1 -1 1 -2 0 -1 1 -1 0 -1 1 -2 0 -1 
1 -1 0 -1 1 -2 0 -1 1 -1 0 -1 1 -1 0 -2 
1 -1 0 -1 1 -1 0 -2 1 -1 0 -1 1 -1 0 -2 
1 -1 0 -1 1 -1 1 -1 0 -2 1 -1 0 -1 1 -1 
0 -2 1 -1 0 -1 1 -1 0 -2 1 -1 0 -1 1 -1 
0 -1 1 -2 0 -1 1 -1 0 -1 1 -2 0 -1 1 -1 
0 -1 1 -2 1 -1 0 -1 1 -1 0 -1 1 -2 0 -1 
1 -1 0 -1 1 -2 0 -1 1 -1 0 -1 1 -2 0 -1 
1 -1 0 -1 1 -1 0 -2 1 -1 0 -1 1 -1 0 -2 
1 -1 0 -1 1 -1 1 -1 0 -2 1 -1 0 -1 1 -1 
0 -2 1 -1 0 -1 1 -1 0 -2 1 -1 0 -1 1 -1 
0 -1 1 -2 0 -1 1 -1 0 -1 1 -2 0 -1 1 -1 
0 -1 1 -1 1 -2 0 -1 1 -1 0 -1 1 -2 0 -1 
1 -1 0 -1 1 -1 0 -2 1 -1 0 -1 1 -1 0 -2 
1 -1 0 -1 1 -1 0 -1 1 -2 0 -1 1 -1 0 -1 
1 -2 0 -1 1 -1 1 -1 0 -1 1 -2 0 -1 1 -1 
0 -1 1 -2 0 -1 1 -1 0 -1 1 -1 0 -2 1 -1 
0 -1 1 -1 0 -2 1 -1 0 -1 1 -1 0 -1 1 -2 
0 -1 1 -1 1 -1 0 -1 1 -2 0 -1 1 -1 0 -1 
1 -2 0 -1 1 -1 0 -1 1 -1 0 -2 1 -1 0 -1 
1 -1 0 -1 1 -2 0 -1 1 -1 0 -1 1 -2 0 -1 
1 -1 0 -1 1 -1 1 -2 0 -1 1 -1 0 -1 1 -1 
0 -2 1 -1 0 -1 1 -1 0 -1 1 -2 0 -1 1 -1 
0 -1 1 -2 0 -1 1 -1 0 -1 1 -1 0 -2 1 -1 
0 -1 1 -1 1 -1 3860 2203 300 MP stroke
0 -2 1 -1 0 -1 1 -1 0 -1 1 -2 0 -1 1 -1 
0 -1 1 -1 0 -2 1 -1 0 -1 1 -1 0 -1 1 -2 
0 -1 1 -1 0 -1 1 -1 0 -2 1 -1 0 -1 1 -1 
1 -1 0 -2 1 -1 0 -1 1 -1 0 -1 1 -2 0 -1 
1 -1 0 -1 1 -1 0 -2 1 -1 0 -1 1 -1 0 -1 
1 -2 0 -1 1 -1 0 -1 1 -1 0 -2 1 -1 1 -1 
0 -1 1 -1 0 -1 1 -2 0 -1 1 -1 0 -1 1 -1 
0 -2 1 -1 0 -1 1 -1 0 -1 1 -2 0 -1 1 -1 
0 -1 1 -1 0 -1 1 -2 0 -1 1 -1 0 -1 1 -1 
1 -2 0 -1 1 -1 0 -1 1 -1 0 -2 1 -1 0 -1 
1 -1 0 -1 1 -1 0 -2 1 -1 0 -1 1 -1 0 -1 
1 -1 0 -2 1 -1 0 -1 1 -1 0 -1 1 -2 0 -1 
1 -1 1 -1 0 -1 1 -1 0 -2 1 -1 0 -1 1 -1 
0 -1 1 -1 0 -2 1 -1 0 -1 1 -1 0 -1 1 -1 
0 -2 1 -1 0 -1 1 -1 0 -1 1 -1 0 -2 1 -1 
1 -1 0 -1 1 -1 0 -1 1 -2 0 -1 1 -1 0 -1 
1 -1 0 -1 1 -2 0 -1 1 -1 0 -1 1 -1 0 -1 
1 -2 0 -1 1 -1 0 -1 1 -1 0 -1 1 -2 0 -1 
1 -1 1 -1 0 -1 1 -1 0 -1 1 -2 0 -1 1 -1 
0 -1 1 -1 0 -1 1 -1 0 -2 1 -1 0 -1 1 -1 
0 -1 1 -1 0 -2 1 -1 0 -1 1 -1 0 -1 1 -1 
1 -1 0 -2 1 -1 0 -1 1 -1 0 -1 1 -1 0 -1 
1 -2 0 -1 1 -1 0 -1 1 -1 0 -1 1 -1 0 -2 
1 -1 0 -1 1 -1 0 -1 1 -1 0 -1 1 -1 0 -2 
1 -1 1 -1 0 -1 1 -1 0 -1 1 -1 0 -2 1 -1 
0 -1 1 -1 0 -1 1 -1 0 -1 1 -1 0 -2 1 -1 
0 -1 1 -1 0 -1 1 -1 0 -1 1 -1 0 -2 1 -1 
1 -1 0 -1 1 -1 0 -1 1 -1 0 -1 1 -2 0 -1 
1 -1 0 -1 1 -1 0 -1 1 -1 0 -1 1 -1 0 -2 
1 -1 0 -1 1 -1 0 -1 1 -1 0 -1 1 -1 0 -1 
1 -2 1 -1 0 -1 1 -1 0 -1 1 -1 0 -1 1 -1 
0 -1 1 -2 0 -1 1 -1 0 -1 1 -1 0 -1 1 -1 
0 -1 1 -1 0 -1 1 -2 0 -1 1 -1 0 -1 1 -1 
1 -1 0 -1 1 -1 0 -1 1 -1 0 -1 1 -2 0 -1 
1 -1 0 -1 1 -1 0 -1 1 -1 0 -1 1 -1 0 -1 
1 -1 0 -2 1 -1 0 -1 1 -1 0 -1 1 -1 0 -1 
1 -1 1 -1 0 -1 1 -1 0 -1 1 -2 0 -1 1 -1 
0 -1 1 -1 0 -1 3705 2547 300 MP stroke
1 -1 0 -1 1 -1 0 -1 1 -1 0 -1 1 -1 0 -2 
1 -1 0 -1 1 -1 0 -1 1 -1 1 -1 0 -1 1 -1 
0 -1 1 -1 0 -1 1 -1 0 -1 1 -1 0 -2 1 -1 
0 -1 1 -1 0 -1 1 -1 0 -1 1 -1 0 -1 1 -1 
0 -1 1 -1 0 -1 1 -1 0 -1 1 -1 1 -1 0 -1 
1 -2 0 -1 1 -1 0 -1 1 -1 0 -1 1 -1 0 -1 
1 -1 0 -1 1 -1 0 -1 1 -1 0 -1 1 -1 0 -1 
1 -1 0 -1 1 -1 0 -1 1 -1 0 -1 1 -1 1 -2 
0 -1 1 -1 0 -1 1 -1 0 -1 1 -1 0 -1 1 -1 
0 -1 1 -1 0 -1 1 -1 0 -1 1 -1 0 -1 1 -1 
0 -1 1 -1 0 -1 1 -1 0 -1 1 -1 1 -1 0 -1 
1 -1 0 -1 1 -1 0 -1 1 -1 0 -1 1 -1 0 -1 
1 -1 0 -1 1 -1 0 -1 1 -1 0 -1 1 -1 0 -1 
1 -1 0 -1 1 -1 0 -1 1 -1 0 -1 1 -1 1 -1 
0 -1 1 -1 0 -1 1 -1 0 -1 1 -1 0 -1 1 -1 
0 -1 1 -1 0 -1 1 -1 0 -1 1 -1 0 -1 1 -1 
0 -1 1 -1 0 -1 1 -1 0 -1 1 -1 1 -1 0 -1 
1 -1 0 -1 1 -1 0 -1 1 -1 0 -1 1 -1 0 -1 
1 -1 0 -1 1 -1 0 -1 1 -1 0 -1 1 -1 0 -1 
1 -1 0 -1 1 -1 0 -1 1 -1 0 -1 1 -1 1 -1 
0 -1 1 -1 0 -1 2 -2 0 -1 1 -1 0 -1 1 -1 
0 -1 1 -1 0 -1 1 -1 0 -1 1 -1 0 -1 1 -1 
0 -1 1 -1 0 -1 1 -1 1 -1 0 -1 1 -1 1 -1 
0 -1 1 -1 0 -1 1 -1 0 -1 1 -1 0 -1 1 -1 
0 -1 1 -1 0 -1 1 -1 0 -1 1 -1 0 -1 2 -2 
0 -1 1 -1 1 -1 0 -1 1 -1 0 -1 1 -1 0 -1 
1 -1 0 -1 2 -2 0 -1 1 -1 0 -1 1 -1 0 -1 
1 -1 0 -1 1 -1 0 -1 2 -2 1 -1 0 -1 1 -1 
0 -1 1 -1 0 -1 1 -1 0 -1 2 -2 0 -1 1 -1 
0 -1 1 -1 0 -1 1 -1 0 -1 2 -2 0 -1 1 -1 
0 -1 1 -1 1 -1 0 -1 2 -2 0 -1 1 -1 0 -1 
1 -1 0 -1 1 -1 1 -1 0 -1 1 -1 0 -1 1 -1 
0 -1 1 -1 1 -1 0 -1 1 -1 0 -1 1 -1 1 -1 
1 -1 0 -1 1 -1 0 -1 1 -1 0 -1 1 -1 1 -1 
0 -1 1 -1 0 -1 1 -1 0 -1 2 -2 0 -1 1 -1 
1 -1 1 -1 0 -1 1 -1 0 -1 1 -1 0 -1 2 -2 
0 -1 1 -1 0 -1 2 -2 0 -1 1 -1 0 -1 2 -2 
0 -1 1 -1 1 -1 3534 2861 300 MP stroke
1 -1 0 -1 1 -1 0 -1 2 -2 0 -1 1 -1 0 -1 
2 -2 0 -1 1 -1 1 -1 0 -1 1 -1 0 -1 2 -2 
1 -1 0 -1 2 -2 0 -1 1 -1 1 -1 0 -1 1 -1 
0 -1 2 -2 0 -1 1 -1 1 -1 0 -1 1 -1 0 -1 
2 -2 1 -1 1 -1 0 -1 1 -1 0 -1 2 -2 0 -1 
2 -2 0 -1 2 -2 0 -1 1 -1 1 -1 0 -1 1 -1 
1 0 -1 0 2 -2 0 -1 2 -2 0 -1 2 -2 0 -1 
2 -2 0 -1 2 -2 1 -1 0 -1 1 -1 1 -1 1 -1 
0 -1 2 -2 0 -1 2 -2 1 -1 0 -1 1 -1 1 -1 
0 -1 2 -2 0 -1 2 -2 1 0 -1 0 2 -2 0 -1 
2 -2 1 -1 0 -1 1 -1 1 -1 0 -1 2 -2 1 -1 
0 -1 2 -2 1 -1 1 -1 0 -1 2 -2 1 -1 0 -1 
2 -2 1 -1 0 -1 2 -2 1 -1 0 -1 2 -2 1 0 
-1 0 2 -2 1 -1 0 -1 2 -2 1 -1 1 -1 0 -1 
2 -2 1 -1 0 -1 2 -2 1 -1 1 0 -1 0 2 -2 
1 -1 0 -1 2 -2 1 -1 1 -1 1 -1 0 -1 2 -2 
1 -1 1 -1 1 -1 1 -1 1 -1 0 -1 2 -2 1 -1 
1 -1 1 -1 0 -1 2 -2 1 -1 1 -1 1 -1 1 -1 
1 -1 1 -1 1 -1 1 -1 0 -1 2 -2 1 -1 1 -1 
1 -1 1 -1 1 -1 1 -1 1 -1 1 -1 1 -1 1 -1 
1 -1 1 -1 0 -1 2 -2 1 -1 1 -1 1 -1 1 -1 
1 0 1 -1 1 -1 0 -1 2 -2 1 -1 1 -1 1 -1 
1 -1 1 -1 1 -1 1 -1 1 -1 1 0 1 -1 1 -1 
1 -1 1 -1 1 -1 1 -1 1 -1 1 -1 1 -1 1 -1 
1 -1 1 0 1 -1 1 -1 1 -1 1 -1 1 -1 1 -1 
1 -1 1 -1 1 -1 1 -1 1 -1 1 0 1 -1 1 -1 
1 -1 1 -1 1 0 1 -1 1 -1 1 -1 1 -1 1 -1 
1 -1 1 0 1 -1 1 -1 1 -1 1 0 1 -1 1 -1 
1 -1 1 -1 1 0 1 -1 1 -1 1 -1 1 -1 1 0 
1 -1 1 -1 1 0 1 -1 1 -1 1 -1 1 0 1 -1 
1 -1 1 -1 1 0 1 -1 1 0 1 -1 1 -1 1 -1 
1 0 1 -1 1 -1 1 0 1 -1 1 -1 1 0 1 -1 
1 0 1 -1 1 -1 1 0 1 -1 1 -1 1 0 1 -1 
1 -1 1 0 1 -1 1 -1 1 0 1 0 1 -1 1 -1 
1 0 1 -1 1 0 1 -1 1 -1 1 0 1 -1 1 0 
1 -1 1 0 1 -1 1 0 1 -1 1 0 1 -1 1 0 
1 -1 1 0 1 -1 1 0 1 -1 1 0 1 -1 1 0 
1 -1 1 0 1 -1 3253 3155 300 MP stroke
1 0 1 -1 1 0 1 0 1 -1 1 0 1 -1 1 0 
1 0 1 -1 1 0 1 -1 1 0 1 -1 1 0 1 0 
1 -1 1 0 1 -1 1 0 1 0 1 0 1 -1 1 0 
1 -1 1 0 1 0 1 -1 1 0 1 0 1 -1 1 0 
1 0 1 0 1 -1 1 0 1 0 1 -1 1 0 1 0 
1 -1 1 0 1 0 1 0 1 -1 1 0 1 0 1 0 
1 -1 1 0 1 0 1 0 1 0 1 -1 1 0 1 0 
1 0 1 0 1 -1 1 0 1 0 1 0 1 0 1 -1 
1 0 1 0 1 0 1 0 1 0 1 -1 1 0 1 0 
1 0 1 0 1 0 1 0 1 0 1 0 1 -1 1 0 
1 0 1 0 1 0 1 0 1 0 1 0 1 0 1 0 
1 0 1 0 1 0 1 0 1 0 1 -1 1 0 1 0 
1 0 1 0 1 0 1 0 1 0 1 0 1 0 1 0 
1 0 1 0 1 0 1 1 1 0 1 0 1 0 1 0 
1 0 1 0 1 0 1 0 1 0 1 0 1 0 1 0 
1 0 1 0 1 0 1 1 1 0 1 0 1 0 1 0 
1 0 1 0 1 0 1 1 1 0 1 0 1 0 1 0 
1 0 1 1 1 0 1 0 1 0 1 0 1 0 1 1 
1 0 1 0 1 0 1 0 1 1 1 0 1 0 1 0 
1 1 1 0 1 0 1 0 1 1 1 0 1 0 1 0 
1 1 1 0 1 0 1 0 1 1 1 0 1 0 1 1 
1 0 1 0 1 0 1 1 1 0 1 1 1 0 1 0 
1 1 1 0 1 0 1 1 1 0 1 0 1 1 1 0 
1 0 1 1 1 0 1 1 1 0 1 0 1 1 1 0 
1 1 1 0 1 1 1 0 1 0 1 1 1 0 1 1 
1 0 1 1 1 0 1 1 1 0 1 1 1 0 1 1 
1 0 1 0 1 1 1 0 1 1 1 0 1 1 1 0 
1 1 1 1 1 0 1 1 1 0 1 1 1 0 1 1 
1 0 1 1 1 0 1 1 1 1 1 0 1 1 1 0 
1 1 1 0 1 1 1 1 1 0 1 1 1 1 1 0 
1 1 1 0 1 1 1 1 1 0 1 1 1 1 1 0 
1 1 1 1 1 0 1 1 1 1 1 0 1 1 1 1 
1 1 1 0 1 1 1 0 1 1 1 1 1 1 1 0 
1 1 1 1 1 1 1 0 1 1 1 1 1 1 1 0 
1 1 1 1 1 1 1 0 1 1 1 1 1 1 1 1 
1 1 1 0 1 1 1 1 1 1 1 0 1 1 1 1 
1 1 1 1 1 1 1 1 1 1 1 0 1 1 1 1 
1 1 1 1 1 0 2954 3090 300 MP stroke
1 1 1 1 1 1 1 1 1 1 1 1 1 1 1 1 
1 1 1 0 1 1 1 1 1 1 1 1 1 1 1 1 
1 1 1 1 1 1 1 1 1 1 1 1 1 1 1 1 
1 1 1 1 1 1 1 1 1 1 1 1 1 1 1 1 
1 1 1 1 1 1 1 1 1 1 1 1 1 1 1 1 
1 1 1 1 1 1 0 1 2 2 1 1 1 1 1 0 
0 1 2 2 1 1 1 1 1 1 1 1 1 1 0 1 
2 2 1 1 1 1 1 1 1 1 1 1 1 1 1 1 
0 1 2 2 1 1 1 1 1 1 0 1 2 2 1 1 
1 1 1 1 1 1 1 1 0 1 2 2 1 1 1 1 
0 1 2 2 1 1 0 1 2 2 1 0 0 1 2 2 
1 1 0 1 2 2 1 1 0 1 2 2 1 1 0 1 
2 2 1 0 -1 0 2 2 1 1 0 1 2 2 1 1 
0 1 2 2 1 1 0 1 2 2 1 1 1 1 1 1 
0 1 2 2 0 1 2 2 1 1 0 1 2 2 0 1 
2 2 1 1 0 1 1 1 1 0 -1 0 2 2 1 1 
0 1 1 1 1 1 0 1 2 2 0 1 2 2 1 1 
0 1 1 1 1 1 0 1 1 1 1 0 -1 0 2 2 
0 1 2 2 0 1 2 2 0 1 2 2 0 1 2 2 
0 1 2 2 1 1 1 1 0 1 1 1 1 1 0 1 
1 1 1 1 0 1 1 1 0 1 2 2 0 1 2 2 
0 1 1 1 1 1 1 1 0 1 2 2 0 1 1 1 
1 1 0 1 1 1 0 1 2 2 0 1 1 1 1 1 
0 1 1 1 0 1 2 2 1 1 0 1 2 2 0 1 
1 1 1 1 0 1 1 1 0 1 1 1 1 1 0 1 
1 1 0 1 2 2 0 1 1 1 1 1 1 1 0 1 
1 1 0 1 1 1 1 1 0 1 1 1 0 1 1 1 
1 1 0 1 1 1 0 1 1 1 1 1 0 1 1 1 
0 1 1 1 1 1 1 1 0 1 1 1 0 1 1 1 
0 1 2 2 0 1 1 1 0 1 1 1 1 1 0 1 
1 1 0 1 1 1 0 1 1 1 1 0 -1 0 2 2 
0 1 1 1 0 1 1 1 0 1 2 2 0 1 1 1 
0 1 1 1 0 1 2 2 0 1 1 1 0 1 1 1 
0 1 1 1 1 0 -1 0 2 2 0 1 1 1 0 1 
1 1 0 1 1 1 0 1 2 2 0 1 1 1 0 1 
1 1 0 1 1 1 0 1 2 2 1 1 0 1 1 1 
0 1 1 1 0 1 1 1 0 1 1 1 1 1 0 1 
1 1 0 1 1 1 2711 2761 300 MP stroke
0 1 1 1 0 1 1 1 0 1 1 1 0 1 2 2 
1 1 0 1 1 1 0 1 1 1 0 1 1 1 0 1 
1 1 0 1 1 1 0 1 1 1 1 1 0 1 1 1 
0 1 1 1 0 1 1 1 0 1 1 1 1 1 0 1 
1 1 0 1 1 1 0 1 1 1 0 1 1 1 0 1 
1 1 1 1 0 1 1 1 0 1 1 1 0 1 1 1 
0 1 1 1 0 1 1 1 0 1 1 1 1 1 0 1 
1 1 0 1 1 1 0 1 1 1 0 1 1 1 0 1 
1 1 0 1 1 1 0 1 1 1 0 1 1 1 0 1 
1 1 0 1 1 1 0 1 1 1 1 0 -1 0 2 2 
0 1 1 1 0 1 1 1 0 1 1 1 0 1 1 1 
0 1 1 1 0 1 1 1 0 1 1 1 0 1 1 1 
0 1 1 1 0 1 1 1 0 1 1 1 1 1 0 1 
1 1 0 1 1 1 0 1 1 1 0 1 1 1 0 1 
1 2 0 1 1 1 0 1 1 1 0 1 1 1 0 1 
1 1 0 1 1 1 0 1 1 1 0 1 1 1 1 1 
0 1 1 1 0 1 1 1 0 1 1 1 0 1 1 1 
0 1 1 1 0 1 1 1 0 1 1 1 0 1 1 1 
0 1 1 1 0 1 1 1 0 1 1 1 1 1 0 2 
1 1 0 1 1 1 0 1 1 1 0 1 1 1 0 1 
1 1 0 1 1 1 0 1 1 1 0 1 1 1 0 1 
1 1 0 1 1 1 0 1 1 2 0 1 1 1 1 1 
0 1 1 1 0 1 1 1 0 1 1 1 0 1 1 1 
0 1 1 1 0 1 1 1 0 1 1 1 0 2 1 1 
0 1 1 1 0 1 1 1 0 1 1 1 1 1 0 1 
1 1 0 1 1 1 0 1 1 2 0 1 1 1 0 1 
1 1 0 1 1 1 0 1 1 1 0 1 1 1 0 1 
1 1 0 2 1 1 0 1 1 1 0 1 1 1 1 1 
0 1 1 1 0 1 1 1 0 1 1 2 0 1 1 1 
0 1 1 1 0 1 1 1 0 1 1 1 0 1 1 1 
0 2 1 1 0 1 1 1 0 1 1 1 1 1 0 1 
1 1 0 1 1 2 0 1 1 1 0 1 1 1 0 1 
1 1 0 1 1 1 0 1 1 2 0 1 1 1 0 1 
1 1 0 1 1 1 0 1 1 1 0 2 1 1 1 1 
0 1 1 1 0 1 1 1 0 1 1 1 0 2 1 1 
0 1 1 1 0 1 1 1 0 1 1 1 0 1 1 2 
0 1 1 1 0 1 1 1 0 1 1 1 1 1 0 2 
1 1 0 1 1 1 2553 2448 300 MP stroke
0 1 1 1 0 1 1 1 0 2 1 1 0 1 1 1 
0 1 1 1 0 1 1 1 0 2 1 1 0 1 1 1 
0 1 1 1 0 1 1 2 1 1 0 1 1 1 0 1 
1 1 0 1 1 1 0 2 1 1 0 1 1 1 0 1 
1 1 0 1 1 2 0 1 1 1 0 1 1 1 0 1 
1 1 0 2 1 1 1 1 0 1 1 1 0 1 1 1 
0 2 1 1 0 1 1 1 0 1 1 1 0 2 1 1 
0 1 1 1 0 1 1 1 0 1 1 2 0 1 1 1 
0 1 1 1 0 1 1 2 1 1 0 1 1 1 0 1 
1 1 0 1 1 2 0 1 1 1 0 1 1 1 0 1 
1 2 0 1 1 1 0 1 1 1 0 1 1 2 0 1 
1 1 0 1 1 1 0 1 1 2 1 1 0 1 1 1 
0 1 1 1 0 2 1 1 0 1 1 1 0 1 1 1 
0 2 1 1 0 1 1 1 0 1 1 1 0 2 1 1 
0 1 1 1 0 1 1 2 1 1 0 1 1 1 0 1 
1 1 0 2 1 1 0 1 1 1 0 1 1 2 0 1 
1 1 0 1 1 1 0 1 1 2 0 1 1 1 0 1 
1 1 0 2 1 1 0 1 1 1 1 1 0 1 1 2 
0 1 1 1 0 1 1 1 0 2 1 1 0 1 1 1 
0 1 1 1 0 2 1 1 0 1 1 1 0 1 1 2 
0 1 1 1 0 1 1 1 1 2 0 1 1 1 0 1 
1 1 0 2 1 1 0 1 1 1 0 1 1 2 0 1 
1 1 0 1 1 1 0 2 1 1 0 1 1 1 0 1 
1 2 0 1 1 1 0 1 1 1 1 2 0 1 1 1 
0 1 1 1 0 2 1 1 0 1 1 1 0 1 1 2 
0 1 1 1 0 1 1 1 0 2 1 1 0 1 1 1 
0 1 1 2 0 1 1 1 1 1 0 1 1 2 0 1 
1 1 0 1 1 1 0 2 1 1 0 1 1 1 0 1 
1 2 0 1 1 1 0 1 1 2 0 1 1 1 0 1 
1 1 0 2 1 1 0 1 1 1 1 1 0 2 1 1 
0 1 1 1 0 1 1 2 0 1 1 1 0 1 1 2 
0 1 1 1 0 1 1 1 0 2 1 1 0 1 1 1 
0 1 1 2 0 1 1 1 1 1 0 2 1 1 0 1 
1 1 0 1 1 2 0 1 1 1 0 1 1 2 0 1 
1 1 0 1 1 1 0 2 1 1 0 1 1 1 0 1 
1 2 0 1 1 1 0 1 1 2 1 1 0 1 1 1 
0 1 1 2 0 1 1 1 0 1 1 2 0 1 1 1 
0 1 1 1 0 2 2398 2094 300 MP stroke
1 1 0 1 1 1 0 2 1 1 0 1 1 1 0 2 
1 1 1 1 0 1 1 1 0 2 1 1 0 1 1 1 
0 2 1 1 0 1 1 1 0 1 1 2 0 1 1 1 
0 1 1 2 0 1 1 1 0 1 1 1 0 2 1 1 
0 1 1 1 1 2 0 1 1 1 0 1 1 2 0 1 
1 1 0 1 1 1 0 2 1 1 0 1 1 1 0 2 
1 1 0 1 1 1 0 2 1 1 0 1 1 1 0 1 
1 2 0 1 1 1 1 1 0 2 1 1 0 1 1 1 
0 2 1 1 0 1 1 1 0 1 1 2 0 1 1 1 
0 1 1 2 0 1 1 1 0 1 1 2 0 1 1 1 
0 1 1 1 1 2 0 1 1 1 0 1 1 2 0 1 
1 1 0 1 1 2 0 1 1 1 0 1 1 1 0 2 
1 1 0 1 1 1 0 2 1 1 0 1 1 1 0 2 
1 1 0 1 1 1 1 1 0 2 1 1 0 1 1 1 
0 2 1 1 0 1 1 1 0 2 1 1 0 1 1 1 
0 1 1 2 0 1 1 1 0 1 1 2 0 1 1 1 
0 1 1 2 1 1 0 1 1 1 0 2 1 1 0 1 
1 1 0 1 1 2 0 1 1 1 0 1 1 2 0 1 
1 1 0 1 1 2 0 1 1 1 0 1 1 1 0 2 
1 1 0 1 1 1 1 2 0 1 1 1 0 1 1 2 
0 1 1 1 0 1 1 1 0 2 1 1 0 1 1 1 
0 2 1 1 0 1 1 1 0 2 1 1 0 1 1 1 
0 1 1 2 1 1 0 1 1 1 0 2 1 1 0 1 
1 1 0 2 1 1 0 1 1 1 0 1 1 2 0 1 
1 1 0 1 1 2 0 1 1 1 0 1 1 2 0 1 
1 1 0 1 1 1 1 2 0 1 1 1 0 1 1 2 
0 1 1 1 0 1 1 2 0 1 1 1 0 1 1 1 
0 2 1 1 0 1 1 1 0 2 1 1 0 1 1 1 
0 1 1 2 1 1 0 1 1 1 0 2 1 1 0 1 
1 1 0 1 1 2 0 1 1 1 0 1 1 2 0 1 
1 1 0 1 1 2 0 1 1 1 0 1 1 1 0 2 
1 1 0 1 1 1 1 2 0 1 1 1 0 1 1 1 
0 2 1 1 0 1 1 1 0 2 1 1 0 1 1 1 
0 1 1 2 0 1 1 1 0 1 1 1 0 2 1 1 
0 1 1 1 0 2 1 1 1 1 0 1 1 1 0 2 
1 1 0 1 1 1 0 2 1 1 0 1 1 1 0 1 
1 2 0 1 1 1 0 1 1 1 0 2 1 1 0 1 
1 1 0 2 1 1 2242 1727 300 MP stroke
1 1 0 1 1 1 0 2 1 1 0 1 1 1 0 1 
1 2 0 1 1 1 0 1 1 2 0 1 1 1 0 1 
1 1 0 2 1 1 0 1 1 1 0 1 1 2 0 1 
1 1 1 1 0 1 1 2 0 1 1 1 0 1 1 1 
0 2 1 1 0 1 1 1 0 1 1 2 0 1 1 1 
0 1 1 2 0 1 1 1 0 1 1 1 0 2 1 1 
1 1 0 1 1 1 0 2 1 1 0 1 1 1 0 1 
1 2 0 1 1 1 0 1 1 1 0 2 1 1 0 1 
1 1 0 1 1 1 0 2 1 1 0 1 1 1 0 1 
1 2 1 1 0 1 1 1 0 1 1 2 0 1 1 1 
0 1 1 1 0 2 1 1 0 1 1 1 0 1 1 2 
0 1 1 1 0 1 1 1 0 1 1 2 0 1 1 1 
1 1 0 1 1 2 0 1 1 1 0 1 1 1 0 2 
1 1 0 1 1 1 0 1 1 1 0 2 1 1 0 1 
1 1 0 1 1 2 0 1 1 1 0 1 1 1 0 1 
1 2 1 1 0 1 1 1 0 1 1 1 0 2 1 1 
0 1 1 1 0 1 1 2 0 1 1 1 0 1 1 1 
0 1 1 2 0 1 1 1 0 1 1 1 0 1 1 2 
1 1 0 1 1 1 0 1 1 1 0 2 1 1 0 1 
1 1 0 1 1 1 0 2 1 1 0 1 1 1 0 1 
1 1 0 2 1 1 0 1 1 1 0 1 1 1 0 2 
1 1 1 1 0 1 1 1 0 1 1 2 0 1 1 1 
0 1 1 1 0 1 1 1 0 2 1 1 0 1 1 1 
0 1 1 1 0 2 1 1 0 1 1 1 0 1 1 1 
1 1 0 2 1 1 0 1 1 1 0 1 1 1 0 1 
1 2 0 1 1 1 0 1 1 1 0 1 1 1 0 2 
1 1 0 1 1 1 0 1 1 1 0 1 1 2 0 1 
1 1 1 1 0 1 1 1 0 1 1 2 0 1 1 1 
0 1 1 1 0 1 1 1 0 1 1 2 0 1 1 1 
0 1 1 1 0 1 1 1 0 2 1 1 0 1 1 1 
0 1 1 1 1 1 0 1 1 2 0 1 1 1 0 1 
1 1 0 1 1 1 0 1 1 2 0 1 1 1 0 1 
1 1 0 1 1 1 0 1 1 1 0 2 1 1 0 1 
1 1 1 1 0 1 1 1 0 1 1 1 0 2 1 1 
0 1 1 1 0 1 1 1 0 1 1 1 0 1 1 2 
0 1 1 1 0 1 1 1 0 1 1 1 0 1 1 1 
0 1 1 2 1 1 0 1 1 1 0 1 1 1 0 1 
1 1 0 1 1 1 2086 1380 300 MP stroke
0 2 1 1 0 1 1 1 0 1 1 1 0 1 1 1 
0 1 1 1 0 1 1 2 0 1 1 1 1 1 0 1 
1 1 0 1 1 1 0 1 1 1 0 1 1 2 0 1 
1 1 0 1 1 1 0 1 1 1 0 1 1 1 0 1 
1 1 0 1 1 1 0 2 1 1 0 1 1 1 1 1 
0 1 1 1 0 1 1 1 0 1 1 1 0 1 1 1 
0 1 1 2 0 1 1 1 0 1 1 1 0 1 1 1 
0 1 1 1 0 1 1 1 0 1 1 1 1 1 0 1 
1 1 0 1 1 2 0 1 1 1 0 1 1 1 0 1 
1 1 0 1 1 1 0 1 1 1 0 1 1 1 0 1 
1 1 0 1 1 1 0 1 1 1 0 1 1 2 1 1 
0 1 1 1 0 1 1 1 0 1 1 1 0 1 1 1 
0 1 1 1 0 1 1 1 0 1 1 1 0 1 1 1 
0 1 1 1 0 1 1 1 0 1 1 1 1 1 0 1 
1 1 0 1 1 1 0 1 1 1 0 1 1 2 0 1 
1 1 0 1 1 1 0 1 1 1 0 1 1 1 0 1 
1 1 0 1 1 1 0 1 1 1 0 1 1 1 1 1 
0 1 1 1 0 1 1 1 0 1 1 1 0 1 1 1 
0 1 1 1 0 1 1 1 0 1 1 1 0 1 1 1 
0 1 1 1 0 1 1 1 0 1 1 1 1 1 0 1 
1 1 0 1 1 1 0 1 1 1 0 1 1 1 0 1 
1 1 0 1 1 1 0 1 1 1 0 1 1 1 0 1 
2 2 0 1 1 1 0 1 1 1 1 1 0 1 1 1 
0 1 1 1 0 1 1 1 0 1 1 1 0 1 1 1 
0 1 1 1 0 1 1 1 0 1 1 1 0 1 1 1 
0 1 1 1 0 1 1 1 1 1 1 1 0 1 1 1 
0 1 1 1 0 1 1 1 0 1 1 1 0 1 1 1 
0 1 1 1 0 1 1 1 0 1 1 1 0 1 2 2 
0 1 1 1 1 1 0 1 1 1 0 1 1 1 0 1 
1 1 0 1 1 1 0 1 2 2 0 1 1 1 0 1 
1 1 0 1 1 1 0 1 1 1 0 1 1 1 1 1 
1 1 0 1 1 1 0 1 1 1 0 1 1 1 0 1 
1 1 0 1 2 2 0 1 1 1 0 1 1 1 0 1 
1 1 0 1 2 2 1 1 0 1 1 1 0 1 1 1 
0 1 2 2 0 1 1 1 0 1 1 1 0 1 1 1 
1 1 0 1 1 1 0 1 1 1 0 1 1 1 1 1 
1 1 0 1 1 1 0 1 1 1 0 1 1 1 1 1 
0 1 1 1 0 1 1922 1067 300 MP stroke
1 1 0 1 2 2 0 1 1 1 0 1 1 1 1 1 
1 1 0 1 1 1 0 1 1 1 1 1 0 1 1 1 
0 1 1 1 0 1 2 2 0 1 1 1 0 1 2 2 
0 1 1 1 1 1 1 1 0 1 1 1 0 1 1 1 
1 1 0 1 1 1 0 1 1 1 1 1 0 1 1 1 
0 1 2 2 0 1 1 1 1 1 1 1 0 1 1 1 
0 1 2 2 0 1 1 1 1 1 0 1 1 1 0 1 
2 2 0 1 1 1 1 1 0 1 1 1 1 1 1 1 
0 1 1 1 1 1 0 1 1 1 0 1 2 2 0 1 
1 1 1 1 0 1 1 1 1 1 0 1 1 1 1 1 
0 1 1 1 1 1 1 1 0 1 1 1 1 1 0 1 
1 1 1 1 0 1 1 1 1 1 0 1 1 1 1 1 
0 1 1 1 1 1 1 1 0 1 2 2 0 1 2 2 
1 1 0 1 1 1 1 1 0 1 1 1 1 1 0 1 
2 2 1 1 1 1 0 1 2 2 0 1 2 2 1 1 
0 1 1 1 1 1 0 1 2 2 1 1 0 1 1 1 
1 0 -1 0 2 2 1 1 0 1 2 2 1 1 0 1 
1 1 1 1 0 1 2 2 1 1 0 1 2 2 1 0 
-1 0 2 2 1 1 0 1 2 2 1 1 0 1 2 2 
1 1 1 1 0 1 2 2 1 0 -1 0 2 2 1 1 
1 1 0 1 2 2 1 1 0 1 2 2 1 1 1 1 
1 1 1 1 1 1 0 1 2 2 1 1 1 1 1 1 
0 1 2 2 1 1 1 1 1 1 1 1 1 1 1 1 
0 1 2 2 1 1 1 1 1 1 1 1 0 1 2 2 
1 1 1 1 1 1 1 0 -1 0 2 2 1 1 1 1 
1 1 1 1 1 1 1 1 1 1 0 1 2 2 1 1 
1 0 1 1 1 1 1 1 0 1 2 2 1 1 1 1 
1 1 1 1 1 1 1 1 1 1 1 0 1 1 1 1 
1 1 1 1 1 1 1 1 1 1 1 1 1 1 1 1 
1 1 1 1 1 1 1 1 1 1 1 1 1 1 1 1 
1 1 1 0 1 1 1 1 1 1 1 1 1 1 1 1 
1 0 1 1 1 1 1 1 1 1 1 1 1 1 1 1 
1 1 1 0 1 1 1 1 1 1 1 0 1 1 1 1 
1 1 1 1 1 1 1 0 1 1 1 1 1 1 1 0 
1 1 1 1 1 1 1 0 1 1 1 1 1 1 1 1 
1 0 1 1 1 1 1 1 1 0 1 1 1 0 1 1 
1 1 1 1 1 0 1 1 1 1 1 0 1 1 1 1 
1 0 1 1 1 1 1662 760 300 MP stroke
1 0 1 1 1 1 1 0 1 1 1 1 1 0 1 1 
1 0 1 1 1 0 1 1 1 1 1 0 1 1 1 1 
1 0 1 1 1 0 1 1 1 1 1 0 1 0 1 1 
1 1 1 0 1 1 1 0 1 1 1 0 1 1 1 0 
1 1 1 0 1 1 1 0 1 1 1 0 1 1 1 0 
1 1 1 0 1 1 1 0 1 1 1 0 1 1 1 0 
1 0 1 1 1 0 1 1 1 0 1 1 1 0 1 0 
1 1 1 0 1 1 1 0 1 0 1 1 1 0 1 0 
1 1 1 0 1 1 1 0 1 0 1 1 1 0 1 0 
1 1 1 0 1 0 1 1 1 0 1 0 1 1 1 0 
1 0 1 0 1 1 1 0 1 0 1 0 1 1 1 0 
1 0 1 1 1 0 1 0 1 0 1 1 1 0 1 0 
1 0 1 1 1 0 1 0 1 0 1 0 1 0 1 1 
1 0 1 0 1 0 1 0 1 1 1 0 1 0 1 0 
1 0 1 0 1 0 1 1 1 0 1 0 1 0 1 0 
1 0 1 0 1 0 1 1 1 0 1 0 1 0 1 0 
1 0 1 0 1 0 1 0 1 0 1 0 1 0 1 0 
1 0 1 0 1 1 1 0 1 0 1 0 1 0 1 0 
1 0 1 0 1 0 1 0 1 0 1 0 1 0 1 0 
1 0 1 -1 1 0 1 0 1 0 1 0 1 0 1 0 
1 0 1 0 1 0 1 0 1 0 1 0 1 0 1 -1 
1 0 1 0 1 0 1 0 1 0 1 0 1 0 1 0 
1 -1 1 0 1 0 1 0 1 0 1 0 1 -1 1 0 
1 0 1 0 1 0 1 0 1 -1 1 0 1 0 1 0 
1 0 1 -1 1 0 1 0 1 0 1 -1 1 0 1 0 
1 0 1 -1 1 0 1 0 1 0 1 -1 1 0 1 0 
1 -1 1 0 1 0 1 0 1 -1 1 0 1 0 1 -1 
1 0 1 0 1 -1 1 0 1 0 1 -1 1 0 1 0 
1 -1 1 0 1 0 1 -1 1 0 1 0 1 -1 1 0 
1 -1 1 0 1 -1 1 0 1 0 1 -1 1 0 1 0 
1 -1 1 0 1 -1 1 0 1 -1 1 0 1 -1 1 0 
1 0 1 -1 1 0 1 -1 1 0 1 -1 1 0 1 -1 
1 0 1 -1 1 0 1 -1 1 -1 1 0 1 0 1 -1 
1 0 1 -1 1 -1 1 0 1 -1 1 0 1 -1 1 -1 
1 0 1 0 1 -1 1 -1 1 0 1 -1 1 0 1 -1 
1 -1 1 0 1 -1 1 -1 1 0 1 -1 1 0 1 -1 
1 -1 1 0 1 -1 1 -1 1 0 1 -1 1 -1 1 0 
1 -1 1 -1 1 0 1363 765 300 MP stroke
1 -1 1 -1 1 0 1 -1 1 -1 1 -1 1 0 1 -1 
1 -1 1 -1 1 0 1 -1 1 0 1 -1 1 -1 1 -1 
1 -1 1 0 1 -1 1 -1 1 -1 1 -1 1 0 1 -1 
1 -1 1 -1 1 0 1 -1 1 -1 1 -1 1 -1 1 -1 
1 0 1 -1 1 -1 1 -1 1 -1 1 0 1 -1 1 -1 
1 -1 1 -1 1 -1 1 -1 1 -1 1 -1 1 -1 1 0 
1 -1 1 -1 1 -1 1 -1 1 -1 1 -1 1 -1 1 -1 
1 -1 1 0 1 -1 1 -1 1 -1 1 -1 1 -1 1 -1 
1 -1 1 -1 1 -1 1 -1 1 -1 1 -1 1 -1 1 -1 
1 -1 1 -1 1 -1 1 -1 1 -1 1 -1 1 -1 1 -1 
1 -1 1 -1 1 -1 1 -1 1 -1 1 -1 1 -1 1 -1 
1 -1 1 -1 1 -1 0 -1 2 -2 1 -1 1 -1 1 -1 
1 -1 1 -1 0 -1 2 -2 1 0 1 -1 0 -1 2 -2 
1 -1 1 -1 1 -1 0 -1 2 -2 1 -1 1 -1 1 -1 
1 -1 1 -1 1 -1 0 -1 2 -2 1 -1 1 -1 1 -1 
0 -1 2 -2 1 -1 1 -1 1 -1 1 -1 0 -1 2 -2 
1 -1 1 -1 0 -1 2 -2 1 -1 0 -1 2 -2 1 -1 
1 -1 1 -1 1 -1 0 -1 2 -2 1 -1 0 -1 2 -2 
1 -1 0 -1 2 -2 1 -1 0 -1 2 -2 1 -1 1 -1 
0 -1 2 -2 1 -1 0 -1 2 -2 1 -1 0 -1 1 -1 
1 -1 0 -1 2 -2 1 -1 1 -1 0 -1 2 -2 1 -1 
0 -1 1 -1 1 -1 0 -1 2 -2 0 -1 2 -2 1 -1 
0 -1 1 -1 1 0 -1 0 2 -2 1 -1 0 -1 1 -1 
1 -1 0 -1 1 -1 1 -1 0 -1 1 -1 1 -1 0 -1 
1 -1 1 -1 0 -1 1 -1 1 -1 1 -1 0 -1 2 -2 
0 -1 2 -2 0 -1 2 -2 0 -1 2 -2 0 -1 1 -1 
1 -1 0 -1 1 -1 1 0 -1 0 2 -2 0 -1 2 -2 
0 -1 1 -1 1 -1 0 -1 1 -1 0 -1 2 -2 0 -1 
2 -2 0 -1 1 -1 1 -1 1 -1 0 -1 1 -1 1 -1 
0 -1 1 -1 0 -1 2 -2 0 -1 1 -1 0 -1 2 -2 
0 -1 1 -1 1 -1 0 -1 1 -1 1 -1 1 -1 0 -1 
1 -1 0 -1 1 -1 1 -1 0 -1 1 -1 0 -1 1 -1 
1 -1 0 -1 1 -1 0 -1 1 -1 1 -1 0 -1 1 -1 
0 -1 1 -1 1 0 -1 0 2 -2 0 -1 1 -1 0 -1 
1 -1 1 -1 0 -1 1 -1 0 -1 1 -1 1 -1 0 -1 
1 -1 0 -1 1 -1 0 -1 2 -2 1 -1 0 -1 1 -1 
0 -1 1 -1 1 -1 0 -1 1 -1 0 -1 1 -1 0 -1 
2 -2 0 -1 1 -1 1104 1079 300 MP stroke
0 -1 1 -1 0 -1 1 -1 1 -1 0 -1 1 -1 1 -1 
0 -1 1 -1 0 -1 2 -2 0 -1 1 -1 0 -1 1 -1 
0 -1 1 -1 0 -1 2 -2 0 -1 1 -1 0 -1 1 -1 
0 -1 1 -1 1 -1 1 -1 0 -1 1 -1 0 -1 1 -1 
0 -1 1 -1 0 -1 1 -1 0 -1 2 -2 0 -1 1 -1 
0 -1 1 -1 0 -1 1 -1 0 -1 1 -1 1 -1 1 -1 
0 -1 1 -1 0 -1 1 -1 0 -1 1 -1 0 -1 1 -1 
0 -1 1 -1 0 -1 1 -1 1 -1 0 -1 1 -1 0 -1 
1 -1 0 -1 1 -1 0 -1 1 -1 0 -1 1 -1 1 -1 
0 -1 1 -1 0 -1 1 -1 1 -1 0 -1 1 -1 0 -1 
1 -1 0 -1 1 -1 0 -1 1 -1 0 -1 1 -1 0 -1 
1 -1 0 -1 1 -1 0 -1 1 -1 1 -1 0 -1 1 -1 
0 -1 1 -1 0 -1 2 -2 0 -1 1 -1 0 -1 1 -1 
0 -1 1 -1 0 -1 1 -1 0 -1 1 -1 0 -1 1 -1 
0 -1 1 -1 0 -1 1 -1 1 -1 0 -1 1 -1 0 -1 
1 -1 0 -1 1 -1 0 -1 1 -1 0 -1 1 -1 0 -1 
1 -1 0 -1 1 -1 0 -1 1 -1 0 -1 1 -1 0 -1 
1 -1 0 -1 1 -1 1 -1 0 -1 1 -1 0 -1 1 -1 
0 -1 1 -1 0 -1 1 -1 0 -1 1 -1 0 -1 1 -1 
0 -1 1 -1 0 -1 1 -1 0 -1 1 -1 0 -1 1 -1 
0 -1 1 -1 0 -1 1 -1 1 -1 0 -1 1 -1 0 -1 
1 -1 0 -1 1 -1 0 -1 1 -1 0 -1 1 -1 0 -1 
1 -1 0 -1 1 -1 0 -1 1 -1 0 -1 1 -1 0 -1 
1 -1 0 -1 1 -2 1 -1 0 -1 1 -1 0 -1 1 -1 
0 -1 1 -1 0 -1 1 -1 0 -1 1 -1 0 -1 1 -1 
0 -1 1 -1 0 -1 1 -1 0 -1 1 -1 0 -1 1 -1 
0 -1 1 -1 0 -1 1 -2 1 -1 0 -1 1 -1 0 -1 
1 -1 0 -1 1 -1 0 -1 1 -1 0 -1 1 -1 0 -1 
1 -1 0 -1 1 -1 0 -1 1 -1 0 -1 1 -2 0 -1 
1 -1 0 -1 1 -1 1 -1 0 -1 1 -1 0 -1 1 -1 
0 -1 1 -1 0 -1 1 -1 0 -1 1 -2 0 -1 1 -1 
0 -1 1 -1 0 -1 1 -1 0 -1 1 -1 0 -1 1 -1 
0 -1 1 -1 0 -1 1 -2 1 -1 0 -1 1 -1 0 -1 
1 -1 0 -1 1 -1 0 -1 1 -1 0 -1 1 -1 0 -2 
1 -1 0 -1 1 -1 0 -1 1 -1 0 -1 1 -1 0 -1 
1 -1 0 -1 1 -2 0 -1 1 -1 1 -1 0 -1 1 -1 
0 -1 1 -1 0 -1 1 -1 0 -1 1 -2 0 -1 1 -1 
0 -1 1 -1 0 -1 942 1390 300 MP stroke
1 -1 0 -1 1 -1 0 -1 1 -2 0 -1 1 -1 0 -1 
1 -1 1 -1 0 -1 1 -1 0 -1 1 -2 0 -1 1 -1 
0 -1 1 -1 0 -1 1 -1 0 -1 1 -1 0 -2 1 -1 
0 -1 1 -1 0 -1 1 -1 0 -1 1 -1 0 -1 1 -2 
0 -1 1 -1 1 -1 0 -1 1 -1 0 -1 1 -1 0 -2 
1 -1 0 -1 1 -1 0 -1 1 -1 0 -1 1 -1 0 -2 
1 -1 0 -1 1 -1 0 -1 1 -1 0 -1 1 -1 0 -2 
1 -1 1 -1 0 -1 1 -1 0 -1 1 -1 0 -1 1 -2 
0 -1 1 -1 0 -1 1 -1 0 -1 1 -1 0 -2 1 -1 
0 -1 1 -1 0 -1 1 -1 0 -1 1 -2 0 -1 1 -1 
0 -1 1 -1 1 -1 0 -1 1 -2 0 -1 1 -1 0 -1 
1 -1 0 -1 1 -1 0 -2 1 -1 0 -1 1 -1 0 -1 
1 -1 0 -1 1 -2 0 -1 1 -1 0 -1 1 -1 0 -1 
1 -1 1 -2 0 -1 1 -1 0 -1 1 -1 0 -1 1 -2 
0 -1 1 -1 0 -1 1 -1 0 -1 1 -1 0 -2 1 -1 
0 -1 1 -1 0 -1 1 -1 0 -2 1 -1 0 -1 1 -1 
0 -1 1 -1 1 -2 0 -1 1 -1 0 -1 1 -1 0 -1 
1 -2 0 -1 1 -1 0 -1 1 -1 0 -1 1 -2 0 -1 
1 -1 0 -1 1 -1 0 -1 1 -2 0 -1 1 -1 0 -1 
1 -1 1 -1 0 -2 1 -1 0 -1 1 -1 0 -1 1 -2 
0 -1 1 -1 0 -1 1 -1 0 -1 1 -2 0 -1 1 -1 
0 -1 1 -1 0 -1 1 -2 0 -1 1 -1 0 -1 1 -1 
0 -2 1 -1 1 -1 0 -1 1 -1 0 -1 1 -2 0 -1 
1 -1 0 -1 1 -1 0 -2 1 -1 0 -1 1 -1 0 -1 
1 -1 0 -2 1 -1 0 -1 1 -1 0 -1 1 -2 0 -1 
1 -1 1 -1 0 -1 1 -2 0 -1 1 -1 0 -1 1 -1 
0 -1 1 -2 0 -1 1 -1 0 -1 1 -1 0 -2 1 -1 
0 -1 1 -1 0 -1 1 -2 0 -1 1 -1 0 -1 1 -1 
0 -2 1 -1 1 -1 0 -1 1 -1 0 -2 1 -1 0 -1 
1 -1 0 -1 1 -2 0 -1 1 -1 0 -1 1 -1 0 -2 
1 -1 0 -1 1 -1 0 -1 1 -2 0 -1 1 -1 0 -1 
1 -1 0 -2 1 -1 1 -1 0 -1 1 -1 0 -2 1 -1 
0 -1 1 -1 0 -1 1 -2 0 -1 1 -1 0 -1 1 -1 
0 -2 1 -1 0 -1 1 -1 0 -2 1 -1 0 -1 1 -1 
0 -1 1 -2 1 -1 0 -1 1 -1 0 -1 1 -2 0 -1 
1 -1 0 -1 1 -1 0 -2 1 -1 0 -1 1 -1 0 -2 
1 -1 0 -1 1 -1 0 -1 1 -2 0 -1 1 -1 0 -1 
1 -1 0 -2 1 -1 786 1739 300 MP stroke
1 -1 0 -1 1 -2 0 -1 1 -1 0 -1 1 -1 0 -2 
1 -1 0 -1 1 -1 0 -1 1 -2 0 -1 1 -1 0 -1 
1 -2 0 -1 1 -1 0 -1 1 -1 0 -2 1 -1 1 -1 
0 -1 1 -2 0 -1 1 -1 0 -1 1 -1 0 -2 1 -1 
0 -1 1 -1 0 -2 1 -1 0 -1 1 -1 0 -1 1 -2 
0 -1 1 -1 0 -1 1 -2 0 -1 1 -1 0 -1 1 -1 
1 -2 0 -1 1 -1 0 -1 1 -2 0 -1 1 -1 0 -1 
1 -1 0 -2 1 -1 0 -1 1 -1 0 -2 1 -1 0 -1 
1 -1 0 -1 1 -2 0 -1 1 -1 0 -1 1 -2 1 -1 
0 -1 1 -1 0 -2 1 -1 0 -1 1 -1 0 -1 1 -2 
0 -1 1 -1 0 -1 1 -2 0 -1 1 -1 0 -1 1 -1 
0 -2 1 -1 0 -1 1 -1 0 -2 1 -1 0 -1 1 -1 
1 -2 0 -1 1 -1 0 -1 1 -1 0 -2 1 -1 0 -1 
1 -1 0 -2 1 -1 0 -1 1 -1 0 -2 1 -1 0 -1 
1 -1 0 -1 1 -2 0 -1 1 -1 0 -1 1 -2 1 -1 
0 -1 1 -1 0 -2 1 -1 0 -1 1 -1 0 -1 1 -2 
0 -1 1 -1 0 -1 1 -2 0 -1 1 -1 0 -1 1 -2 
0 -1 1 -1 0 -1 1 -1 0 -2 1 -1 0 -1 1 -1 
1 -2 0 -1 1 -1 0 -1 1 -2 0 -1 1 -1 0 -1 
1 -2 0 -1 1 -1 0 -1 1 -1 0 -2 1 -1 0 -1 
1 -1 0 -2 1 -1 0 -1 1 -1 0 -2 1 -1 0 -1 
699 1945 169 MP stroke
/c9 { 0.000000 0.500000 0.000000 sr} bdef
c9
1 1 1 2 0 3 1 2 0 3 1 4 0 3 1 3 
0 3 1 3 0 2 1 2 0 2 1 2 0 2 1 1 
1 2 0 1 1 1 0 2 1 1 0 1 1 2 0 1 
1 1 0 1 1 1 0 1 1 1 1 1 1 1 1 1 
1 0 1 0 1 -1 1 0 0 -1 2 -2 1 -1 0 -1 
1 -1 0 -1 1 -1 0 -1 1 -1 0 -1 1 -1 0 -1 
1 -1 1 -1 1 -1 1 -1 1 0 1 0 1 0 1 0 
1 0 1 1 1 0 1 0 1 1 1 1 1 1 0 1 
1 1 0 1 1 2 1 1 0 2 1 1 0 2 1 1 
0 1 1 2 0 1 1 1 0 1 1 1 0 1 1 1 
0 1 2 2 1 1 0 1 1 1 1 1 1 1 1 1 
1 0 1 -1 0 -1 1 -1 0 -1 1 -2 0 -2 1 -2 
0 -3 1 -3 0 -3 1 -3 0 -3 1 -3 0 -2 1 -3 
0 -3 1 -2 0 -2 1 -2 1 -1 0 -1 1 -1 1 -1 
1 -1 1 1 1 1 1 1 1 1 0 1 2 2 0 1 
1 1 0 1 1 1 1 1 1 1 0 1 1 1 1 1 
1 1 1 0 1 1 1 0 1 1 0 1 2 2 1 1 
0 1 1 1 1 1 1 1 1 1 1 1 1 0 1 0 
1 0 1 0 1 -1 1 -1 1 0 -1 0 2 -2 1 0 
0 -1 2 -2 0 -1 2 -2 1 -1 1 -1 1 -1 1 0 
1 0 1 1 1 1 1 1 1 1 0 1 1 1 1 1 
0 1 1 1 0 1 1 1 0 1 1 1 0 1 1 1 
1 1 0 1 1 1 1 1 1 0 1 0 1 0 1 0 
1 -1 0 -1 2 -2 0 -1 1 -1 0 -1 1 -2 0 -1 
1 -1 0 -2 1 -1 0 -2 1 -2 0 -2 1 -2 0 -2 
1 -2 0 -3 1 -2 1 -3 0 -3 1 -4 0 -4 1 -4 
0 -5 1 -4 0 -5 1 -4 0 -4 1 -3 0 -2 1 -1 
0 -1 1 1 0 3 1 2 0 4 1 4 0 5 1 4 
0 5 1 4 0 4 1 3 1 3 0 3 1 2 0 2 
1 1 0 2 1 1 1 1 1 1 1 1 1 0 1 1 
1 1 1 0 1 0 1 0 1 0 1 0 0 -1 2 -2 
0 -1 1 -1 0 -2 1 -2 0 -1 1 -2 0 -2 1 -2 
0 -2 1 -1 0 -2 1 0 0 -1 2 0 1 0 1 1 
0 1 2 2 1 0 1 0 0 -1 2 -2 0 -2 1 -2 
0 -2 1 -2 0 -3 1 -3 0 -3 1 -4 1 -3 0 -3 
1 -3 0 -2 1 -1 1 0 -1 0 2 4 0 3 1 3 
0 4 1 4 0 5 1 4 0 3 1 3 0 3 1 2 
0 2 1 1 0 1 4653 733 300 MP stroke
1 1 1 0 1 -1 1 -1 0 -2 1 -2 0 -2 1 -2 
0 -3 1 -3 0 -3 1 -3 0 -3 1 -3 0 -2 1 -2 
0 -1 1 -2 1 0 -1 0 2 2 0 1 1 1 1 1 
1 1 1 -1 0 -1 1 -2 0 -2 1 -2 0 -3 1 -2 
0 -3 1 -1 0 -1 1 -1 0 1 1 1 0 3 1 2 
0 3 1 3 0 3 1 3 0 2 1 1 1 1 1 -2 
0 -2 1 -2 0 -3 1 -4 0 -4 1 -3 0 -3 1 -3 
0 -1 1 -2 0 1 2 3 0 1 1 1 1 1 1 -1 
1 -2 0 -2 1 -2 0 -2 1 -1 1 -1 -1 0 2 2 
0 3 1 2 0 2 1 2 1 1 1 -2 0 -2 1 -3 
0 -3 1 -3 0 -2 1 -2 1 -1 1 0 0 2 1 1 
0 1 1 1 1 1 -1 0 2 -2 0 -2 1 -2 0 -1 
1 -2 0 -1 1 1 1 2 1 1 1 0 -1 0 2 -2 
0 -2 1 -3 1 -2 0 -2 1 -1 0 -1 1 1 1 1 
1 1 1 -1 0 -1 1 -1 0 -1 1 -2 1 -1 1 0 
1 0 1 -1 1 -1 0 -1 1 -2 0 -1 1 -1 1 -1 
1 0 1 0 1 -1 1 0 1 -1 1 0 1 0 1 -1 
1 -1 1 -1 1 -1 1 0 1 0 1 0 1 -1 1 -2 
1 -1 0 -1 1 -1 0 -1 2 -2 0 -1 1 -1 1 -2 
1 -1 0 -1 2 -2 1 -1 0 -2 1 0 0 -1 2 -2 
0 -1 1 -1 0 -2 1 -2 1 0 1 0 1 -1 1 -2 
1 -1 0 1 2 0 1 -1 1 -2 -1 0 2 2 1 1 
1 -1 1 -1 1 1 1 1 1 -1 1 -2 0 -2 1 -1 
1 1 1 0 0 -2 1 -1 0 -3 1 0 1 1 1 -1 
0 -2 1 -2 0 -2 1 -1 0 2 1 0 1 -1 1 -2 
0 -3 1 -1 1 2 1 -1 0 -3 1 -3 0 -2 1 0 
0 2 1 1 0 -1 1 -3 0 -3 1 -2 0 1 1 2 
1 -1 0 -4 1 -3 1 -1 0 1 1 2 1 -2 0 -3 
1 -2 1 2 0 2 1 0 0 -3 1 -2 0 -1 1 2 
1 3 -1 0 2 -4 0 -2 1 1 1 2 -1 0 2 -4 
1 -2 0 -1 1 2 0 1 1 -1 0 -3 1 -2 0 -1 
1 1 1 -1 0 -2 1 -4 1 -1 1 -1 0 -2 1 -3 
0 -1 1 1 1 -1 1 -2 0 -2 1 0 1 0 -1 0 
2 -2 0 -1 1 -1 1 0 0 -2 1 -1 1 0 1 -1 
1 -1 1 0 1 0 1 0 1 -1 1 0 -1 0 2 -2 
1 -1 1 -2 0 -1 2 -2 0 -1 1 -1 0 -1 1 -1 
1 -2 0 -1 1 -1 0 -1 2 -2 1 -1 0 -1 1 -1 
0 -1 1 -1 1 -1 4446 969 300 MP stroke
0 -1 1 -1 0 -1 1 -1 0 -1 1 -1 0 -1 1 -1 
1 -1 1 -1 1 0 -1 0 2 -3 1 0 1 0 0 -2 
1 -1 1 0 1 -2 1 1 0 -1 1 -1 1 1 1 -1 
0 -3 1 1 1 0 0 -3 1 -2 1 0 1 -3 0 -3 
1 1 1 -3 1 -3 -1 0 2 -1 0 -3 1 -1 0 1 
1 -1 0 -3 1 -1 1 1 0 -4 1 -1 1 1 0 -3 
1 -2 1 2 1 -3 0 -2 1 2 1 -3 0 -1 1 1 
0 -1 1 -3 0 -1 1 2 0 -2 1 -3 1 0 0 -2 
1 -3 0 1 1 1 0 -3 1 -2 1 1 1 -2 0 -1 
1 2 1 -2 1 2 0 -1 1 -2 1 2 -1 0 2 -3 
1 1 0 -2 1 -1 1 -1 0 -3 2 -3 1 -2 1 -1 
0 -2 1 -1 0 -1 1 -2 0 -2 1 -1 0 -1 1 -2 
0 -1 1 -1 0 -1 1 -2 0 -1 1 -1 0 -1 1 -1 
0 -1 1 -1 0 -2 1 -1 1 -2 1 -1 0 -1 1 -1 
1 -1 1 -1 1 -1 1 0 1 0 1 0 1 0 1 1 
1 0 1 -1 1 0 -1 0 2 -3 1 -1 0 -2 2 -3 
0 -1 1 -1 0 -3 1 0 0 -2 1 -3 0 -1 1 -1 
0 -3 1 -2 0 -1 1 -4 0 -1 1 -1 0 -4 1 0 
1 -1 0 -4 2 -5 0 1 1 -1 0 -3 1 1 0 -1 
1 -3 0 2 1 -1 0 -3 1 3 0 -2 1 -1 0 2 
1 -2 1 2 0 -2 1 1 0 1 1 -2 1 2 0 1 
1 -2 0 2 1 -1 0 -2 1 3 0 -2 1 -1 0 2 
1 -3 1 1 0 -3 1 0 1 -3 0 1 1 -1 0 -3 
1 1 0 -2 1 -2 1 1 0 -3 1 -1 1 -3 1 -1 
0 -3 1 0 0 -2 1 -2 0 -1 1 -3 0 -1 1 -1 
0 -3 1 -1 0 -2 1 -1 0 -1 1 -2 0 -2 1 -1 
0 -2 1 -1 1 -1 0 -2 1 -1 0 -2 1 -1 0 -1 
1 -1 0 -1 1 -1 0 -1 2 -2 0 -1 1 -1 0 -1 
1 -1 0 -1 1 -2 0 -1 1 -2 0 -1 1 -1 1 -2 
0 -1 1 -2 0 -1 1 -2 1 -1 1 -1 0 -2 1 1 
1 -1 1 -1 0 1 1 -2 1 1 1 1 0 -1 1 1 
0 -1 1 1 1 0 1 1 0 -2 1 1 0 -1 1 1 
1 -1 1 -2 0 1 1 -2 1 -1 0 -2 1 0 0 -3 
1 1 0 -3 1 0 0 -2 1 -2 1 0 0 -4 1 0 
0 -4 1 -1 0 -4 1 -1 0 -3 1 -5 0 -1 1 -5 
0 -1 1 -5 0 -1 1 -4 0 -1 1 -4 0 -1 1 -2 
0 -2 1 -2 0 -2 1 -1 0 -4 1 -1 1 -3 0 -2 
1 -4 0 -2 1 -3 4259 1323 300 MP stroke
0 -2 1 -3 0 -2 1 -1 0 -2 1 -1 1 -1 1 0 
-1 0 2 2 0 2 1 1 0 2 1 2 0 2 1 2 
1 2 0 3 1 2 0 1 1 2 0 2 1 1 0 1 
1 2 0 1 1 2 0 -1 1 3 0 -1 1 2 0 -1 
1 1 0 -1 1 -1 0 -2 1 -2 0 -1 1 -5 0 -2 
1 -4 1 -3 0 -6 1 -3 0 -5 1 -3 0 -5 1 -3 
0 -4 1 -2 0 -3 1 -3 0 -1 1 -2 1 -3 0 1 
1 -2 0 1 1 -3 0 1 1 -2 1 -2 1 0 0 -2 
1 -1 0 -1 1 -3 1 -3 1 -4 1 -4 1 -3 0 -1 
1 -1 0 -2 1 1 0 -2 1 2 0 -2 1 2 0 -1 
1 1 1 -2 1 1 0 -2 1 1 0 -3 1 1 0 -3 
1 -1 0 -1 1 -2 1 -3 0 1 1 -3 1 -2 1 -1 
0 -3 1 1 0 -3 1 0 0 -2 1 -2 1 -2 1 0 
0 -2 1 0 0 -2 1 -1 1 -2 1 -2 0 -1 1 -1 
0 -1 1 -1 0 -2 2 -2 1 -1 1 -1 1 -1 1 0 
1 -1 1 -1 1 -1 0 -1 1 -1 0 -1 1 -1 0 -1 
1 -1 0 -1 1 -2 0 -1 1 -1 0 -3 1 -1 0 -1 
1 -2 0 -1 1 -2 0 -1 1 -1 1 -3 0 -1 1 -1 
0 -3 1 0 0 -3 1 -2 1 -4 0 -1 1 -1 0 -3 
1 0 0 -2 1 -3 0 1 1 -4 1 0 0 -3 1 1 
1 -3 1 2 0 -1 1 -2 0 2 1 -3 0 -1 1 1 
0 -3 1 0 1 -4 1 1 0 -3 1 2 0 -1 1 -3 
0 2 1 -1 0 -2 1 1 0 -2 1 -3 0 1 1 -3 
1 -2 1 -5 0 -2 1 0 0 -3 1 -3 1 -3 0 -2 
2 -2 1 -1 0 -1 1 1 1 -1 1 0 0 -2 1 0 
1 -1 0 -1 1 -1 0 -2 1 -3 0 -1 1 -1 0 -2 
1 -1 0 -1 1 -2 0 -1 1 -1 0 -1 1 -1 1 -2 
0 -2 1 -1 0 -2 1 -2 0 -1 1 -1 0 -3 1 -2 
1 -1 0 -1 1 -2 0 -1 1 -1 0 -2 1 -2 0 -1 
1 -1 0 -2 1 -1 0 -1 1 -2 0 -2 1 -1 1 -2 
0 -2 1 1 1 -3 0 -1 1 2 1 0 0 -2 1 1 
0 1 1 -1 1 -1 0 2 1 -2 1 1 1 -3 0 -1 
1 1 0 -1 1 -3 1 0 0 -2 1 -4 1 -1 0 -3 
1 -3 1 -1 1 -3 0 -4 1 -1 0 1 1 -3 0 -3 
1 -1 1 -2 0 -4 1 -1 0 1 1 -1 0 -3 1 -1 
0 1 1 1 0 -3 1 -1 1 2 1 -2 0 -1 1 -1 
0 1 1 -1 0 -3 1 -1 1 -1 0 -2 1 -2 0 -1 
1 -1 0 -2 1 -2 4079 1679 300 MP stroke
0 -1 1 -1 0 -2 1 -2 0 -2 1 -1 0 -2 1 -3 
0 -3 1 -1 1 -2 0 -2 1 -3 0 -3 1 -2 0 -1 
1 -2 0 -1 1 -2 0 -2 1 -1 1 -1 0 -2 1 -3 
0 -3 1 -2 0 -2 1 -2 0 -4 1 -5 0 -5 1 -3 
1 -1 1 -2 0 -3 1 -4 1 -1 0 2 1 0 0 -3 
1 -4 0 -4 1 -3 1 0 -1 0 2 -3 0 -4 1 -3 
0 -2 1 -1 0 -1 1 -1 0 -3 1 -5 1 -5 0 -4 
1 -3 0 -3 1 -3 0 -3 1 -3 0 -3 1 -1 1 -1 
1 0 1 1 1 0 -1 0 2 -2 0 -2 1 -2 0 -1 
1 -1 0 -1 1 -1 1 0 1 1 0 2 1 2 0 2 
1 1 0 2 1 1 1 1 0 -1 1 -1 0 -3 1 -4 
0 -6 1 -5 0 -6 1 -6 0 -5 1 -6 0 -5 1 -4 
1 -3 0 -2 1 -1 1 -1 0 0 2 2 0 3 1 4 
0 6 1 6 0 7 1 8 0 9 1 10 0 11 1 11 
0 10 1 8 0 6 1 8 0 9 1 8 1 8 0 6 
1 5 0 5 1 6 0 6 1 6 0 5 1 2 0 2 
1 2 0 2 1 0 0 -2 1 -1 0 -3 1 -4 0 -6 
1 -8 0 -8 1 -9 0 -8 1 -9 1 -10 0 -12 1 -13 
0 -12 1 -11 0 -11 1 -12 0 -12 1 -14 0 -14 1 -12 
0 -10 1 -10 0 -8 1 -8 0 -6 1 -5 0 -3 1 -2 
0 -1 1 -1 1 0 1 0 1 0 1 0 1 -1 1 -1 
1 -1 0 -1 1 -1 0 -1 1 -1 1 -1 1 -1 1 0 
1 0 1 0 1 -1 0 -1 1 -1 0 -3 1 -2 0 -3 
1 -4 0 -4 1 -4 0 -3 1 -3 0 -3 1 -1 0 -2 
1 0 1 1 0 2 1 2 0 2 1 3 0 3 1 2 
0 3 1 3 1 3 0 2 1 2 0 2 1 2 1 0 
-1 0 2 -2 0 -3 1 -3 0 -5 1 -5 0 -7 1 -6 
0 -7 1 -7 0 -7 1 -6 0 -5 1 -4 0 -2 1 -2 
1 -1 1 1 1 1 1 1 0 1 2 3 0 2 1 3 
0 3 1 4 0 4 1 4 0 5 1 3 0 3 1 3 
0 1 1 -1 0 -2 1 -3 1 -5 0 -5 1 -6 0 -7 
1 -6 0 -7 1 -6 0 -4 1 -5 0 -3 1 -2 0 -2 
1 -2 0 -1 1 -1 1 -1 1 0 1 1 1 0 1 -1 
1 -1 0 -1 1 -2 0 -2 1 -2 0 -2 1 -1 1 0 
1 1 0 1 1 1 0 2 1 2 0 2 1 2 0 1 
1 1 1 -1 0 -1 1 -1 1 -2 0 -3 1 -3 0 -5 
1 -3 0 -3 1 -3 0 -2 1 -1 0 -3 1 -3 0 -4 
1 -4 0 -2 1 -2 3903 2100 300 MP stroke
0 -3 1 -4 0 -5 1 -7 0 -5 1 -3 0 -1 1 -1 
0 -4 1 -5 1 -5 0 -4 1 0 1 -2 0 -3 1 -4 
0 -2 1 0 0 2 1 0 1 -2 0 1 1 3 0 4 
1 2 1 0 -1 0 2 5 0 4 1 2 1 0 -1 0 
2 -2 0 1 1 3 1 -2 0 -5 1 -4 0 -2 1 -1 
0 -2 1 -3 0 -4 1 -4 0 -3 1 -1 0 -1 1 -2 
0 -2 1 -1 1 0 -1 0 2 0 1 0 1 1 1 -1 
0 -2 1 -2 0 -1 1 -2 0 -1 1 -2 0 -3 1 -3 
0 -1 1 -2 0 -1 1 -3 0 -2 1 -1 0 -2 1 -2 
0 -3 1 -1 1 -2 0 -1 1 -2 0 -2 1 -1 1 -2 
1 -1 1 0 -1 0 2 -2 1 1 -1 0 2 -2 1 0 
-1 0 2 -4 0 -1 2 -4 1 -3 1 -1 0 -3 1 -4 
1 -1 0 -3 1 -4 1 -1 0 -3 1 -4 0 -2 1 1 
0 -3 1 -4 0 -1 1 1 0 -3 1 -4 1 -1 1 -3 
0 -2 1 0 1 -3 0 -1 1 1 1 -2 0 1 1 2 
1 0 0 2 1 2 1 1 0 3 1 1 0 -2 1 1 
0 3 1 0 0 -2 1 2 1 2 0 -2 1 -2 0 2 
1 0 0 -2 1 -2 0 1 1 -1 0 -3 1 -2 1 -2 
0 -3 1 -2 0 -1 1 -2 0 -4 1 -2 0 -2 1 -3 
0 -4 1 -3 0 -3 1 -5 1 -3 0 -3 1 -4 0 -4 
1 -2 0 -4 1 -4 0 -2 1 -4 0 -3 1 -3 0 -4 
1 -3 0 -2 1 -4 0 -3 1 0 0 -4 1 -1 0 1 
1 -3 0 1 1 2 1 -2 0 2 1 3 1 4 0 3 
1 1 0 5 1 3 0 2 1 4 0 3 1 2 0 3 
1 2 1 0 1 -2 0 -2 1 -2 0 -4 1 -5 0 -3 
1 -5 1 -5 0 -3 1 -6 0 -5 1 -2 0 -6 1 -3 
0 -1 1 -5 0 -1 1 -2 0 -3 2 -4 1 -3 1 -1 
0 -3 2 -3 1 0 0 -2 1 0 1 -2 0 1 1 -1 
1 0 -1 0 2 0 1 -1 1 -1 1 -1 0 -1 2 -2 
0 -1 1 -1 1 -1 1 -1 0 -1 1 -1 0 -2 1 -1 
0 -2 1 -1 0 -2 1 -2 0 -2 1 -2 0 -2 1 -2 
0 -3 1 -2 0 -3 1 -1 0 -3 1 -1 0 -1 1 -2 
1 -2 1 0 0 -2 1 1 0 -1 1 -1 0 1 1 -2 
1 1 1 1 1 1 0 -1 1 2 1 0 -1 0 2 -1 
0 1 1 -1 0 1 1 -1 1 -1 1 -2 0 1 1 -3 
0 1 1 -2 0 -2 1 0 0 -4 1 1 0 -4 1 0 
0 -3 1 -1 0 -2 1 -3 0 -1 1 -4 1 -6 1 -4 
0 -3 1 -3 1 -4 3722 2515 300 MP stroke
0 -2 1 -4 0 -2 1 -4 0 -1 1 -3 0 -1 1 -4 
1 -2 0 -1 1 -2 1 -1 0 -1 1 -1 1 1 1 0 
0 1 2 2 1 0 1 1 1 0 -1 0 2 0 0 1 
1 -1 0 1 2 0 0 2 1 -1 0 1 1 -1 0 -1 
1 -1 0 -2 1 -3 0 -4 1 -2 1 -6 0 -4 1 -6 
0 -3 1 -6 0 -2 1 -5 0 -2 1 -3 0 -2 1 -1 
0 -2 1 0 0 -2 1 0 0 -2 1 1 0 -2 1 1 
0 -3 1 1 0 -1 1 1 1 0 1 1 0 1 1 1 
1 2 0 -1 1 2 0 -1 1 1 0 -2 1 1 0 -3 
1 0 0 -3 1 0 0 -3 1 -2 0 -2 1 -2 0 -1 
1 -3 1 -4 0 2 1 -4 1 1 0 -3 1 1 0 -1 
1 -1 0 1 1 -2 0 1 1 -3 0 2 1 -3 0 1 
1 -3 0 -1 1 -1 0 -2 1 1 0 -4 1 2 0 -3 
1 1 0 -2 1 -1 1 1 0 -2 1 2 0 -3 1 2 
0 -3 2 -3 0 1 1 -3 0 2 1 -3 0 1 1 -1 
0 -1 1 1 0 -2 1 2 0 -3 1 1 0 -2 1 -1 
1 -3 1 1 0 -3 1 -1 0 -1 1 -1 1 -2 0 -1 
1 -2 1 -2 1 -1 0 -2 1 -1 0 -3 1 -1 0 -1 
1 -2 0 -1 1 -2 0 -1 1 -2 1 -2 0 -1 1 -2 
0 -2 1 -1 0 -2 1 -1 0 -3 1 -1 0 -1 1 -2 
0 -1 1 -2 1 -1 0 -2 1 -1 1 -2 1 -1 1 -1 
0 -2 1 0 1 -1 0 -2 1 1 0 -2 1 -2 0 1 
1 -3 1 0 0 -2 1 1 0 -1 1 -1 0 2 1 -2 
1 2 0 -2 1 1 1 -2 0 2 1 -1 1 -1 0 2 
1 -3 0 1 1 1 0 -2 1 1 0 -1 1 -2 0 2 
1 -2 0 -2 1 1 0 -4 1 -2 0 -1 1 -5 0 -1 
1 -2 0 -5 1 -1 0 -2 1 -5 1 -3 1 -3 1 -2 
0 -2 1 1 0 -2 1 -2 0 1 1 -1 0 -1 1 1 
0 -1 1 -1 1 1 0 -2 1 2 0 -1 1 -1 1 1 
-1 0 2 0 1 0 0 -2 1 1 1 -2 1 0 0 -2 
2 -3 0 -1 1 -1 0 -2 1 -1 0 -1 1 -2 0 -2 
1 -1 0 -2 1 -1 1 -2 1 -1 1 -1 0 -1 2 -2 
0 -1 1 -1 0 -1 1 -1 0 -1 1 -2 0 -1 1 -1 
0 -2 1 -2 1 -2 0 -1 1 -1 0 -1 1 -1 0 -2 
1 -1 1 -2 1 -1 1 -1 0 -1 1 -1 1 -2 0 -2 
1 -1 1 -3 0 -1 2 -4 1 1 0 -2 1 -2 0 1 
1 1 0 -3 1 -1 1 1 1 -2 0 -1 1 2 0 -1 
1 -3 1 2 0 -2 3542 2852 300 MP stroke
1 -2 0 2 1 1 0 -2 1 -1 0 2 1 1 0 -2 
1 1 0 2 1 1 0 -2 1 1 0 2 1 -1 1 -2 
0 1 1 2 0 -3 1 -2 1 1 0 -3 1 -2 0 1 
1 -1 0 -4 1 -2 0 1 1 -2 0 -4 1 -2 0 1 
1 -2 0 -4 1 -2 0 1 1 -2 1 -4 0 -2 1 1 
1 -4 0 -2 1 1 1 -3 1 -2 -1 0 2 0 0 -3 
1 0 1 1 0 -2 1 -1 1 1 0 -2 1 -2 1 0 
1 -1 0 -2 1 -1 1 -1 0 -2 1 -1 1 0 -1 0 
2 -2 1 0 1 -1 1 -1 1 -1 0 -1 2 0 1 -1 
1 0 1 0 1 0 1 -1 1 -1 1 0 0 -1 2 -2 
1 -1 0 -1 1 -2 0 -1 1 -1 0 -1 1 -2 1 -2 
0 -1 1 -1 0 -2 1 -2 0 -2 1 -1 0 -1 1 -2 
0 -2 1 -3 0 -2 1 -1 0 -1 1 -1 0 -2 1 -3 
1 -1 1 -1 0 -2 1 -1 1 0 1 1 1 -2 1 -2 
-1 0 2 2 0 -1 1 -3 1 -1 1 1 -1 0 2 -4 
1 -2 -1 0 2 2 0 -1 1 -3 1 -1 1 2 0 2 
1 0 0 -2 1 -1 0 1 1 2 0 3 1 -1 0 -1 
1 -1 1 2 0 2 1 -1 0 -3 1 -2 1 2 0 1 
1 -1 0 -3 1 -3 1 -1 0 2 1 1 0 -1 1 -3 
0 -3 1 -2 0 1 1 2 1 -2 0 -4 1 -3 1 2 
0 1 1 -1 0 -3 1 -4 0 -2 1 1 0 2 1 1 
0 -1 1 -3 1 -3 0 -2 1 1 0 2 1 1 0 -1 
1 -3 0 -3 1 -2 0 1 1 1 0 2 1 -1 0 -2 
1 -3 0 -2 1 0 1 2 1 -2 0 -3 1 -3 1 -1 
1 1 1 1 0 -2 1 -2 0 -2 1 0 1 0 1 -1 
0 -2 1 -2 0 -1 1 -1 1 1 1 1 0 -1 1 -1 
0 -1 1 -1 1 0 1 1 1 -1 0 -1 1 -1 1 -1 
1 1 1 1 1 -1 1 -1 1 0 1 0 1 -1 0 -1 
1 -1 1 0 1 0 1 0 1 -1 1 -1 1 -1 1 -1 
1 -2 0 -1 1 -2 1 -1 1 -1 1 -1 1 -1 0 -1 
1 -2 1 -1 0 -1 1 -1 0 -1 1 -1 0 -1 1 -2 
0 -1 1 -2 0 -2 1 -1 1 -1 1 -1 1 1 1 1 
1 -1 1 -1 0 -1 1 -1 0 -1 2 -2 1 0 -1 0 
2 -2 0 -2 1 -2 0 -1 1 -2 1 -1 1 0 -1 0 
2 3 0 1 1 1 1 0 -1 0 2 -3 0 -1 1 -2 
0 -1 1 -1 0 -1 1 1 1 1 0 1 1 1 1 -1 
0 -2 1 -2 0 -2 1 -2 0 -1 1 -1 1 1 0 1 
1 2 1 2 0 2 3345 3090 300 MP stroke
1 1 0 1 1 -1 0 -2 1 -2 0 -3 1 -3 0 -3 
1 -2 0 -2 1 -1 1 -1 1 1 1 -1 0 -1 1 -2 
0 -2 1 -4 1 -3 0 -3 1 -4 0 -2 1 -3 0 -2 
1 -1 1 1 0 2 1 3 0 3 1 3 0 3 1 4 
0 3 1 3 0 2 1 1 0 1 1 -1 0 -1 1 -2 
0 -2 1 -2 1 -2 0 -2 1 -1 1 1 0 1 1 2 
0 3 1 2 0 3 1 2 0 2 1 1 0 1 1 -1 
0 -1 1 -1 0 -1 1 -1 1 1 0 2 1 2 1 3 
0 3 1 3 0 2 1 2 0 1 1 -1 0 -2 1 -3 
0 -3 1 -3 0 -4 1 -3 0 -3 1 -2 0 -2 1 -2 
0 -1 2 -2 0 -2 1 -2 0 -2 1 -3 1 -3 0 -3 
1 -3 0 -3 1 -3 0 -3 1 -2 0 -2 1 -2 0 -1 
1 -1 0 -1 1 -1 0 -1 1 -1 0 -1 1 -1 1 -1 
0 -1 1 -1 0 -1 1 -2 0 -1 1 -1 1 -1 0 -1 
1 -1 0 -1 1 -1 1 0 1 0 1 1 0 1 1 1 
0 1 1 2 0 2 1 2 0 2 1 3 0 2 1 3 
0 3 1 3 1 4 0 3 1 2 0 3 1 2 0 2 
1 1 1 1 1 -1 0 -1 1 -1 0 -1 1 -2 0 -1 
1 -1 1 0 1 1 0 2 1 1 0 3 1 2 1 2 
0 2 1 2 0 1 1 1 1 0 -1 0 2 -3 0 -2 
1 -3 0 -2 1 -3 0 -3 1 -2 0 -3 1 -2 0 -2 
1 -1 0 -2 1 -1 0 -1 1 -1 1 0 -1 0 2 -2 
0 -1 2 -2 1 -1 0 -1 2 -2 1 -1 1 -1 1 -1 
0 -1 1 -1 0 -1 1 -1 0 -2 1 -2 1 -2 0 -2 
1 -2 0 -3 1 -3 0 -2 1 -3 0 -2 1 -3 0 -1 
1 -2 1 0 1 1 0 2 1 2 0 2 1 2 0 3 
1 3 0 2 1 3 1 3 0 3 1 3 0 3 1 3 
0 3 1 2 0 3 1 2 0 2 1 2 0 1 1 1 
0 1 1 1 1 0 -1 0 2 -2 0 -1 1 -2 0 -2 
1 -2 0 -3 1 -2 1 -2 0 -3 1 -2 0 -2 1 -2 
0 -2 1 -1 0 -1 1 -1 1 -1 1 -1 1 0 1 0 
1 0 1 0 1 -1 1 0 1 -1 1 0 1 -1 0 -1 
2 -2 1 -1 0 -1 1 -1 0 -2 1 -1 0 -1 1 -2 
0 -1 1 -2 0 -2 1 -2 0 -2 1 -2 1 -3 0 -2 
1 -3 0 -3 1 -2 0 -2 1 -2 1 -1 1 2 0 2 
1 4 0 4 1 5 0 5 1 5 0 6 1 6 0 5 
1 6 0 5 1 4 0 4 1 4 1 2 0 2 1 1 
1 0 0 -2 1 -1 3166 3149 300 MP stroke
0 -3 1 -3 0 -3 1 -3 0 -4 1 -3 0 -4 1 -4 
0 -4 1 -5 0 -4 1 -5 0 -4 1 -5 0 -5 1 -4 
1 -4 0 -4 1 -3 0 -2 1 -2 1 0 -1 0 2 3 
0 2 1 2 0 2 1 3 0 3 1 2 0 3 1 2 
0 2 1 2 0 2 1 2 0 2 1 2 0 2 1 1 
1 2 0 2 1 2 0 2 1 2 0 2 1 2 0 2 
1 3 0 2 1 2 0 3 1 3 0 3 1 3 0 3 
1 4 0 4 1 4 0 5 1 4 0 5 1 4 1 4 
0 3 1 2 1 2 -1 0 2 -4 0 -3 1 -4 0 -4 
1 -5 0 -4 1 -5 0 -4 1 -4 0 -3 1 -3 0 -2 
1 -2 0 -2 1 -1 0 -1 1 -1 0 -1 1 -1 1 0 
-1 0 2 -2 1 -1 1 -1 1 0 1 -1 1 -1 1 0 
1 -1 1 0 1 -1 1 0 1 0 1 1 1 0 1 0 
1 1 1 0 1 0 1 1 1 1 1 1 1 0 1 -1 
1 -3 1 -3 0 -2 1 -3 0 -2 1 -1 0 -1 1 -1 
1 -1 -1 0 2 2 0 1 1 2 0 2 1 1 0 1 
1 1 0 1 1 1 0 1 1 1 1 0 1 0 -1 0 
2 -2 0 -1 1 -1 0 -2 1 -1 0 -2 1 -1 0 -1 
1 -1 0 -1 2 0 1 1 0 1 1 1 0 1 1 2 
0 1 1 1 0 1 1 1 1 1 1 1 0 1 2 2 
0 1 1 1 0 1 1 1 0 1 1 1 0 2 1 1 
0 1 1 2 0 1 1 1 0 2 1 1 0 1 1 1 
1 1 1 0 1 1 1 -1 1 -1 1 0 1 -1 1 1 
1 1 1 1 0 1 1 1 0 2 1 1 0 2 1 2 
1 2 0 2 1 1 0 2 1 2 0 1 1 1 1 -1 
0 -1 1 -1 0 -3 1 -2 0 -3 1 -3 0 -3 1 -3 
0 -3 1 -2 0 -3 1 -2 0 -1 1 -1 1 -1 1 0 
1 1 0 1 1 1 0 1 1 2 0 1 1 3 0 2 
1 3 0 3 1 3 0 4 1 4 0 5 1 4 0 4 
1 4 0 4 1 2 0 2 1 0 1 0 -1 0 2 -3 
0 -3 1 -2 0 -3 1 -3 0 -3 1 -1 0 -2 1 0 
1 0 -1 0 2 2 1 1 1 1 -1 0 2 -2 0 -2 
1 -2 0 -3 1 -2 1 -3 0 -3 1 -2 0 -2 1 -2 
0 -2 1 -1 1 -1 1 0 1 1 0 1 1 1 0 2 
1 2 0 2 1 3 0 3 1 3 0 3 1 4 1 3 
0 3 1 2 0 2 1 1 0 1 1 -1 0 -1 1 -1 
0 -2 1 -2 0 -2 1 -2 0 -1 1 -1 1 1 0 1 
1 2 0 3 1 3 2984 3117 300 MP stroke
0 2 1 3 0 2 1 3 1 1 1 0 1 -2 0 -1 
1 -1 1 -1 1 2 0 1 1 3 0 2 1 3 0 3 
1 2 1 0 -1 0 2 -3 0 -2 1 -3 1 -2 0 -2 
1 -1 0 -1 1 1 0 1 1 2 0 2 1 3 0 2 
1 2 1 1 1 -1 1 -1 1 1 0 2 1 2 0 2 
1 2 0 3 1 2 1 2 1 -1 0 -1 1 -1 0 -1 
1 -1 1 1 1 1 0 2 1 1 0 2 1 0 1 1 
1 1 1 1 0 1 1 1 1 1 0 1 1 1 1 -1 
1 -1 1 0 1 -1 0 1 2 2 1 -1 1 -1 1 0 
1 1 1 1 1 1 1 0 1 -1 1 -1 1 1 1 1 
0 1 1 1 1 1 1 1 1 1 1 1 0 1 1 1 
1 0 -1 0 2 2 1 1 1 1 1 1 0 1 1 1 
0 1 1 2 1 1 1 1 1 1 1 1 1 1 1 1 
1 0 1 1 0 2 1 1 0 2 1 1 0 1 1 1 
0 1 1 1 0 1 1 1 0 2 1 1 1 -1 1 0 
-1 0 2 2 0 2 1 1 1 -1 1 0 1 1 0 2 
1 1 0 1 1 -1 0 -1 1 -1 1 1 0 2 1 2 
1 1 1 -1 1 2 0 3 1 2 0 1 1 -1 1 -1 
0 -1 1 1 0 3 1 3 0 2 1 -1 0 -1 1 -1 
1 3 0 3 1 2 0 -1 1 -2 1 -1 0 2 1 3 
0 2 1 0 0 -2 1 -2 1 3 1 4 0 2 1 -1 
0 -2 1 -2 0 2 1 3 0 3 1 1 0 -2 1 -2 
0 -2 1 1 0 3 1 2 1 -2 0 -3 1 0 0 2 
1 4 1 1 1 -2 0 -1 1 2 0 3 1 3 0 1 
1 -1 0 -1 1 1 0 2 1 4 0 1 1 -1 1 -1 
0 3 1 3 0 1 1 -1 1 0 0 2 1 3 0 2 
1 -1 1 0 -1 0 2 3 0 2 1 1 1 0 -1 0 
2 2 0 2 1 0 1 0 -1 0 2 2 0 1 1 -1 
1 0 -1 0 2 2 1 -1 1 0 1 1 1 0 1 -1 
1 1 1 -1 1 0 1 1 1 -1 1 1 0 2 1 0 
1 1 0 1 1 1 1 1 1 1 0 1 1 1 0 1 
1 1 0 1 2 3 0 2 2 3 0 2 1 1 0 1 
1 2 0 1 1 3 0 1 1 2 1 1 0 3 1 2 
0 2 1 1 0 3 1 3 0 2 1 1 0 2 1 4 
0 2 2 5 0 1 1 -1 0 1 1 3 0 2 1 -1 
0 -1 1 2 0 2 1 -1 1 -2 0 2 1 2 0 -1 
1 -3 0 1 1 3 0 -1 1 -3 1 3 0 -1 1 -2 
0 -1 1 2 0 1 2786 2880 300 MP stroke
1 -3 0 -1 1 2 0 1 1 -2 0 -2 1 2 0 2 
1 -1 1 -2 0 2 1 2 1 -2 0 2 1 4 0 -1 
1 -1 0 1 1 4 0 1 1 -2 0 2 1 4 0 1 
1 -2 0 2 1 4 0 1 1 -2 0 2 1 4 1 0 
-1 0 2 1 1 3 -1 0 2 2 0 3 1 -2 1 3 
0 1 1 -1 1 2 0 1 1 -2 0 1 1 2 1 -1 
0 2 1 1 0 -1 1 1 1 2 0 1 2 3 1 0 
-1 0 2 2 1 1 0 1 1 1 0 1 1 1 0 2 
2 3 0 1 1 1 0 1 1 2 1 2 1 2 0 2 
1 1 0 1 1 2 0 1 1 1 0 2 1 1 0 1 
1 1 0 1 1 1 0 1 1 1 1 1 1 1 1 1 
1 1 1 1 1 0 -1 0 2 2 1 1 0 2 2 3 
1 1 0 2 1 -1 0 1 1 2 1 -1 0 3 1 -1 
1 3 1 -1 1 3 1 0 0 3 1 0 1 4 1 0 
1 3 -1 0 2 3 1 0 0 3 1 0 1 4 0 -1 
1 1 0 4 1 -1 1 2 0 4 1 -1 0 2 1 4 
0 -2 1 4 0 2 1 -1 0 3 1 1 0 -1 1 4 
1 -1 0 3 1 -2 0 2 1 1 0 -1 1 2 1 -1 
1 3 1 -1 0 3 1 -2 0 1 1 1 0 -1 1 2 
1 0 0 2 1 -1 0 1 1 1 0 -1 1 2 1 -1 
0 2 1 -1 0 1 1 2 0 -1 1 2 1 0 -1 0 
2 3 1 1 0 1 1 1 0 1 2 3 1 1 1 1 
0 2 1 1 1 2 1 2 0 1 1 1 1 2 0 1 
1 1 0 2 1 1 0 2 1 1 0 2 1 2 0 1 
1 2 0 1 1 2 0 1 1 1 0 2 1 1 0 2 
1 1 0 2 1 1 0 1 1 3 0 1 1 2 1 1 
0 1 1 2 0 1 1 2 1 2 0 -1 1 2 1 1 
0 2 1 -1 0 4 1 -1 0 3 1 1 0 2 1 2 
1 3 0 -1 1 3 0 -1 1 3 1 -1 0 1 1 2 
1 3 0 -1 1 4 0 -2 1 4 1 3 1 2 0 2 
1 0 0 2 1 0 0 2 1 -2 0 2 1 -3 0 2 
1 -3 1 1 0 -2 1 0 1 -1 -1 0 2 0 0 2 
1 -2 0 3 1 -2 0 3 1 -1 0 3 1 -1 0 2 
1 1 0 1 1 1 0 1 1 2 1 2 0 -1 1 2 
1 -2 0 2 1 -2 0 1 1 -1 0 1 1 -1 0 1 
1 1 0 2 1 3 0 3 1 4 0 3 1 7 0 3 
1 7 0 3 1 6 0 3 1 5 0 2 1 3 1 1 
1 1 1 -1 0 -3 2603 2541 300 MP stroke
1 -1 0 -3 1 -1 0 -2 1 -1 0 -2 1 0 1 -1 
-1 0 2 2 0 1 1 2 0 2 1 3 0 2 1 4 
0 2 1 4 1 2 0 3 1 2 0 3 1 2 0 2 
1 2 1 4 0 -2 1 3 0 -2 1 3 0 -2 1 2 
1 -1 1 -2 0 1 1 -3 0 2 1 -2 1 2 0 -2 
1 3 0 -1 1 2 0 1 1 1 0 2 1 -1 0 3 
1 -1 0 3 1 -2 0 3 1 -2 0 2 1 1 0 -1 
1 2 0 -1 1 3 0 -1 1 3 0 -1 1 4 1 1 
0 1 1 3 1 4 0 -1 1 3 0 1 1 2 0 2 
1 0 0 3 1 0 0 4 1 1 0 2 1 2 0 1 
1 2 0 1 1 2 0 1 1 2 1 1 0 1 1 2 
0 1 1 3 0 1 1 2 0 2 1 1 0 3 1 1 
0 2 1 1 0 1 1 2 0 1 2 2 1 0 1 0 
1 1 1 0 1 1 0 1 1 1 0 1 1 1 0 2 
1 1 0 1 1 3 0 1 1 1 0 2 1 0 0 3 
1 1 0 1 1 3 0 1 1 1 0 4 1 0 1 2 
0 4 1 0 0 4 1 3 1 5 0 1 1 2 0 5 
2 5 0 -2 1 1 0 3 1 -3 1 1 0 -4 1 -1 
1 -4 1 -1 1 -4 0 2 1 0 0 -2 1 3 1 0 
0 5 1 2 0 1 1 5 0 2 1 2 0 6 1 2 
0 2 1 5 0 1 1 2 0 4 1 1 1 2 0 1 
1 -1 1 1 1 -1 1 0 1 1 0 1 1 1 0 2 
1 1 0 1 1 2 0 3 1 1 0 1 1 2 0 1 
1 1 0 1 1 1 0 1 1 1 1 1 0 1 1 1 
0 1 1 1 1 1 1 0 1 1 1 0 1 0 1 0 
1 1 1 0 1 1 0 1 1 2 1 1 0 1 1 1 
0 2 1 1 0 2 1 3 1 1 0 3 1 2 0 1 
1 1 0 4 1 3 0 1 1 2 0 5 1 4 0 1 
1 3 0 6 1 3 1 0 0 2 1 5 0 2 1 -1 
0 1 1 2 0 1 1 -3 0 -2 1 1 1 -4 0 -3 
2 -6 0 -4 2 -6 0 -3 2 -4 1 -2 0 2 1 0 
0 -2 1 1 0 4 1 1 0 -1 1 3 0 5 1 3 
0 1 1 4 0 6 1 4 0 2 1 5 0 6 1 5 
0 4 1 6 0 6 1 5 1 4 0 5 1 7 0 6 
1 4 0 3 1 4 0 4 1 5 0 3 1 2 0 1 
2 3 1 1 0 -2 1 -2 1 -1 1 -2 0 -3 1 -3 
1 0 1 -1 0 -1 1 -2 1 2 0 2 1 1 0 1 
1 1 0 2 1 5 2423 2154 300 MP stroke
0 4 1 3 1 1 0 3 1 5 0 4 1 3 1 -1 
1 1 0 2 1 4 0 4 1 2 1 -1 0 2 1 3 
0 5 1 5 0 3 1 2 0 3 1 2 0 4 1 4 
0 4 1 2 0 2 1 2 0 1 1 2 0 1 1 2 
1 2 0 1 1 1 0 1 1 1 1 1 0 1 1 1 
0 1 1 1 0 1 1 1 1 1 1 0 1 -1 1 0 
-1 0 2 2 1 1 0 2 1 1 0 2 1 2 0 2 
1 2 0 2 1 3 0 3 1 4 0 5 1 6 0 5 
1 6 0 5 1 4 0 4 1 3 0 1 1 -1 0 -2 
1 -2 0 -4 1 -4 1 -4 0 -4 1 -4 0 -5 1 -4 
0 -4 1 -5 0 -6 1 -5 0 -6 1 -6 0 -8 1 -9 
0 -11 1 -11 0 -9 1 -8 0 -8 1 -10 0 -9 1 -9 
0 -8 1 -5 0 -5 1 -3 1 -4 0 -3 1 -1 0 2 
1 3 0 4 1 4 0 6 1 9 0 11 1 11 0 13 
1 12 0 13 1 16 0 16 1 17 0 16 1 14 0 13 
1 12 0 11 1 9 1 7 0 6 1 3 0 3 1 2 
0 1 1 1 1 0 1 0 1 0 1 0 1 0 1 1 
1 0 1 0 1 0 1 0 1 1 1 0 1 0 1 1 
1 0 1 1 1 1 1 1 1 1 1 1 1 0 1 1 
1 0 1 0 1 0 1 0 1 0 -1 0 2 2 0 2 
1 3 0 3 1 4 0 5 1 5 0 5 1 6 0 5 
1 6 0 4 1 3 1 3 1 1 1 -2 0 -2 1 -2 
0 -2 1 -1 1 -1 1 1 0 2 1 2 0 3 1 3 
0 2 1 2 0 2 1 0 1 0 1 0 1 -1 1 2 
0 2 1 3 0 3 1 3 0 3 1 3 0 3 1 1 
1 -2 0 -2 1 -2 0 -3 1 -1 0 -2 1 0 1 1 
0 2 1 2 1 2 0 2 1 2 0 2 1 2 0 2 
1 3 0 2 1 3 0 3 1 3 0 4 1 4 0 4 
1 3 0 2 1 2 0 2 1 1 0 1 1 2 0 3 
1 2 1 1 0 2 1 1 0 1 1 1 0 1 1 2 
0 1 1 -1 0 -1 1 -2 1 -1 1 1 1 1 -1 0 
2 -2 1 0 -1 0 2 2 1 1 1 -1 0 -2 1 -1 
1 0 0 2 1 2 0 2 1 1 1 1 0 2 1 4 
0 5 1 4 0 2 1 0 1 1 0 3 1 5 0 3 
1 2 1 0 1 2 0 5 1 5 0 3 1 2 1 3 
0 3 1 4 0 3 1 0 1 1 0 1 1 2 0 -1 
1 -1 0 -1 1 -1 1 1 0 -1 1 -2 1 0 1 2 
1 1 1 1 0 2 2238 1724 300 MP stroke
1 3 0 2 1 1 0 1 1 2 0 2 1 2 0 1 
1 1 0 1 1 1 0 1 1 2 0 1 1 1 0 1 
1 2 1 2 0 1 1 1 0 1 1 2 0 1 1 1 
0 1 1 1 0 2 1 1 1 1 0 1 1 1 1 1 
0 1 1 1 0 1 2 3 1 2 1 1 0 2 1 3 
0 2 1 0 0 2 1 4 0 3 1 1 0 2 1 4 
0 4 1 1 0 1 1 4 0 4 1 1 1 4 0 4 
1 -1 1 4 1 2 0 -1 1 1 0 2 1 1 0 -2 
1 0 0 2 1 0 0 -3 1 1 0 1 1 -2 0 -2 
1 1 0 1 1 -2 0 -2 1 2 0 1 1 -3 0 -1 
1 2 1 1 0 -2 1 0 0 2 1 1 0 -3 1 1 
0 3 1 0 0 -2 1 2 0 3 1 -1 0 -1 1 3 
0 3 1 0 0 2 1 3 0 2 1 1 0 2 1 4 
0 3 1 2 1 3 0 4 1 3 0 2 1 5 0 4 
1 3 0 4 1 5 0 2 1 4 0 4 1 3 0 2 
1 4 1 2 0 3 1 -1 0 1 1 2 0 -2 1 0 
1 1 0 -2 1 0 1 -3 1 -1 0 -2 1 -1 1 -2 
1 2 0 -1 1 1 0 3 1 0 0 2 1 4 0 2 
1 1 0 5 1 1 0 1 1 5 1 0 -1 0 2 5 
0 -2 1 1 0 2 1 -2 0 1 1 1 0 -2 1 1 
0 2 1 -2 0 2 1 2 0 -1 1 4 1 1 0 5 
2 5 1 0 0 2 1 3 1 2 1 1 0 3 1 0 
1 3 0 -1 1 2 1 1 0 2 1 0 1 2 1 1 
1 1 0 2 1 0 1 1 0 2 1 1 0 1 1 2 
0 1 1 2 0 2 1 1 0 2 1 1 0 2 1 2 
0 1 1 2 0 1 1 1 0 1 1 1 0 2 1 1 
0 2 1 1 0 1 1 2 1 1 0 2 1 2 0 1 
1 1 0 1 1 3 1 2 0 1 1 1 0 2 1 0 
0 3 1 0 0 2 2 2 1 3 0 -1 1 2 1 -1 
0 1 1 1 1 3 0 -1 1 3 0 -1 1 2 0 -1 
1 1 0 2 1 -1 0 2 1 -2 0 3 1 -1 0 2 
2 3 0 -1 1 3 0 -2 1 3 1 -1 1 1 1 2 
0 -1 1 2 0 -2 1 3 0 -1 1 3 0 -1 1 2 
1 1 0 3 1 -1 0 4 1 -1 0 3 1 -1 0 3 
1 0 1 2 1 1 0 2 1 1 0 3 1 0 0 3 
1 0 0 3 1 0 0 3 1 1 0 2 1 1 0 2 
1 2 0 2 1 1 0 2 1 2 0 1 1 1 0 2 
1 2 1 0 0 2 2065 1334 300 MP stroke
1 0 0 2 1 1 0 2 1 0 0 2 1 1 0 1 
1 1 0 2 1 1 0 1 1 1 0 2 1 1 0 1 
1 1 0 1 1 2 1 2 1 1 0 2 1 1 0 2 
1 0 0 2 1 0 0 2 1 0 0 2 1 -1 0 2 
1 0 1 1 1 1 1 1 1 1 0 -1 1 2 1 2 
1 0 0 3 1 0 0 3 1 1 0 2 1 2 0 1 
1 3 1 4 0 -2 1 4 0 -1 1 3 0 -1 1 2 
0 1 1 -1 0 3 1 -1 0 3 1 -2 1 3 0 -1 
1 2 1 1 0 3 1 -2 0 3 1 -1 0 3 1 -1 
0 2 1 1 0 -1 1 2 0 -1 1 2 1 2 1 1 
0 2 1 -1 0 3 1 -1 1 2 0 1 1 -1 0 2 
1 -1 0 2 1 0 0 2 1 1 0 1 1 2 1 2 
0 1 1 2 0 1 1 1 0 1 1 1 0 2 1 1 
0 1 1 1 1 1 0 2 1 1 0 2 1 1 1 2 
0 1 1 1 0 1 1 1 0 1 1 1 0 1 1 1 
0 1 1 1 0 1 1 1 0 1 2 2 0 1 1 1 
1 0 -1 0 2 2 1 2 0 1 1 1 1 1 0 2 
1 0 1 3 1 1 1 1 0 2 1 1 1 3 0 1 
1 1 0 2 1 0 1 3 0 2 1 0 0 4 1 1 
1 3 1 1 0 4 1 -2 0 2 1 2 0 -2 1 2 
0 2 1 -2 0 3 1 1 0 -1 1 3 1 -1 1 3 
1 -1 0 3 1 -2 1 2 0 -2 1 1 0 2 1 -3 
0 1 1 2 0 -2 1 2 0 1 1 -2 0 2 1 2 
0 -1 1 2 0 2 1 -2 0 3 1 2 1 -1 0 3 
1 1 1 3 1 1 0 3 1 2 0 -1 1 3 0 1 
1 1 0 2 1 2 1 2 1 1 0 2 1 1 0 1 
1 1 1 1 0 1 1 2 0 1 1 1 0 2 1 1 
0 1 1 1 0 1 1 1 0 1 2 2 1 1 0 1 
1 1 0 1 2 2 1 1 1 1 1 0 1 0 1 0 
1 1 1 0 0 1 2 2 0 1 1 1 1 1 0 1 
1 1 1 2 1 1 0 1 1 2 0 1 1 1 0 1 
1 3 0 1 1 1 0 1 1 3 1 1 0 2 1 2 
1 0 0 3 1 1 1 -1 0 2 1 1 0 -2 1 0 
1 3 0 -1 1 -1 0 1 1 2 1 -2 0 3 1 2 
0 -1 1 -1 0 3 1 2 0 -1 1 -1 0 3 1 2 
1 -1 0 3 1 2 1 -1 1 3 0 2 1 -1 1 3 
0 3 1 -2 1 3 0 2 1 -1 0 -1 1 2 0 3 
1 -1 0 -2 1 2 1882 1007 300 MP stroke
1 3 -1 0 2 0 1 3 -1 0 2 0 1 3 0 2 
1 -1 1 3 0 2 1 1 1 2 0 2 1 2 0 1 
1 1 0 3 1 2 1 1 0 2 1 1 0 1 1 1 
1 1 1 1 1 0 -1 0 2 2 1 0 1 1 1 0 
1 1 1 0 1 0 1 0 1 0 1 0 1 0 1 0 
1 0 1 1 1 1 1 1 0 1 2 2 0 1 1 1 
1 1 0 1 1 2 0 2 1 1 0 1 1 1 0 2 
1 2 1 1 0 1 1 1 0 1 1 2 0 1 1 1 
1 1 0 3 1 1 0 1 1 1 1 1 0 2 1 2 
0 1 1 -1 1 1 0 3 1 2 1 0 -1 0 2 -2 
0 2 1 2 1 2 -1 0 2 -2 1 3 0 2 1 0 
0 -2 1 -2 0 1 1 3 1 1 -1 0 2 -3 0 -1 
1 3 0 2 1 0 1 -2 0 -2 1 1 0 2 1 2 
1 1 0 -2 1 -1 0 2 1 3 1 2 -1 0 2 -2 
0 1 1 3 0 3 1 1 0 -1 1 -2 1 2 1 3 
0 3 1 0 0 -2 1 -1 0 1 1 3 0 3 1 3 
1 -1 0 -1 1 1 0 3 1 4 0 2 1 1 0 -1 
1 -1 1 2 0 3 1 2 1 0 1 -2 1 -1 0 2 
1 2 0 1 1 1 0 -1 1 -1 0 -1 1 1 0 2 
1 2 1 1 -1 0 2 -2 0 -1 1 1 0 2 1 1 
1 1 1 -1 1 -1 0 2 1 1 0 1 1 1 1 0 
1 -1 1 1 0 1 1 1 1 1 0 1 2 2 0 1 
1 1 1 1 1 1 1 0 0 1 2 2 1 1 0 1 
2 2 0 1 1 1 1 0 1 1 1 0 1 1 1 2 
1 1 0 1 2 2 0 1 1 1 0 2 1 1 1 1 
1 1 1 0 1 1 1 1 0 1 1 1 1 1 1 1 
1 0 1 1 1 1 1 1 1 1 1 1 1 0 1 -1 
0 1 1 1 0 2 1 1 0 2 1 1 1 1 1 0 
1 -1 1 -1 1 1 0 2 1 1 1 1 1 0 -1 0 
2 -2 0 -1 1 -1 1 -1 -1 0 2 3 0 2 1 2 
1 1 0 1 2 0 1 -1 1 -1 1 2 0 2 1 2 
0 2 1 1 0 1 1 1 0 -1 2 -3 0 -1 1 -1 
0 1 1 1 1 2 0 2 1 3 0 3 1 3 0 1 
1 2 1 0 -1 0 2 -3 0 -1 1 -2 0 -1 1 -1 
1 1 0 1 1 3 0 2 1 2 0 2 1 1 1 0 
1 -1 0 -2 1 -2 0 -3 1 -2 0 -3 1 -1 1 0 
0 2 1 1 0 3 1 3 0 3 1 2 0 3 1 1 
0 1 1 -1 1 -1 1678 773 300 MP stroke
0 -2 1 -1 1 -1 1 -1 -1 0 2 2 0 2 1 3 
0 3 1 3 0 3 1 3 0 3 1 3 0 2 1 1 
1 1 1 -1 0 -2 1 -2 0 -2 1 -2 1 -3 0 -2 
1 -2 0 -1 1 -2 1 0 -1 0 2 3 0 2 1 2 
0 3 1 2 0 3 1 3 0 2 1 2 0 2 1 1 
1 1 1 0 -1 0 2 -2 1 -2 0 -2 1 -2 0 -3 
1 -3 0 -3 1 -2 0 -3 1 -2 0 -1 1 -1 0 1 
1 1 0 1 1 2 0 3 1 3 0 3 1 4 0 3 
1 3 0 3 1 3 1 3 0 2 1 2 0 2 1 1 
0 2 1 1 0 1 1 1 1 1 1 0 1 0 -1 0 
2 -2 0 -2 1 -2 0 -2 1 -3 0 -3 1 -3 0 -3 
1 -4 1 -3 0 -4 1 -3 0 -3 1 -2 0 -2 1 -1 
1 1 0 1 1 2 0 2 1 3 0 3 1 2 0 3 
1 3 0 3 1 2 0 3 1 2 0 1 1 2 1 1 
0 1 1 1 1 0 1 -1 0 -1 1 -1 0 -1 1 -2 
0 -1 1 -2 0 -1 1 -2 0 -2 1 -2 0 -1 1 -1 
0 -1 1 -1 1 1 1 2 1 2 0 3 1 3 0 4 
1 4 0 5 1 4 0 5 1 5 0 5 1 4 0 4 
1 3 0 3 1 2 0 1 1 1 0 1 1 -1 0 -1 
1 -2 0 -2 1 -2 0 -3 1 -3 1 -4 0 -3 1 -4 
0 -4 1 -3 0 -4 1 -4 0 -3 1 -3 0 -4 1 -2 
0 -3 1 -1 0 -2 1 0 1 -1 1 1 0 1 1 1 
0 2 1 1 1 2 0 1 1 1 0 2 1 1 0 1 
1 1 0 1 1 1 0 1 1 1 1 1 1 1 1 0 
1 0 1 0 1 -1 1 0 1 0 1 -1 1 0 1 1 
1 1 1 1 1 1 1 1 1 1 1 1 1 1 1 0 
1 0 1 1 1 0 1 0 1 0 1 1 1 1 0 1 
2 2 1 1 1 1 0 1 2 2 1 0 1 1 1 0 
1 0 1 -1 1 0 -1 0 2 -2 1 0 1 -1 1 -1 
1 -1 1 -1 1 0 1 -1 1 -1 1 -1 1 -1 1 0 
1 0 1 1 1 1 0 1 2 2 0 1 1 1 1 1 
1 1 1 1 1 1 1 1 1 1 1 0 1 0 1 -1 
1 0 -1 0 2 -2 1 -1 0 -1 1 -1 1 0 -1 0 
2 -2 0 -1 1 -1 0 -1 2 -2 1 -1 1 0 1 -1 
1 0 1 1 1 0 1 1 1 1 1 0 1 1 1 1 
1 1 1 1 1 1 1 1 0 1 2 2 0 1 1 1 
1 1 0 2 1 1 1 1 1 1 1 1 1 1 1 1 
1 1 1 0 1 1 1469 694 300 MP stroke
1 0 1 0 1 0 0 -1 2 -3 1 -1 0 -2 1 -2 
0 -2 1 -3 0 -2 1 -3 0 -3 1 -2 0 -3 1 -3 
0 -2 1 -2 0 -2 1 -2 0 -2 1 -2 0 -2 1 -1 
0 -2 1 -2 0 -1 1 -2 0 -3 1 -2 1 -3 0 -3 
1 -3 0 -3 1 -3 0 -3 1 -3 0 -2 1 -1 0 -1 
1 1 0 1 1 1 0 3 1 3 0 3 1 3 0 4 
1 4 0 3 1 3 0 3 1 3 1 3 0 2 1 2 
0 2 1 2 0 2 1 2 0 2 1 1 0 2 1 2 
0 1 1 2 0 1 1 2 0 1 1 1 0 2 1 1 
0 1 2 2 1 1 1 0 1 0 1 -1 1 -1 1 -1 
0 -1 1 -1 1 -2 0 -1 1 -1 0 -1 1 -2 0 -2 
1 -2 0 -2 1 -2 0 -2 1 -3 1 -3 0 -3 1 -3 
0 -3 1 -4 0 -4 1 -4 0 -3 1 -4 0 -3 1 -2 
0 -3 1 -1 1 1 0 1 1 2 0 2 1 3 0 3 
1 3 0 3 1 2 0 3 1 2 1 2 0 1 1 1 
0 1 1 1 1 0 1 0 -1 0 2 -2 0 -1 1 -1 
0 -2 1 -1 0 -2 1 -1 0 -2 1 -1 0 -2 1 0 
1 0 1 0 -1 0 2 2 0 1 1 2 0 1 1 2 
0 1 1 1 0 1 1 1 1 0 1 -1 0 -1 1 -2 
0 -2 1 -3 0 -2 1 -4 0 -3 1 -4 0 -4 1 -3 
1 -3 0 -2 1 -2 1 -1 0 2 1 2 0 2 1 3 
0 4 1 3 0 3 1 2 0 3 1 1 1 1 -1 0 
2 -2 0 -2 1 -3 0 -3 1 -3 1 -3 0 -2 1 -3 
0 -1 1 -1 1 0 -1 0 2 3 0 2 1 3 0 2 
1 2 0 1 1 1 0 -1 1 -1 0 -1 1 -3 0 -2 
1 -4 0 -3 1 -3 0 -2 1 -1 1 -1 1 1 0 2 
1 2 0 3 1 3 0 2 1 2 0 2 1 0 1 -2 
0 -2 1 -3 0 -3 1 -4 0 -3 1 -2 0 -3 1 -1 
1 0 -1 0 2 3 1 1 1 1 1 -1 0 -1 1 -2 
0 -2 1 -2 0 -2 1 -1 0 -1 1 1 0 2 1 3 
0 2 1 3 0 2 1 2 1 0 -1 0 2 -3 1 -3 
0 -3 1 -3 0 -3 1 -1 1 -1 1 1 0 1 1 1 
0 -1 2 -2 0 -2 1 -2 0 -1 1 -1 1 0 0 2 
1 1 0 2 1 0 1 1 0 -1 1 -1 0 -1 1 -2 
0 -3 1 -2 0 -2 1 -1 1 0 1 -1 1 -1 1 -1 
0 -2 1 -1 1 -1 1 -1 1 0 1 0 0 -1 2 -2 
0 -1 1 -1 1 -1 1 0 1 0 1 0 1 0 0 1 
2 2 1 0 1 -1 1287 823 300 MP stroke
1 -1 0 -1 1 -1 0 -1 1 -2 0 -2 1 -1 0 -1 
1 -1 0 -1 1 -1 0 -1 1 -2 0 -2 1 -3 0 -2 
1 -2 0 -2 1 -1 0 -2 1 -2 1 -3 0 -3 1 -2 
0 1 1 2 1 1 0 1 2 2 0 3 1 2 1 1 
1 0 1 0 1 0 1 1 1 -1 1 0 0 -1 2 0 
1 -1 1 0 -1 0 2 -3 1 -1 1 0 0 -1 2 -3 
0 -1 1 -1 1 1 1 0 -1 0 2 -2 0 -2 1 -3 
1 -1 1 0 -1 0 2 -3 0 -3 1 -2 1 -1 1 1 
-1 0 2 -4 0 -3 1 -2 0 1 1 1 0 1 1 -1 
1 -3 0 -3 1 -1 1 2 0 1 1 -2 0 -3 1 -3 
0 -2 1 0 0 2 1 0 0 -2 1 -4 0 -3 1 -1 
0 2 1 1 0 -1 1 -2 0 -3 1 -2 1 2 0 2 
1 1 0 -1 1 -2 0 -2 1 1 0 3 1 2 0 1 
1 -2 0 -2 1 1 0 2 1 2 0 1 1 -2 0 -2 
1 -2 0 1 1 2 0 1 1 -2 0 -3 1 -3 1 0 
1 1 -1 0 2 -4 0 -3 1 -1 1 1 -1 0 2 -4 
0 -2 1 -1 1 1 -1 0 2 -3 0 -2 1 0 1 1 
-1 0 2 -2 0 -2 1 1 1 0 1 -1 0 -2 1 0 
1 -1 1 -2 0 -2 1 0 1 -1 0 -1 1 -2 1 -1 
1 -1 0 -2 1 -1 0 -1 1 -1 1 -1 0 -1 1 -2 
0 -1 1 -1 0 -1 1 -1 0 -1 1 -2 0 -1 2 -2 
0 -1 1 -1 1 -1 1 -1 1 -1 1 0 1 0 1 -1 
1 -1 1 0 1 -2 1 0 -1 0 2 -2 1 -1 1 -1 
0 -1 1 -1 1 -1 0 -1 1 -2 1 -1 1 -1 0 -2 
1 0 1 0 -1 0 2 -3 1 1 0 -1 1 -2 1 0 
1 -2 0 -2 1 1 1 -2 1 -3 -1 0 2 -1 0 -3 
1 -1 1 1 0 -1 1 -3 0 -1 1 1 1 -3 0 -2 
1 1 0 1 1 -3 0 -2 1 1 0 1 1 -3 0 -3 
1 1 0 1 1 -2 1 -3 -1 0 2 -2 1 -3 1 1 
0 -3 1 -2 0 1 1 -1 0 -3 1 -3 0 2 1 -1 
0 -3 1 -1 0 1 1 -2 1 -3 -1 0 2 0 0 -3 
1 1 0 1 1 -2 0 -1 1 2 1 0 0 -2 1 0 
0 2 1 -1 0 -1 1 1 0 1 1 -2 1 1 1 -1 
1 1 1 -2 1 1 -1 0 2 -2 0 1 1 -1 1 -2 
0 -1 2 -4 1 -2 0 -2 1 -2 0 -1 1 -2 0 -2 
1 -3 0 -1 1 -2 0 -4 1 -2 0 -1 1 -4 0 -2 
1 -2 0 -2 1 -2 0 -2 1 -2 1 -1 0 -1 1 -2 
1 -1 0 -1 1 -1 1096 1105 300 MP stroke
1 -1 0 -1 2 -2 1 1 -1 0 2 0 1 0 1 1 
1 1 1 0 1 0 -1 0 2 0 1 0 -1 0 2 -2 
1 -1 0 -2 2 -3 1 -1 0 -3 1 1 0 -2 1 -2 
0 1 1 -1 0 -3 1 2 1 -1 0 -3 1 2 0 -1 
1 -3 0 1 1 -2 0 -3 1 1 0 -2 1 -4 0 1 
1 -4 0 -2 1 0 0 -4 1 -1 1 -4 1 -1 0 -3 
1 1 0 -1 1 -3 1 1 0 -2 1 -1 0 1 1 -3 
1 0 0 -2 1 1 0 -1 1 -3 0 1 1 -1 0 -2 
1 0 0 -2 1 0 1 -2 0 1 1 -1 0 -1 1 1 
1 -2 1 0 0 -2 1 1 0 -1 1 -2 1 -1 1 -1 
0 -1 2 -2 0 -1 1 -1 0 -1 1 -1 0 -2 1 -1 
0 -2 1 -1 0 -1 1 -2 1 -2 0 -1 1 -2 0 -1 
1 -2 0 -2 1 -1 0 -2 1 -2 0 -2 1 -1 0 -1 
1 -2 0 -1 1 -3 1 -2 0 -1 1 -1 1 -1 0 -2 
1 0 1 -1 1 -1 0 -1 1 1 1 -1 1 -1 0 1 
1 -2 0 1 1 -1 1 1 0 -1 2 0 0 -1 2 -3 
1 -3 1 0 0 -2 1 0 0 -2 1 -2 1 -4 0 1 
1 -3 1 -3 0 -2 1 -1 0 -3 1 0 0 -5 1 1 
0 -5 1 0 0 -3 1 -1 0 -1 1 -2 1 0 0 -2 
1 2 0 -3 1 2 0 -2 1 2 0 -2 1 1 1 -1 
1 -2 0 1 1 -3 0 1 1 -2 0 1 1 -3 0 1 
1 -2 0 1 1 -2 1 -1 1 -1 0 -1 1 -1 0 -1 
1 -2 1 -2 0 1 1 -2 0 1 1 -1 1 -1 0 1 
1 -2 1 -2 0 -1 1 -2 0 -3 1 -1 0 -3 1 -2 
1 -4 0 -2 1 -3 0 -2 1 -4 0 -2 1 -3 0 -2 
1 -3 0 -2 1 -2 0 -2 1 -2 1 -1 1 0 1 1 
0 1 1 1 0 1 1 2 0 1 1 1 1 0 1 0 
1 -2 0 -1 1 -2 0 -2 1 -3 0 -1 1 -3 0 -2 
1 -3 0 -1 1 -2 0 -2 1 -2 0 -3 1 0 0 -3 
1 0 0 -4 1 0 0 -4 1 1 1 -4 1 -2 0 -1 
1 -1 0 -2 1 1 0 -3 1 2 0 -3 1 1 0 -2 
1 -1 1 -3 0 1 1 -3 0 2 1 -3 0 1 1 -2 
1 1 1 -1 0 2 1 -2 0 3 1 -2 0 2 1 0 
1 1 0 -1 1 2 0 -3 1 2 0 -2 1 1 0 -1 
1 -2 0 1 1 -3 0 2 1 -4 0 1 1 -3 0 -1 
1 -1 1 -2 1 -3 0 -1 1 -2 0 -2 1 -2 0 -2 
1 -1 0 -3 1 -2 0 -3 1 -2 0 -3 1 -2 0 -3 
1 -3 0 -1 1 -3 914 1451 300 MP stroke
0 -2 1 -2 0 -3 1 -1 1 -2 0 -2 1 -2 0 -2 
1 -1 0 -1 1 -2 0 -1 1 -2 0 -1 1 -1 0 -1 
1 -1 0 -1 1 -1 1 -2 0 -1 1 1 0 -3 1 0 
1 -2 0 1 1 -2 1 -1 0 1 1 -2 1 0 0 -2 
1 0 1 -2 0 2 1 -2 0 -1 1 2 0 -3 1 0 
1 -4 0 1 1 -1 0 -4 1 1 0 -3 1 -2 1 2 
1 -3 -1 0 2 -2 1 1 0 -4 1 1 0 -2 1 -5 
1 -3 0 -4 1 -2 0 -3 1 -5 0 -2 1 -3 0 -3 
1 -1 0 -2 1 -2 0 -1 1 1 1 -1 0 1 1 1 
0 -1 1 2 0 2 2 2 1 -1 -1 0 2 0 0 -1 
1 -1 0 -3 1 -1 0 -1 1 -3 0 -1 1 -1 0 -3 
1 -2 1 -1 0 -1 1 -1 0 -1 1 -1 0 -2 1 -1 
0 -1 1 -1 0 -1 1 -1 0 -3 1 -1 0 -2 1 -1 
0 -1 1 -1 0 -2 1 -2 0 -1 1 -1 0 -1 1 -2 
0 -1 1 -1 1 -3 0 -2 1 -1 0 -2 1 -3 0 -1 
1 -1 0 -2 1 -3 0 -1 1 1 0 -2 1 -1 1 1 
0 -3 1 -1 0 2 1 -1 1 -2 -1 0 2 -1 1 -2 
1 1 0 -2 1 -3 1 1 0 -3 1 -4 1 1 0 -4 
1 -3 1 0 0 -4 1 -4 1 1 0 -4 1 -2 1 1 
0 -3 1 -2 1 0 0 2 1 0 0 -2 1 1 0 3 
1 0 0 -2 1 1 0 3 1 2 0 -2 1 0 0 3 
1 2 0 -3 1 -1 0 1 1 1 0 -3 1 -3 1 -1 
0 -4 1 -4 1 -2 0 -2 1 -4 0 -5 1 -3 0 -3 
1 -3 0 -5 1 -3 0 -3 1 -2 0 -4 1 -4 0 -4 
1 -2 0 -3 1 -3 0 -4 1 -3 0 -2 1 -1 1 0 
1 0 1 0 0 2 1 3 0 2 2 3 0 1 1 2 
1 0 1 0 1 -1 1 -1 1 -1 0 -1 1 -2 0 -1 
1 -1 1 -1 0 -2 1 -4 0 -4 1 -3 0 -2 1 -2 
0 -2 1 -4 0 -4 1 -4 0 -1 1 1 0 -1 1 -3 
0 -4 1 -4 0 -2 1 0 1 0 0 -3 1 -5 1 -3 
0 -2 1 -1 0 -1 1 -2 0 -3 1 -5 0 -4 1 -3 
0 -1 1 -1 1 1 1 0 -1 0 2 2 0 1 1 2 
0 2 1 1 1 -1 0 -3 1 -2 1 -1 0 -2 1 -1 
1 -1 0 -2 1 -1 0 -1 1 -1 1 -1 0 -1 1 -2 
0 -3 1 -4 0 -5 1 -3 0 -4 1 -2 0 -3 1 -2 
0 -2 1 -2 1 -1 1 0 1 1 0 1 1 1 0 1 
1 1 0 2 1 1 1 1 -1 0 2 -3 0 -2 1 -3 
0 -3 1 -2 0 -2 739 1849 300 MP stroke
1 -1 1 -1 -1 0 2 2 1 2 0 2 1 3 0 3 
1 2 0 2 1 3 0 2 1 2 0 2 1 1 1 -1 
0 -3 1 -3 0 -4 1 -4 0 -4 1 -4 0 -3 1 -4 
0 -4 1 -3 1 -4 0 -4 1 -4 0 -4 1 -5 0 -5 
1 -5 0 -4 1 -5 0 -3 1 -4 0 -3 1 -2 0 -3 
1 -2 0 -3 1 -3 0 -2 1 -3 0 -3 1 -2 0 -3 
1 -2 0 -1 1 -2 1 -1 1 -1 1 0 1 0 1 0 
1 0 1 0 1 0 1 0 1 0 1 0 1 0 699 1945 64 MP stroke
gr

c9
0 sg
2558 3877 mt 
(seconds) s
 246 2051 mt  -90 rotate
(rpm) s
90 rotate
2485  207 mt 
(experiment) s
 682 3632 mt 
( ) s
4849  344 mt 
( ) s
1 sg
0 334 659 0 0 -334 4146 696 4 MP
PP
-659 0 0 334 659 0 0 -334 4146 696 5 MP stroke
4 w
DO
SO
6 w
0 sg
4146  696 mt 4805  696 L
4146  362 mt 4805  362 L
4146  696 mt 4146  362 L
4805  696 mt 4805  362 L
4146  696 mt 4805  696 L
4146  696 mt 4146  362 L
4146  696 mt 4805  696 L
4146  362 mt 4805  362 L
4146  696 mt 4146  362 L
4805  696 mt 4805  362 L
4630  498 mt 
(wd) s
gs 4146 362 660 335 rc
c8
371 0 4220 455 2 MP stroke
gr

c8
0 sg
4630  645 mt 
(w) s
gs 4146 362 660 335 rc
c9
371 0 4220 602 2 MP stroke
gr

c9

end %%Color Dict

eplot
%%EndObject

epage
end

showpage

%%Trailer
%%EOF
