%!PS-Adobe-3.0 EPSF-3.0
%%Creator: MATLAB, The MathWorks, Inc. Version 8.1.0.604 (R2013a). Operating System: Linux 4.9.0-040900-generic #201612111631 SMP Sun Dec 11 21:33:00 UTC 2016 x86_64.
%%Title: /home/lukas/Universidad/Master/2 Semester/Control Theory for Embedded Systems/lab/4lab/MATLAB/y_yd_point_exp.eps
%%CreationDate: 12/17/2016  18:32:25
%%DocumentNeededFonts: Helvetica
%%DocumentProcessColors: Cyan Magenta Yellow Black
%%LanguageLevel: 2
%%Pages: 1
%%BoundingBox:    81   227   529   564
%%EndComments

%%BeginProlog
% MathWorks dictionary
/MathWorks 160 dict begin
% definition operators
/bdef {bind def} bind def
/ldef {load def} bind def
/xdef {exch def} bdef
/xstore {exch store} bdef
% operator abbreviations
/c  /clip ldef
/cc /concat ldef
/cp /closepath ldef
/gr /grestore ldef
/gs /gsave ldef
/mt /moveto ldef
/np /newpath ldef
/cm /currentmatrix ldef
/sm /setmatrix ldef
/rm /rmoveto ldef
/rl /rlineto ldef
/s {show newpath} bdef
/sc {setcmykcolor} bdef
/sr /setrgbcolor ldef
/sg /setgray ldef
/w /setlinewidth ldef
/j /setlinejoin ldef
/cap /setlinecap ldef
/rc {rectclip} bdef
/rf {rectfill} bdef
% page state control
/pgsv () def
/bpage {/pgsv save def} bdef
/epage {pgsv restore} bdef
/bplot /gsave ldef
/eplot {stroke grestore} bdef
% orientation switch
/portraitMode 0 def /landscapeMode 1 def /rotateMode 2 def
% coordinate system mappings
/dpi2point 0 def
% font control
/FontSize 0 def
/FMS {/FontSize xstore findfont [FontSize 0 0 FontSize neg 0 0]
  makefont setfont} bdef
/reencode {exch dup where {pop load} {pop StandardEncoding} ifelse
  exch dup 3 1 roll findfont dup length dict begin
  { 1 index /FID ne {def}{pop pop} ifelse } forall
  /Encoding exch def currentdict end definefont pop} bdef
/isroman {findfont /CharStrings get /Agrave known} bdef
/FMSR {3 1 roll 1 index dup isroman {reencode} {pop pop} ifelse
  exch FMS} bdef
/csm {1 dpi2point div -1 dpi2point div scale neg translate
 dup landscapeMode eq {pop -90 rotate}
  {rotateMode eq {90 rotate} if} ifelse} bdef
% line types: solid, dotted, dashed, dotdash
/SO { [] 0 setdash } bdef
/DO { [.5 dpi2point mul 4 dpi2point mul] 0 setdash } bdef
/DA { [6 dpi2point mul] 0 setdash } bdef
/DD { [.5 dpi2point mul 4 dpi2point mul 6 dpi2point mul 4
  dpi2point mul] 0 setdash } bdef
% macros for lines and objects
/L {lineto stroke} bdef
/MP {3 1 roll moveto 1 sub {rlineto} repeat} bdef
/AP {{rlineto} repeat} bdef
/PDlw -1 def
/W {/PDlw currentlinewidth def setlinewidth} def
/PP {closepath eofill} bdef
/DP {closepath stroke} bdef
/MR {4 -2 roll moveto dup  0 exch rlineto exch 0 rlineto
  neg 0 exch rlineto closepath} bdef
/FR {MR stroke} bdef
/PR {MR fill} bdef
/L1i {{currentfile picstr readhexstring pop} image} bdef
/tMatrix matrix def
/MakeOval {newpath tMatrix currentmatrix pop translate scale
0 0 1 0 360 arc tMatrix setmatrix} bdef
/FO {MakeOval stroke} bdef
/PO {MakeOval fill} bdef
/PD {currentlinewidth 2 div 0 360 arc fill
   PDlw -1 eq not {PDlw w /PDlw -1 def} if} def
/FA {newpath tMatrix currentmatrix pop translate scale
  0 0 1 5 -2 roll arc tMatrix setmatrix stroke} bdef
/PA {newpath tMatrix currentmatrix pop	translate 0 0 moveto scale
  0 0 1 5 -2 roll arc closepath tMatrix setmatrix fill} bdef
/FAn {newpath tMatrix currentmatrix pop translate scale
  0 0 1 5 -2 roll arcn tMatrix setmatrix stroke} bdef
/PAn {newpath tMatrix currentmatrix pop translate 0 0 moveto scale
  0 0 1 5 -2 roll arcn closepath tMatrix setmatrix fill} bdef
/vradius 0 def /hradius 0 def /lry 0 def
/lrx 0 def /uly 0 def /ulx 0 def /rad 0 def
/MRR {/vradius xdef /hradius xdef /lry xdef /lrx xdef /uly xdef
  /ulx xdef newpath tMatrix currentmatrix pop ulx hradius add uly
  vradius add translate hradius vradius scale 0 0 1 180 270 arc 
  tMatrix setmatrix lrx hradius sub uly vradius add translate
  hradius vradius scale 0 0 1 270 360 arc tMatrix setmatrix
  lrx hradius sub lry vradius sub translate hradius vradius scale
  0 0 1 0 90 arc tMatrix setmatrix ulx hradius add lry vradius sub
  translate hradius vradius scale 0 0 1 90 180 arc tMatrix setmatrix
  closepath} bdef
/FRR {MRR stroke } bdef
/PRR {MRR fill } bdef
/MlrRR {/lry xdef /lrx xdef /uly xdef /ulx xdef /rad lry uly sub 2 div def
  newpath tMatrix currentmatrix pop ulx rad add uly rad add translate
  rad rad scale 0 0 1 90 270 arc tMatrix setmatrix lrx rad sub lry rad
  sub translate rad rad scale 0 0 1 270 90 arc tMatrix setmatrix
  closepath} bdef
/FlrRR {MlrRR stroke } bdef
/PlrRR {MlrRR fill } bdef
/MtbRR {/lry xdef /lrx xdef /uly xdef /ulx xdef /rad lrx ulx sub 2 div def
  newpath tMatrix currentmatrix pop ulx rad add uly rad add translate
  rad rad scale 0 0 1 180 360 arc tMatrix setmatrix lrx rad sub lry rad
  sub translate rad rad scale 0 0 1 0 180 arc tMatrix setmatrix
  closepath} bdef
/FtbRR {MtbRR stroke } bdef
/PtbRR {MtbRR fill } bdef
/stri 6 array def /dtri 6 array def
/smat 6 array def /dmat 6 array def
/tmat1 6 array def /tmat2 6 array def /dif 3 array def
/asub {/ind2 exch def /ind1 exch def dup dup
  ind1 get exch ind2 get sub exch } bdef
/tri_to_matrix {
  2 0 asub 3 1 asub 4 0 asub 5 1 asub
  dup 0 get exch 1 get 7 -1 roll astore } bdef
/compute_transform {
  dmat dtri tri_to_matrix tmat1 invertmatrix 
  smat stri tri_to_matrix tmat2 concatmatrix } bdef
/ds {stri astore pop} bdef
/dt {dtri astore pop} bdef
/db {2 copy /cols xdef /rows xdef mul dup 3 mul string
  currentfile 
  3 index 0 eq {/ASCIIHexDecode filter}
  {/ASCII85Decode filter 3 index 2 eq {/RunLengthDecode filter} if }
  ifelse exch readstring pop
  dup 0 3 index getinterval /rbmap xdef
  dup 2 index dup getinterval /gbmap xdef
  1 index dup 2 mul exch getinterval /bbmap xdef pop pop}bdef
/it {gs np dtri aload pop moveto lineto lineto cp c
  cols rows 8 compute_transform 
  rbmap gbmap bbmap true 3 colorimage gr}bdef
/il {newpath moveto lineto stroke}bdef
currentdict end def
%%EndProlog

%%BeginSetup
MathWorks begin

0 cap

end
%%EndSetup

%%Page: 1 1
%%BeginPageSetup
%%PageBoundingBox:    81   227   529   564
MathWorks begin
bpage
%%EndPageSetup

%%BeginObject: obj1
bplot

/dpi2point 12 def
portraitMode 0972 6768 csm

    0     0  5376  4033 rc
85 dict begin %Colortable dictionary
/c0 { 0.000000 0.000000 0.000000 sr} bdef
/c1 { 1.000000 1.000000 1.000000 sr} bdef
/c2 { 0.900000 0.000000 0.000000 sr} bdef
/c3 { 0.000000 0.820000 0.000000 sr} bdef
/c4 { 0.000000 0.000000 0.800000 sr} bdef
/c5 { 0.910000 0.820000 0.320000 sr} bdef
/c6 { 1.000000 0.260000 0.820000 sr} bdef
/c7 { 0.000000 0.820000 0.820000 sr} bdef
c0
1 j
1 sg
   0    0 5377 4034 rf
6 w
0 3287 4166 0 0 -3287 699 3589 4 MP
PP
-4166 0 0 3287 4166 0 0 -3287 699 3589 5 MP stroke
4 w
DO
0 sg
 699 3589 mt  699  302 L
 699  302 mt  699  302 L
1393 3589 mt 1393  302 L
1393  302 mt 1393  302 L
2087 3589 mt 2087  302 L
2087  302 mt 2087  302 L
2782 3589 mt 2782  302 L
2782  302 mt 2782  302 L
3476 3589 mt 3476  302 L
3476  302 mt 3476  302 L
4170 3589 mt 4170  302 L
4170  302 mt 4170  302 L
4865 3589 mt 4865  302 L
4865  302 mt 4865  302 L
 699 3589 mt 4865 3589 L
4865 3589 mt 4865 3589 L
 699 3041 mt 4865 3041 L
4865 3041 mt 4865 3041 L
 699 2493 mt 4865 2493 L
4865 2493 mt 4865 2493 L
 699 1945 mt 4865 1945 L
4865 1945 mt 4865 1945 L
 699 1397 mt 4865 1397 L
4865 1397 mt 4865 1397 L
 699  849 mt 4865  849 L
4865  849 mt 4865  849 L
 699  302 mt 4865  302 L
4865  302 mt 4865  302 L
SO
6 w
 699 3589 mt 4865 3589 L
 699  302 mt 4865  302 L
 699 3589 mt  699  302 L
4865 3589 mt 4865  302 L
 699 3589 mt 4865 3589 L
 699 3589 mt  699  302 L
 699 3589 mt  699 3547 L
 699  302 mt  699  343 L
%%IncludeResource: font Helvetica
/Helvetica /ISOLatin1Encoding 120 FMSR

 666 3734 mt 
(0) s
1393 3589 mt 1393 3547 L
1393  302 mt 1393  343 L
1327 3734 mt 
(20) s
2087 3589 mt 2087 3547 L
2087  302 mt 2087  343 L
2021 3734 mt 
(40) s
2782 3589 mt 2782 3547 L
2782  302 mt 2782  343 L
2716 3734 mt 
(60) s
3476 3589 mt 3476 3547 L
3476  302 mt 3476  343 L
3410 3734 mt 
(80) s
4170 3589 mt 4170 3547 L
4170  302 mt 4170  343 L
4070 3734 mt 
(100) s
4865 3589 mt 4865 3547 L
4865  302 mt 4865  343 L
4765 3734 mt 
(120) s
 699 3589 mt  740 3589 L
4865 3589 mt 4823 3589 L
 328 3633 mt 
(-4000) s
 699 3041 mt  740 3041 L
4865 3041 mt 4823 3041 L
 328 3085 mt 
(-2000) s
 699 2493 mt  740 2493 L
4865 2493 mt 4823 2493 L
 598 2537 mt 
(0) s
 699 1945 mt  740 1945 L
4865 1945 mt 4823 1945 L
 398 1989 mt 
(2000) s
 699 1397 mt  740 1397 L
4865 1397 mt 4823 1397 L
 398 1441 mt 
(4000) s
 699  849 mt  740  849 L
4865  849 mt 4823  849 L
 398  893 mt 
(6000) s
 699  302 mt  740  302 L
4865  302 mt 4823  302 L
 398  346 mt 
(8000) s
 699 3589 mt 4865 3589 L
 699  302 mt 4865  302 L
 699 3589 mt  699  302 L
4865 3589 mt 4865  302 L
gs 699 302 4167 3288 rc
/c8 { 0.000000 0.000000 1.000000 sr} bdef
c8
1 -274 1 0 1 0 1 0 1 0 1 0 1 0 1 0 
1 0 1 0 1 0 1 0 1 0 1 0 1 0 1 0 
1 0 1 0 1 0 1 0 1 0 1 0 1 0 1 0 
1 0 1 0 1 0 1 0 1 0 1 0 1 0 1 0 
1 0 1 0 1 0 1 0 1 0 1 0 1 0 1 0 
1 0 1 0 1 0 1 0 1 0 1 0 1 0 1 0 
1 0 1 0 1 0 1 0 1 0 1 0 1 0 1 0 
1 0 1 0 1 0 1 0 1 0 1 0 1 0 1 0 
1 0 1 0 1 0 1 0 1 0 1 0 1 0 1 0 
1 0 1 0 1 0 1 0 1 0 1 0 1 0 1 0 
1 0 1 0 1 0 1 0 1 0 1 0 1 0 1 0 
1 0 1 0 1 0 1 0 1 0 1 0 1 0 1 0 
1 0 1 0 1 0 1 0 1 0 1 0 1 0 1 0 
1 0 1 0 1 0 1 0 1 0 1 0 1 0 1 0 
1 0 1 0 1 0 1 0 1 0 1 0 1 0 1 0 
1 0 1 0 1 0 1 0 1 0 1 0 1 0 1 0 
1 0 1 0 1 0 1 0 1 0 1 0 1 0 1 0 
1 0 1 0 1 0 1 0 1 0 1 0 1 0 1 0 
1 0 1 0 1 0 1 0 1 0 1 0 1 0 1 0 
1 0 1 0 1 0 1 0 1 0 1 0 1 0 1 0 
1 0 1 0 1 0 1 0 1 0 1 0 1 0 1 0 
1 0 1 0 1 0 1 0 1 0 1 0 1 0 1 0 
1 0 1 0 1 0 1 0 1 0 1 0 1 0 1 0 
1 0 1 0 1 0 1 0 1 0 1 0 1 0 1 0 
1 0 1 0 1 0 1 0 1 0 1 0 1 0 1 0 
1 0 1 0 1 0 1 0 1 0 1 0 1 0 1 0 
1 0 1 0 1 0 1 0 1 0 1 0 1 0 1 0 
1 0 1 0 1 0 1 0 1 0 1 0 1 0 1 0 
1 0 1 0 1 0 1 0 1 0 1 0 1 0 1 0 
1 0 1 0 1 0 1 0 1 0 1 0 1 0 1 0 
1 0 1 0 1 0 1 0 1 0 1 0 1 0 1 0 
1 0 1 0 1 0 1 0 1 0 1 0 1 0 1 0 
1 0 1 0 1 0 1 0 1 0 1 0 1 0 1 0 
1 0 1 0 1 0 1 0 1 0 1 0 1 0 1 0 
1 0 1 0 1 0 1 0 1 0 1 0 1 0 1 0 
1 0 1 0 1 0 1 0 1 0 1 0 1 0 1 0 
1 0 1 0 1 0 1 0 1 0 1 0 1 0 1 0 
1 0 1 0 1 0 4566 1945 300 MP stroke
1 0 1 0 1 0 1 0 1 0 1 0 1 0 1 0 
1 0 1 0 1 0 1 0 1 0 1 0 1 0 1 0 
1 0 1 0 1 0 1 0 1 0 1 0 1 0 1 0 
1 0 1 0 1 0 1 0 1 0 1 0 1 0 1 0 
1 0 1 0 1 0 1 0 1 0 1 0 1 0 1 0 
1 0 1 0 1 0 1 0 1 0 1 0 1 0 1 0 
1 0 1 0 1 0 1 0 1 0 1 0 1 0 1 0 
1 0 1 0 1 0 1 0 1 0 1 0 1 0 1 0 
1 0 1 0 1 0 1 0 1 0 1 0 1 0 1 0 
1 0 1 0 1 0 1 0 1 0 1 0 1 0 1 0 
1 0 1 0 1 0 1 0 1 0 1 0 1 0 1 0 
1 0 1 0 1 0 1 0 1 0 1 0 1 0 1 0 
1 0 1 0 1 0 1 0 1 0 1 0 1 0 1 0 
1 0 1 0 1 0 1 0 1 0 1 0 1 0 1 0 
1 0 1 0 1 0 1 0 1 0 1 0 1 0 1 0 
1 0 1 0 1 0 1 0 1 0 1 0 1 0 1 0 
1 0 1 0 1 0 1 0 1 0 1 0 1 0 1 0 
1 0 1 0 1 0 1 0 1 0 1 0 1 0 1 0 
1 0 1 0 1 0 1 0 1 0 1 0 1 0 1 0 
1 0 1 0 1 0 1 0 1 0 1 0 1 0 1 0 
1 0 1 0 1 0 1 0 1 0 1 0 1 0 1 0 
1 0 1 0 1 0 1 0 1 0 1 0 1 0 1 0 
1 0 1 0 1 0 1 0 1 0 1 0 1 0 1 0 
1 0 1 0 1 0 1 0 1 0 1 0 1 0 1 0 
1 0 1 0 1 0 1 0 1 0 1 0 1 0 1 0 
1 0 1 0 1 0 1 0 1 0 1 0 1 0 1 0 
1 0 1 0 1 0 1 0 1 0 1 0 1 0 1 0 
1 0 1 0 1 0 1 0 1 0 1 0 1 0 1 0 
1 0 1 0 1 0 1 0 1 0 1 0 1 0 1 0 
1 0 1 0 1 0 1 0 1 0 1 0 1 0 1 0 
1 0 1 0 1 0 1 0 1 0 1 0 1 0 1 0 
1 0 1 0 1 0 1 0 1 0 1 0 1 0 1 0 
1 0 1 0 1 0 1 0 1 0 1 0 1 0 1 0 
1 0 1 0 1 0 1 0 1 0 1 0 1 0 1 0 
1 0 1 0 1 0 1 0 1 0 1 0 1 0 1 0 
1 0 1 0 1 0 1 0 1 0 1 0 1 0 1 0 
1 0 1 0 1 0 1 0 1 0 1 0 1 0 1 0 
1 0 1 0 1 0 4267 1945 300 MP stroke
1 0 1 0 1 0 1 0 1 0 1 0 1 0 1 0 
1 0 1 0 1 0 1 0 1 0 1 0 1 0 1 0 
1 0 1 0 1 0 1 0 1 0 1 0 1 0 1 0 
1 0 1 0 1 0 1 0 1 0 1 0 1 0 1 0 
1 0 1 0 1 0 1 0 1 0 1 0 1 0 1 0 
1 0 1 0 1 0 1 0 1 0 1 0 1 0 1 0 
1 0 1 0 1 0 1 0 1 0 1 0 1 0 1 0 
1 0 1 0 1 0 1 0 1 0 1 0 1 0 1 0 
1 0 1 0 1 0 1 0 1 0 1 0 1 0 1 0 
1 0 1 0 1 0 1 0 1 0 1 0 1 0 1 0 
1 0 1 0 1 0 1 0 1 0 1 0 1 0 1 0 
1 0 1 0 1 0 1 0 1 0 1 0 1 0 1 0 
1 0 1 0 1 0 1 0 1 0 1 0 1 0 1 0 
1 0 1 0 1 0 1 0 1 0 1 0 1 0 1 0 
1 0 1 0 1 0 1 0 1 0 1 0 1 0 1 0 
1 0 1 0 1 0 1 0 1 0 1 0 1 0 1 0 
1 0 1 0 1 0 1 0 1 0 1 0 1 0 1 0 
1 0 1 0 1 0 1 0 1 0 1 0 1 0 1 0 
1 0 1 0 1 0 1 0 1 0 1 0 1 0 1 0 
1 0 1 0 1 0 1 0 1 0 1 0 1 0 1 0 
1 0 1 0 1 0 1 0 1 0 1 0 1 0 1 0 
1 0 1 0 1 0 1 0 1 0 1 0 1 0 1 0 
1 0 1 0 1 0 1 0 1 0 1 0 1 0 1 0 
1 0 1 0 1 0 1 0 1 0 1 0 1 0 1 0 
1 0 1 0 1 0 1 0 1 0 1 0 1 0 1 0 
1 0 1 0 1 0 1 0 1 0 1 0 1 0 1 0 
1 0 1 0 1 0 1 0 1 0 1 0 1 0 1 0 
1 0 1 0 1 0 1 0 1 0 1 0 1 0 1 0 
1 0 1 0 1 0 1 0 1 0 1 0 1 0 1 0 
1 0 1 0 1 0 1 0 1 0 1 0 1 0 1 0 
1 0 1 0 1 0 1 0 1 0 1 0 1 0 1 0 
1 0 1 0 1 0 1 0 1 0 1 0 1 0 1 0 
1 0 1 0 1 0 1 0 1 0 1 0 1 0 1 0 
1 0 1 0 1 0 1 0 1 0 1 0 1 0 1 0 
1 0 1 0 1 0 1 0 1 0 1 0 1 0 1 0 
1 0 1 0 1 0 1 0 1 0 1 0 1 0 1 0 
1 0 1 0 1 0 1 0 1 0 1 0 1 0 1 0 
1 0 1 0 1 0 3968 1945 300 MP stroke
1 0 1 0 1 0 1 0 1 0 1 0 1 0 1 0 
1 0 1 0 1 0 1 0 1 0 1 0 1 0 1 0 
1 0 1 0 1 0 1 0 1 0 1 0 1 0 1 0 
1 0 1 0 1 0 1 0 1 0 1 0 1 0 1 0 
1 0 1 0 1 0 1 0 1 0 1 0 1 0 1 0 
1 0 1 0 1 0 1 0 1 0 1 0 1 0 1 0 
1 0 1 0 1 0 1 0 1 0 1 0 1 0 1 0 
1 0 1 0 1 0 1 0 1 0 1 0 1 0 1 0 
1 0 1 0 1 0 1 0 1 0 1 0 1 0 1 0 
1 0 1 0 1 0 1 0 1 0 1 0 1 0 1 0 
1 0 1 0 1 0 1 0 1 0 1 0 1 0 1 0 
1 0 1 0 1 0 1 0 1 0 1 0 1 0 1 0 
1 0 1 0 1 0 1 0 1 0 1 0 1 0 1 0 
1 0 1 0 1 0 1 0 1 0 1 0 1 0 1 0 
1 0 1 0 1 0 1 0 1 0 1 0 1 0 1 0 
1 0 1 0 1 0 1 0 1 0 1 0 1 0 1 0 
1 0 1 0 1 0 1 0 1 0 1 0 1 0 1 0 
1 0 1 0 1 0 1 0 1 0 1 0 1 0 1 0 
1 0 0 1096 1 0 1 0 1 0 1 0 1 0 1 0 
1 0 1 0 1 0 1 0 1 0 1 0 1 0 1 0 
1 0 1 0 1 0 1 0 1 0 1 0 1 0 1 0 
1 0 1 0 1 0 1 0 1 0 1 0 1 0 1 0 
1 0 1 0 1 0 1 0 1 0 1 0 1 0 1 0 
1 0 1 0 1 0 1 0 1 0 1 0 1 0 1 0 
1 0 1 0 1 0 1 0 1 0 1 0 1 0 1 0 
1 0 1 0 1 0 1 0 1 0 1 0 1 0 1 0 
1 0 1 0 1 0 1 0 1 0 1 0 1 0 1 0 
1 0 1 0 1 0 1 0 1 0 1 0 1 0 1 0 
1 0 1 0 1 0 1 0 1 0 1 0 1 0 1 0 
1 0 1 0 1 0 1 0 1 0 1 0 1 0 1 0 
1 0 1 0 1 0 1 0 1 0 1 0 1 0 1 0 
1 0 1 0 1 0 1 0 1 0 1 0 1 0 1 0 
1 0 1 0 1 0 1 0 1 0 1 0 1 0 1 0 
1 0 1 0 1 0 1 0 1 0 1 0 1 0 1 0 
1 0 1 0 1 0 1 0 1 0 1 0 1 0 1 0 
1 0 1 0 1 0 1 0 1 0 1 0 1 0 1 0 
1 0 1 0 1 0 1 0 1 0 1 0 1 0 1 0 
1 0 1 0 1 0 3670 849 300 MP stroke
1 0 1 0 1 0 1 0 1 0 1 0 1 0 1 0 
1 0 1 0 1 0 1 0 1 0 1 0 1 0 1 0 
1 0 1 0 1 0 1 0 1 0 1 0 1 0 1 0 
1 0 1 0 1 0 1 0 1 0 1 0 1 0 1 0 
1 0 1 0 1 0 1 0 1 0 1 0 1 0 1 0 
1 0 1 0 1 0 1 0 1 0 1 0 1 0 1 0 
1 0 1 0 1 0 1 0 1 0 1 0 1 0 1 0 
1 0 1 0 1 0 1 0 1 0 1 0 1 0 1 0 
1 0 1 0 1 0 1 0 1 0 1 0 1 0 1 0 
1 0 1 0 1 0 1 0 1 0 1 0 1 0 1 0 
1 0 1 0 1 0 1 0 1 0 1 0 1 0 1 0 
1 0 1 0 1 0 1 0 1 0 1 0 1 0 1 0 
1 0 1 0 1 0 1 0 1 0 1 0 1 0 1 0 
1 0 1 0 1 0 1 0 1 0 1 0 1 0 1 0 
1 0 1 0 1 0 1 0 1 0 1 0 1 0 1 0 
1 0 1 0 1 0 1 0 1 0 1 0 1 0 1 0 
1 0 1 0 1 0 1 0 1 0 1 0 1 0 1 0 
1 0 1 0 1 0 1 0 1 0 1 0 1 0 1 0 
1 0 1 0 1 0 1 0 1 0 1 0 1 0 1 0 
1 0 1 0 1 0 1 0 1 0 1 0 1 0 1 0 
1 0 1 0 1 0 1 0 1 0 1 0 1 0 1 0 
1 0 1 0 1 0 1 0 1 0 1 0 1 0 1 0 
1 0 1 0 1 0 1 0 1 0 1 0 1 0 1 0 
1 0 1 0 1 0 1 0 1 0 1 0 1 0 1 0 
1 0 1 0 1 0 1 0 1 0 1 0 1 0 1 0 
1 0 1 0 1 0 1 0 1 0 1 0 1 0 1 0 
1 0 1 0 1 0 1 0 1 0 1 0 1 0 1 0 
1 0 1 0 1 0 1 0 1 0 1 0 1 0 1 0 
1 0 1 0 1 0 1 0 1 0 1 0 1 0 1 0 
1 0 1 0 1 0 1 0 1 0 1 0 1 0 1 0 
1 0 1 0 1 0 1 0 1 0 1 0 1 0 1 0 
1 0 1 0 1 0 1 0 1 0 1 0 1 0 1 0 
1 0 1 0 1 0 1 0 1 0 1 0 1 0 1 0 
1 0 1 0 1 0 1 0 1 0 1 0 1 0 1 0 
1 0 1 0 1 0 1 0 1 0 1 0 1 0 1 0 
1 0 1 0 1 0 1 0 1 0 1 0 1 0 1 0 
1 0 1 0 1 0 1 0 1 0 1 0 1 0 1 0 
1 0 1 0 1 0 3371 849 300 MP stroke
1 0 1 0 1 0 1 0 1 0 1 0 1 0 1 0 
1 0 1 0 1 0 1 0 1 0 1 0 1 0 1 0 
1 0 1 0 1 0 1 0 1 0 1 0 1 0 1 0 
1 0 1 0 1 0 1 0 1 0 1 0 1 0 1 0 
1 0 1 0 1 0 1 0 1 0 1 0 1 0 1 0 
1 0 1 0 1 0 1 0 1 0 1 0 1 0 1 0 
1 0 1 0 1 0 1 0 1 0 1 0 1 0 1 0 
1 0 1 0 1 0 1 0 1 0 1 0 1 0 1 0 
1 0 1 0 1 0 1 0 1 0 1 0 1 0 1 0 
1 0 1 0 1 0 1 0 1 0 1 0 1 0 1 0 
1 0 1 0 1 0 1 0 1 0 1 0 1 0 1 0 
1 0 1 0 1 0 1 0 1 0 1 0 1 0 1 0 
1 0 1 0 1 0 1 0 1 0 1 0 1 0 1 0 
1 0 1 0 1 0 1 0 1 0 1 0 1 0 1 0 
1 0 1 0 1 0 1 0 1 0 1 0 1 0 1 0 
1 0 1 0 1 0 1 0 1 0 1 0 1 0 1 0 
1 0 1 0 1 0 1 0 1 0 1 0 1 0 1 0 
1 0 1 0 1 0 1 0 1 0 1 0 1 0 1 0 
1 0 1 0 1 0 1 0 1 0 1 0 1 0 1 0 
1 0 1 0 1 0 1 0 1 0 1 0 1 0 1 0 
1 0 1 0 1 0 1 0 1 0 1 0 1 0 1 0 
1 0 1 0 1 0 1 0 1 0 1 0 1 0 1 0 
1 0 1 0 1 0 1 0 1 0 1 0 1 0 1 0 
1 0 1 0 1 0 1 0 1 0 1 0 1 0 1 0 
1 0 1 0 1 0 1 0 1 0 1 0 1 0 1 0 
1 0 1 0 1 0 1 0 1 0 1 0 1 0 1 0 
1 0 1 0 1 0 1 0 1 0 1 0 1 0 1 0 
1 0 1 0 1 0 1 0 1 0 1 0 1 0 1 0 
1 0 1 0 1 0 1 0 1 0 1 0 1 0 1 0 
1 0 1 0 1 0 1 0 1 0 1 0 1 0 1 0 
1 0 1 0 1 0 1 0 1 0 1 0 1 0 1 0 
1 0 1 0 1 0 1 0 1 0 1 0 1 0 1 0 
1 0 1 0 1 0 1 0 1 0 1 0 1 0 1 0 
1 0 1 0 1 0 1 0 1 0 1 0 1 0 1 0 
1 0 1 0 1 0 1 0 1 0 1 0 1 0 1 0 
1 0 1 0 1 0 1 0 1 0 1 0 1 0 1 0 
1 0 1 0 1 0 1 0 1 0 1 0 1 0 1 0 
1 0 1 0 1 0 3072 849 300 MP stroke
1 0 1 0 1 0 1 0 1 0 1 0 1 0 1 0 
1 0 1 0 1 0 1 0 1 0 1 0 1 0 1 0 
1 0 1 0 1 0 1 0 1 0 1 0 1 0 1 0 
1 0 1 0 1 0 1 0 1 0 1 0 1 0 1 0 
1 0 1 0 1 0 1 0 1 0 1 0 1 0 1 0 
1 0 1 0 1 0 1 0 1 0 1 0 1 0 1 0 
1 0 1 0 1 0 1 0 1 0 1 0 1 0 1 0 
1 0 1 0 1 0 1 0 1 0 1 0 1 0 1 0 
1 0 1 0 1 0 1 0 1 0 1 0 1 0 1 0 
1 0 1 0 1 0 1 0 1 0 1 0 1 0 1 0 
1 0 1 0 1 0 1 0 1 0 1 0 1 0 1 0 
1 0 1 0 1 0 1 0 1 0 1 0 1 0 1 0 
1 0 1 0 1 0 1 0 1 0 1 0 1 0 1 0 
1 0 1 0 1 0 1 0 1 0 1 0 1 0 1 0 
1 0 1 0 1 0 1 0 1 0 1 0 1 0 1 0 
1 0 1 0 1 0 1 0 1 0 1 0 1 0 1 0 
1 0 1 0 1 0 1 0 1 0 1 0 1 0 1 0 
1 0 1 0 1 0 1 0 1 0 1 0 1 0 1 0 
1 0 1 0 1 0 1 0 1 0 1 0 1 0 1 0 
1 0 1 0 1 0 1 0 1 0 1 0 1 0 1 0 
1 0 1 0 1 0 1 0 1 0 1 0 1 0 1 0 
1 0 1 0 1 0 1 0 1 0 1 0 1 0 1 0 
1 0 1 0 1 0 1 0 1 0 1 0 1 0 1 0 
1 0 1 0 1 0 1 0 1 0 1 0 1 0 1 0 
1 0 1 0 1 0 1 0 1 0 1 0 1 0 1 0 
1 0 1 0 1 0 1 0 1 0 1 0 1 0 1 0 
1 0 1 0 1 0 1 0 1 0 1 0 1 0 1 0 
1 0 1 0 1 0 1 0 1 0 1 0 1 0 1 0 
1 0 1 0 1 0 1 0 1 0 1 0 1 0 1 0 
1 0 1 0 1 0 1 0 1 0 1 0 1 0 1 0 
1 0 1 0 1 0 1 0 1 0 1 0 1 0 1 0 
1 0 1 0 1 0 1 0 1 0 1 0 1 0 1 0 
1 0 1 0 1 0 1 0 1 0 1 0 1 0 1 0 
1 0 1 0 1 0 1 0 1 0 1 0 1 0 1 0 
1 0 1 0 1 0 1 0 1 0 1 0 1 0 1 0 
1 0 1 0 1 0 1 0 1 0 1 0 1 0 1 0 
1 0 1 0 1 -2466 1 0 1 0 1 0 1 0 1 0 
1 0 1 0 1 0 2773 3315 300 MP stroke
1 0 1 0 1 0 1 0 1 0 1 0 1 0 1 0 
1 0 1 0 1 0 1 0 1 0 1 0 1 0 1 0 
1 0 1 0 1 0 1 0 1 0 1 0 1 0 1 0 
1 0 1 0 1 0 1 0 1 0 1 0 1 0 1 0 
1 0 1 0 1 0 1 0 1 0 1 0 1 0 1 0 
1 0 1 0 1 0 1 0 1 0 1 0 1 0 1 0 
1 0 1 0 1 0 1 0 1 0 1 0 1 0 1 0 
1 0 1 0 1 0 1 0 1 0 1 0 1 0 1 0 
1 0 1 0 1 0 1 0 1 0 1 0 1 0 1 0 
1 0 1 0 1 0 1 0 1 0 1 0 1 0 1 0 
1 0 1 0 1 0 1 0 1 0 1 0 1 0 1 0 
1 0 1 0 1 0 1 0 1 0 1 0 1 0 1 0 
1 0 1 0 1 0 1 0 1 0 1 0 1 0 1 0 
1 0 1 0 1 0 1 0 1 0 1 0 1 0 1 0 
1 0 1 0 1 0 1 0 1 0 1 0 1 0 1 0 
1 0 1 0 1 0 1 0 1 0 1 0 1 0 1 0 
1 0 1 0 1 0 1 0 1 0 1 0 1 0 1 0 
1 0 1 0 1 0 1 0 1 0 1 0 1 0 1 0 
1 0 1 0 1 0 1 0 1 0 1 0 1 0 1 0 
1 0 1 0 1 0 1 0 1 0 1 0 1 0 1 0 
1 0 1 0 1 0 1 0 1 0 1 0 1 0 1 0 
1 0 1 0 1 0 1 0 1 0 1 0 1 0 1 0 
1 0 1 0 1 0 1 0 1 0 1 0 1 0 1 0 
1 0 1 0 1 0 1 0 1 0 1 0 1 0 1 0 
1 0 1 0 1 0 1 0 1 0 1 0 1 0 1 0 
1 0 1 0 1 0 1 0 1 0 1 0 1 0 1 0 
1 0 1 0 1 0 1 0 1 0 1 0 1 0 1 0 
1 0 1 0 1 0 1 0 1 0 1 0 1 0 1 0 
1 0 1 0 1 0 1 0 1 0 1 0 1 0 1 0 
1 0 1 0 1 0 1 0 1 0 1 0 1 0 1 0 
1 0 1 0 1 0 1 0 1 0 1 0 1 0 1 0 
1 0 1 0 1 0 1 0 1 0 1 0 1 0 1 0 
1 0 1 0 1 0 1 0 1 0 1 0 1 0 1 0 
1 0 1 0 1 0 1 0 1 0 1 0 1 0 1 0 
1 0 1 0 1 0 1 0 1 0 1 0 1 0 1 0 
1 0 1 0 1 0 1 0 1 0 1 0 1 0 1 0 
1 0 1 0 1 0 1 0 1 0 1 0 1 0 1 0 
1 0 1 0 1 0 2474 3315 300 MP stroke
1 0 1 0 1 0 1 0 1 0 1 0 1 0 1 0 
1 0 1 0 1 0 1 0 1 0 1 0 1 0 1 0 
1 0 1 0 1 0 1 0 1 0 1 0 1 0 1 0 
1 0 1 0 1 0 1 0 1 0 1 0 1 0 1 0 
1 0 1 0 1 0 1 0 1 0 1 0 1 0 1 0 
1 0 1 0 1 0 1 0 1 0 1 0 1 0 1 0 
1 0 1 0 1 0 1 0 1 0 1 0 1 0 1 0 
1 0 1 0 1 0 1 0 1 0 1 0 1 0 1 0 
1 0 1 0 1 0 1 0 1 0 1 0 1 0 1 0 
1 0 1 0 1 0 1 0 1 0 1 0 1 0 1 0 
1 0 1 0 1 0 1 0 1 0 1 0 1 0 1 0 
1 0 1 0 1 0 1 0 1 0 1 0 1 0 1 0 
1 0 1 0 1 0 1 0 1 0 1 0 1 0 1 0 
1 0 1 0 1 0 1 0 1 0 1 0 1 0 1 0 
1 0 1 0 1 0 1 0 1 0 1 0 1 0 1 0 
1 0 1 0 1 0 1 0 1 0 1 0 1 0 1 0 
1 0 1 0 1 0 1 0 1 0 1 0 1 0 1 0 
1 0 1 0 1 0 1 0 1 0 1 0 1 0 1 0 
1 0 1 0 1 0 1 0 1 0 1 0 1 0 1 0 
1 0 1 0 1 0 1 0 1 0 1 0 1 0 1 0 
1 0 1 0 1 0 1 0 1 0 1 0 1 0 1 0 
1 0 1 0 1 0 1 0 1 0 1 0 1 0 1 0 
1 0 1 0 1 0 1 0 1 0 1 0 1 0 1 0 
1 0 1 0 1 0 1 0 1 0 1 0 1 0 1 0 
1 0 1 0 1 0 1 0 1 0 1 0 1 0 1 0 
1 0 1 0 1 0 1 0 1 0 1 0 1 0 1 0 
1 0 1 0 1 0 1 0 1 0 1 0 1 0 1 0 
1 0 1 0 1 0 1 0 1 0 1 0 1 0 1 0 
1 0 1 0 1 0 1 0 1 0 1 0 1 0 1 0 
1 0 1 0 1 0 1 0 1 0 1 0 1 0 1 0 
1 0 1 0 1 0 1 0 1 0 1 0 1 0 1 0 
1 0 1 0 1 0 1 0 1 0 1 0 1 0 1 0 
1 0 1 0 1 0 1 0 1 0 1 0 1 0 1 0 
1 0 1 0 1 0 1 0 1 0 1 0 1 0 1 0 
1 0 1 0 1 0 1 0 1 0 1 0 1 0 1 0 
1 0 1 0 1 0 1 0 1 0 1 0 1 0 1 0 
1 0 1 0 1 0 1 0 1 0 1 0 1 0 1 0 
1 0 1 0 1 0 2175 3315 300 MP stroke
1 0 1 0 1 0 1 0 1 0 1 0 1 0 1 0 
1 0 1 0 1 0 1 0 1 0 1 0 1 0 1 0 
1 0 1 0 1 0 1 0 1 0 1 0 1 0 1 0 
1 0 1 0 1 0 1 0 1 0 1 0 1 0 1 0 
1 0 1 0 1 0 1 0 1 0 1 0 1 0 1 0 
1 0 1 0 1 0 1 0 1 0 1 0 1 0 1 0 
1 0 1 0 1 0 1 0 1 0 1 0 1 0 1 0 
1 0 1 0 1 0 1 0 1 0 1 0 1 0 1 0 
1 0 1 0 1 0 1 0 1 0 1 0 1 0 1 0 
1 0 1 0 1 0 1 0 1 0 1 0 1 0 1 0 
1 0 1 0 1 0 1 0 1 0 1 0 1 0 1 0 
1 0 1 0 1 0 1 0 1 0 1 0 1 0 1 0 
1 0 1 0 1 0 1 0 1 0 1 0 1 0 1 0 
1 0 1 0 1 0 1 0 1 0 1 0 1 0 1 0 
1 0 1 0 1 0 1 0 1 0 1 0 1 0 1 0 
1 0 1 0 1 0 1 0 1 0 1 0 1 0 1 0 
1 0 1 0 1 0 1 0 1 0 1 0 1 0 1 0 
1 0 1 0 1 0 1 0 1 0 1 0 1 0 1 0 
1 0 1 0 1 0 1 0 1 0 1 0 1 0 1 0 
1 0 1 0 1 0 1 0 1 0 1 0 1 0 1 0 
1 0 1 0 1 0 1 0 1 0 1 0 1 0 1 0 
1 0 1 0 1 0 1 0 1 0 1 0 1 0 1 0 
1 0 1 0 1 0 1 0 1 0 1 0 1 0 1 0 
1 0 1 0 1 0 1 0 1 0 1 0 1 0 1 0 
1 0 1 0 1 0 1 0 1 0 1 0 1 0 1 0 
1 0 1 0 1 0 1 0 1 0 1 0 1 0 1 0 
1 0 1 0 1 0 1 0 1 0 1 0 1 0 1 0 
1 0 1 0 1 0 1 0 1 0 1 0 1 0 1 0 
1 0 1 0 1 0 1 0 1 0 1 0 1 0 1 0 
1 0 1 0 1 0 1 0 1 0 1 0 1 0 1 0 
1 0 1 0 1 0 1 0 1 0 1 0 1 0 1 0 
1 0 1 0 1 0 1 0 1 0 1 0 1 0 1 0 
1 0 1 0 1 0 1 0 1 0 1 0 1 0 1 0 
1 0 1 0 1 0 1 0 1 0 1 0 1 0 1 0 
1 0 1 0 1 0 1 0 1 0 1 0 1 0 1 0 
1 0 1 0 1 0 1 0 1 0 1 0 1 0 1 0 
1 0 1 0 1 0 1 0 1 0 1 0 1 0 1 0 
1 0 1 0 1 0 1876 3315 300 MP stroke
1 0 1 0 1 0 1 0 1 0 1 0 1 0 1 0 
1 0 1 0 1 0 1 0 1 0 1 0 1 0 1 0 
1 0 1 0 1 0 1 0 1 0 1 0 1 0 1 0 
1 0 1 0 1 0 1 0 1 0 1 0 1 0 1 0 
1 0 1 0 1 0 1 0 1 0 1 0 1 0 1 0 
1 0 1 0 1 0 1 0 1 0 1 0 1 0 1 0 
1 0 1 0 1 0 1 0 1 0 1 0 1 0 1 0 
1 0 1 0 1 0 1 0 1 0 1 0 1 0 1 0 
1 0 1 0 1 0 1 0 1 0 1 0 1 0 1 0 
1 0 1 0 1 0 1 0 1 0 1 0 1 0 1 0 
1 0 1 0 1 0 1 0 1 0 1 0 1 0 1 0 
1 0 1 0 1 0 1 0 1 0 1 0 1 0 1 0 
1 0 1 0 1 0 1 0 1 0 1 0 1 0 1 0 
1 0 1 0 1 0 1 0 1 0 1 0 1 0 1 0 
1 0 1 0 1 0 1 0 1 0 1 0 1 0 1 0 
1 0 1 0 1 0 1 0 1 0 1 0 1 0 1 0 
1 0 1 0 1 0 1 0 1 0 1 0 1 0 1 0 
0 1644 1 0 1 0 1 0 1 0 1 0 1 0 1 0 
1 0 1 0 1 0 1 0 1 0 1 0 1 0 1 0 
1 0 1 0 1 0 1 0 1 0 1 0 1 0 1 0 
1 0 1 0 1 0 1 0 1 0 1 0 1 0 1 0 
1 0 1 0 1 0 1 0 1 0 1 0 1 0 1 0 
1 0 1 0 1 0 1 0 1 0 1 0 1 0 1 0 
1 0 1 0 1 0 1 0 1 0 1 0 1 0 1 0 
1 0 1 0 1 0 1 0 1 0 1 0 1 0 1 0 
1 0 1 0 1 0 1 0 1 0 1 0 1 0 1 0 
1 0 1 0 1 0 1 0 1 0 1 0 1 0 1 0 
1 0 1 0 1 0 1 0 1 0 1 0 1 0 1 0 
1 0 1 0 1 0 1 0 1 0 1 0 1 0 1 0 
1 0 1 0 1 0 1 0 1 0 1 0 1 0 1 0 
1 0 1 0 1 0 1 0 1 0 1 0 1 0 1 0 
1 0 1 0 1 0 1 0 1 0 1 0 1 0 1 0 
1 0 1 0 1 0 1 0 1 0 1 0 1 0 1 0 
1 0 1 0 1 0 1 0 1 0 1 0 1 0 1 0 
1 0 1 0 1 0 1 0 1 0 1 0 1 0 1 0 
1 0 1 0 1 0 1 0 1 0 1 0 1 0 1 0 
1 0 1 0 1 0 1 0 1 0 1 0 1 0 1 0 
1 0 1 0 1 0 1578 1671 300 MP stroke
1 0 1 0 1 0 1 0 1 0 1 0 1 0 1 0 
1 0 1 0 1 0 1 0 1 0 1 0 1 0 1 0 
1 0 1 0 1 0 1 0 1 0 1 0 1 0 1 0 
1 0 1 0 1 0 1 0 1 0 1 0 1 0 1 0 
1 0 1 0 1 0 1 0 1 0 1 0 1 0 1 0 
1 0 1 0 1 0 1 0 1 0 1 0 1 0 1 0 
1 0 1 0 1 0 1 0 1 0 1 0 1 0 1 0 
1 0 1 0 1 0 1 0 1 0 1 0 1 0 1 0 
1 0 1 0 1 0 1 0 1 0 1 0 1 0 1 0 
1 0 1 0 1 0 1 0 1 0 1 0 1 0 1 0 
1 0 1 0 1 0 1 0 1 0 1 0 1 0 1 0 
1 0 1 0 1 0 1 0 1 0 1 0 1 0 1 0 
1 0 1 0 1 0 1 0 1 0 1 0 1 0 1 0 
1 0 1 0 1 0 1 0 1 0 1 0 1 0 1 0 
1 0 1 0 1 0 1 0 1 0 1 0 1 0 1 0 
1 0 1 0 1 0 1 0 1 0 1 0 1 0 1 0 
1 0 1 0 1 0 1 0 1 0 1 0 1 0 1 0 
1 0 1 0 1 0 1 0 1 0 1 0 1 0 1 0 
1 0 1 0 1 0 1 0 1 0 1 0 1 0 1 0 
1 0 1 0 1 0 1 0 1 0 1 0 1 0 1 0 
1 0 1 0 1 0 1 0 1 0 1 0 1 0 1 0 
1 0 1 0 1 0 1 0 1 0 1 0 1 0 1 0 
1 0 1 0 1 0 1 0 1 0 1 0 1 0 1 0 
1 0 1 0 1 0 1 0 1 0 1 0 1 0 1 0 
1 0 1 0 1 0 1 0 1 0 1 0 1 0 1 0 
1 0 1 0 1 0 1 0 1 0 1 0 1 0 1 0 
1 0 1 0 1 0 1 0 1 0 1 0 1 0 1 0 
1 0 1 0 1 0 1 0 1 0 1 0 1 0 1 0 
1 0 1 0 1 0 1 0 1 0 1 0 1 0 1 0 
1 0 1 0 1 0 1 0 1 0 1 0 1 0 1 0 
1 0 1 0 1 0 1 0 1 0 1 0 1 0 1 0 
1 0 1 0 1 0 1 0 1 0 1 0 1 0 1 0 
1 0 1 0 1 0 1 0 1 0 1 0 1 0 1 0 
1 0 1 0 1 0 1 0 1 0 1 0 1 0 1 0 
1 0 1 0 1 0 1 0 1 0 1 0 1 0 1 0 
1 0 1 0 1 0 1 0 1 0 1 0 1 0 1 0 
1 0 1 0 1 0 1 0 1 0 1 0 1 0 1 0 
1 0 1 0 1 0 1279 1671 300 MP stroke
1 0 1 0 1 0 1 0 1 0 1 0 1 0 1 0 
1 0 1 0 1 0 1 0 1 0 1 0 1 0 1 0 
1 0 1 0 1 0 1 0 1 0 1 0 1 0 1 0 
1 0 1 0 1 0 1 0 1 0 1 0 1 0 1 0 
1 0 1 0 1 0 1 0 1 0 1 0 1 0 1 0 
1 0 1 0 1 0 1 0 1 0 1 0 1 0 1 0 
1 0 1 0 1 0 1 0 1 0 1 0 1 0 1 0 
1 0 1 0 1 0 1 0 1 0 1 0 1 0 1 0 
1 0 1 0 1 0 1 0 1 0 1 0 1 0 1 0 
1 0 1 0 1 0 1 0 1 0 1 0 1 0 1 0 
1 0 1 0 1 0 1 0 1 0 1 0 1 0 1 0 
1 0 1 0 1 0 1 0 1 0 1 0 1 0 1 0 
1 0 1 0 1 0 1 0 1 0 1 0 1 0 1 0 
1 0 1 0 1 0 1 0 1 0 1 0 1 0 1 0 
1 0 1 0 1 0 1 0 1 0 1 0 1 0 1 0 
1 0 1 0 1 0 1 0 1 0 1 0 1 0 1 0 
1 0 1 0 1 0 1 0 1 0 1 0 1 0 1 0 
1 0 1 0 1 0 1 0 1 0 1 0 1 0 1 0 
1 0 1 0 1 0 1 0 1 0 1 0 1 0 1 0 
1 0 1 0 1 0 1 0 1 0 1 0 1 0 1 0 
1 0 1 0 1 0 1 0 1 0 1 0 1 0 1 0 
1 0 1 0 1 0 1 0 1 0 1 0 1 0 1 0 
1 0 1 0 1 0 1 0 1 0 1 0 1 0 1 0 
1 0 1 0 1 0 1 0 1 0 1 0 1 0 1 0 
1 0 1 0 1 0 1 0 1 0 1 0 1 0 1 0 
1 0 1 0 1 0 1 0 1 0 1 0 1 0 1 0 
1 0 1 0 1 0 1 0 1 0 1 0 1 0 1 0 
1 0 1 0 1 0 1 0 1 0 1 0 1 0 1 0 
1 0 1 0 1 0 1 0 1 0 1 0 1 0 1 0 
1 0 1 0 1 0 1 0 1 0 1 0 1 0 1 0 
1 0 1 0 1 0 1 0 1 0 1 0 1 0 1 0 
1 0 1 0 1 0 1 0 1 0 1 0 1 0 1 0 
1 0 1 0 1 0 1 0 1 0 1 0 1 0 1 0 
1 0 1 0 1 0 1 0 1 0 1 0 1 0 1 0 
1 0 1 0 1 0 1 0 1 0 1 0 1 0 1 0 
1 0 1 0 1 0 1 0 1 0 1 0 1 0 1 0 
1 0 1 0 1 0 1 0 1 0 1 0 1 0 1 0 
1 0 1 0 1 0 980 1671 300 MP stroke
1 0 1 0 1 0 1 0 1 0 1 0 1 0 1 0 
1 0 1 0 1 0 1 0 1 0 1 0 1 0 1 0 
1 0 1 0 1 0 1 0 1 0 1 0 1 0 1 0 
1 0 1 0 1 0 1 0 1 0 1 0 1 0 1 0 
1 0 1 0 1 0 1 0 1 0 1 0 1 0 1 0 
1 0 1 0 1 0 1 0 1 0 1 0 1 0 1 0 
1 0 1 0 1 0 1 0 1 0 1 0 1 0 1 0 
1 0 1 0 1 0 1 0 1 0 1 0 1 0 1 0 
1 0 1 0 1 0 1 0 1 0 1 0 1 0 1 0 
1 0 1 0 1 0 1 0 1 0 1 0 1 0 1 0 
1 0 1 0 1 0 1 0 1 0 1 0 1 0 1 0 
1 0 1 0 1 0 1 0 1 0 1 0 1 0 1 0 
1 0 1 0 1 0 1 0 1 0 1 0 1 0 1 0 
1 0 1 0 1 0 1 0 1 0 1 0 1 0 1 0 
1 0 1 0 1 0 1 0 1 0 1 0 1 0 1 0 
1 0 1 0 1 0 1 0 1 0 1 0 1 0 1 0 
1 0 1 0 1 0 1 0 1 0 1 0 1 0 1 0 
1 0 1 0 1 0 1 0 1 0 1 0 1 0 1 0 
1 0 1 0 1 0 1 0 1 0 1 0 1 0 1 0 
1 0 1 0 1 0 1 0 1 0 1 0 1 0 1 0 
1 0 1 0 1 0 1 0 1 0 1 0 1 0 1 0 
1 0 1 0 1 0 1 0 1 0 1 0 1 0 1 0 
1 0 1 0 1 0 1 0 1 0 1 0 1 0 1 0 
1 0 1 0 1 0 1 0 1 0 1 0 1 0 1 0 
1 0 1 0 1 0 1 0 1 0 1 0 1 0 1 0 
1 0 1 0 1 0 1 0 1 0 1 0 1 0 1 0 
1 0 1 0 1 0 1 0 1 0 1 0 1 0 1 0 
1 0 1 0 1 0 1 0 1 0 1 0 1 0 1 0 
1 0 1 0 1 0 1 0 1 0 1 0 1 0 1 0 
1 0 1 0 1 0 1 0 1 0 1 0 1 0 1 0 
1 0 1 0 1 0 1 0 1 0 1 0 1 0 1 0 
1 0 1 0 1 0 1 0 1 0 1 0 1 0 1 0 
1 0 1 0 1 0 1 0 1 0 1 0 1 0 1 0 
1 0 1 0 1 0 1 0 1 0 1 0 1 0 1 0 
1 0 1 0 1 0 1 0 1 0 1 0 1 0 1 0 
1 0 699 1671 282 MP stroke
/c9 { 0.000000 0.500000 0.000000 sr} bdef
c9
-1 0 2 0 1 -1 1 -1 1 0 1 -1 1 0 1 0 
1 1 1 0 1 0 1 0 -1 0 2 0 1 0 1 0 
1 0 -1 0 2 0 1 1 1 0 0 1 0 -1 1 1 
1 -1 0 1 2 0 1 1 1 1 0 -1 1 1 1 -1 
0 1 1 1 0 1 2 2 0 -1 1 2 0 -1 1 1 
0 1 1 -1 1 1 -1 0 2 0 0 -1 1 1 1 -1 
1 1 1 0 -1 -1 0 1 2 0 0 -2 1 1 1 -1 
1 0 0 -1 2 0 0 -2 1 -1 0 -1 1 -1 1 -1 
1 1 0 1 1 1 0 1 1 1 1 0 1 1 1 0 
0 -1 0 1 2 1 0 -1 1 1 1 0 -1 0 2 0 
1 1 1 -1 1 -1 0 1 1 -1 1 1 1 0 -1 -1 
0 1 2 0 0 -1 1 1 1 0 1 0 -1 -1 0 1 
2 0 1 0 0 1 1 -1 -1 0 2 0 1 1 -1 0 
2 0 1 0 1 -1 0 2 1 -1 1 0 1 0 -1 0 
2 0 1 0 -1 0 2 0 1 2 -1 0 2 0 1 -1 
0 1 1 -1 -1 0 2 0 0 -1 1 1 1 1 1 -1 
0 1 0 -1 1 -1 0 1 1 -1 1 1 1 -1 1 -1 
0 1 1 -1 1 0 0 -1 2 0 0 -1 1 1 1 -1 
1 1 1 1 -1 0 2 0 0 -1 1 1 1 0 1 0 
1 0 1 0 1 0 -1 0 2 0 1 1 0 -1 0 1 
1 1 0 -1 1 1 1 -1 0 1 0 -1 1 -1 0 1 
1 -1 1 1 0 1 0 -1 1 1 0 1 1 -1 0 2 
1 -1 0 2 1 -1 0 0 2 0 1 -1 1 1 0 -1 
0 1 1 1 0 -2 1 2 1 -1 0 1 0 -1 1 -1 
0 2 1 -1 1 0 -1 -1 0 1 2 0 1 -1 1 1 
1 1 -1 -2 0 2 2 0 0 -2 1 1 0 1 0 -1 
1 -1 0 2 1 -1 1 1 -1 0 2 0 1 -1 0 1 
1 -1 1 1 0 0 2 0 1 -1 -1 0 2 0 1 1 
-1 0 2 0 1 -2 -1 0 2 -1 1 1 1 0 -1 -1 
0 1 2 0 1 -1 0 1 0 -1 1 -1 1 1 -1 0 
2 0 0 -2 1 1 1 0 -1 0 2 0 1 1 0 -1 
0 1 2 0 0 -1 1 1 1 1 0 -1 0 1 1 1 
1 1 0 -1 1 1 0 1 1 -1 0 1 1 -1 1 1 
0 -2 0 1 1 1 0 -1 1 -1 0 2 1 -1 1 0 
-1 -1 0 1 2 0 0 -2 1 1 0 -1 1 -1 0 1 
1 -1 1 1 -1 0 2 0 1 -1 0 1 1 -1 1 1 
0 -1 0 1 2 1 0 -1 1 1 1 -1 0 2 1 -1 
0 -1 1 1 0 -1 4671 1896 300 MP stroke
1 1 0 -1 1 -1 0 2 1 -1 0 -1 1 1 1 1 
1 1 1 -1 1 1 -1 0 2 0 0 -2 1 1 0 1 
1 -1 0 2 1 -1 0 2 1 -1 1 1 0 -2 1 2 
1 -2 -1 0 2 0 0 -1 0 1 1 1 0 -2 1 1 
1 0 -1 0 2 0 0 2 1 -1 0 -1 0 1 1 1 
0 -2 1 1 1 -1 1 1 0 -2 0 2 2 1 1 -1 
-1 0 2 0 0 2 1 -1 0 -1 0 1 1 1 0 -2 
1 0 0 2 1 -1 0 2 1 -1 0 1 1 1 0 -2 
1 2 1 -1 -1 0 2 0 0 1 1 -1 0 -1 0 1 
1 1 1 -2 -1 0 2 0 0 -1 0 1 1 1 0 -2 
0 1 1 1 0 -2 1 1 0 1 0 -1 1 -1 0 2 
1 -1 1 1 0 -2 1 1 0 1 0 -1 1 -1 0 1 
1 -1 1 1 -1 0 2 0 0 -1 1 1 0 1 0 -1 
1 -1 0 2 1 -1 1 1 1 -1 0 1 0 -1 1 -1 
0 2 1 -1 1 1 -1 -2 0 2 2 0 1 -1 0 2 
0 -1 1 -1 0 2 1 -1 0 -1 1 2 0 -1 1 -1 
0 2 1 -2 1 1 -1 0 2 0 0 -2 1 2 1 -1 
-1 0 2 0 1 2 0 -2 1 1 0 1 0 -1 1 -1 
0 2 1 -1 1 0 -1 -1 0 1 2 0 0 -2 1 1 
0 1 0 -1 1 -1 0 1 1 -1 1 2 0 -2 1 1 
0 1 0 -1 1 -1 0 2 1 -2 1 1 0 -2 1 1 
0 -2 1 1 0 1 0 -1 1 -1 1 2 -1 0 2 0 
0 -1 1 1 0 -1 1 -1 0 1 1 -1 0 -1 1 1 
0 -2 0 1 2 0 0 1 1 -1 1 1 0 -1 0 1 
1 1 0 -2 1 1 0 1 0 -1 1 -1 0 1 1 -1 
0 1 1 1 0 -1 0 1 1 1 0 -1 1 2 1 -1 
0 1 1 1 0 -1 0 1 1 1 0 -2 1 1 0 1 
1 -2 -1 0 2 0 0 -1 0 2 1 -1 0 -1 0 1 
1 1 1 -1 1 1 1 1 -1 -2 0 2 2 0 0 -2 
1 1 0 1 0 -1 1 -1 0 2 1 -2 1 1 -1 0 
2 -2 0 2 1 -2 0 2 1 -1 0 -1 1 1 0 -2 
1 2 0 -2 1 0 0 1 0 -1 1 -1 0 1 1 -1 
1 1 1 -1 0 1 0 -1 1 -1 0 2 1 -1 0 -1 
0 1 1 1 0 -1 1 1 0 -2 1 1 1 -1 1 1 
-1 0 2 1 1 -1 -1 0 2 0 0 2 1 -1 1 0 
-1 0 2 0 0 -2 1 1 1 -1 0 1 1 1 0 -1 
1 1 1 -1 0 1 1 -1 -1 0 2 -1 1 1 -1 0 
2 0 0 -1 1 1 4514 1894 300 MP stroke
0 1 1 -1 1 1 0 -1 0 1 1 1 0 -2 1 1 
0 1 0 -1 1 -1 0 1 1 -2 0 2 1 -1 0 0 
2 0 0 1 1 -2 0 2 1 -1 0 -1 0 1 1 1 
0 -2 1 1 0 1 0 -2 1 1 1 -1 1 2 -1 0 
2 0 0 -1 0 1 1 1 0 -1 1 -1 0 2 1 -1 
0 -1 1 1 0 -2 1 1 1 -1 1 -1 0 1 1 -1 
1 0 -1 0 2 0 0 1 0 -1 1 -1 0 2 1 -1 
1 1 0 -1 1 1 0 -1 1 1 1 0 -1 0 2 0 
1 1 0 -2 1 1 1 -1 -1 0 2 0 1 1 -1 0 
2 0 1 1 1 -1 -1 0 2 0 1 1 -1 0 2 0 
1 -1 0 1 0 -1 1 -1 0 2 1 -1 1 1 -1 0 
2 1 0 -2 1 2 1 -1 1 1 -1 0 2 0 0 -1 
1 1 1 -1 1 -1 1 1 -1 0 2 0 1 -1 -1 0 
2 0 0 1 1 -1 0 0 2 0 1 -1 -1 0 2 0 
0 2 1 -1 1 1 1 -1 -1 0 2 0 0 1 1 -1 
0 -1 1 1 1 -1 1 -1 0 1 1 -1 -1 0 2 0 
0 -1 1 1 1 -1 0 1 0 -1 1 -1 0 1 1 -1 
0 1 1 -1 0 -1 0 1 1 1 1 -1 1 -1 -1 0 
2 0 1 1 0 -1 0 1 1 1 0 -1 1 1 1 0 
-1 0 2 0 0 1 1 -1 1 1 0 -1 1 1 1 -1 
0 1 1 1 0 -1 0 1 1 1 0 -1 1 1 0 -2 
1 1 0 1 1 -1 0 2 1 -1 1 2 -1 0 2 0 
0 1 0 -1 1 -1 0 1 1 -1 0 1 1 -1 0 -1 
1 1 0 -2 1 1 1 -1 0 1 0 -1 1 -1 0 1 
1 -1 0 -1 1 1 0 -1 1 -1 0 1 1 -1 0 1 
1 -1 1 1 -1 0 2 0 1 -1 1 -1 1 1 -1 0 
2 0 0 -1 1 1 0 1 0 -1 1 1 1 -1 0 1 
1 -1 1 0 -1 0 2 0 1 -1 1 1 1 0 -1 0 
2 0 1 -1 1 1 1 -1 0 2 1 -1 1 2 -1 0 
2 0 1 -1 -1 0 2 0 1 1 0 -1 0 1 1 1 
0 -1 1 1 0 -1 1 1 1 -1 1 1 -1 0 2 0 
0 -1 1 1 1 -1 0 1 0 -1 1 -1 1 0 0 -2 
0 1 1 -1 1 -1 1 0 1 0 0 -1 0 1 2 0 
1 -1 0 0 2 0 0 2 1 -1 1 1 -1 0 2 0 
1 0 -1 0 2 0 1 1 1 1 0 -2 1 1 1 -1 
1 -1 1 1 1 0 -1 0 2 0 1 -1 0 1 1 -1 
-1 0 2 0 1 0 1 0 1 0 1 0 1 0 1 1 
1 1 0 -1 1 1 4332 1899 300 MP stroke
1 -1 0 1 1 -1 1 1 -1 0 2 0 1 -1 0 1 
0 -1 1 -1 1 1 0 -1 2 0 1 -1 1 0 1 0 
-1 0 2 0 1 0 1 0 0 1 0 -1 1 1 1 -1 
1 1 1 0 -1 -1 0 1 2 0 1 -1 0 1 1 -1 
1 0 -1 0 2 0 1 0 -1 0 2 0 1 -1 0 1 
1 -1 1 1 1 -1 1 0 1 -1 1 1 1 0 0 0 
2 0 1 -1 1 1 1 0 1 0 -1 0 2 0 0 -1 
1 1 1 -1 0 1 1 -1 1 0 1 -1 1 0 1 0 
1 0 -1 0 2 0 0 -1 0 1 2 0 1 0 1 0 
1 1 1 1 0 -1 1 1 1 1 1 -1 -1 0 2 0 
1 1 1 0 1 0 1 -1 0 1 1 -1 1 0 1 0 
1 0 1 0 -1 0 2 0 1 1 -1 0 2 0 0 -1 
2 0 1 -1 0 1 1 -1 1 0 1 -1 1 -1 1 0 
1 0 1 0 0 -1 0 1 2 0 1 0 1 0 1 0 
1 0 1 1 0 -1 1 1 1 0 1 0 1 0 -1 0 
2 0 1 1 1 0 1 -1 1 1 1 0 1 0 1 -1 
1 0 1 0 1 0 1 0 1 0 1 1 1 0 1 -1 
1 0 1 0 1 0 1 0 1 0 1 0 1 -1 1 -1 
1 0 1 0 -1 0 2 -2 0 -1 2 -2 1 -1 -1 0 
2 2 1 1 1 1 1 0 1 0 1 0 1 1 1 -1 
1 -1 1 0 1 -1 1 0 1 -1 1 -1 1 0 1 1 
1 1 1 1 1 1 0 -1 1 1 1 0 1 1 1 0 
1 0 1 -1 1 -1 1 0 1 0 1 -1 1 -1 1 0 
-1 0 2 0 0 -1 1 1 1 0 0 1 2 2 1 1 
1 1 1 0 1 0 1 0 -1 0 2 0 1 -1 1 0 
1 -1 1 -1 1 0 1 0 1 1 1 0 1 0 -1 0 
2 0 1 1 1 0 1 1 1 0 1 0 1 0 -1 0 
2 0 1 1 1 0 1 0 1 0 1 0 1 0 1 0 
1 0 -1 0 2 0 1 -1 1 0 1 0 1 0 -1 0 
2 0 1 0 1 -1 1 0 0 0 2 0 0 -1 1 1 
1 0 1 0 1 0 1 -1 1 0 1 0 1 0 1 0 
1 0 1 0 1 0 1 0 1 -1 1 -1 0 1 1 -1 
1 0 1 0 1 0 1 0 1 0 1 0 1 0 1 0 
1 -1 1 0 1 0 1 0 1 -1 1 0 1 -1 1 1 
1 1 1 1 1 1 1 -1 1 -1 1 0 1 0 -1 0 
2 0 1 0 1 -1 1 1 1 0 1 1 1 0 1 0 
1 -1 1 -1 1 0 1 0 1 0 1 0 1 0 1 -1 
1 0 1 0 -1 0 4075 1914 300 MP stroke
2 0 1 1 1 -1 1 0 1 0 1 0 1 1 1 0 
1 0 1 -1 1 0 1 0 1 0 1 1 1 0 1 0 
1 0 1 0 1 1 1 0 1 0 1 -1 1 0 1 0 
1 0 1 -1 1 -1 1 0 1 0 1 1 1 0 1 0 
1 0 1 0 1 0 1 1 1 0 1 0 1 0 1 -1 
1 -1 1 0 1 0 1 -1 1 0 1 -1 1 -1 1 -1 
1 1 1 0 1 1 1 1 1 1 1 0 1 0 1 0 
1 0 1 -1 1 0 1 -1 1 -1 1 0 1 1 1 1 
1 0 1 0 1 1 1 0 1 1 1 1 1 -1 1 0 
1 -1 1 0 1 0 1 0 1 0 -1 0 2 0 1 0 
1 0 1 0 1 1 1 1 1 0 1 0 1 0 1 1 
1 0 1 0 1 0 1 -1 1 0 1 0 1 0 1 0 
1 0 1 -1 1 0 1 0 1 1 1 0 1 0 1 0 
-1 0 2 0 0 -1 1 1 1 0 1 -1 1 0 1 0 
1 -1 1 0 1 -1 1 1 1 -1 1 0 1 0 1 -1 
1 -1 1 0 1 -1 1 -1 1 0 1 0 1 0 1 0 
1 0 1 0 1 1 1 0 1 1 1 1 1 1 1 1 
1 0 1 0 1 0 1 0 1 0 1 0 1 1 1 -1 
1 0 1 0 1 1 1 0 1 0 1 -1 1 0 1 -1 
1 -1 1 1 1 0 1 0 1 -1 1 0 1 0 1 0 
1 1 1 1 1 0 -1 0 2 0 1 0 1 0 1 1 
1 1 1 0 1 0 1 0 1 0 1 1 1 1 1 0 
1 -1 1 0 1 0 1 -1 -1 0 2 0 1 0 1 -1 
1 0 1 -1 1 0 1 -1 1 0 1 0 -1 0 2 0 
1 0 1 0 1 0 1 0 1 0 1 -1 1 0 1 0 
1 0 1 0 1 -1 1 0 1 -1 1 -1 1 -1 1 -1 
0 -1 2 -2 1 -1 0 -1 2 -2 0 -2 2 -2 0 -1 
2 0 0 1 0 -1 1 2 1 2 0 1 1 1 0 2 
1 1 0 2 1 1 0 3 1 1 0 5 1 2 0 4 
1 4 0 5 1 4 0 9 1 3 0 11 1 5 0 5 
1 6 0 12 1 6 0 16 1 9 0 17 1 10 0 22 
1 13 0 25 1 12 0 25 1 14 0 30 1 14 0 16 
1 17 0 36 1 20 0 39 1 19 0 42 1 21 0 43 
1 21 0 45 1 22 0 47 1 25 0 49 1 24 0 25 
1 26 0 48 1 24 0 49 1 24 0 43 1 20 0 40 
1 20 0 33 1 15 0 30 1 13 0 23 1 8 0 13 
1 6 0 5 1 2 0 3 1 2 1 1 1 0 1 0 
1 0 1 1 1 1 3819 669 300 MP stroke
1 0 -1 0 2 0 1 -1 1 -1 1 1 1 -1 1 1 
1 1 1 0 1 1 1 0 -1 0 2 0 1 1 1 -1 
1 0 1 1 0 -1 1 -1 1 1 1 0 1 1 1 1 
1 -1 0 1 0 -1 1 -1 1 1 1 -1 1 1 -1 0 
2 0 1 0 -1 0 2 0 1 0 1 0 -1 0 2 0 
1 1 1 -1 0 1 1 1 0 -2 1 1 0 1 1 -1 
1 1 1 -2 -1 0 2 0 1 1 1 -1 1 1 1 -1 
-1 0 2 0 1 1 1 -1 0 1 0 -1 1 -1 1 1 
1 -1 1 1 -1 0 2 0 1 0 -1 0 2 0 1 1 
1 -1 0 1 1 1 0 -1 0 1 1 1 1 -1 1 1 
1 -1 -1 0 2 0 1 1 0 -1 1 1 0 1 1 -1 
1 1 0 -2 1 1 1 0 -1 0 2 0 1 -1 0 2 
1 -1 1 1 1 -1 -1 0 2 0 1 1 1 -1 1 1 
-1 0 2 0 0 1 1 -1 0 1 1 1 0 -2 1 1 
0 1 1 -1 1 2 -1 0 2 0 0 1 1 -1 0 -1 
0 1 1 1 0 -1 1 -1 0 2 0 -1 1 -1 0 1 
1 1 0 -1 1 1 0 1 1 -1 1 2 -1 0 2 -2 
0 2 1 -2 1 1 0 -2 1 1 0 1 1 -2 0 2 
1 1 0 -2 1 1 0 1 0 -1 1 -1 0 1 1 1 
0 -2 1 0 0 2 1 -2 0 1 1 1 0 -2 1 2 
0 1 0 -1 1 -1 0 2 1 0 0 -2 1 2 0 -1 
1 -1 0 2 1 1 0 -2 1 1 0 2 0 -1 1 -2 
1 2 -1 0 2 1 0 -2 1 0 0 3 1 -1 0 -1 
0 1 1 2 0 -1 1 -2 0 3 1 -1 0 -1 1 2 
0 -2 1 0 0 2 1 -1 0 -1 0 2 1 1 0 -2 
1 1 0 1 0 -1 1 -1 0 2 1 -1 0 -2 1 1 
0 2 0 -1 1 -1 0 2 1 -1 0 -1 1 1 0 1 
0 -1 1 -1 0 2 1 -2 0 -1 0 2 1 1 0 -3 
1 1 0 1 1 -1 0 -1 1 2 0 -2 1 0 0 2 
1 -1 0 -1 0 2 1 1 0 -2 1 2 0 -1 1 -1 
0 2 1 -1 0 -1 1 1 0 1 0 -1 1 -2 0 1 
1 1 0 -2 1 2 0 -2 1 0 0 2 1 -1 0 -1 
0 2 1 1 0 -2 1 1 0 2 0 -1 1 -1 0 1 
1 1 0 -1 1 -1 0 2 1 -2 0 2 1 0 0 -2 
1 1 0 1 0 -1 1 -1 0 3 1 -2 0 -1 0 2 
1 1 0 -1 1 -1 0 2 1 -1 0 -1 1 2 0 -1 
1 -1 0 2 0 -1 1 -1 0 2 1 0 0 -2 1 2 
0 -2 1 0 0 2 3652 649 300 MP stroke
1 0 0 -2 1 2 0 -1 1 -1 0 2 1 -1 0 -1 
0 1 1 2 0 -3 1 1 0 2 0 -1 1 -1 0 2 
1 -1 0 -1 1 2 1 -2 0 2 1 0 0 -2 1 2 
0 1 0 -1 1 -1 0 3 1 -2 0 2 1 1 0 -2 
1 2 0 1 0 -2 1 -1 0 2 1 1 0 -2 1 2 
0 1 0 -1 1 -1 0 3 1 -1 0 -1 0 2 1 1 
0 -2 1 2 0 1 1 -1 0 2 1 -2 0 2 1 1 
1 -1 0 2 1 -2 1 2 -1 0 2 1 0 -3 1 1 
0 2 0 -1 1 -2 0 3 1 -2 0 -1 0 1 1 1 
0 -1 1 -1 0 3 1 -2 0 -1 0 2 1 1 0 -2 
1 2 0 -2 1 0 0 2 1 -1 0 1 1 -1 0 -1 
0 1 1 1 0 -1 1 -1 0 2 1 -2 0 -1 0 2 
1 1 0 -3 1 2 0 -4 1 -3 0 -1 1 -3 0 -3 
1 -1 0 -4 0 1 1 3 0 4 1 1 0 3 1 3 
0 2 1 3 0 2 1 -1 0 2 1 -1 0 1 1 1 
0 -1 1 2 0 -1 1 -1 0 2 1 -1 0 1 1 1 
0 -2 1 1 0 1 0 -1 1 1 0 1 1 -1 0 1 
1 1 0 -1 0 1 1 1 0 -1 1 1 1 0 -1 0 
2 0 1 2 1 -1 1 -1 0 2 1 -1 0 1 1 -1 
0 1 1 1 0 -1 1 1 0 -1 1 1 0 1 1 -1 
1 1 -1 0 2 0 1 0 1 -1 0 1 2 0 1 1 
1 0 1 -1 0 1 1 -1 0 1 1 -1 0 -1 1 1 
1 0 0 1 0 -1 2 0 0 1 1 -1 1 0 -1 0 
2 0 1 -1 1 1 1 1 0 -1 1 1 0 -1 1 1 
1 -1 1 1 1 -1 0 -2 1 1 0 1 1 -1 -1 0 
2 0 1 1 1 1 0 -2 1 1 1 0 1 -1 0 -1 
0 1 2 0 0 -2 1 1 0 0 2 0 0 2 1 0 
0 -1 0 1 1 1 1 -2 -1 0 2 0 0 1 1 -1 
0 -1 0 1 1 1 0 -1 1 1 0 -1 1 1 0 1 
2 0 1 0 1 0 0 1 0 -1 1 -1 0 1 2 0 
1 1 1 1 0 -1 1 1 1 0 1 0 -1 0 2 0 
0 -1 1 1 0 -1 1 -1 0 1 2 -1 1 1 1 0 
1 -1 -1 0 2 0 0 1 1 -1 1 1 0 -1 1 1 
1 -1 -1 0 2 0 0 1 1 -1 0 -1 1 1 1 0 
0 0 2 0 1 1 0 -1 0 1 1 1 0 -1 1 1 
1 -1 0 2 1 -1 1 1 -1 0 2 0 1 0 1 -1 
-1 0 2 0 1 -1 1 0 1 0 1 -1 -1 0 2 0 
1 0 -1 0 2 0 3480 622 300 MP stroke
1 -1 1 -1 -1 0 2 0 0 1 1 -1 1 1 0 1 
1 -1 0 0 2 0 1 1 0 -1 0 1 1 1 0 -1 
1 1 1 -1 -1 0 2 0 1 1 0 -1 1 1 1 0 
0 1 0 -1 1 -1 0 2 1 -1 0 1 1 -1 0 -1 
1 1 1 0 1 -1 0 2 1 -1 0 1 1 -1 1 1 
1 -1 0 1 0 -1 2 0 0 1 1 -2 1 1 1 -1 
1 -1 -1 0 2 0 1 0 -1 0 2 0 1 -1 1 -1 
-1 0 2 0 1 1 0 -2 1 1 0 0 2 0 0 1 
1 1 1 1 0 -1 1 1 0 -1 1 1 1 -1 1 1 
1 -1 0 -2 1 1 1 -1 0 1 0 -1 1 -1 1 1 
-1 0 2 0 1 -2 -1 0 2 0 0 1 1 -1 1 0 
-1 -1 0 1 2 0 1 -2 -1 0 2 0 0 1 1 -2 
0 -1 0 1 1 1 1 -1 -1 0 2 0 0 2 1 -1 
0 -1 0 1 1 1 0 -2 1 1 0 1 1 -2 -1 0 
2 -1 0 1 1 -1 1 -1 0 1 0 -1 1 -1 0 1 
1 -1 0 -1 1 1 0 -2 1 2 0 -1 1 -1 0 1 
0 -1 1 -1 0 2 1 -1 0 -1 1 1 0 1 0 -1 
1 -1 0 2 1 -1 1 1 -1 0 2 1 0 -2 1 1 
0 2 0 -2 1 -1 0 3 1 -1 0 -1 0 1 1 1 
0 -2 1 0 0 2 1 -2 1 1 0 -2 0 1 1 1 
0 -2 1 1 0 1 0 -2 1 -1 0 2 1 -2 0 -1 
1 1 0 -2 1 0 0 2 1 -2 0 2 1 0 0 -2 
1 2 0 -2 1 1 0 1 0 -1 1 -2 0 3 1 -2 
0 -1 0 1 1 1 0 -3 1 2 0 1 1 -2 1 1 
0 -2 1 2 1 -2 -1 0 2 -1 0 2 1 0 0 -2 
0 1 1 1 0 -3 1 1 0 2 1 -1 0 -1 1 2 
0 -3 1 1 0 2 0 -1 1 -1 0 2 1 -1 0 -1 
0 1 1 1 0 -2 1 1 0 1 0 -2 1 -1 0 2 
1 1 0 -3 1 2 0 -2 1 0 0 2 1 -2 0 2 
1 0 0 -3 1 2 0 1 1 -2 -1 0 2 -1 0 2 
1 0 0 -2 1 0 0 2 1 -2 1 2 -1 0 2 0 
0 -2 1 0 0 2 1 -2 0 2 1 -1 0 -2 1 2 
1 -2 0 2 1 -2 0 -2 0 1 1 1 0 -2 1 0 
0 2 0 -1 1 -2 1 1 0 -2 1 2 0 -1 0 1 
1 -3 0 2 1 0 0 -2 1 1 0 1 0 -2 1 -1 
0 3 1 -2 0 -1 0 1 1 1 0 -2 1 1 0 1 
0 -1 1 -1 0 2 1 -1 0 -1 0 1 1 1 1 -2 
0 2 1 -1 0 -1 3323 650 300 MP stroke
1 1 1 -1 -1 0 2 -1 0 -1 0 1 1 1 0 -2 
1 1 0 -2 1 -1 0 1 1 2 0 -1 1 -1 0 2 
0 -1 1 -2 0 1 1 1 0 -2 1 2 0 -2 1 -1 
0 2 1 -2 0 -1 0 1 1 1 0 -2 1 -1 0 1 
1 -1 0 -2 1 2 0 -1 0 1 1 -3 0 2 1 -2 
1 1 0 -1 1 -1 0 2 0 -1 1 -1 1 1 -1 0 
2 -2 0 2 1 -1 0 -1 0 1 1 1 0 -2 1 0 
0 2 1 -1 0 -1 0 1 1 1 1 -2 -1 0 2 0 
0 -1 1 1 0 1 0 -1 1 -1 1 2 -1 0 2 0 
0 1 1 -2 -1 0 2 0 0 -1 1 1 1 -1 -1 0 
2 0 1 0 -1 0 2 0 1 1 1 -1 0 1 0 -1 
1 -1 1 1 -1 0 2 0 1 -1 1 1 0 -1 1 -1 
0 1 1 -1 1 1 1 -1 -1 0 2 0 1 1 1 -1 
1 1 1 -1 -1 0 2 0 1 1 0 -2 1 1 0 1 
0 -1 1 -1 0 2 1 -1 0 -1 1 1 1 -1 1 1 
1 -2 -1 0 2 0 0 -1 1 1 1 -1 0 2 1 -1 
1 0 1 -1 1 1 0 -1 1 -1 0 1 0 -1 1 -1 
1 1 1 -1 1 -1 1 0 1 -1 1 0 1 -1 1 -1 
1 0 -1 0 2 -2 0 1 1 -1 1 -1 1 0 1 0 
1 0 1 0 1 1 1 0 1 1 0 -1 1 1 1 0 
1 0 1 0 1 0 1 0 1 0 1 -1 1 0 1 0 
1 -1 -1 0 2 0 1 0 1 -1 1 -1 1 0 1 0 
1 0 1 0 1 1 1 0 1 0 1 0 1 -1 1 0 
1 0 1 0 1 1 1 0 1 0 1 0 1 1 1 0 
1 0 1 1 1 0 1 0 1 0 1 0 1 0 1 0 
1 -1 1 0 1 -1 -1 0 2 0 1 0 -1 0 2 0 
1 0 1 0 1 0 1 0 1 0 1 0 1 0 1 -1 
1 0 1 1 1 1 1 0 1 0 1 1 1 -1 1 1 
1 0 1 0 1 0 1 0 1 1 0 -1 1 1 1 0 
1 0 1 1 1 1 1 0 0 1 2 2 1 -1 -1 0 
2 0 1 1 1 -1 1 0 -1 0 2 0 1 -1 1 1 
1 0 1 -1 1 1 1 -1 1 0 1 0 1 0 1 0 
1 0 1 0 1 0 1 -1 1 0 -1 0 2 0 1 0 
1 0 1 -1 1 -1 1 1 1 -1 1 0 1 0 1 0 
1 1 1 0 1 1 1 1 0 1 1 -1 1 1 1 0 
-1 0 2 0 0 -1 1 1 1 -1 1 1 1 -1 -1 0 
2 0 1 0 -1 0 2 0 1 1 -1 0 2 0 0 1 
1 -1 1 0 1 0 3101 671 300 MP stroke
1 -1 1 1 1 -1 -1 0 2 0 1 0 -1 0 2 0 
1 1 1 0 -1 0 2 0 1 1 1 0 1 1 -1 0 
2 0 0 1 1 -1 1 1 -1 0 2 0 1 -1 0 1 
1 1 1 -1 0 2 1 -1 1 0 1 0 -1 0 2 0 
1 1 0 0 2 0 1 1 1 -1 0 1 1 1 1 -1 
0 1 2 2 1 -1 0 2 1 -1 0 2 1 0 1 -1 
0 2 1 -1 0 -1 0 1 1 1 1 -1 0 2 1 -1 
0 1 1 1 0 -2 1 1 0 1 1 -1 1 1 1 -1 
0 2 1 -1 0 -1 0 1 1 1 0 -1 1 -1 0 2 
1 -1 0 1 1 1 0 -2 1 1 0 1 1 -1 1 2 
0 -3 1 1 0 1 1 -1 1 1 -1 0 2 0 0 1 
0 -1 1 -1 0 2 1 -1 0 -1 1 2 0 -1 1 -1 
1 1 -1 0 2 0 0 1 0 -1 1 -1 0 3 1 -2 
0 -1 0 1 1 2 0 -1 1 -1 0 2 1 -2 0 2 
1 1 0 -1 1 -1 0 2 1 -1 0 -1 0 2 1 1 
0 -2 1 1 0 1 0 -1 1 -1 1 2 -1 0 2 1 
0 -2 1 1 0 1 1 1 0 -2 1 2 0 -1 1 -1 
0 3 1 -1 0 1 1 1 0 -2 1 2 0 1 1 -2 
0 3 1 -1 0 -1 1 1 0 2 0 -1 1 -1 0 3 
1 -1 0 -2 0 2 1 1 0 -2 1 2 0 1 0 -1 
1 -1 0 3 1 -1 0 1 1 2 0 -3 1 2 0 1 
1 -1 0 1 1 1 0 -2 1 2 0 -1 1 -1 0 2 
1 -2 0 1 1 1 0 -2 1 1 0 -2 1 -2 1 -1 
0 -6 1 0 0 -5 1 -2 0 1 0 -1 1 4 0 5 
1 3 0 2 1 3 0 3 1 0 0 2 1 -2 1 2 
1 -1 0 2 1 -1 0 3 1 -1 0 1 1 1 0 -1 
1 1 0 1 1 -1 0 2 1 -2 0 1 1 1 1 -1 
0 1 0 -1 1 -1 0 1 1 -1 1 1 0 -2 1 2 
1 -1 0 1 0 -1 1 -1 0 3 1 -2 1 1 0 1 
0 -2 1 1 0 1 2 0 0 1 1 1 0 -2 1 1 
0 -2 1 1 0 1 1 -1 1 1 0 -2 1 1 1 0 
-1 0 2 0 0 1 1 1 1 1 -1 0 2 1 0 -1 
1 1 0 1 0 -1 1 -1 0 1 1 1 0 -1 1 1 
1 -1 0 1 2 0 0 -1 0 2 1 -1 1 1 -1 0 
2 0 1 0 -1 0 2 0 0 -1 0 1 1 1 1 -1 
-1 0 2 0 0 1 2 0 1 1 -1 0 2 0 1 -1 
0 1 2 0 1 1 1 1 1 -1 1 1 1 0 1 1 
1 0 0 0 2 0 2928 618 300 MP stroke
1 -1 1 1 1 0 1 1 1 0 -1 0 2 0 1 1 
1 1 0 -1 1 1 1 0 -1 0 2 0 1 1 1 -1 
1 0 -1 0 2 0 1 -1 1 0 1 0 -1 0 2 0 
1 0 1 0 1 0 1 0 1 1 1 1 1 -1 1 1 
1 -1 1 1 1 1 1 -1 1 1 1 0 1 1 1 0 
1 1 1 0 -1 0 2 0 1 0 1 -1 1 0 1 0 
-1 0 2 0 1 -1 1 0 1 0 1 0 -1 0 2 0 
1 -1 1 0 1 1 1 -1 -1 0 2 0 1 0 1 -1 
-1 0 2 0 1 0 -1 0 2 0 1 0 1 0 1 1 
1 -1 1 1 1 0 1 0 1 0 1 -1 1 1 1 -1 
1 1 1 -1 1 0 1 0 1 -1 1 1 1 0 -1 0 
2 0 1 -1 1 -1 1 1 1 0 1 -1 1 -1 1 -1 
1 0 1 -2 1 1 0 -1 2 -2 0 2 1 -1 1 -1 
0 -1 1 1 0 -1 1 -1 0 -2 1 -1 0 1 0 -1 
1 -1 1 -1 0 -2 1 1 0 1 0 -2 1 -1 0 1 
1 -3 0 1 1 -1 0 -2 1 1 0 -1 0 1 1 -4 
0 1 0 -1 1 -2 1 -2 0 -2 1 0 0 -2 1 -2 
0 -1 1 -2 0 -5 1 0 0 -5 1 -2 0 -4 1 -3 
0 -4 1 -3 0 -7 1 -3 0 -5 1 -4 0 -5 1 -5 
0 -9 1 -4 0 -10 1 -6 0 -12 1 -6 0 -12 1 -8 
0 -19 1 -9 0 -20 1 -11 0 -25 1 -13 0 -13 1 -14 
0 -31 1 -16 0 -35 1 -19 0 -40 1 -23 0 -46 1 -25 
0 -55 1 -30 0 -63 1 -33 0 -71 1 -41 0 -81 1 -44 
0 -45 1 -48 0 -99 1 -50 0 -100 1 -50 0 -102 1 -52 
0 -104 1 -52 0 -110 1 -59 0 -118 1 -62 0 -125 1 -59 
0 -60 1 -58 0 -105 1 -48 0 -82 1 -33 0 -55 1 -21 
0 -31 1 -12 0 -13 1 -5 0 -5 1 -2 1 -1 1 0 
1 0 1 0 1 1 0 1 2 2 1 0 1 1 1 -1 
1 0 1 -1 0 -1 2 -2 1 -1 1 -1 1 -1 1 -1 
1 0 1 1 1 0 -1 0 2 2 1 1 0 1 1 1 
0 1 1 1 0 1 1 1 1 1 1 0 1 0 0 -1 
2 -2 0 -1 1 -1 0 -1 2 -2 1 -1 1 0 1 -1 
1 1 1 1 1 1 0 1 2 2 1 1 1 0 1 0 
1 0 1 0 1 -1 1 -1 1 0 1 -1 1 -1 1 0 
1 0 1 1 1 0 1 1 1 0 1 1 1 0 1 0 
1 0 1 0 1 0 1 0 1 -1 1 0 1 0 1 -1 
1 0 1 1 1 0 1 0 1 0 1 0 1 0 1 0 
1 0 1 0 1 0 2703 3316 300 MP stroke
1 0 1 0 1 1 1 0 1 0 1 0 1 0 1 0 
1 0 1 0 1 -1 1 0 1 0 1 -1 1 0 1 0 
1 0 1 1 1 0 1 1 1 0 1 0 1 0 1 0 
1 0 1 -1 1 0 1 0 1 0 1 0 1 0 1 -1 
1 0 1 1 1 1 1 0 1 1 1 -1 1 0 1 0 
1 0 1 0 1 -1 1 0 1 0 1 -1 1 0 1 0 
1 0 1 0 1 0 1 1 1 1 1 1 1 0 1 1 
1 0 1 -1 1 0 1 -1 1 0 1 -1 1 -1 1 -1 
1 0 1 0 1 -1 1 0 1 1 1 0 -1 0 2 2 
1 1 1 1 1 1 1 0 1 0 1 -1 1 -1 1 0 
1 -1 1 -1 1 -1 1 -1 1 -1 1 0 1 0 1 1 
0 2 2 2 1 1 1 1 1 1 1 0 1 -1 1 -1 
0 -1 2 -2 0 -1 2 -2 1 -1 1 0 1 0 1 0 
0 1 2 2 0 1 1 1 0 1 2 2 1 1 1 1 
1 -1 1 -1 1 -1 0 -1 1 -1 1 -1 0 -2 2 -2 
1 -1 1 -1 1 1 1 1 0 1 1 1 1 1 0 2 
1 1 0 1 1 1 1 1 1 1 1 -1 1 -1 1 -1 
0 -2 1 -1 1 -1 0 -1 1 -1 1 -1 1 -1 1 0 
0 1 2 2 1 1 0 1 2 2 1 1 1 1 1 1 
1 0 1 -1 1 -1 1 -1 0 -1 2 -2 1 -1 1 -1 
1 0 1 0 1 1 1 1 1 1 0 1 2 2 1 1 
1 1 1 0 1 0 1 -1 1 0 -1 0 2 -2 0 -1 
2 -2 1 -1 1 -1 1 0 1 0 1 1 1 1 0 1 
2 2 1 1 1 1 1 1 1 0 1 0 1 -1 0 -1 
2 -2 0 -1 1 -1 1 -1 1 -1 1 0 1 0 1 1 
0 1 2 2 0 1 1 1 1 1 1 1 1 1 1 0 
1 -1 1 0 -1 0 2 -2 1 -1 0 -1 2 -2 1 -1 
1 -1 1 -1 1 0 1 1 1 1 0 1 2 2 0 2 
2 2 1 1 1 1 1 0 1 -1 1 -1 0 -1 2 -2 
0 -1 1 -1 0 -1 1 -1 1 -1 0 -1 2 -2 1 0 
1 0 -1 0 2 2 0 1 1 1 0 3 1 1 0 2 
1 1 0 1 2 2 1 1 1 -1 1 -1 0 -1 1 -1 
0 -1 1 -1 0 -1 1 -1 1 -1 0 -1 1 -1 0 -2 
1 -1 0 -1 1 -1 0 -1 1 -1 1 0 1 1 0 2 
1 1 0 3 1 2 0 1 1 2 0 3 1 1 0 2 
1 1 1 1 1 -1 0 -1 1 -1 0 -1 1 -1 0 -2 
1 -1 0 -2 1 -1 0 -2 1 -1 0 -2 1 -1 0 -2 
2 -2 1 0 -1 0 2442 3327 300 MP stroke
2 2 0 2 1 2 0 1 1 2 0 3 1 1 0 3 
1 2 0 2 1 1 0 1 1 1 0 -1 2 -2 0 -1 
1 -1 0 -3 1 -1 0 -1 1 -1 0 -2 1 -1 0 -3 
1 -1 0 -3 1 -1 0 -2 1 -1 0 -1 1 -1 1 0 
0 2 1 1 0 2 1 2 0 3 1 2 0 4 1 1 
0 4 1 1 0 4 1 1 0 1 1 1 1 0 -1 0 
2 -2 0 -2 1 -2 0 -1 1 -1 0 -4 1 -1 0 -4 
1 -2 0 -4 1 -1 0 -4 1 -1 0 -2 1 -1 1 0 
0 2 1 1 0 2 1 2 0 3 1 2 0 3 1 1 
0 3 1 1 0 2 1 2 0 2 1 1 0 1 1 1 
1 1 1 0 -1 0 2 -2 0 -2 1 -1 0 -3 1 -1 
0 -3 1 -2 1 -1 1 0 1 1 0 1 0 -2 1 -1 
1 -1 1 0 1 1 0 3 1 2 0 2 1 2 0 2 
1 1 0 1 1 1 1 1 1 0 -1 0 2 -2 0 -2 
1 -1 0 -3 1 -1 0 -4 1 -2 0 -3 1 -1 0 -3 
1 -1 1 -1 1 0 -1 0 2 2 0 2 1 1 0 2 
1 1 0 3 1 1 0 2 1 1 0 3 1 1 0 1 
1 1 0 1 1 1 1 0 1 -1 0 -1 1 -1 0 -3 
1 -1 0 -3 1 -2 0 -3 1 -1 0 -3 1 -1 1 -1 
1 0 -1 0 2 2 0 2 1 1 0 2 1 1 0 2 
1 1 0 2 1 1 0 1 1 1 0 2 2 2 1 0 
1 -1 0 -1 1 -1 0 -2 1 -1 0 -2 1 -1 0 -2 
1 -1 0 -2 1 -1 0 -1 1 -1 1 0 1 0 -1 0 
2 2 0 1 1 1 0 1 1 1 0 1 1 1 0 2 
1 1 0 1 1 1 1 1 1 1 1 1 1 -1 1 -1 
0 -2 1 -1 0 -1 1 -2 0 -2 1 -1 0 -2 1 -1 
1 -1 1 -1 1 0 0 1 2 2 0 2 2 2 0 2 
1 1 1 1 0 1 1 1 0 1 1 1 1 1 1 0 
1 -1 1 -1 0 -2 1 -1 1 -1 0 -2 1 -2 0 -2 
1 -1 0 -1 1 -1 0 -1 1 -1 1 0 1 1 1 1 
1 1 1 1 0 1 2 2 1 1 0 1 1 1 1 1 
0 2 2 2 1 1 1 1 1 1 1 1 1 -1 0 -1 
1 -1 0 -1 1 -1 0 -3 1 -1 0 -1 1 -1 0 -2 
1 -1 0 -2 1 -1 0 -1 1 -1 1 0 1 1 0 1 
1 1 0 2 1 1 0 2 1 1 1 1 0 2 1 1 
0 1 1 1 0 1 1 1 1 1 1 0 -1 0 2 -2 
0 -1 1 -1 1 -1 0 -3 1 -1 0 -2 1 -1 0 -3 
1 -1 0 -2 1 -1 2258 3326 300 MP stroke
1 -1 1 1 0 1 1 1 0 2 1 1 0 1 1 1 
0 3 1 1 0 3 1 1 0 2 1 1 0 1 1 1 
1 0 1 -1 0 -1 1 -1 0 -1 1 -2 0 -2 1 -2 
0 -2 1 -2 0 -3 1 -1 0 -3 1 -1 0 -1 1 -1 
1 -1 0 1 2 2 0 2 1 1 0 2 1 1 0 2 
1 1 0 1 1 1 0 2 1 1 0 1 1 1 0 2 
1 1 0 2 1 1 0 1 1 1 0 1 1 1 1 0 
1 -1 0 -2 1 -2 0 -3 1 -2 0 -3 1 -2 0 -3 
1 -2 0 -2 1 -1 0 -3 1 -1 1 -1 1 1 0 1 
1 1 0 2 1 1 0 3 1 1 0 2 1 1 0 1 
1 1 0 2 1 1 0 2 1 1 0 1 1 1 1 1 
1 1 1 -1 0 -2 1 -1 0 -3 1 -1 0 -2 1 -2 
0 -3 1 -2 0 -3 1 -1 0 -1 1 -1 1 0 -1 0 
2 2 0 1 1 1 0 2 2 2 0 1 1 1 0 1 
1 1 0 1 2 2 1 1 0 2 2 2 1 1 1 1 
-1 0 2 -2 0 -1 1 -1 0 -3 1 -1 0 -3 1 -2 
0 -3 1 -1 0 -1 1 -1 1 0 1 0 -1 0 2 2 
0 2 2 2 0 2 2 2 1 1 1 1 1 1 1 1 
1 1 1 1 1 0 1 -1 0 -2 1 -1 0 -2 1 -1 
0 -2 1 -2 0 -1 1 -1 0 -1 1 -1 1 -1 1 1 
1 1 1 1 1 1 1 1 1 0 1 0 1 0 1 0 
1 0 1 0 0 1 2 2 1 1 0 2 2 2 1 1 
1 0 1 0 1 0 1 0 1 -1 1 0 1 0 1 1 
1 1 1 1 1 0 1 0 -1 0 2 -2 1 -1 0 -2 
1 -1 0 -2 1 -1 0 -2 2 -2 1 0 1 0 1 0 
1 1 1 1 1 1 0 1 2 2 0 1 2 2 0 1 
2 2 1 1 1 1 1 -1 1 0 -1 0 2 -2 0 -1 
1 -1 0 -1 1 -1 0 -2 1 -1 0 -1 1 -1 0 -1 
1 -1 1 -1 1 0 1 1 1 1 0 1 1 1 0 1 
1 1 1 1 0 1 1 1 0 1 2 2 1 1 1 0 
1 0 0 -1 2 -2 0 -1 1 -1 0 -1 1 -1 0 -2 
1 -1 0 -2 1 -1 0 -1 1 -1 1 0 1 0 1 0 
1 0 1 0 1 1 1 0 1 0 1 0 1 1 1 0 
1 1 1 1 1 1 0 1 2 2 1 1 1 1 1 1 
1 1 1 1 0 2 2 2 0 1 2 2 0 1 1 1 
0 1 1 1 1 1 1 0 -1 0 2 -2 0 -2 1 -2 
0 -3 1 -2 0 -4 1 -2 0 -4 1 -1 0 -3 1 -2 
0 -2 1 -1 1 -1 2045 3331 300 MP stroke
1 1 1 1 0 1 1 1 1 1 0 2 2 2 1 1 
1 1 1 0 1 0 1 1 1 0 1 0 0 1 2 2 
0 1 1 1 1 1 1 1 1 1 1 0 1 0 1 1 
1 0 1 1 1 1 1 1 1 0 1 1 1 -1 1 -1 
0 -2 1 -1 0 -2 1 -1 0 -2 1 -1 0 -2 1 -1 
0 -2 1 -1 1 -1 1 -1 0 1 2 2 0 1 1 1 
0 1 1 1 1 1 0 1 2 2 0 1 1 1 0 1 
2 2 1 0 -1 0 2 0 1 -1 1 -1 1 -1 0 -2 
1 -1 0 -1 1 -1 0 -2 1 -1 1 -1 1 -1 1 0 
1 0 1 1 0 1 2 2 0 1 1 1 0 1 1 1 
0 1 1 1 0 1 1 1 1 1 1 1 1 -1 1 -1 
0 -1 1 -1 0 -2 1 -1 0 -2 1 -2 0 -1 1 -1 
0 -1 1 -1 1 -1 1 0 0 1 2 2 1 1 1 1 
1 1 1 1 1 0 1 1 1 1 1 1 1 0 1 1 
1 0 1 0 1 1 1 0 1 1 1 1 1 0 1 -1 
0 -1 2 -2 0 -2 2 -2 1 -1 1 -1 1 -1 1 1 
0 1 2 2 0 1 2 2 1 1 1 1 1 1 1 0 
1 -1 0 -1 2 -2 0 -1 1 -1 0 -1 2 -2 1 -1 
1 -1 0 1 2 2 0 1 1 1 0 1 1 1 1 1 
0 1 1 1 1 1 1 1 1 0 1 -1 0 -1 1 -1 
0 -1 1 -1 0 -2 1 -1 0 -1 1 -1 0 -1 1 -1 
1 -1 1 -1 1 1 1 1 0 2 1 1 0 1 1 1 
0 1 1 1 0 2 1 1 0 1 1 1 0 1 1 1 
1 1 1 -1 0 -1 1 -1 0 -1 1 -2 0 -1 1 -1 
0 -2 1 -1 0 -3 1 -1 0 -2 1 -1 1 -1 1 -1 
1 1 0 2 1 1 0 2 1 1 0 1 1 1 0 1 
0 -1 1 3 0 3 1 1 0 2 1 1 0 1 1 1 
1 1 1 -1 0 -2 1 -1 0 -1 1 -1 0 -2 1 -2 
0 -2 1 -2 0 -2 1 -2 0 -2 1 -1 0 -1 1 -1 
1 0 -1 0 2 2 0 1 1 1 0 2 1 1 0 2 
1 1 0 2 1 1 0 2 1 1 0 2 1 1 0 2 
1 1 1 1 1 1 0 -1 2 -2 0 -3 1 -1 0 -4 
1 -2 0 -3 1 -2 0 -3 1 -2 0 -2 1 -1 1 -1 
0 1 2 2 0 2 1 2 0 2 1 1 0 3 1 1 
0 2 1 1 0 2 1 1 0 2 2 2 1 1 1 0 
1 -1 0 -1 1 -1 0 -2 1 -2 0 -3 1 -2 0 -3 
1 -2 0 -3 1 -1 1 -1 1 0 -1 0 2 2 0 2 
1 2 0 1 1 1 1831 3320 300 MP stroke
0 2 1 1 0 1 1 1 0 2 1 1 1 1 0 2 
2 2 1 1 0 -1 1 -1 0 -1 1 -1 0 -2 1 -2 
0 -3 1 -1 0 -4 1 -1 0 -1 1 -1 0 -2 2 0 
1 1 0 1 2 2 1 1 1 1 1 1 1 1 1 1 
1 1 1 1 1 1 1 1 1 1 1 0 0 1 2 2 
0 1 2 2 0 2 2 2 1 0 1 0 0 -1 2 -2 
1 -1 1 0 1 0 1 0 1 0 1 0 1 0 1 1 
1 1 1 0 0 1 0 -2 1 -2 0 -5 1 -2 0 -3 
1 -2 0 -2 1 -1 1 0 1 1 0 2 1 1 0 2 
1 1 0 3 1 1 0 3 1 2 0 3 1 2 0 3 
1 2 0 4 1 3 0 2 1 3 0 6 1 5 0 12 
1 6 0 15 1 10 0 20 1 11 0 21 1 11 0 27 
1 14 0 27 1 17 0 17 1 16 0 40 1 20 0 43 
1 23 0 48 1 24 0 48 1 25 0 49 1 27 0 54 
1 28 0 63 1 36 0 36 1 39 0 85 1 44 0 92 
1 47 0 93 1 46 0 88 1 43 0 78 1 34 0 61 
1 26 0 43 1 16 0 24 1 9 0 7 1 5 0 7 
1 2 0 4 2 2 1 0 1 0 1 -1 1 0 1 0 
1 0 1 0 1 0 1 -1 1 -1 1 -1 1 0 1 0 
1 0 1 0 1 0 1 0 0 -1 0 1 1 -1 1 0 
1 1 1 0 1 1 1 0 1 0 1 0 1 0 1 0 
1 1 1 1 1 0 1 0 1 0 1 0 1 0 1 0 
1 0 1 0 1 -1 1 0 -1 0 2 -2 1 -1 1 -1 
1 0 1 0 1 -1 1 0 1 0 1 -1 1 -1 1 1 
1 0 -1 0 2 0 1 0 1 0 1 -1 0 -1 2 -2 
0 1 2 2 1 0 1 0 1 0 -1 0 2 0 1 -1 
1 -1 1 0 1 1 1 0 1 1 1 0 1 1 1 0 
1 -1 1 1 1 1 1 0 1 0 1 0 1 0 0 -1 
2 -2 1 0 1 1 1 -1 1 0 1 1 1 1 0 -1 
1 -1 1 -1 1 0 1 0 1 -1 1 -1 1 0 1 1 
0 -1 2 -2 1 -1 0 1 2 2 1 0 0 1 2 2 
1 1 -1 0 2 -2 1 -1 1 0 1 1 1 -1 1 -1 
0 1 2 2 0 -1 1 -1 1 -1 1 0 1 1 1 0 
1 -1 1 1 0 1 2 0 0 -1 2 -2 1 1 1 1 
0 -1 1 -1 1 -1 1 1 0 1 1 1 0 -1 1 -1 
1 -1 1 0 1 1 1 0 1 -1 0 -1 0 1 2 2 
1 1 -1 0 2 -2 1 -1 1 0 1 1 0 -1 2 -2 
1 0 -1 0 2 2 1594 1606 300 MP stroke
1 1 -1 0 2 -3 1 -1 1 0 1 2 -1 0 2 -3 
0 -1 1 -1 1 0 0 2 1 1 1 1 0 -2 1 -1 
0 -2 1 -1 1 0 0 2 1 1 1 1 0 -3 1 -1 
1 -1 1 1 0 2 1 1 1 1 0 -2 1 -1 0 -2 
1 -1 1 1 0 2 1 1 1 -1 0 -2 1 -1 0 -2 
1 -1 0 1 1 2 0 3 1 2 0 1 1 1 0 -2 
1 -1 1 -1 1 1 0 2 1 1 0 1 1 -1 0 -1 
1 -1 1 -1 -1 0 2 2 0 2 1 1 0 -1 1 -1 
0 -1 2 0 1 1 0 1 1 -1 0 -2 1 -1 0 -2 
2 0 0 3 1 1 0 1 1 -1 0 -1 1 -1 1 0 
1 1 0 2 1 1 1 -1 0 -2 1 -1 1 0 -1 0 
2 2 1 2 -1 0 2 -2 1 -1 0 -1 0 1 2 2 
1 1 -1 0 2 -2 0 -1 1 1 0 1 1 1 0 1 
1 1 1 0 -1 0 2 -2 1 0 -1 0 2 2 1 0 
-1 0 2 -2 1 -1 -1 0 2 2 0 1 1 1 1 -1 
0 -1 1 -1 1 0 0 1 2 0 0 -2 1 -1 1 -1 
-1 0 2 2 0 1 2 0 0 -2 1 -1 1 0 -1 0 
2 2 1 0 0 -2 1 -1 0 -1 1 -1 1 0 0 2 
1 1 0 2 1 -1 0 -1 1 -1 0 -1 1 -1 1 1 
0 2 1 1 1 -1 0 -3 1 -1 1 -1 1 1 0 2 
1 0 1 1 0 -3 1 -1 1 -1 -1 0 2 2 0 2 
1 1 1 0 0 -3 1 -1 0 -2 1 -1 1 1 0 2 
1 2 1 1 0 -2 1 -1 1 -1 -1 0 2 2 0 1 
1 1 0 1 1 1 0 -2 1 -1 0 -2 1 -1 1 1 
0 2 1 1 1 1 0 -2 1 -1 1 -1 1 1 0 2 
1 2 0 1 1 -1 0 -2 1 -1 0 -2 1 -1 1 1 
0 3 1 1 1 1 0 -2 1 -1 0 -1 1 -1 1 1 
0 2 1 1 1 1 0 -3 1 -1 0 -1 1 -1 1 1 
0 1 1 2 1 1 0 -2 1 -1 1 -1 -1 0 2 2 
0 2 1 1 0 1 1 -1 0 -2 1 -1 0 -1 1 -1 
1 1 0 2 1 1 0 1 1 -1 0 -2 1 -1 0 -1 
1 -1 1 2 0 2 1 1 1 0 0 -2 1 -2 0 -2 
1 -1 1 1 0 2 1 2 1 1 0 -2 1 -1 0 -1 
1 -1 1 1 0 1 1 2 0 2 1 1 0 -1 1 -1 
0 -2 1 -1 1 1 0 2 1 1 0 1 1 1 0 -2 
1 -1 0 -1 1 -1 1 1 0 2 1 1 0 1 1 1 
0 -2 1 -2 0 -1 1 -1 1 1 0 2 1 1 1 0 
0 -2 1 -1 0 -2 1408 1616 300 MP stroke
1 -1 0 1 1 1 0 3 1 1 1 1 0 -2 1 -1 
0 -1 1 -1 0 1 1 1 0 1 1 1 0 1 1 -1 
0 -3 1 -1 0 -1 1 -1 0 1 1 1 0 3 1 1 
0 1 1 -2 0 -2 1 -2 1 -1 1 1 0 2 1 1 
0 1 1 -1 0 -3 1 -1 1 -2 -1 0 2 2 0 3 
1 1 0 1 1 -1 0 -1 1 -2 0 -3 2 0 0 2 
1 2 0 2 1 -1 0 -2 1 -1 0 -3 1 -1 0 -1 
1 1 0 1 1 1 0 4 1 1 1 -1 0 -2 1 -1 
0 -1 1 -1 0 2 1 1 0 2 1 2 1 -1 0 -1 
1 -2 0 -1 1 -1 1 1 0 3 1 1 1 2 -1 0 
2 -3 1 -1 1 1 0 2 1 1 1 1 0 -2 1 -2 
0 -2 1 -1 1 0 0 3 1 1 0 1 1 1 0 -2 
1 -1 0 -1 1 -1 1 0 0 2 1 1 0 1 1 1 
0 -2 1 -1 0 -3 1 -1 1 0 0 2 1 2 0 2 
1 1 1 -1 0 -2 1 -1 1 -1 0 2 1 1 1 2 
-1 0 2 -2 0 -3 1 -1 1 0 0 2 1 1 0 1 
1 1 0 1 1 -1 0 -1 1 -1 1 -1 0 2 1 1 
0 2 1 1 0 -1 1 -1 0 -2 1 -1 1 0 -1 0 
2 2 0 1 1 1 0 1 0 -1 1 -1 0 -2 1 -1 
0 -1 1 1 0 1 1 1 1 2 -1 0 2 -2 0 -2 
1 -1 0 -1 1 1 0 2 1 1 0 2 1 1 1 -1 
0 -1 1 -1 1 1 0 1 1 1 1 1 -1 0 2 -3 
0 -1 1 -1 1 1 0 2 1 1 1 1 -1 0 2 -2 
1 -1 1 1 0 2 1 1 1 -1 0 -3 1 -1 1 -1 
-1 0 2 3 0 1 1 1 0 -1 2 -2 1 1 0 1 
1 1 1 1 0 -2 1 -1 0 -1 1 -1 1 1 0 2 
2 0 1 -1 1 -1 1 1 0 2 1 1 0 -1 1 -1 
0 -3 2 0 0 1 1 1 1 1 1 -1 0 -2 1 -1 
1 1 0 2 1 1 0 1 1 1 0 -2 1 -1 1 -1 
1 1 0 1 1 1 1 1 0 -2 1 -1 1 -1 -1 0 
2 2 1 2 -1 0 2 -2 0 -1 1 -1 1 0 -1 0 
2 2 1 1 -1 0 2 -2 0 -1 1 -1 1 1 0 2 
1 1 1 -1 0 -1 1 -1 0 -1 1 -1 1 1 0 2 
1 2 1 0 0 -2 1 -1 1 1 0 1 1 1 0 1 
1 1 1 -1 0 -2 1 -1 1 0 -1 0 2 2 1 1 
0 -2 1 -1 0 -1 1 -1 0 1 1 1 0 1 1 1 
0 1 1 -1 0 -2 1 -1 1 -2 -1 0 2 2 1 2 
-1 0 2 -2 0 -2 1227 1614 300 MP stroke
1 -1 1 0 0 2 1 1 0 2 1 1 0 -1 1 -1 
0 -2 1 -1 0 -1 1 1 0 1 1 1 0 2 1 0 
0 -2 1 -1 0 -1 1 -1 1 1 0 2 1 1 0 1 
1 1 0 -2 1 -1 0 -1 1 -1 1 1 0 2 1 2 
1 0 -1 0 2 -2 1 -1 1 1 0 2 1 1 0 1 
0 -1 1 -1 0 -2 2 0 0 1 1 1 0 1 1 1 
0 -1 1 -1 0 -1 1 -1 1 0 0 2 1 1 1 1 
-1 0 2 -2 1 -1 0 1 2 2 1 -2 0 -1 1 -1 
1 0 -1 0 2 2 1 1 0 -2 1 -1 1 -1 1 1 
0 1 1 1 0 1 1 -1 0 -2 1 -1 0 -1 1 -1 
1 0 1 0 0 -2 1 -3 1 0 -1 0 2 0 0 2 
1 2 0 4 1 1 0 1 1 -1 0 -2 1 -1 1 0 
0 2 1 1 0 2 1 1 0 1 1 -1 1 -1 1 0 
-1 0 2 2 1 2 -1 0 2 -2 1 0 0 1 2 2 
1 0 1 0 1 0 -1 0 2 2 1 -1 1 -1 1 1 
1 1 1 0 1 -1 1 1 1 1 1 -1 1 0 1 0 
1 1 1 1 1 -1 1 0 1 0 1 0 -1 0 2 -2 
1 1 1 0 1 1 1 -1 1 0 1 1 1 0 1 -1 
1 -1 0 1 2 0 1 -1 1 0 1 1 1 0 1 -1 
1 -1 1 1 1 1 1 -1 1 0 1 1 1 1 1 -1 
1 -1 1 1 1 1 1 0 1 0 1 0 1 0 1 -1 
1 -1 1 0 1 1 1 0 1 -1 1 1 1 0 1 -1 
1 -1 0 1 2 2 1 0 1 0 1 0 -1 0 2 2 
1 -1 1 -1 1 0 1 1 1 0 1 0 1 0 1 0 
-1 0 2 0 1 -1 1 0 1 1 1 0 1 0 1 1 
1 1 1 0 1 0 1 0 -1 0 2 0 1 1 1 0 
1 0 1 0 1 -1 1 0 -1 0 2 0 1 0 1 0 
1 1 1 0 1 0 1 -1 1 -1 1 0 1 0 1 0 
1 1 1 1 1 -1 1 0 1 0 1 1 1 0 1 0 
1 0 1 1 1 0 1 0 1 0 1 1 1 1 1 1 
1 1 1 -1 1 0 1 0 1 0 -1 0 2 0 1 0 
1 0 1 -1 1 0 1 -1 1 0 1 -1 1 0 1 1 
1 0 1 0 1 0 1 0 1 0 1 0 1 1 1 0 
1 1 1 0 1 0 1 0 1 0 1 1 1 0 1 0 
1 0 1 0 1 -1 1 0 1 0 1 0 1 0 1 0 
1 0 1 0 1 1 1 0 1 0 1 1 1 0 1 0 
1 0 1 0 1 1 1 0 1 1 1 1 1 0 1 0 
1 0 1 0 1 0 977 1587 300 MP stroke
1 0 1 0 1 0 1 0 1 -1 1 0 1 0 1 1 
1 0 1 0 1 0 1 0 1 0 1 1 1 0 1 0 
1 1 1 -1 1 0 1 0 1 0 1 0 1 0 1 0 
1 -1 1 0 1 0 -1 0 2 0 1 0 1 0 1 0 
1 -1 1 0 1 0 -1 0 2 0 1 0 1 0 1 0 
1 0 1 0 1 0 1 0 1 -1 0 1 1 -1 1 0 
1 0 1 0 1 0 1 1 1 0 1 0 1 -1 1 0 
1 0 1 0 1 1 1 0 1 0 1 0 1 0 1 1 
1 0 1 1 1 0 1 1 0 -1 0 1 1 -1 1 0 
1 1 1 1 1 0 1 0 1 0 1 -1 1 0 1 0 
1 0 1 0 1 1 1 0 1 0 1 0 1 1 1 0 
1 0 1 1 1 -1 1 0 0 -1 0 1 1 -1 0 1 
0 -1 1 1 1 0 1 0 1 0 1 0 1 0 1 0 
-1 0 2 0 1 1 1 -1 1 -1 1 0 1 0 1 0 
1 1 1 0 1 1 1 0 1 0 1 1 1 0 1 1 
1 0 1 0 1 0 1 0 1 -1 1 0 1 0 1 -1 
1 0 1 -1 1 0 1 0 1 0 1 1 1 -1 1 0 
0 1 0 -1 1 1 0 -1 1 1 0 -1 1 1 1 0 
1 -1 1 0 1 0 1 -1 1 0 1 0 1 0 1 0 
1 0 1 -1 1 -1 1 0 -1 0 2 0 1 1 1 0 
1 0 1 1 1 1 1 0 1 1 1 0 1 0 1 0 
1 0 1 -1 1 1 0 -1 0 1 1 -1 1 0 1 1 
1 0 1 0 1 0 1 1 1 -1 1 -1 1 0 1 -1 
1 0 1 1 1 -1 1 0 1 0 1 -1 1 0 1 0 
1 0 1 -1 1 0 1 0 1 0 1 0 1 0 1 1 
1 0 1 0 -1 0 2 0 1 0 1 0 1 0 1 0 
1 0 1 -1 1 -1 1 -1 1 0 1 0 1 0 1 0 
1 -1 1 -1 1 0 1 0 1 1 1 0 1 0 1 0 
1 -1 1 1 1 0 -1 0 2 0 1 -1 1 0 1 -1 
1 0 1 -1 1 0 1 0 1 -1 1 -1 1 0 1 -1 
1 -1 1 -1 1 0 1 0 1 -1 1 0 1 0 1 -1 
1 -1 1 0 1 0 1 -1 1 -1 1 1 1 1 0 -1 
1 -1 1 -1 1 1 1 1 1 1 1 1 1 1 1 1 
1 -1 1 0 1 -1 1 -1 0 -2 1 -1 0 -2 1 -1 
0 -2 1 -1 0 -2 1 -1 0 -4 1 -4 0 -4 1 -4 
0 -11 1 -5 0 -12 1 -6 0 -12 1 -7 0 -16 1 -9 
0 -18 1 -11 0 -23 1 -11 0 -23 1 -12 0 -28 1 -15 
0 -15 1 -15 0 -34 714 1911 300 MP stroke
1 -18 0 -38 1 -18 0 -40 1 -19 0 -42 1 -22 0 -42 
1 -21 0 -45 1 -21 0 -45 1 -21 0 -20 1 -21 0 -40 
1 -18 0 -31 1 -12 0 -20 1 -8 0 -11 1 -3 0 -3 
1 -1 0 -1 1 -1 1 0 699 2493 29 MP stroke
gr

c9
0 sg
2558 3877 mt 
(seconds) s
 246 2051 mt  -90 rotate
(rpm) s
90 rotate
2485  207 mt 
(experiment) s
 682 3632 mt 
( ) s
4849  344 mt 
( ) s
1 sg
0 334 659 0 0 -334 4146 696 4 MP
PP
-659 0 0 334 659 0 0 -334 4146 696 5 MP stroke
4 w
DO
SO
6 w
0 sg
4146  696 mt 4805  696 L
4146  362 mt 4805  362 L
4146  696 mt 4146  362 L
4805  696 mt 4805  362 L
4146  696 mt 4805  696 L
4146  696 mt 4146  362 L
4146  696 mt 4805  696 L
4146  362 mt 4805  362 L
4146  696 mt 4146  362 L
4805  696 mt 4805  362 L
4630  498 mt 
(wd) s
gs 4146 362 660 335 rc
c8
371 0 4220 455 2 MP stroke
gr

c8
0 sg
4630  645 mt 
(w) s
gs 4146 362 660 335 rc
c9
371 0 4220 602 2 MP stroke
gr

c9

end %%Color Dict

eplot
%%EndObject

epage
end

showpage

%%Trailer
%%EOF
