\relax 
\catcode `"\active 
\select@language{polish}
\@writefile{toc}{\select@language{polish}}
\@writefile{lof}{\select@language{polish}}
\@writefile{lot}{\select@language{polish}}
\@writefile{toc}{\contentsline {section}{\numberline {1}Introduction}{1}}
\newlabel{sec:wstep}{{1}{1}}
\@writefile{toc}{\contentsline {section}{\numberline {2}Tracking control based on pole placement }{1}}
\newlabel{sec:pp}{{2}{1}}
\@writefile{toc}{\contentsline {subsection}{\numberline {2.1}Closed-loop system transfer function}{1}}
\newlabel{sec:pp:H}{{2.1}{1}}
\@writefile{toc}{\contentsline {subsection}{\numberline {2.2}Convergence of the tracking error}{1}}
\newlabel{sec:pp:e}{{2.2}{1}}
\@writefile{toc}{\contentsline {subsection}{\numberline {2.3}Coefficients of the controller transfer function}{1}}
\newlabel{sec:pp:coeff}{{2.3}{1}}
\newlabel{eq:coeff}{{3}{1}}
\newlabel{eq:m0}{{4}{1}}
\newlabel{eq:m1}{{5}{1}}
\newlabel{eq:m2}{{6}{1}}
\newlabel{eq:m3}{{7}{1}}
\newlabel{eq:m4}{{8}{1}}
\newlabel{eq:m5}{{9}{1}}
\newlabel{eq:matrix}{{10}{1}}
\newlabel{eq:m01}{{11}{1}}
\newlabel{eq:m51}{{16}{1}}
\@writefile{toc}{\contentsline {subsection}{\numberline {2.4}Summary of findings from simulation and experimental studies}{2}}
\newlabel{sec:pp:res}{{2.4}{2}}
\@writefile{lof}{\contentsline {figure}{\numberline {1}{\ignorespaces Pole-placement based tracking: the results of simulation and experimental studies}}{2}}
\@writefile{lof}{\contentsline {subfigure}{\numberline{(a)}{\ignorespaces {$\omega _z$, $\omega $ (simulation)}}}{2}}
\@writefile{lof}{\contentsline {subfigure}{\numberline{(b)}{\ignorespaces {$\omega _z$, $\omega $ (experiment)}}}{2}}
\@writefile{lof}{\contentsline {subfigure}{\numberline{(c)}{\ignorespaces {$v$ (simulation)}}}{2}}
\@writefile{lof}{\contentsline {subfigure}{\numberline{(d)}{\ignorespaces {$v$ (experiment)}}}{2}}
\newlabel{fig:regnad}{{1}{2}}
\@writefile{toc}{\contentsline {section}{\numberline {3}A simple fixed-value pole-placement control algorithm}{2}}
\newlabel{sec:zs:reg_stal}{{3}{2}}
\@writefile{toc}{\contentsline {subsection}{\numberline {3.1}The closed-loop transfer function}{2}}
\newlabel{sec:zs:H}{{3.1}{2}}
\@writefile{toc}{\contentsline {subsection}{\numberline {3.2}Convergence of the tracking error to the fixed-value}{2}}
\newlabel{sec:zs:e}{{3.2}{2}}
\@writefile{toc}{\contentsline {subsection}{\numberline {3.3}Summary of findings from simulation and experimental studies}{3}}
\newlabel{sec:zs:res}{{3.3}{3}}
\@writefile{lof}{\contentsline {figure}{\numberline {2}{\ignorespaces Pole-placement based fixed-value control: the results of simulation and experimental studies}}{3}}
\@writefile{lof}{\contentsline {subfigure}{\numberline{(a)}{\ignorespaces {$\omega _z$, $\omega $ (simulation)}}}{3}}
\@writefile{lof}{\contentsline {subfigure}{\numberline{(b)}{\ignorespaces {$\omega _z$, $\omega $ (experiment)}}}{3}}
\@writefile{lof}{\contentsline {subfigure}{\numberline{(c)}{\ignorespaces {$v$ (simulation)}}}{3}}
\@writefile{lof}{\contentsline {subfigure}{\numberline{(d)}{\ignorespaces {$v$ (experiment)}}}{3}}
\newlabel{fig:reg_stal}{{2}{3}}
