%!PS-Adobe-3.0 EPSF-3.0
%%Creator: MATLAB, The MathWorks, Inc. Version 8.1.0.604 (R2013a). Operating System: Linux 4.9.0-040900-generic #201612111631 SMP Sun Dec 11 21:33:00 UTC 2016 x86_64.
%%Title: /home/lukas/Universidad/closedloop_dyy.eps
%%CreationDate: 12/21/2016  10:54:24
%%DocumentNeededFonts: Helvetica
%%DocumentProcessColors: Cyan Magenta Yellow Black
%%LanguageLevel: 2
%%Pages: 1
%%BoundingBox:   100   241   509   549
%%EndComments

%%BeginProlog
% MathWorks dictionary
/MathWorks 160 dict begin
% definition operators
/bdef {bind def} bind def
/ldef {load def} bind def
/xdef {exch def} bdef
/xstore {exch store} bdef
% operator abbreviations
/c  /clip ldef
/cc /concat ldef
/cp /closepath ldef
/gr /grestore ldef
/gs /gsave ldef
/mt /moveto ldef
/np /newpath ldef
/cm /currentmatrix ldef
/sm /setmatrix ldef
/rm /rmoveto ldef
/rl /rlineto ldef
/s {show newpath} bdef
/sc {setcmykcolor} bdef
/sr /setrgbcolor ldef
/sg /setgray ldef
/w /setlinewidth ldef
/j /setlinejoin ldef
/cap /setlinecap ldef
/rc {rectclip} bdef
/rf {rectfill} bdef
% page state control
/pgsv () def
/bpage {/pgsv save def} bdef
/epage {pgsv restore} bdef
/bplot /gsave ldef
/eplot {stroke grestore} bdef
% orientation switch
/portraitMode 0 def /landscapeMode 1 def /rotateMode 2 def
% coordinate system mappings
/dpi2point 0 def
% font control
/FontSize 0 def
/FMS {/FontSize xstore findfont [FontSize 0 0 FontSize neg 0 0]
  makefont setfont} bdef
/reencode {exch dup where {pop load} {pop StandardEncoding} ifelse
  exch dup 3 1 roll findfont dup length dict begin
  { 1 index /FID ne {def}{pop pop} ifelse } forall
  /Encoding exch def currentdict end definefont pop} bdef
/isroman {findfont /CharStrings get /Agrave known} bdef
/FMSR {3 1 roll 1 index dup isroman {reencode} {pop pop} ifelse
  exch FMS} bdef
/csm {1 dpi2point div -1 dpi2point div scale neg translate
 dup landscapeMode eq {pop -90 rotate}
  {rotateMode eq {90 rotate} if} ifelse} bdef
% line types: solid, dotted, dashed, dotdash
/SO { [] 0 setdash } bdef
/DO { [.5 dpi2point mul 4 dpi2point mul] 0 setdash } bdef
/DA { [6 dpi2point mul] 0 setdash } bdef
/DD { [.5 dpi2point mul 4 dpi2point mul 6 dpi2point mul 4
  dpi2point mul] 0 setdash } bdef
% macros for lines and objects
/L {lineto stroke} bdef
/MP {3 1 roll moveto 1 sub {rlineto} repeat} bdef
/AP {{rlineto} repeat} bdef
/PDlw -1 def
/W {/PDlw currentlinewidth def setlinewidth} def
/PP {closepath eofill} bdef
/DP {closepath stroke} bdef
/MR {4 -2 roll moveto dup  0 exch rlineto exch 0 rlineto
  neg 0 exch rlineto closepath} bdef
/FR {MR stroke} bdef
/PR {MR fill} bdef
/L1i {{currentfile picstr readhexstring pop} image} bdef
/tMatrix matrix def
/MakeOval {newpath tMatrix currentmatrix pop translate scale
0 0 1 0 360 arc tMatrix setmatrix} bdef
/FO {MakeOval stroke} bdef
/PO {MakeOval fill} bdef
/PD {currentlinewidth 2 div 0 360 arc fill
   PDlw -1 eq not {PDlw w /PDlw -1 def} if} def
/FA {newpath tMatrix currentmatrix pop translate scale
  0 0 1 5 -2 roll arc tMatrix setmatrix stroke} bdef
/PA {newpath tMatrix currentmatrix pop	translate 0 0 moveto scale
  0 0 1 5 -2 roll arc closepath tMatrix setmatrix fill} bdef
/FAn {newpath tMatrix currentmatrix pop translate scale
  0 0 1 5 -2 roll arcn tMatrix setmatrix stroke} bdef
/PAn {newpath tMatrix currentmatrix pop translate 0 0 moveto scale
  0 0 1 5 -2 roll arcn closepath tMatrix setmatrix fill} bdef
/vradius 0 def /hradius 0 def /lry 0 def
/lrx 0 def /uly 0 def /ulx 0 def /rad 0 def
/MRR {/vradius xdef /hradius xdef /lry xdef /lrx xdef /uly xdef
  /ulx xdef newpath tMatrix currentmatrix pop ulx hradius add uly
  vradius add translate hradius vradius scale 0 0 1 180 270 arc 
  tMatrix setmatrix lrx hradius sub uly vradius add translate
  hradius vradius scale 0 0 1 270 360 arc tMatrix setmatrix
  lrx hradius sub lry vradius sub translate hradius vradius scale
  0 0 1 0 90 arc tMatrix setmatrix ulx hradius add lry vradius sub
  translate hradius vradius scale 0 0 1 90 180 arc tMatrix setmatrix
  closepath} bdef
/FRR {MRR stroke } bdef
/PRR {MRR fill } bdef
/MlrRR {/lry xdef /lrx xdef /uly xdef /ulx xdef /rad lry uly sub 2 div def
  newpath tMatrix currentmatrix pop ulx rad add uly rad add translate
  rad rad scale 0 0 1 90 270 arc tMatrix setmatrix lrx rad sub lry rad
  sub translate rad rad scale 0 0 1 270 90 arc tMatrix setmatrix
  closepath} bdef
/FlrRR {MlrRR stroke } bdef
/PlrRR {MlrRR fill } bdef
/MtbRR {/lry xdef /lrx xdef /uly xdef /ulx xdef /rad lrx ulx sub 2 div def
  newpath tMatrix currentmatrix pop ulx rad add uly rad add translate
  rad rad scale 0 0 1 180 360 arc tMatrix setmatrix lrx rad sub lry rad
  sub translate rad rad scale 0 0 1 0 180 arc tMatrix setmatrix
  closepath} bdef
/FtbRR {MtbRR stroke } bdef
/PtbRR {MtbRR fill } bdef
/stri 6 array def /dtri 6 array def
/smat 6 array def /dmat 6 array def
/tmat1 6 array def /tmat2 6 array def /dif 3 array def
/asub {/ind2 exch def /ind1 exch def dup dup
  ind1 get exch ind2 get sub exch } bdef
/tri_to_matrix {
  2 0 asub 3 1 asub 4 0 asub 5 1 asub
  dup 0 get exch 1 get 7 -1 roll astore } bdef
/compute_transform {
  dmat dtri tri_to_matrix tmat1 invertmatrix 
  smat stri tri_to_matrix tmat2 concatmatrix } bdef
/ds {stri astore pop} bdef
/dt {dtri astore pop} bdef
/db {2 copy /cols xdef /rows xdef mul dup 3 mul string
  currentfile 
  3 index 0 eq {/ASCIIHexDecode filter}
  {/ASCII85Decode filter 3 index 2 eq {/RunLengthDecode filter} if }
  ifelse exch readstring pop
  dup 0 3 index getinterval /rbmap xdef
  dup 2 index dup getinterval /gbmap xdef
  1 index dup 2 mul exch getinterval /bbmap xdef pop pop}bdef
/it {gs np dtri aload pop moveto lineto lineto cp c
  cols rows 8 compute_transform 
  rbmap gbmap bbmap true 3 colorimage gr}bdef
/il {newpath moveto lineto stroke}bdef
currentdict end def
%%EndProlog

%%BeginSetup
MathWorks begin

0 cap

end
%%EndSetup

%%Page: 1 1
%%BeginPageSetup
%%PageBoundingBox:   100   241   509   549
MathWorks begin
bpage
%%EndPageSetup

%%BeginObject: obj1
bplot

/dpi2point 12 def
portraitMode 1200 6588 csm

    0     0  4915  3687 rc
98 dict begin %Colortable dictionary
/c0 { 0.000000 0.000000 0.000000 sr} bdef
/c1 { 1.000000 1.000000 1.000000 sr} bdef
/c2 { 0.900000 0.000000 0.000000 sr} bdef
/c3 { 0.000000 0.820000 0.000000 sr} bdef
/c4 { 0.000000 0.000000 0.800000 sr} bdef
/c5 { 0.910000 0.820000 0.320000 sr} bdef
/c6 { 1.000000 0.260000 0.820000 sr} bdef
/c7 { 0.000000 0.820000 0.820000 sr} bdef
c0
1 j
1 sg
   0    0 4916 3688 rf
6 w
0 sg
%%IncludeResource: font Helvetica
/Helvetica /ISOLatin1Encoding 120 FMSR

2287  257 mt 
(Bode Diagram) s
2182 3676 mt 
(Frequency  \(rad/s\)) s
1 sg
0 1317 4081 0 0 -1317 642 3261 4 MP
PP
-4081 0 0 1317 4081 0 0 -1317 642 3261 5 MP stroke
4 w
DO
0.4 sg
 642 3261 mt  642 1944 L
 642 1944 mt  642 1944 L
1662 3261 mt 1662 1944 L
1662 1944 mt 1662 1944 L
2682 3261 mt 2682 1944 L
2682 1944 mt 2682 1944 L
3702 3261 mt 3702 1944 L
3702 1944 mt 3702 1944 L
4723 3261 mt 4723 1944 L
4723 1944 mt 4723 1944 L
 642 3248 mt 4723 3248 L
4723 3248 mt 4723 3248 L
 642 2817 mt 4723 2817 L
4723 2817 mt 4723 2817 L
 642 2387 mt 4723 2387 L
4723 2387 mt 4723 2387 L
 642 1956 mt 4723 1956 L
4723 1956 mt 4723 1956 L
SO
6 w
 642 3261 mt 4723 3261 L
 642 1944 mt 4723 1944 L
 642 3261 mt  642 1944 L
4723 3261 mt 4723 1944 L
 642 3261 mt 4723 3261 L
 642 3261 mt  642 1944 L
 642 3261 mt  642 3240 L
 642 1944 mt  642 1964 L
DO
 642 3261 mt  642 1944 L
 642 1944 mt  642 1944 L
SO
 642 3261 mt  642 3220 L
 642 1944 mt  642 1984 L
 530 3443 mt 
(10) s
%%IncludeResource: font Helvetica
/Helvetica /ISOLatin1Encoding 80 FMSR

 663 3369 mt 
(-2) s
 950 3261 mt  950 3240 L
 950 1944 mt  950 1964 L
DO
 950 3261 mt  950 1944 L
 950 1944 mt  950 1944 L
SO
1129 3261 mt 1129 3240 L
1129 1944 mt 1129 1964 L
DO
1129 3261 mt 1129 1944 L
1129 1944 mt 1129 1944 L
SO
1257 3261 mt 1257 3240 L
1257 1944 mt 1257 1964 L
DO
1257 3261 mt 1257 1944 L
1257 1944 mt 1257 1944 L
SO
1355 3261 mt 1355 3240 L
1355 1944 mt 1355 1964 L
DO
1355 3261 mt 1355 1944 L
1355 1944 mt 1355 1944 L
SO
1436 3261 mt 1436 3240 L
1436 1944 mt 1436 1964 L
DO
1436 3261 mt 1436 1944 L
1436 1944 mt 1436 1944 L
SO
1505 3261 mt 1505 3240 L
1505 1944 mt 1505 1964 L
DO
1505 3261 mt 1505 1944 L
1505 1944 mt 1505 1944 L
SO
1564 3261 mt 1564 3240 L
1564 1944 mt 1564 1964 L
DO
1564 3261 mt 1564 1944 L
1564 1944 mt 1564 1944 L
SO
1616 3261 mt 1616 3240 L
1616 1944 mt 1616 1964 L
DO
1616 3261 mt 1616 1944 L
1616 1944 mt 1616 1944 L
SO
1662 3261 mt 1662 3240 L
1662 1944 mt 1662 1964 L
DO
1662 3261 mt 1662 1944 L
1662 1944 mt 1662 1944 L
SO
1662 3261 mt 1662 3220 L
1662 1944 mt 1662 1984 L
%%IncludeResource: font Helvetica
/Helvetica /ISOLatin1Encoding 120 FMSR

1550 3443 mt 
(10) s
%%IncludeResource: font Helvetica
/Helvetica /ISOLatin1Encoding 80 FMSR

1683 3369 mt 
(-1) s
1970 3261 mt 1970 3240 L
1970 1944 mt 1970 1964 L
DO
1970 3261 mt 1970 1944 L
1970 1944 mt 1970 1944 L
SO
2149 3261 mt 2149 3240 L
2149 1944 mt 2149 1964 L
DO
2149 3261 mt 2149 1944 L
2149 1944 mt 2149 1944 L
SO
2277 3261 mt 2277 3240 L
2277 1944 mt 2277 1964 L
DO
2277 3261 mt 2277 1944 L
2277 1944 mt 2277 1944 L
SO
2375 3261 mt 2375 3240 L
2375 1944 mt 2375 1964 L
DO
2375 3261 mt 2375 1944 L
2375 1944 mt 2375 1944 L
SO
2456 3261 mt 2456 3240 L
2456 1944 mt 2456 1964 L
DO
2456 3261 mt 2456 1944 L
2456 1944 mt 2456 1944 L
SO
2525 3261 mt 2525 3240 L
2525 1944 mt 2525 1964 L
DO
2525 3261 mt 2525 1944 L
2525 1944 mt 2525 1944 L
SO
2584 3261 mt 2584 3240 L
2584 1944 mt 2584 1964 L
DO
2584 3261 mt 2584 1944 L
2584 1944 mt 2584 1944 L
SO
2636 3261 mt 2636 3240 L
2636 1944 mt 2636 1964 L
DO
2636 3261 mt 2636 1944 L
2636 1944 mt 2636 1944 L
SO
2682 3261 mt 2682 3240 L
2682 1944 mt 2682 1964 L
DO
2682 3261 mt 2682 1944 L
2682 1944 mt 2682 1944 L
SO
2682 3261 mt 2682 3220 L
2682 1944 mt 2682 1984 L
%%IncludeResource: font Helvetica
/Helvetica /ISOLatin1Encoding 120 FMSR

2594 3443 mt 
(10) s
%%IncludeResource: font Helvetica
/Helvetica /ISOLatin1Encoding 80 FMSR

2727 3369 mt 
(0) s
2990 3261 mt 2990 3240 L
2990 1944 mt 2990 1964 L
DO
2990 3261 mt 2990 1944 L
2990 1944 mt 2990 1944 L
SO
3169 3261 mt 3169 3240 L
3169 1944 mt 3169 1964 L
DO
3169 3261 mt 3169 1944 L
3169 1944 mt 3169 1944 L
SO
3297 3261 mt 3297 3240 L
3297 1944 mt 3297 1964 L
DO
3297 3261 mt 3297 1944 L
3297 1944 mt 3297 1944 L
SO
3395 3261 mt 3395 3240 L
3395 1944 mt 3395 1964 L
DO
3395 3261 mt 3395 1944 L
3395 1944 mt 3395 1944 L
SO
3476 3261 mt 3476 3240 L
3476 1944 mt 3476 1964 L
DO
3476 3261 mt 3476 1944 L
3476 1944 mt 3476 1944 L
SO
3545 3261 mt 3545 3240 L
3545 1944 mt 3545 1964 L
DO
3545 3261 mt 3545 1944 L
3545 1944 mt 3545 1944 L
SO
3604 3261 mt 3604 3240 L
3604 1944 mt 3604 1964 L
DO
3604 3261 mt 3604 1944 L
3604 1944 mt 3604 1944 L
SO
3656 3261 mt 3656 3240 L
3656 1944 mt 3656 1964 L
DO
3656 3261 mt 3656 1944 L
3656 1944 mt 3656 1944 L
SO
3702 3261 mt 3702 3240 L
3702 1944 mt 3702 1964 L
DO
3702 3261 mt 3702 1944 L
3702 1944 mt 3702 1944 L
SO
3702 3261 mt 3702 3220 L
3702 1944 mt 3702 1984 L
%%IncludeResource: font Helvetica
/Helvetica /ISOLatin1Encoding 120 FMSR

3614 3443 mt 
(10) s
%%IncludeResource: font Helvetica
/Helvetica /ISOLatin1Encoding 80 FMSR

3747 3369 mt 
(1) s
4010 3261 mt 4010 3240 L
4010 1944 mt 4010 1964 L
DO
4010 3261 mt 4010 1944 L
4010 1944 mt 4010 1944 L
SO
4189 3261 mt 4189 3240 L
4189 1944 mt 4189 1964 L
DO
4189 3261 mt 4189 1944 L
4189 1944 mt 4189 1944 L
SO
4317 3261 mt 4317 3240 L
4317 1944 mt 4317 1964 L
DO
4317 3261 mt 4317 1944 L
4317 1944 mt 4317 1944 L
SO
4415 3261 mt 4415 3240 L
4415 1944 mt 4415 1964 L
DO
4415 3261 mt 4415 1944 L
4415 1944 mt 4415 1944 L
SO
4496 3261 mt 4496 3240 L
4496 1944 mt 4496 1964 L
DO
4496 3261 mt 4496 1944 L
4496 1944 mt 4496 1944 L
SO
4565 3261 mt 4565 3240 L
4565 1944 mt 4565 1964 L
DO
4565 3261 mt 4565 1944 L
4565 1944 mt 4565 1944 L
SO
4624 3261 mt 4624 3240 L
4624 1944 mt 4624 1964 L
DO
4624 3261 mt 4624 1944 L
4624 1944 mt 4624 1944 L
SO
4676 3261 mt 4676 3240 L
4676 1944 mt 4676 1964 L
DO
4676 3261 mt 4676 1944 L
4676 1944 mt 4676 1944 L
SO
4723 3261 mt 4723 3240 L
4723 1944 mt 4723 1964 L
DO
4723 3261 mt 4723 1944 L
4723 1944 mt 4723 1944 L
SO
4723 3261 mt 4723 3220 L
4723 1944 mt 4723 1984 L
%%IncludeResource: font Helvetica
/Helvetica /ISOLatin1Encoding 120 FMSR

4635 3443 mt 
(10) s
%%IncludeResource: font Helvetica
/Helvetica /ISOLatin1Encoding 80 FMSR

4768 3369 mt 
(2) s
 642 3248 mt  683 3248 L
4723 3248 mt 4682 3248 L
%%IncludeResource: font Helvetica
/Helvetica /ISOLatin1Encoding 120 FMSR

 405 3292 mt 
(-45) s
 642 2817 mt  683 2817 L
4723 2817 mt 4682 2817 L
 542 2861 mt 
(0) s
 642 2387 mt  683 2387 L
4723 2387 mt 4682 2387 L
 475 2431 mt 
(45) s
 642 1956 mt  683 1956 L
4723 1956 mt 4682 1956 L
 475 2000 mt 
(90) s
 642 3261 mt 4723 3261 L
 642 1944 mt 4723 1944 L
 642 3261 mt  642 1944 L
4723 3261 mt 4723 1944 L
gs 642 1944 4082 1318 rc
/c8 { 0.000000 0.750000 0.750000 sr} bdef
c8
32 0 116 0 116 0 116 0 116 -1 117 0 116 -1 116 -2 
116 -3 116 -1 11 0 105 2 116 10 116 25 116 46 116 69 
116 90 116 100 117 98 116 88 116 73 116 60 116 46 116 37 
116 29 116 22 116 17 116 13 116 10 116 8 117 6 116 4 
567 8 642 1964 34 MP stroke
0.4 sg
0 442 2720 1944 2 MP stroke
gr

0 sg
 337 2944 mt  -90 rotate
(Phase \(deg\)) s
90 rotate
/c9 { 1.000000 1.000000 0.933333 sr} bdef
c9
-1313 0 0 -646 1313 0 1377 3069 4 MP
PP
0 j
0.8 sg
1377 2423 1313  646 rectstroke
1 j
0 sg
%%IncludeResource: font Helvetica
/Helvetica /ISOLatin1Encoding 96 FMSR

1425 2560 mt 
(System: Closed Loop dy to y) s
1425 2670 mt 
(Phase Margin \(deg\): -135) s
1425 2780 mt 
(Delay Margin \(sec\): 3.61) s
1425 2890 mt 
(At frequency \(rad/s\): 1.09) s
1425 3000 mt 
(Closed loop stable? Yes) s
24 w
0 j
0 -94 -94 0 0 94 94 0 2673 2339 5 MP
gs
PP
gr
/c10 { 1.000000 1.000000 0.862745 sr} bdef
c10
DP
gs 642 1944 4082 1318 rc
6 w
c8
2720 2386 PD
gr

6 w
c8
  36   36 2720 2386 PO
  36   36 2720 2386 FO
gs 642 1944 4082 1318 rc
gr

1 sg
0 1486 4081 0 0 -1486 642 1828 4 MP
PP
-4081 0 0 1486 4081 0 0 -1486 642 1828 5 MP stroke
4 w
DO
0.4 sg
 642 1828 mt  642  342 L
 642  342 mt  642  342 L
1662 1828 mt 1662  342 L
1662  342 mt 1662  342 L
2682 1828 mt 2682  342 L
2682  342 mt 2682  342 L
3702 1828 mt 3702  342 L
3702  342 mt 3702  342 L
4723 1828 mt 4723  342 L
4723  342 mt 4723  342 L
 642 1828 mt 4723 1828 L
4723 1828 mt 4723 1828 L
 642 1580 mt 4723 1580 L
4723 1580 mt 4723 1580 L
 642 1332 mt 4723 1332 L
4723 1332 mt 4723 1332 L
 642 1085 mt 4723 1085 L
4723 1085 mt 4723 1085 L
 642  837 mt 4723  837 L
4723  837 mt 4723  837 L
 642  589 mt 4723  589 L
4723  589 mt 4723  589 L
 642  342 mt 4723  342 L
4723  342 mt 4723  342 L
SO
6 w
 642 1828 mt 4723 1828 L
 642  342 mt 4723  342 L
 642 1828 mt  642  342 L
4723 1828 mt 4723  342 L
 642 1828 mt 4723 1828 L
 642 1828 mt  642  342 L
 642 1828 mt  642 1807 L
 642  342 mt  642  362 L
DO
 642 1828 mt  642  342 L
 642  342 mt  642  342 L
SO
 642 1828 mt  642 1787 L
 642  342 mt  642  382 L
 950 1828 mt  950 1807 L
 950  342 mt  950  362 L
DO
 950 1828 mt  950  342 L
 950  342 mt  950  342 L
SO
1129 1828 mt 1129 1807 L
1129  342 mt 1129  362 L
DO
1129 1828 mt 1129  342 L
1129  342 mt 1129  342 L
SO
1257 1828 mt 1257 1807 L
1257  342 mt 1257  362 L
DO
1257 1828 mt 1257  342 L
1257  342 mt 1257  342 L
SO
1355 1828 mt 1355 1807 L
1355  342 mt 1355  362 L
DO
1355 1828 mt 1355  342 L
1355  342 mt 1355  342 L
SO
1436 1828 mt 1436 1807 L
1436  342 mt 1436  362 L
DO
1436 1828 mt 1436  342 L
1436  342 mt 1436  342 L
SO
1505 1828 mt 1505 1807 L
1505  342 mt 1505  362 L
DO
1505 1828 mt 1505  342 L
1505  342 mt 1505  342 L
SO
1564 1828 mt 1564 1807 L
1564  342 mt 1564  362 L
DO
1564 1828 mt 1564  342 L
1564  342 mt 1564  342 L
SO
1616 1828 mt 1616 1807 L
1616  342 mt 1616  362 L
DO
1616 1828 mt 1616  342 L
1616  342 mt 1616  342 L
SO
1662 1828 mt 1662 1807 L
1662  342 mt 1662  362 L
DO
1662 1828 mt 1662  342 L
1662  342 mt 1662  342 L
SO
1662 1828 mt 1662 1787 L
1662  342 mt 1662  382 L
1970 1828 mt 1970 1807 L
1970  342 mt 1970  362 L
DO
1970 1828 mt 1970  342 L
1970  342 mt 1970  342 L
SO
2149 1828 mt 2149 1807 L
2149  342 mt 2149  362 L
DO
2149 1828 mt 2149  342 L
2149  342 mt 2149  342 L
SO
2277 1828 mt 2277 1807 L
2277  342 mt 2277  362 L
DO
2277 1828 mt 2277  342 L
2277  342 mt 2277  342 L
SO
2375 1828 mt 2375 1807 L
2375  342 mt 2375  362 L
DO
2375 1828 mt 2375  342 L
2375  342 mt 2375  342 L
SO
2456 1828 mt 2456 1807 L
2456  342 mt 2456  362 L
DO
2456 1828 mt 2456  342 L
2456  342 mt 2456  342 L
SO
2525 1828 mt 2525 1807 L
2525  342 mt 2525  362 L
DO
2525 1828 mt 2525  342 L
2525  342 mt 2525  342 L
SO
2584 1828 mt 2584 1807 L
2584  342 mt 2584  362 L
DO
2584 1828 mt 2584  342 L
2584  342 mt 2584  342 L
SO
2636 1828 mt 2636 1807 L
2636  342 mt 2636  362 L
DO
2636 1828 mt 2636  342 L
2636  342 mt 2636  342 L
SO
2682 1828 mt 2682 1807 L
2682  342 mt 2682  362 L
DO
2682 1828 mt 2682  342 L
2682  342 mt 2682  342 L
SO
2682 1828 mt 2682 1787 L
2682  342 mt 2682  382 L
2990 1828 mt 2990 1807 L
2990  342 mt 2990  362 L
DO
2990 1828 mt 2990  342 L
2990  342 mt 2990  342 L
SO
3169 1828 mt 3169 1807 L
3169  342 mt 3169  362 L
DO
3169 1828 mt 3169  342 L
3169  342 mt 3169  342 L
SO
3297 1828 mt 3297 1807 L
3297  342 mt 3297  362 L
DO
3297 1828 mt 3297  342 L
3297  342 mt 3297  342 L
SO
3395 1828 mt 3395 1807 L
3395  342 mt 3395  362 L
DO
3395 1828 mt 3395  342 L
3395  342 mt 3395  342 L
SO
3476 1828 mt 3476 1807 L
3476  342 mt 3476  362 L
DO
3476 1828 mt 3476  342 L
3476  342 mt 3476  342 L
SO
3545 1828 mt 3545 1807 L
3545  342 mt 3545  362 L
DO
3545 1828 mt 3545  342 L
3545  342 mt 3545  342 L
SO
3604 1828 mt 3604 1807 L
3604  342 mt 3604  362 L
DO
3604 1828 mt 3604  342 L
3604  342 mt 3604  342 L
SO
3656 1828 mt 3656 1807 L
3656  342 mt 3656  362 L
DO
3656 1828 mt 3656  342 L
3656  342 mt 3656  342 L
SO
3702 1828 mt 3702 1807 L
3702  342 mt 3702  362 L
DO
3702 1828 mt 3702  342 L
3702  342 mt 3702  342 L
SO
3702 1828 mt 3702 1787 L
3702  342 mt 3702  382 L
4010 1828 mt 4010 1807 L
4010  342 mt 4010  362 L
DO
4010 1828 mt 4010  342 L
4010  342 mt 4010  342 L
SO
4189 1828 mt 4189 1807 L
4189  342 mt 4189  362 L
DO
4189 1828 mt 4189  342 L
4189  342 mt 4189  342 L
SO
4317 1828 mt 4317 1807 L
4317  342 mt 4317  362 L
DO
4317 1828 mt 4317  342 L
4317  342 mt 4317  342 L
SO
4415 1828 mt 4415 1807 L
4415  342 mt 4415  362 L
DO
4415 1828 mt 4415  342 L
4415  342 mt 4415  342 L
SO
4496 1828 mt 4496 1807 L
4496  342 mt 4496  362 L
DO
4496 1828 mt 4496  342 L
4496  342 mt 4496  342 L
SO
4565 1828 mt 4565 1807 L
4565  342 mt 4565  362 L
DO
4565 1828 mt 4565  342 L
4565  342 mt 4565  342 L
SO
4624 1828 mt 4624 1807 L
4624  342 mt 4624  362 L
DO
4624 1828 mt 4624  342 L
4624  342 mt 4624  342 L
SO
4676 1828 mt 4676 1807 L
4676  342 mt 4676  362 L
DO
4676 1828 mt 4676  342 L
4676  342 mt 4676  342 L
SO
4723 1828 mt 4723 1807 L
4723  342 mt 4723  362 L
DO
4723 1828 mt 4723  342 L
4723  342 mt 4723  342 L
SO
4723 1828 mt 4723 1787 L
4723  342 mt 4723  382 L
 642 1828 mt  683 1828 L
4723 1828 mt 4682 1828 L
%%IncludeResource: font Helvetica
/Helvetica /ISOLatin1Encoding 120 FMSR

 405 1872 mt 
(-50) s
 642 1580 mt  683 1580 L
4723 1580 mt 4682 1580 L
 405 1624 mt 
(-40) s
 642 1332 mt  683 1332 L
4723 1332 mt 4682 1332 L
 405 1376 mt 
(-30) s
 642 1085 mt  683 1085 L
4723 1085 mt 4682 1085 L
 405 1129 mt 
(-20) s
 642  837 mt  683  837 L
4723  837 mt 4682  837 L
 405  881 mt 
(-10) s
 642  589 mt  683  589 L
4723  589 mt 4682  589 L
 542  633 mt 
(0) s
 642  342 mt  683  342 L
4723  342 mt 4682  342 L
 475  386 mt 
(10) s
 642 1828 mt 4723 1828 L
 642  342 mt 4723  342 L
 642 1828 mt  642  342 L
4723 1828 mt 4723  342 L
gs 642 342 4082 1487 rc
c8
32 0 116 0 116 0 116 0 116 0 117 0 116 0 116 1 
116 1 116 4 11 0 105 6 116 8 116 11 116 10 116 5 
116 -3 116 -16 117 -27 116 -38 116 -45 116 -49 116 -52 116 -54 
116 -55 116 -56 116 -55 116 -57 116 -56 116 -56 117 -56 116 -57 
567 -275 642 1550 34 MP stroke
DD
0.4 sg
4081 0 642 589 2 MP stroke
gr

DD
0 sg
 337 1510 mt  -90 rotate
(Magnitude \(dB\)) s
90 rotate
SO

end %%Color Dict

eplot
%%EndObject

epage
end

showpage

%%Trailer
%%EOF
