%!PS-Adobe-3.0 EPSF-3.0
%%Creator: MATLAB, The MathWorks, Inc. Version 8.1.0.604 (R2013a). Operating System: Linux 4.9.0-040900-generic #201612111631 SMP Sun Dec 11 21:33:00 UTC 2016 x86_64.
%%Title: /home/lukas/Universidad/closedloop_ru.eps
%%CreationDate: 12/21/2016  10:52:32
%%DocumentNeededFonts: Helvetica
%%DocumentProcessColors: Cyan Magenta Yellow Black
%%LanguageLevel: 2
%%Pages: 1
%%BoundingBox:   100   241   509   549
%%EndComments

%%BeginProlog
% MathWorks dictionary
/MathWorks 160 dict begin
% definition operators
/bdef {bind def} bind def
/ldef {load def} bind def
/xdef {exch def} bdef
/xstore {exch store} bdef
% operator abbreviations
/c  /clip ldef
/cc /concat ldef
/cp /closepath ldef
/gr /grestore ldef
/gs /gsave ldef
/mt /moveto ldef
/np /newpath ldef
/cm /currentmatrix ldef
/sm /setmatrix ldef
/rm /rmoveto ldef
/rl /rlineto ldef
/s {show newpath} bdef
/sc {setcmykcolor} bdef
/sr /setrgbcolor ldef
/sg /setgray ldef
/w /setlinewidth ldef
/j /setlinejoin ldef
/cap /setlinecap ldef
/rc {rectclip} bdef
/rf {rectfill} bdef
% page state control
/pgsv () def
/bpage {/pgsv save def} bdef
/epage {pgsv restore} bdef
/bplot /gsave ldef
/eplot {stroke grestore} bdef
% orientation switch
/portraitMode 0 def /landscapeMode 1 def /rotateMode 2 def
% coordinate system mappings
/dpi2point 0 def
% font control
/FontSize 0 def
/FMS {/FontSize xstore findfont [FontSize 0 0 FontSize neg 0 0]
  makefont setfont} bdef
/reencode {exch dup where {pop load} {pop StandardEncoding} ifelse
  exch dup 3 1 roll findfont dup length dict begin
  { 1 index /FID ne {def}{pop pop} ifelse } forall
  /Encoding exch def currentdict end definefont pop} bdef
/isroman {findfont /CharStrings get /Agrave known} bdef
/FMSR {3 1 roll 1 index dup isroman {reencode} {pop pop} ifelse
  exch FMS} bdef
/csm {1 dpi2point div -1 dpi2point div scale neg translate
 dup landscapeMode eq {pop -90 rotate}
  {rotateMode eq {90 rotate} if} ifelse} bdef
% line types: solid, dotted, dashed, dotdash
/SO { [] 0 setdash } bdef
/DO { [.5 dpi2point mul 4 dpi2point mul] 0 setdash } bdef
/DA { [6 dpi2point mul] 0 setdash } bdef
/DD { [.5 dpi2point mul 4 dpi2point mul 6 dpi2point mul 4
  dpi2point mul] 0 setdash } bdef
% macros for lines and objects
/L {lineto stroke} bdef
/MP {3 1 roll moveto 1 sub {rlineto} repeat} bdef
/AP {{rlineto} repeat} bdef
/PDlw -1 def
/W {/PDlw currentlinewidth def setlinewidth} def
/PP {closepath eofill} bdef
/DP {closepath stroke} bdef
/MR {4 -2 roll moveto dup  0 exch rlineto exch 0 rlineto
  neg 0 exch rlineto closepath} bdef
/FR {MR stroke} bdef
/PR {MR fill} bdef
/L1i {{currentfile picstr readhexstring pop} image} bdef
/tMatrix matrix def
/MakeOval {newpath tMatrix currentmatrix pop translate scale
0 0 1 0 360 arc tMatrix setmatrix} bdef
/FO {MakeOval stroke} bdef
/PO {MakeOval fill} bdef
/PD {currentlinewidth 2 div 0 360 arc fill
   PDlw -1 eq not {PDlw w /PDlw -1 def} if} def
/FA {newpath tMatrix currentmatrix pop translate scale
  0 0 1 5 -2 roll arc tMatrix setmatrix stroke} bdef
/PA {newpath tMatrix currentmatrix pop	translate 0 0 moveto scale
  0 0 1 5 -2 roll arc closepath tMatrix setmatrix fill} bdef
/FAn {newpath tMatrix currentmatrix pop translate scale
  0 0 1 5 -2 roll arcn tMatrix setmatrix stroke} bdef
/PAn {newpath tMatrix currentmatrix pop translate 0 0 moveto scale
  0 0 1 5 -2 roll arcn closepath tMatrix setmatrix fill} bdef
/vradius 0 def /hradius 0 def /lry 0 def
/lrx 0 def /uly 0 def /ulx 0 def /rad 0 def
/MRR {/vradius xdef /hradius xdef /lry xdef /lrx xdef /uly xdef
  /ulx xdef newpath tMatrix currentmatrix pop ulx hradius add uly
  vradius add translate hradius vradius scale 0 0 1 180 270 arc 
  tMatrix setmatrix lrx hradius sub uly vradius add translate
  hradius vradius scale 0 0 1 270 360 arc tMatrix setmatrix
  lrx hradius sub lry vradius sub translate hradius vradius scale
  0 0 1 0 90 arc tMatrix setmatrix ulx hradius add lry vradius sub
  translate hradius vradius scale 0 0 1 90 180 arc tMatrix setmatrix
  closepath} bdef
/FRR {MRR stroke } bdef
/PRR {MRR fill } bdef
/MlrRR {/lry xdef /lrx xdef /uly xdef /ulx xdef /rad lry uly sub 2 div def
  newpath tMatrix currentmatrix pop ulx rad add uly rad add translate
  rad rad scale 0 0 1 90 270 arc tMatrix setmatrix lrx rad sub lry rad
  sub translate rad rad scale 0 0 1 270 90 arc tMatrix setmatrix
  closepath} bdef
/FlrRR {MlrRR stroke } bdef
/PlrRR {MlrRR fill } bdef
/MtbRR {/lry xdef /lrx xdef /uly xdef /ulx xdef /rad lrx ulx sub 2 div def
  newpath tMatrix currentmatrix pop ulx rad add uly rad add translate
  rad rad scale 0 0 1 180 360 arc tMatrix setmatrix lrx rad sub lry rad
  sub translate rad rad scale 0 0 1 0 180 arc tMatrix setmatrix
  closepath} bdef
/FtbRR {MtbRR stroke } bdef
/PtbRR {MtbRR fill } bdef
/stri 6 array def /dtri 6 array def
/smat 6 array def /dmat 6 array def
/tmat1 6 array def /tmat2 6 array def /dif 3 array def
/asub {/ind2 exch def /ind1 exch def dup dup
  ind1 get exch ind2 get sub exch } bdef
/tri_to_matrix {
  2 0 asub 3 1 asub 4 0 asub 5 1 asub
  dup 0 get exch 1 get 7 -1 roll astore } bdef
/compute_transform {
  dmat dtri tri_to_matrix tmat1 invertmatrix 
  smat stri tri_to_matrix tmat2 concatmatrix } bdef
/ds {stri astore pop} bdef
/dt {dtri astore pop} bdef
/db {2 copy /cols xdef /rows xdef mul dup 3 mul string
  currentfile 
  3 index 0 eq {/ASCIIHexDecode filter}
  {/ASCII85Decode filter 3 index 2 eq {/RunLengthDecode filter} if }
  ifelse exch readstring pop
  dup 0 3 index getinterval /rbmap xdef
  dup 2 index dup getinterval /gbmap xdef
  1 index dup 2 mul exch getinterval /bbmap xdef pop pop}bdef
/it {gs np dtri aload pop moveto lineto lineto cp c
  cols rows 8 compute_transform 
  rbmap gbmap bbmap true 3 colorimage gr}bdef
/il {newpath moveto lineto stroke}bdef
currentdict end def
%%EndProlog

%%BeginSetup
MathWorks begin

0 cap

end
%%EndSetup

%%Page: 1 1
%%BeginPageSetup
%%PageBoundingBox:   100   241   509   549
MathWorks begin
bpage
%%EndPageSetup

%%BeginObject: obj1
bplot

/dpi2point 12 def
portraitMode 1200 6588 csm

    0     0  4915  3687 rc
95 dict begin %Colortable dictionary
/c0 { 0.000000 0.000000 0.000000 sr} bdef
/c1 { 1.000000 1.000000 1.000000 sr} bdef
/c2 { 0.900000 0.000000 0.000000 sr} bdef
/c3 { 0.000000 0.820000 0.000000 sr} bdef
/c4 { 0.000000 0.000000 0.800000 sr} bdef
/c5 { 0.910000 0.820000 0.320000 sr} bdef
/c6 { 1.000000 0.260000 0.820000 sr} bdef
/c7 { 0.000000 0.820000 0.820000 sr} bdef
c0
1 j
1 sg
   0    0 4916 3688 rf
6 w
0 sg
%%IncludeResource: font Helvetica
/Helvetica /ISOLatin1Encoding 120 FMSR

2287  257 mt 
(Bode Diagram) s
2182 3676 mt 
(Frequency  \(rad/s\)) s
1 sg
0 1317 4081 0 0 -1317 642 3261 4 MP
PP
-4081 0 0 1317 4081 0 0 -1317 642 3261 5 MP stroke
4 w
DO
0.4 sg
 642 3261 mt  642 1944 L
 642 1944 mt  642 1944 L
1459 3261 mt 1459 1944 L
1459 1944 mt 1459 1944 L
2275 3261 mt 2275 1944 L
2275 1944 mt 2275 1944 L
3091 3261 mt 3091 1944 L
3091 1944 mt 3091 1944 L
3907 3261 mt 3907 1944 L
3907 1944 mt 3907 1944 L
4723 3261 mt 4723 1944 L
4723 1944 mt 4723 1944 L
 642 3248 mt 4723 3248 L
4723 3248 mt 4723 3248 L
 642 2925 mt 4723 2925 L
4723 2925 mt 4723 2925 L
 642 2602 mt 4723 2602 L
4723 2602 mt 4723 2602 L
 642 2279 mt 4723 2279 L
4723 2279 mt 4723 2279 L
 642 1956 mt 4723 1956 L
4723 1956 mt 4723 1956 L
SO
6 w
 642 3261 mt 4723 3261 L
 642 1944 mt 4723 1944 L
 642 3261 mt  642 1944 L
4723 3261 mt 4723 1944 L
 642 3261 mt 4723 3261 L
 642 3261 mt  642 1944 L
 642 3261 mt  642 3240 L
 642 1944 mt  642 1964 L
DO
 642 3261 mt  642 1944 L
 642 1944 mt  642 1944 L
SO
 642 3261 mt  642 3220 L
 642 1944 mt  642 1984 L
 530 3443 mt 
(10) s
%%IncludeResource: font Helvetica
/Helvetica /ISOLatin1Encoding 80 FMSR

 663 3369 mt 
(-2) s
 888 3261 mt  888 3240 L
 888 1944 mt  888 1964 L
DO
 888 3261 mt  888 1944 L
 888 1944 mt  888 1944 L
SO
1032 3261 mt 1032 3240 L
1032 1944 mt 1032 1964 L
DO
1032 3261 mt 1032 1944 L
1032 1944 mt 1032 1944 L
SO
1134 3261 mt 1134 3240 L
1134 1944 mt 1134 1964 L
DO
1134 3261 mt 1134 1944 L
1134 1944 mt 1134 1944 L
SO
1213 3261 mt 1213 3240 L
1213 1944 mt 1213 1964 L
DO
1213 3261 mt 1213 1944 L
1213 1944 mt 1213 1944 L
SO
1277 3261 mt 1277 3240 L
1277 1944 mt 1277 1964 L
DO
1277 3261 mt 1277 1944 L
1277 1944 mt 1277 1944 L
SO
1332 3261 mt 1332 3240 L
1332 1944 mt 1332 1964 L
DO
1332 3261 mt 1332 1944 L
1332 1944 mt 1332 1944 L
SO
1379 3261 mt 1379 3240 L
1379 1944 mt 1379 1964 L
DO
1379 3261 mt 1379 1944 L
1379 1944 mt 1379 1944 L
SO
1421 3261 mt 1421 3240 L
1421 1944 mt 1421 1964 L
DO
1421 3261 mt 1421 1944 L
1421 1944 mt 1421 1944 L
SO
1459 3261 mt 1459 3240 L
1459 1944 mt 1459 1964 L
DO
1459 3261 mt 1459 1944 L
1459 1944 mt 1459 1944 L
SO
1459 3261 mt 1459 3220 L
1459 1944 mt 1459 1984 L
%%IncludeResource: font Helvetica
/Helvetica /ISOLatin1Encoding 120 FMSR

1347 3443 mt 
(10) s
%%IncludeResource: font Helvetica
/Helvetica /ISOLatin1Encoding 80 FMSR

1480 3369 mt 
(-1) s
1704 3261 mt 1704 3240 L
1704 1944 mt 1704 1964 L
DO
1704 3261 mt 1704 1944 L
1704 1944 mt 1704 1944 L
SO
1848 3261 mt 1848 3240 L
1848 1944 mt 1848 1964 L
DO
1848 3261 mt 1848 1944 L
1848 1944 mt 1848 1944 L
SO
1950 3261 mt 1950 3240 L
1950 1944 mt 1950 1964 L
DO
1950 3261 mt 1950 1944 L
1950 1944 mt 1950 1944 L
SO
2029 3261 mt 2029 3240 L
2029 1944 mt 2029 1964 L
DO
2029 3261 mt 2029 1944 L
2029 1944 mt 2029 1944 L
SO
2093 3261 mt 2093 3240 L
2093 1944 mt 2093 1964 L
DO
2093 3261 mt 2093 1944 L
2093 1944 mt 2093 1944 L
SO
2148 3261 mt 2148 3240 L
2148 1944 mt 2148 1964 L
DO
2148 3261 mt 2148 1944 L
2148 1944 mt 2148 1944 L
SO
2195 3261 mt 2195 3240 L
2195 1944 mt 2195 1964 L
DO
2195 3261 mt 2195 1944 L
2195 1944 mt 2195 1944 L
SO
2237 3261 mt 2237 3240 L
2237 1944 mt 2237 1964 L
DO
2237 3261 mt 2237 1944 L
2237 1944 mt 2237 1944 L
SO
2275 3261 mt 2275 3240 L
2275 1944 mt 2275 1964 L
DO
2275 3261 mt 2275 1944 L
2275 1944 mt 2275 1944 L
SO
2275 3261 mt 2275 3220 L
2275 1944 mt 2275 1984 L
%%IncludeResource: font Helvetica
/Helvetica /ISOLatin1Encoding 120 FMSR

2187 3443 mt 
(10) s
%%IncludeResource: font Helvetica
/Helvetica /ISOLatin1Encoding 80 FMSR

2320 3369 mt 
(0) s
2520 3261 mt 2520 3240 L
2520 1944 mt 2520 1964 L
DO
2520 3261 mt 2520 1944 L
2520 1944 mt 2520 1944 L
SO
2664 3261 mt 2664 3240 L
2664 1944 mt 2664 1964 L
DO
2664 3261 mt 2664 1944 L
2664 1944 mt 2664 1944 L
SO
2766 3261 mt 2766 3240 L
2766 1944 mt 2766 1964 L
DO
2766 3261 mt 2766 1944 L
2766 1944 mt 2766 1944 L
SO
2845 3261 mt 2845 3240 L
2845 1944 mt 2845 1964 L
DO
2845 3261 mt 2845 1944 L
2845 1944 mt 2845 1944 L
SO
2909 3261 mt 2909 3240 L
2909 1944 mt 2909 1964 L
DO
2909 3261 mt 2909 1944 L
2909 1944 mt 2909 1944 L
SO
2964 3261 mt 2964 3240 L
2964 1944 mt 2964 1964 L
DO
2964 3261 mt 2964 1944 L
2964 1944 mt 2964 1944 L
SO
3011 3261 mt 3011 3240 L
3011 1944 mt 3011 1964 L
DO
3011 3261 mt 3011 1944 L
3011 1944 mt 3011 1944 L
SO
3053 3261 mt 3053 3240 L
3053 1944 mt 3053 1964 L
DO
3053 3261 mt 3053 1944 L
3053 1944 mt 3053 1944 L
SO
3091 3261 mt 3091 3240 L
3091 1944 mt 3091 1964 L
DO
3091 3261 mt 3091 1944 L
3091 1944 mt 3091 1944 L
SO
3091 3261 mt 3091 3220 L
3091 1944 mt 3091 1984 L
%%IncludeResource: font Helvetica
/Helvetica /ISOLatin1Encoding 120 FMSR

3003 3443 mt 
(10) s
%%IncludeResource: font Helvetica
/Helvetica /ISOLatin1Encoding 80 FMSR

3136 3369 mt 
(1) s
3336 3261 mt 3336 3240 L
3336 1944 mt 3336 1964 L
DO
3336 3261 mt 3336 1944 L
3336 1944 mt 3336 1944 L
SO
3480 3261 mt 3480 3240 L
3480 1944 mt 3480 1964 L
DO
3480 3261 mt 3480 1944 L
3480 1944 mt 3480 1944 L
SO
3582 3261 mt 3582 3240 L
3582 1944 mt 3582 1964 L
DO
3582 3261 mt 3582 1944 L
3582 1944 mt 3582 1944 L
SO
3661 3261 mt 3661 3240 L
3661 1944 mt 3661 1964 L
DO
3661 3261 mt 3661 1944 L
3661 1944 mt 3661 1944 L
SO
3725 3261 mt 3725 3240 L
3725 1944 mt 3725 1964 L
DO
3725 3261 mt 3725 1944 L
3725 1944 mt 3725 1944 L
SO
3780 3261 mt 3780 3240 L
3780 1944 mt 3780 1964 L
DO
3780 3261 mt 3780 1944 L
3780 1944 mt 3780 1944 L
SO
3827 3261 mt 3827 3240 L
3827 1944 mt 3827 1964 L
DO
3827 3261 mt 3827 1944 L
3827 1944 mt 3827 1944 L
SO
3869 3261 mt 3869 3240 L
3869 1944 mt 3869 1964 L
DO
3869 3261 mt 3869 1944 L
3869 1944 mt 3869 1944 L
SO
3907 3261 mt 3907 3240 L
3907 1944 mt 3907 1964 L
DO
3907 3261 mt 3907 1944 L
3907 1944 mt 3907 1944 L
SO
3907 3261 mt 3907 3220 L
3907 1944 mt 3907 1984 L
%%IncludeResource: font Helvetica
/Helvetica /ISOLatin1Encoding 120 FMSR

3819 3443 mt 
(10) s
%%IncludeResource: font Helvetica
/Helvetica /ISOLatin1Encoding 80 FMSR

3952 3369 mt 
(2) s
4152 3261 mt 4152 3240 L
4152 1944 mt 4152 1964 L
DO
4152 3261 mt 4152 1944 L
4152 1944 mt 4152 1944 L
SO
4296 3261 mt 4296 3240 L
4296 1944 mt 4296 1964 L
DO
4296 3261 mt 4296 1944 L
4296 1944 mt 4296 1944 L
SO
4398 3261 mt 4398 3240 L
4398 1944 mt 4398 1964 L
DO
4398 3261 mt 4398 1944 L
4398 1944 mt 4398 1944 L
SO
4477 3261 mt 4477 3240 L
4477 1944 mt 4477 1964 L
DO
4477 3261 mt 4477 1944 L
4477 1944 mt 4477 1944 L
SO
4541 3261 mt 4541 3240 L
4541 1944 mt 4541 1964 L
DO
4541 3261 mt 4541 1944 L
4541 1944 mt 4541 1944 L
SO
4596 3261 mt 4596 3240 L
4596 1944 mt 4596 1964 L
DO
4596 3261 mt 4596 1944 L
4596 1944 mt 4596 1944 L
SO
4643 3261 mt 4643 3240 L
4643 1944 mt 4643 1964 L
DO
4643 3261 mt 4643 1944 L
4643 1944 mt 4643 1944 L
SO
4685 3261 mt 4685 3240 L
4685 1944 mt 4685 1964 L
DO
4685 3261 mt 4685 1944 L
4685 1944 mt 4685 1944 L
SO
4723 3261 mt 4723 3240 L
4723 1944 mt 4723 1964 L
DO
4723 3261 mt 4723 1944 L
4723 1944 mt 4723 1944 L
SO
4723 3261 mt 4723 3220 L
4723 1944 mt 4723 1984 L
%%IncludeResource: font Helvetica
/Helvetica /ISOLatin1Encoding 120 FMSR

4635 3443 mt 
(10) s
%%IncludeResource: font Helvetica
/Helvetica /ISOLatin1Encoding 80 FMSR

4768 3369 mt 
(3) s
 642 3248 mt  683 3248 L
4723 3248 mt 4682 3248 L
%%IncludeResource: font Helvetica
/Helvetica /ISOLatin1Encoding 120 FMSR

 338 3292 mt 
(-180) s
 642 2925 mt  683 2925 L
4723 2925 mt 4682 2925 L
 338 2969 mt 
(-135) s
 642 2602 mt  683 2602 L
4723 2602 mt 4682 2602 L
 405 2646 mt 
(-90) s
 642 2279 mt  683 2279 L
4723 2279 mt 4682 2279 L
 405 2323 mt 
(-45) s
 642 1956 mt  683 1956 L
4723 1956 mt 4682 1956 L
 542 2000 mt 
(0) s
 642 3261 mt 4723 3261 L
 642 1944 mt 4723 1944 L
 642 3261 mt  642 1944 L
4723 3261 mt 4723 1944 L
gs 643 1944 4081 1318 rc
/c8 { 0.000000 0.650000 0.000000 sr} bdef
c8
7 0 93 4 93 6 92 7 93 9 93 12 93 15 93 19 
93 25 93 31 92 37 93 45 93 50 93 53 93 53 93 48 
92 42 93 35 93 29 93 25 93 26 93 34 93 45 92 61 
93 74 93 80 93 78 93 69 93 57 93 47 92 36 93 29 
93 22 93 17 93 13 93 10 92 8 93 6 93 5 93 4 
453 6 643 1962 42 MP stroke
gr

c8
0 sg
 271 2944 mt  -90 rotate
(Phase \(deg\)) s
90 rotate
1 sg
0 1486 4080 0 0 -1486 643 1828 4 MP
PP
-4080 0 0 1486 4080 0 0 -1486 643 1828 5 MP stroke
4 w
DO
0.4 sg
 643 1828 mt  643  342 L
 643  342 mt  643  342 L
1459 1828 mt 1459  342 L
1459  342 mt 1459  342 L
2275 1828 mt 2275  342 L
2275  342 mt 2275  342 L
3091 1828 mt 3091  342 L
3091  342 mt 3091  342 L
3907 1828 mt 3907  342 L
3907  342 mt 3907  342 L
4723 1828 mt 4723  342 L
4723  342 mt 4723  342 L
 643 1828 mt 4723 1828 L
4723 1828 mt 4723 1828 L
 643 1530 mt 4723 1530 L
4723 1530 mt 4723 1530 L
 643 1233 mt 4723 1233 L
4723 1233 mt 4723 1233 L
 643  936 mt 4723  936 L
4723  936 mt 4723  936 L
 643  639 mt 4723  639 L
4723  639 mt 4723  639 L
 643  342 mt 4723  342 L
4723  342 mt 4723  342 L
SO
6 w
 643 1828 mt 4723 1828 L
 643  342 mt 4723  342 L
 643 1828 mt  643  342 L
4723 1828 mt 4723  342 L
 643 1828 mt 4723 1828 L
 643 1828 mt  643  342 L
 643 1828 mt  643 1807 L
 643  342 mt  643  362 L
DO
 643 1828 mt  643  342 L
 643  342 mt  643  342 L
SO
 643 1828 mt  643 1787 L
 643  342 mt  643  382 L
 888 1828 mt  888 1807 L
 888  342 mt  888  362 L
DO
 888 1828 mt  888  342 L
 888  342 mt  888  342 L
SO
1032 1828 mt 1032 1807 L
1032  342 mt 1032  362 L
DO
1032 1828 mt 1032  342 L
1032  342 mt 1032  342 L
SO
1134 1828 mt 1134 1807 L
1134  342 mt 1134  362 L
DO
1134 1828 mt 1134  342 L
1134  342 mt 1134  342 L
SO
1213 1828 mt 1213 1807 L
1213  342 mt 1213  362 L
DO
1213 1828 mt 1213  342 L
1213  342 mt 1213  342 L
SO
1277 1828 mt 1277 1807 L
1277  342 mt 1277  362 L
DO
1277 1828 mt 1277  342 L
1277  342 mt 1277  342 L
SO
1332 1828 mt 1332 1807 L
1332  342 mt 1332  362 L
DO
1332 1828 mt 1332  342 L
1332  342 mt 1332  342 L
SO
1379 1828 mt 1379 1807 L
1379  342 mt 1379  362 L
DO
1379 1828 mt 1379  342 L
1379  342 mt 1379  342 L
SO
1421 1828 mt 1421 1807 L
1421  342 mt 1421  362 L
DO
1421 1828 mt 1421  342 L
1421  342 mt 1421  342 L
SO
1459 1828 mt 1459 1807 L
1459  342 mt 1459  362 L
DO
1459 1828 mt 1459  342 L
1459  342 mt 1459  342 L
SO
1459 1828 mt 1459 1787 L
1459  342 mt 1459  382 L
1704 1828 mt 1704 1807 L
1704  342 mt 1704  362 L
DO
1704 1828 mt 1704  342 L
1704  342 mt 1704  342 L
SO
1848 1828 mt 1848 1807 L
1848  342 mt 1848  362 L
DO
1848 1828 mt 1848  342 L
1848  342 mt 1848  342 L
SO
1950 1828 mt 1950 1807 L
1950  342 mt 1950  362 L
DO
1950 1828 mt 1950  342 L
1950  342 mt 1950  342 L
SO
2029 1828 mt 2029 1807 L
2029  342 mt 2029  362 L
DO
2029 1828 mt 2029  342 L
2029  342 mt 2029  342 L
SO
2093 1828 mt 2093 1807 L
2093  342 mt 2093  362 L
DO
2093 1828 mt 2093  342 L
2093  342 mt 2093  342 L
SO
2148 1828 mt 2148 1807 L
2148  342 mt 2148  362 L
DO
2148 1828 mt 2148  342 L
2148  342 mt 2148  342 L
SO
2195 1828 mt 2195 1807 L
2195  342 mt 2195  362 L
DO
2195 1828 mt 2195  342 L
2195  342 mt 2195  342 L
SO
2237 1828 mt 2237 1807 L
2237  342 mt 2237  362 L
DO
2237 1828 mt 2237  342 L
2237  342 mt 2237  342 L
SO
2275 1828 mt 2275 1807 L
2275  342 mt 2275  362 L
DO
2275 1828 mt 2275  342 L
2275  342 mt 2275  342 L
SO
2275 1828 mt 2275 1787 L
2275  342 mt 2275  382 L
2520 1828 mt 2520 1807 L
2520  342 mt 2520  362 L
DO
2520 1828 mt 2520  342 L
2520  342 mt 2520  342 L
SO
2664 1828 mt 2664 1807 L
2664  342 mt 2664  362 L
DO
2664 1828 mt 2664  342 L
2664  342 mt 2664  342 L
SO
2766 1828 mt 2766 1807 L
2766  342 mt 2766  362 L
DO
2766 1828 mt 2766  342 L
2766  342 mt 2766  342 L
SO
2845 1828 mt 2845 1807 L
2845  342 mt 2845  362 L
DO
2845 1828 mt 2845  342 L
2845  342 mt 2845  342 L
SO
2909 1828 mt 2909 1807 L
2909  342 mt 2909  362 L
DO
2909 1828 mt 2909  342 L
2909  342 mt 2909  342 L
SO
2964 1828 mt 2964 1807 L
2964  342 mt 2964  362 L
DO
2964 1828 mt 2964  342 L
2964  342 mt 2964  342 L
SO
3011 1828 mt 3011 1807 L
3011  342 mt 3011  362 L
DO
3011 1828 mt 3011  342 L
3011  342 mt 3011  342 L
SO
3053 1828 mt 3053 1807 L
3053  342 mt 3053  362 L
DO
3053 1828 mt 3053  342 L
3053  342 mt 3053  342 L
SO
3091 1828 mt 3091 1807 L
3091  342 mt 3091  362 L
DO
3091 1828 mt 3091  342 L
3091  342 mt 3091  342 L
SO
3091 1828 mt 3091 1787 L
3091  342 mt 3091  382 L
3336 1828 mt 3336 1807 L
3336  342 mt 3336  362 L
DO
3336 1828 mt 3336  342 L
3336  342 mt 3336  342 L
SO
3480 1828 mt 3480 1807 L
3480  342 mt 3480  362 L
DO
3480 1828 mt 3480  342 L
3480  342 mt 3480  342 L
SO
3582 1828 mt 3582 1807 L
3582  342 mt 3582  362 L
DO
3582 1828 mt 3582  342 L
3582  342 mt 3582  342 L
SO
3661 1828 mt 3661 1807 L
3661  342 mt 3661  362 L
DO
3661 1828 mt 3661  342 L
3661  342 mt 3661  342 L
SO
3725 1828 mt 3725 1807 L
3725  342 mt 3725  362 L
DO
3725 1828 mt 3725  342 L
3725  342 mt 3725  342 L
SO
3780 1828 mt 3780 1807 L
3780  342 mt 3780  362 L
DO
3780 1828 mt 3780  342 L
3780  342 mt 3780  342 L
SO
3827 1828 mt 3827 1807 L
3827  342 mt 3827  362 L
DO
3827 1828 mt 3827  342 L
3827  342 mt 3827  342 L
SO
3869 1828 mt 3869 1807 L
3869  342 mt 3869  362 L
DO
3869 1828 mt 3869  342 L
3869  342 mt 3869  342 L
SO
3907 1828 mt 3907 1807 L
3907  342 mt 3907  362 L
DO
3907 1828 mt 3907  342 L
3907  342 mt 3907  342 L
SO
3907 1828 mt 3907 1787 L
3907  342 mt 3907  382 L
4152 1828 mt 4152 1807 L
4152  342 mt 4152  362 L
DO
4152 1828 mt 4152  342 L
4152  342 mt 4152  342 L
SO
4296 1828 mt 4296 1807 L
4296  342 mt 4296  362 L
DO
4296 1828 mt 4296  342 L
4296  342 mt 4296  342 L
SO
4398 1828 mt 4398 1807 L
4398  342 mt 4398  362 L
DO
4398 1828 mt 4398  342 L
4398  342 mt 4398  342 L
SO
4477 1828 mt 4477 1807 L
4477  342 mt 4477  362 L
DO
4477 1828 mt 4477  342 L
4477  342 mt 4477  342 L
SO
4541 1828 mt 4541 1807 L
4541  342 mt 4541  362 L
DO
4541 1828 mt 4541  342 L
4541  342 mt 4541  342 L
SO
4596 1828 mt 4596 1807 L
4596  342 mt 4596  362 L
DO
4596 1828 mt 4596  342 L
4596  342 mt 4596  342 L
SO
4643 1828 mt 4643 1807 L
4643  342 mt 4643  362 L
DO
4643 1828 mt 4643  342 L
4643  342 mt 4643  342 L
SO
4685 1828 mt 4685 1807 L
4685  342 mt 4685  362 L
DO
4685 1828 mt 4685  342 L
4685  342 mt 4685  342 L
SO
4723 1828 mt 4723 1807 L
4723  342 mt 4723  362 L
DO
4723 1828 mt 4723  342 L
4723  342 mt 4723  342 L
SO
4723 1828 mt 4723 1787 L
4723  342 mt 4723  382 L
 643 1828 mt  683 1828 L
4723 1828 mt 4682 1828 L
 338 1872 mt 
(-140) s
 643 1530 mt  683 1530 L
4723 1530 mt 4682 1530 L
 338 1574 mt 
(-120) s
 643 1233 mt  683 1233 L
4723 1233 mt 4682 1233 L
 338 1277 mt 
(-100) s
 643  936 mt  683  936 L
4723  936 mt 4682  936 L
 405  980 mt 
(-80) s
 643  639 mt  683  639 L
4723  639 mt 4682  639 L
 405  683 mt 
(-60) s
 643  342 mt  683  342 L
4723  342 mt 4682  342 L
 405  386 mt 
(-40) s
 643 1828 mt 4723 1828 L
 643  342 mt 4723  342 L
 643 1828 mt  643  342 L
4723 1828 mt 4723  342 L
0 sg
 271 1510 mt  -90 rotate
(Magnitude \(dB\)) s
90 rotate
gs 643 342 4081 1487 rc
c8
7 5 93 67 93 68 92 67 93 68 93 67 93 67 93 66 
93 66 93 65 92 63 93 60 93 56 93 53 93 48 93 45 
92 41 93 39 93 39 93 39 93 40 93 41 93 40 92 37 
93 32 93 25 93 17 93 11 93 7 93 4 92 3 93 1 
93 1 93 1 93 0 93 0 92 0 93 0 93 0 93 1 
453 0 643 389 42 MP stroke
gr

c8

end %%Color Dict

eplot
%%EndObject

epage
end

showpage

%%Trailer
%%EOF
