%!PS-Adobe-3.0 EPSF-3.0
%%Creator: MATLAB, The MathWorks, Inc. Version 8.1.0.604 (R2013a). Operating System: Linux 4.9.0-040900-generic #201612111631 SMP Sun Dec 11 21:33:00 UTC 2016 x86_64.
%%Title: /home/lukas/Universidad/Master/2 Semester/Control Theory for Embedded Systems/lab/3lab/report_2/graphics/rpm.eps
%%CreationDate: 12/17/2016  16:54:03
%%DocumentNeededFonts: Helvetica
%%DocumentProcessColors: Cyan Magenta Yellow Black
%%LanguageLevel: 2
%%Pages: 1
%%BoundingBox:    81   227   529   564
%%EndComments

%%BeginProlog
% MathWorks dictionary
/MathWorks 160 dict begin
% definition operators
/bdef {bind def} bind def
/ldef {load def} bind def
/xdef {exch def} bdef
/xstore {exch store} bdef
% operator abbreviations
/c  /clip ldef
/cc /concat ldef
/cp /closepath ldef
/gr /grestore ldef
/gs /gsave ldef
/mt /moveto ldef
/np /newpath ldef
/cm /currentmatrix ldef
/sm /setmatrix ldef
/rm /rmoveto ldef
/rl /rlineto ldef
/s {show newpath} bdef
/sc {setcmykcolor} bdef
/sr /setrgbcolor ldef
/sg /setgray ldef
/w /setlinewidth ldef
/j /setlinejoin ldef
/cap /setlinecap ldef
/rc {rectclip} bdef
/rf {rectfill} bdef
% page state control
/pgsv () def
/bpage {/pgsv save def} bdef
/epage {pgsv restore} bdef
/bplot /gsave ldef
/eplot {stroke grestore} bdef
% orientation switch
/portraitMode 0 def /landscapeMode 1 def /rotateMode 2 def
% coordinate system mappings
/dpi2point 0 def
% font control
/FontSize 0 def
/FMS {/FontSize xstore findfont [FontSize 0 0 FontSize neg 0 0]
  makefont setfont} bdef
/reencode {exch dup where {pop load} {pop StandardEncoding} ifelse
  exch dup 3 1 roll findfont dup length dict begin
  { 1 index /FID ne {def}{pop pop} ifelse } forall
  /Encoding exch def currentdict end definefont pop} bdef
/isroman {findfont /CharStrings get /Agrave known} bdef
/FMSR {3 1 roll 1 index dup isroman {reencode} {pop pop} ifelse
  exch FMS} bdef
/csm {1 dpi2point div -1 dpi2point div scale neg translate
 dup landscapeMode eq {pop -90 rotate}
  {rotateMode eq {90 rotate} if} ifelse} bdef
% line types: solid, dotted, dashed, dotdash
/SO { [] 0 setdash } bdef
/DO { [.5 dpi2point mul 4 dpi2point mul] 0 setdash } bdef
/DA { [6 dpi2point mul] 0 setdash } bdef
/DD { [.5 dpi2point mul 4 dpi2point mul 6 dpi2point mul 4
  dpi2point mul] 0 setdash } bdef
% macros for lines and objects
/L {lineto stroke} bdef
/MP {3 1 roll moveto 1 sub {rlineto} repeat} bdef
/AP {{rlineto} repeat} bdef
/PDlw -1 def
/W {/PDlw currentlinewidth def setlinewidth} def
/PP {closepath eofill} bdef
/DP {closepath stroke} bdef
/MR {4 -2 roll moveto dup  0 exch rlineto exch 0 rlineto
  neg 0 exch rlineto closepath} bdef
/FR {MR stroke} bdef
/PR {MR fill} bdef
/L1i {{currentfile picstr readhexstring pop} image} bdef
/tMatrix matrix def
/MakeOval {newpath tMatrix currentmatrix pop translate scale
0 0 1 0 360 arc tMatrix setmatrix} bdef
/FO {MakeOval stroke} bdef
/PO {MakeOval fill} bdef
/PD {currentlinewidth 2 div 0 360 arc fill
   PDlw -1 eq not {PDlw w /PDlw -1 def} if} def
/FA {newpath tMatrix currentmatrix pop translate scale
  0 0 1 5 -2 roll arc tMatrix setmatrix stroke} bdef
/PA {newpath tMatrix currentmatrix pop	translate 0 0 moveto scale
  0 0 1 5 -2 roll arc closepath tMatrix setmatrix fill} bdef
/FAn {newpath tMatrix currentmatrix pop translate scale
  0 0 1 5 -2 roll arcn tMatrix setmatrix stroke} bdef
/PAn {newpath tMatrix currentmatrix pop translate 0 0 moveto scale
  0 0 1 5 -2 roll arcn closepath tMatrix setmatrix fill} bdef
/vradius 0 def /hradius 0 def /lry 0 def
/lrx 0 def /uly 0 def /ulx 0 def /rad 0 def
/MRR {/vradius xdef /hradius xdef /lry xdef /lrx xdef /uly xdef
  /ulx xdef newpath tMatrix currentmatrix pop ulx hradius add uly
  vradius add translate hradius vradius scale 0 0 1 180 270 arc 
  tMatrix setmatrix lrx hradius sub uly vradius add translate
  hradius vradius scale 0 0 1 270 360 arc tMatrix setmatrix
  lrx hradius sub lry vradius sub translate hradius vradius scale
  0 0 1 0 90 arc tMatrix setmatrix ulx hradius add lry vradius sub
  translate hradius vradius scale 0 0 1 90 180 arc tMatrix setmatrix
  closepath} bdef
/FRR {MRR stroke } bdef
/PRR {MRR fill } bdef
/MlrRR {/lry xdef /lrx xdef /uly xdef /ulx xdef /rad lry uly sub 2 div def
  newpath tMatrix currentmatrix pop ulx rad add uly rad add translate
  rad rad scale 0 0 1 90 270 arc tMatrix setmatrix lrx rad sub lry rad
  sub translate rad rad scale 0 0 1 270 90 arc tMatrix setmatrix
  closepath} bdef
/FlrRR {MlrRR stroke } bdef
/PlrRR {MlrRR fill } bdef
/MtbRR {/lry xdef /lrx xdef /uly xdef /ulx xdef /rad lrx ulx sub 2 div def
  newpath tMatrix currentmatrix pop ulx rad add uly rad add translate
  rad rad scale 0 0 1 180 360 arc tMatrix setmatrix lrx rad sub lry rad
  sub translate rad rad scale 0 0 1 0 180 arc tMatrix setmatrix
  closepath} bdef
/FtbRR {MtbRR stroke } bdef
/PtbRR {MtbRR fill } bdef
/stri 6 array def /dtri 6 array def
/smat 6 array def /dmat 6 array def
/tmat1 6 array def /tmat2 6 array def /dif 3 array def
/asub {/ind2 exch def /ind1 exch def dup dup
  ind1 get exch ind2 get sub exch } bdef
/tri_to_matrix {
  2 0 asub 3 1 asub 4 0 asub 5 1 asub
  dup 0 get exch 1 get 7 -1 roll astore } bdef
/compute_transform {
  dmat dtri tri_to_matrix tmat1 invertmatrix 
  smat stri tri_to_matrix tmat2 concatmatrix } bdef
/ds {stri astore pop} bdef
/dt {dtri astore pop} bdef
/db {2 copy /cols xdef /rows xdef mul dup 3 mul string
  currentfile 
  3 index 0 eq {/ASCIIHexDecode filter}
  {/ASCII85Decode filter 3 index 2 eq {/RunLengthDecode filter} if }
  ifelse exch readstring pop
  dup 0 3 index getinterval /rbmap xdef
  dup 2 index dup getinterval /gbmap xdef
  1 index dup 2 mul exch getinterval /bbmap xdef pop pop}bdef
/it {gs np dtri aload pop moveto lineto lineto cp c
  cols rows 8 compute_transform 
  rbmap gbmap bbmap true 3 colorimage gr}bdef
/il {newpath moveto lineto stroke}bdef
currentdict end def
%%EndProlog

%%BeginSetup
MathWorks begin

0 cap

end
%%EndSetup

%%Page: 1 1
%%BeginPageSetup
%%PageBoundingBox:    81   227   529   564
MathWorks begin
bpage
%%EndPageSetup

%%BeginObject: obj1
bplot

/dpi2point 12 def
portraitMode 0972 6768 csm

    0     0  5376  4033 rc
85 dict begin %Colortable dictionary
/c0 { 0.000000 0.000000 0.000000 sr} bdef
/c1 { 1.000000 1.000000 1.000000 sr} bdef
/c2 { 0.900000 0.000000 0.000000 sr} bdef
/c3 { 0.000000 0.820000 0.000000 sr} bdef
/c4 { 0.000000 0.000000 0.800000 sr} bdef
/c5 { 0.910000 0.820000 0.320000 sr} bdef
/c6 { 1.000000 0.260000 0.820000 sr} bdef
/c7 { 0.000000 0.820000 0.820000 sr} bdef
c0
1 j
1 sg
   0    0 5377 4034 rf
6 w
0 3287 4166 0 0 -3287 699 3589 4 MP
PP
-4166 0 0 3287 4166 0 0 -3287 699 3589 5 MP stroke
4 w
DO
0 sg
 699 3589 mt  699  302 L
 699  302 mt  699  302 L
2087 3589 mt 2087  302 L
2087  302 mt 2087  302 L
3476 3589 mt 3476  302 L
3476  302 mt 3476  302 L
4865 3589 mt 4865  302 L
4865  302 mt 4865  302 L
 699 3589 mt 4865 3589 L
4865 3589 mt 4865 3589 L
 699 3119 mt 4865 3119 L
4865 3119 mt 4865 3119 L
 699 2649 mt 4865 2649 L
4865 2649 mt 4865 2649 L
 699 2180 mt 4865 2180 L
4865 2180 mt 4865 2180 L
 699 1710 mt 4865 1710 L
4865 1710 mt 4865 1710 L
 699 1241 mt 4865 1241 L
4865 1241 mt 4865 1241 L
 699  771 mt 4865  771 L
4865  771 mt 4865  771 L
 699  302 mt 4865  302 L
4865  302 mt 4865  302 L
SO
6 w
 699 3589 mt 4865 3589 L
 699  302 mt 4865  302 L
 699 3589 mt  699  302 L
4865 3589 mt 4865  302 L
 699 3589 mt 4865 3589 L
 699 3589 mt  699  302 L
 699 3589 mt  699 3547 L
 699  302 mt  699  343 L
%%IncludeResource: font Helvetica
/Helvetica /ISOLatin1Encoding 120 FMSR

 666 3734 mt 
(0) s
2087 3589 mt 2087 3547 L
2087  302 mt 2087  343 L
2021 3734 mt 
(50) s
3476 3589 mt 3476 3547 L
3476  302 mt 3476  343 L
3376 3734 mt 
(100) s
4865 3589 mt 4865 3547 L
4865  302 mt 4865  343 L
4765 3734 mt 
(150) s
 699 3589 mt  740 3589 L
4865 3589 mt 4823 3589 L
 328 3633 mt 
(-3500) s
 699 3119 mt  740 3119 L
4865 3119 mt 4823 3119 L
 328 3163 mt 
(-3000) s
 699 2649 mt  740 2649 L
4865 2649 mt 4823 2649 L
 328 2693 mt 
(-2500) s
 699 2180 mt  740 2180 L
4865 2180 mt 4823 2180 L
 328 2224 mt 
(-2000) s
 699 1710 mt  740 1710 L
4865 1710 mt 4823 1710 L
 328 1754 mt 
(-1500) s
 699 1241 mt  740 1241 L
4865 1241 mt 4823 1241 L
 328 1285 mt 
(-1000) s
 699  771 mt  740  771 L
4865  771 mt 4823  771 L
 394  815 mt 
(-500) s
 699  302 mt  740  302 L
4865  302 mt 4823  302 L
 598  346 mt 
(0) s
 699 3589 mt 4865 3589 L
 699  302 mt 4865  302 L
 699 3589 mt  699  302 L
4865 3589 mt 4865  302 L
gs 699 302 4167 3288 rc
/c8 { 0.000000 0.000000 1.000000 sr} bdef
c8
1 -1 1 -1 1 -1 1 1 0 1 1 1 1 1 1 -1 
0 -2 1 -1 0 -2 1 -1 0 -3 1 -1 1 -1 1 0 
0 -3 1 -1 0 -2 2 0 0 2 1 1 1 1 1 -1 
1 -1 1 1 1 1 1 -1 0 -4 1 -2 0 -4 1 -1 
0 -2 1 1 0 2 1 2 0 2 1 1 1 0 0 -2 
1 -1 0 -3 1 -1 1 -1 0 1 2 2 1 -1 0 -2 
1 -1 0 -2 1 -1 0 -2 1 -1 0 -3 2 -2 0 -2 
1 -1 0 -3 1 -1 0 -3 1 -1 0 -5 1 -1 0 -4 
1 -2 0 -5 1 -1 0 -2 1 -1 1 1 0 2 1 1 
0 2 1 1 0 1 1 -1 0 -4 1 -1 0 -3 1 -2 
0 -2 1 1 0 1 1 1 0 4 1 1 0 2 1 1 
1 -1 0 -4 1 -1 0 -2 1 -1 0 -1 1 1 0 3 
1 2 0 3 1 1 0 3 1 1 0 -1 1 -1 0 -4 
1 -3 0 -7 1 -3 0 -5 1 -2 0 -4 1 -2 0 -1 
1 -1 0 -3 1 -1 0 -2 1 -1 0 -2 1 -1 0 -3 
1 -2 0 -2 1 -1 0 -4 1 -1 0 -1 2 -2 0 -3 
1 -1 0 -4 1 -2 0 -6 1 -3 0 -6 1 -3 0 -4 
1 -1 0 -5 1 -1 0 -3 1 -1 0 -4 1 -2 0 -7 
1 -3 0 -7 1 -3 0 -8 1 -3 0 -3 1 -2 0 -4 
1 -1 0 -4 1 -2 0 -4 1 -2 0 -6 1 -2 0 -4 
1 -3 0 -5 1 -2 0 -5 1 -1 0 -3 1 -1 0 -5 
1 -1 0 -3 1 -2 0 -4 1 -2 0 -4 1 -1 0 -3 
1 -1 0 -6 1 -3 0 -6 1 -3 0 -11 1 -5 0 -12 
1 -4 0 -8 1 -3 0 -10 1 -3 0 -5 1 -3 0 -8 
1 -3 0 -10 1 -4 0 -7 1 -3 0 -12 1 -4 0 -8 
1 -5 0 -17 1 -6 0 -18 1 -6 0 -11 1 -5 0 -13 
1 -4 0 -9 1 -4 0 -14 1 -5 0 -17 1 -6 0 -13 
1 -7 0 -20 1 -7 0 -15 1 -9 0 -27 1 -11 0 -32 
1 -11 0 -21 1 -9 0 -20 1 -4 0 -6 1 -2 0 -5 
1 -1 0 -2 1 -1 0 -1 1 -1 1 -1 1 0 1 0 
-1 0 2 2 1 1 1 0 1 0 -1 0 2 2 0 3 
1 1 1 1 -1 0 2 -3 0 -3 1 -2 0 -6 1 -2 
0 -4 1 -1 1 0 0 4 1 2 0 5 1 2 0 6 
1 1 0 1 1 1 0 -2 1 -2 0 -6 1 -3 0 -5 
1 -2 1 -4 -1 0 2 3 0 3 1 3 0 6 1 2 
0 3 1 1 0 1 1 1 1 0 0 -2 1 -1 0 -5 
1 -2 0 -4 1 -2 0 -3 1 -1 0 -1 0 1 1 1 
0 4 1 2 0 7 4698 2152 300 MP stroke
1 2 0 3 1 2 1 -1 0 -5 1 -2 0 -4 1 -1 
0 -5 1 -1 0 -2 1 -1 1 1 0 3 1 2 0 4 
1 2 0 5 1 2 0 1 1 1 0 -1 1 -1 0 -3 
1 -1 0 -2 1 -2 0 -4 1 -1 0 -1 1 -1 1 1 
0 3 1 1 0 3 1 1 0 4 1 1 1 1 0 -3 
1 -2 0 -7 1 -3 0 -4 1 -1 0 -1 1 1 0 3 
1 2 0 8 1 3 0 8 1 2 0 2 1 1 0 -4 
1 -2 0 -7 1 -4 0 -12 1 -3 0 -8 1 -1 0 1 
1 2 0 9 1 4 0 9 1 4 0 10 1 2 0 2 
1 1 0 -2 1 -2 0 -9 1 -3 0 -8 1 -4 0 -12 
1 -3 0 -4 1 -1 0 4 1 3 0 14 1 6 0 12 
1 5 0 11 1 2 0 1 0 -3 1 -2 0 -9 1 -5 
0 -17 1 -5 0 -9 1 -4 0 -4 1 -1 0 7 1 4 
0 8 1 5 0 12 1 4 0 5 1 2 0 1 1 1 
0 -3 1 -2 0 -5 1 -2 0 -9 1 -2 0 -5 1 -2 
0 -4 1 -1 0 1 1 2 0 3 1 3 0 9 1 2 
0 5 1 2 0 2 1 1 0 -5 1 -3 0 -7 1 -3 
0 -10 1 -2 0 -1 1 -1 0 4 1 2 0 9 1 3 
0 5 1 2 0 4 1 1 0 -1 1 -1 0 -6 1 -2 
0 -9 1 -2 0 -5 1 -1 0 -2 0 1 1 1 0 4 
1 2 0 9 1 3 0 7 1 1 1 1 0 -3 1 -2 
0 -5 1 -2 0 -9 1 -3 1 -5 -1 0 2 2 0 6 
1 2 0 6 1 3 0 8 1 1 0 3 1 -1 0 -2 
1 -2 0 -8 1 -3 0 -5 1 -3 0 -4 1 -1 0 2 
1 1 0 4 1 2 0 7 1 2 0 3 1 1 1 1 
0 -4 1 -3 0 -5 1 -3 0 -7 1 -2 1 0 0 6 
1 3 0 10 1 2 0 5 1 1 0 1 0 -1 1 -1 
0 -3 1 -2 0 -7 1 -2 0 -7 1 -1 0 -1 1 -1 
0 4 1 2 0 4 1 3 0 6 1 1 0 3 1 1 
1 -1 0 -6 1 -2 0 -5 1 -3 0 -6 1 -1 0 -1 
1 1 0 4 1 2 0 8 1 2 0 4 1 1 1 1 
0 -3 1 -2 0 -2 1 -2 0 -4 1 -1 0 -1 1 -1 
1 -1 -1 0 2 2 0 2 1 1 0 4 1 1 0 1 
1 1 1 1 -1 0 2 -2 1 -1 0 -3 1 -1 0 -1 
1 -1 0 -1 1 -1 1 0 -1 0 2 2 0 4 1 1 
0 3 1 1 0 1 1 1 0 -4 1 -1 0 -4 1 -2 
0 -5 1 -1 0 -1 1 -1 0 3 1 2 0 6 1 2 
0 4 1 2 1 3 4542 2146 300 MP stroke
-1 0 2 -2 0 -5 1 -2 0 -7 1 -2 0 -3 1 -1 
0 1 1 1 0 4 1 2 0 7 1 2 1 4 -1 0 
2 -2 0 -5 1 -1 0 -4 1 -1 0 -2 1 -1 0 2 
1 1 0 2 1 1 0 2 1 1 1 0 1 -1 0 -2 
1 -1 0 -2 1 -1 0 -1 1 -1 1 1 0 2 1 1 
0 4 1 1 0 2 1 1 1 0 0 -2 1 -1 0 -1 
1 -1 0 -2 1 -1 1 -1 1 1 0 1 1 1 0 1 
1 1 1 1 1 -1 1 -1 1 -1 1 1 -1 0 2 -2 
0 -2 1 -1 1 -2 -1 0 2 2 0 3 1 1 0 4 
1 1 1 1 0 -2 1 -1 0 -3 1 -2 0 -2 1 -1 
1 -1 -1 0 2 2 0 5 1 2 0 5 1 1 1 1 
0 -4 1 -1 0 -4 1 -2 0 -6 1 -1 0 -1 1 -1 
0 2 1 1 0 7 1 2 0 4 1 2 1 3 -1 0 
2 -2 0 -4 1 -2 0 -6 1 -2 0 -4 1 -2 0 -1 
1 -1 0 3 1 1 0 4 1 3 0 7 1 1 0 4 
1 1 1 1 0 -2 1 -2 0 -4 1 -2 0 -7 1 -2 
0 -4 1 -2 0 -2 1 1 0 5 1 3 0 7 1 3 
0 10 1 2 0 2 1 0 0 -5 1 -3 0 -12 1 -4 
0 -7 1 -3 0 -3 1 1 0 4 1 3 0 11 1 3 
0 9 1 1 0 1 1 -1 0 -7 1 -2 0 -6 1 -2 
0 -1 1 -1 0 7 1 3 0 6 1 3 0 2 1 1 
0 -2 1 -1 1 -2 -1 0 2 0 0 -3 1 -3 0 -8 
1 -3 0 -5 1 -2 0 -2 1 1 0 6 1 3 0 7 
1 3 0 8 1 2 0 1 1 1 0 -5 1 -2 0 -10 
1 -3 0 -6 1 -2 0 -2 1 -1 0 3 1 2 0 7 
1 3 0 5 1 1 1 1 0 -4 1 -1 0 -3 1 -2 
0 -3 1 -1 1 1 0 2 1 1 0 4 1 1 0 3 
1 1 0 1 1 1 1 -1 0 -2 1 -1 0 -4 1 -2 
0 -5 1 -3 0 -9 1 -2 0 -2 1 2 0 5 1 4 
0 15 1 5 0 8 1 4 0 5 1 -1 0 -8 1 -4 
0 -11 1 -5 0 -15 1 -4 0 -5 1 0 0 5 1 3 
0 16 1 5 0 12 1 5 0 12 1 1 0 -1 1 -2 
0 -14 1 -6 0 -20 1 -6 0 -10 1 -4 0 -3 1 2 
0 7 1 5 0 19 1 6 0 19 1 4 0 6 1 1 
0 -4 1 -4 0 -11 1 -7 0 -21 1 -7 0 -17 1 -3 
0 -3 1 1 0 11 1 6 0 17 1 9 0 28 1 8 
0 15 1 1 0 -6 1 -6 0 -29 1 -11 0 -22 1 -9 
0 -20 1 -2 0 -1 4382 2209 300 MP stroke
0 3 1 2 0 7 1 4 0 9 1 3 0 7 1 4 
0 19 1 8 0 26 1 8 0 12 1 3 0 2 0 -4 
1 -5 0 -12 1 -7 0 -14 1 -1 0 9 1 6 0 14 
1 6 0 9 1 1 0 -7 1 -6 0 -20 1 -5 0 -6 
1 2 0 7 1 6 0 15 1 4 0 4 1 0 0 -4 
1 -2 0 -1 1 1 0 4 1 2 0 4 1 -1 0 -2 
1 -2 0 -3 1 -1 0 5 1 2 0 3 1 2 1 0 
1 0 -1 0 2 2 0 -2 1 -2 0 -5 1 -2 0 -2 
0 1 1 1 0 5 1 3 0 5 1 1 1 0 1 0 
-1 0 2 0 0 -3 1 -1 0 -2 1 -1 0 3 1 1 
0 1 1 -1 0 -4 1 -2 0 -1 1 1 0 2 1 1 
0 1 0 -1 1 -1 0 -1 1 -1 0 2 1 2 0 2 
1 1 0 -4 1 -2 0 -2 1 -3 0 2 1 2 0 6 
1 2 1 1 1 1 0 4 1 2 0 3 1 1 0 2 
1 1 0 1 1 1 0 2 1 1 1 -1 1 0 -1 0 
2 -2 1 -1 1 1 0 1 1 1 0 1 1 1 0 4 
1 1 0 2 1 1 0 3 1 1 1 1 1 0 -1 0 
2 2 0 1 1 2 0 4 1 2 0 4 1 1 1 1 
1 -1 1 0 1 1 1 0 0 -1 2 -2 1 0 1 1 
0 2 1 1 1 1 1 1 0 -1 2 -2 0 -1 1 1 
0 1 1 1 0 4 1 1 0 3 1 1 0 1 1 1 
0 2 1 1 0 1 1 1 0 3 1 1 0 2 2 0 
0 -2 1 -2 0 -3 1 -2 0 -4 1 -1 0 -1 1 -1 
1 1 0 2 1 1 0 2 1 1 0 2 1 1 1 1 
1 -1 0 -3 1 -2 0 -2 1 -2 1 -1 1 1 0 1 
1 1 1 1 1 0 -1 0 2 -2 1 -1 1 -1 -1 0 
2 2 0 1 1 1 0 3 1 1 1 0 1 0 1 0 
0 2 1 1 0 3 1 1 1 1 1 -1 0 -1 1 -1 
1 0 1 1 0 1 1 1 1 0 1 -1 1 0 1 0 
-1 0 2 -2 0 -5 1 -1 0 -3 1 -1 1 1 1 1 
1 -1 1 -1 0 2 1 1 0 4 1 1 0 5 1 2 
0 1 1 1 0 -2 1 -2 0 -5 1 -2 0 -4 1 -1 
1 0 1 0 -1 0 2 2 0 2 1 1 0 3 1 2 
0 4 1 1 0 3 1 1 0 3 1 1 0 2 1 1 
0 2 1 1 0 4 1 1 0 2 1 2 0 4 1 1 
0 4 1 2 0 1 1 1 1 1 1 0 0 2 1 1 
0 6 1 2 0 5 1 2 0 6 1 3 0 3 1 2 
0 4 1 2 0 2 4207 1930 300 MP stroke
1 1 0 2 1 1 0 4 1 2 0 3 1 2 0 6 
1 1 0 1 1 1 1 0 1 0 1 -1 0 -2 1 -1 
0 -4 1 -2 0 -3 1 -2 0 -3 1 -1 1 0 0 3 
1 2 0 6 1 1 0 4 1 1 0 2 1 1 1 -1 
0 -3 1 -1 0 -2 1 -1 0 -1 1 -1 0 -2 1 -1 
1 -1 0 2 1 2 0 7 1 3 0 6 1 3 0 8 
1 2 0 4 1 1 0 5 1 2 0 5 1 1 0 2 
1 1 0 -1 1 -2 0 -4 1 -2 0 -6 1 -2 0 -4 
1 -1 1 0 -1 0 2 2 0 2 1 1 0 1 1 1 
0 2 1 1 0 2 1 1 0 5 1 2 0 5 1 1 
0 1 1 1 0 -4 1 -2 0 -6 1 -3 0 -8 1 -2 
0 -3 1 -1 1 -1 -1 0 2 2 1 0 0 -3 1 -1 
0 -4 1 -2 0 -3 1 -2 0 -3 1 -2 0 -2 1 -1 
0 -1 1 -1 1 0 1 0 1 1 1 1 0 3 1 1 
0 5 1 2 0 5 1 2 0 7 1 2 0 3 1 2 
0 3 1 1 0 3 1 1 0 3 1 1 1 -1 0 -5 
1 -3 0 -12 1 -4 0 -11 1 -2 0 -4 1 -1 1 -1 
1 -1 1 1 0 2 1 1 0 3 1 1 0 6 1 1 
0 4 1 1 0 5 1 1 0 4 1 1 0 1 1 1 
0 3 1 1 0 2 2 2 1 -1 1 -1 1 0 0 2 
1 2 0 6 1 2 0 5 1 1 0 1 1 1 0 1 
2 2 0 3 1 2 0 2 1 1 1 -1 0 -3 1 -2 
1 -1 -1 0 2 2 0 2 2 2 0 1 2 2 0 2 
1 1 0 2 1 1 1 1 1 0 1 0 1 0 0 2 
1 1 0 2 1 1 0 2 1 1 1 0 1 0 -1 0 
2 2 0 1 1 1 0 2 1 1 1 0 -1 0 2 -2 
1 -1 1 0 -1 0 2 0 1 1 0 1 1 1 0 4 
1 1 0 3 1 1 1 1 1 -1 0 -2 2 0 0 2 
1 1 0 1 1 1 1 0 1 -1 1 1 1 1 1 0 
1 -1 1 -1 1 0 1 1 1 1 1 0 0 3 1 1 
0 3 1 1 0 2 1 1 0 3 1 1 0 2 1 2 
0 5 1 3 0 7 1 2 0 3 1 1 0 3 1 1 
0 2 1 1 0 4 1 1 0 5 1 1 0 3 2 0 
1 0 1 0 1 0 0 -2 1 -1 0 -1 1 -1 1 1 
0 2 1 1 0 2 1 1 1 1 1 1 1 1 1 1 
0 1 2 2 1 1 1 -1 0 -2 1 -1 1 0 1 0 
1 -1 1 0 1 1 0 4 1 1 0 4 1 2 0 5 
1 1 1 1 0 -2 4020 1720 300 MP stroke
1 -1 0 -4 1 -1 1 -1 0 3 1 1 0 3 1 1 
1 1 0 -2 1 -1 0 -1 1 -1 0 2 1 1 0 4 
1 2 0 6 1 2 0 6 1 1 0 2 1 2 0 4 
1 2 0 3 1 2 0 5 1 1 0 2 1 1 1 0 
-1 0 2 0 1 -1 1 -1 0 2 1 1 0 2 1 2 
0 4 1 2 0 4 1 2 0 7 1 2 0 5 1 2 
1 1 1 -1 1 1 0 5 1 3 0 8 1 2 0 4 
1 1 0 4 1 1 0 3 1 1 0 6 1 3 0 7 
1 2 0 4 1 2 0 3 1 1 0 1 1 1 0 3 
1 1 0 4 1 1 0 3 1 1 0 3 1 1 0 2 
1 1 0 3 1 2 0 1 1 1 1 1 1 0 1 -1 
1 0 1 1 0 1 1 1 0 8 1 4 0 8 1 5 
0 12 1 3 0 3 1 1 1 -1 0 4 1 2 0 3 
1 2 0 2 1 1 1 1 1 1 0 3 1 1 0 3 
1 1 0 3 2 0 1 -1 1 0 0 2 1 1 0 7 
1 2 0 7 1 2 0 3 1 1 1 1 0 -2 1 -1 
0 -1 1 -1 0 3 1 2 0 5 1 2 0 7 1 2 
0 2 1 1 0 1 1 1 0 2 1 1 0 2 1 1 
0 6 1 3 0 5 1 3 0 7 1 1 0 3 1 -1 
0 -1 1 -1 1 -1 -1 0 2 3 0 7 1 3 0 8 
1 2 1 2 -1 0 2 -2 1 -2 -1 0 2 2 0 7 
1 2 0 5 1 3 0 7 1 1 0 3 1 1 1 1 
1 0 -1 0 2 2 0 5 1 2 0 4 1 2 0 7 
1 2 0 5 1 1 0 3 1 2 0 5 1 2 0 4 
1 3 0 6 1 2 0 6 1 2 0 4 1 1 0 3 
1 1 0 2 1 1 0 6 1 2 0 8 1 3 0 4 
1 1 0 -1 1 -2 0 -2 1 -1 0 -1 0 1 1 2 
0 11 1 4 0 11 1 5 0 12 1 3 0 1 1 1 
0 -3 1 -1 1 -1 0 3 1 2 0 8 1 3 0 5 
1 3 0 9 1 3 0 9 1 2 0 3 1 1 1 1 
1 0 1 1 0 3 1 1 1 1 0 -3 1 -1 0 -3 
1 -1 0 -1 1 -1 0 3 1 1 0 4 1 1 0 6 
1 2 0 3 1 1 0 1 1 1 0 -2 1 -1 0 -2 
1 -2 0 -4 1 -1 1 -2 -1 0 2 2 0 3 1 2 
1 1 0 -2 1 -2 0 -4 1 -2 0 -5 1 -1 1 -1 
-1 0 2 2 0 2 1 1 0 2 1 1 0 2 1 1 
0 1 1 1 1 1 0 1 0 -1 2 -2 0 -2 1 -1 
1 0 1 1 0 1 3852 1151 300 MP stroke
2 2 0 2 1 1 0 1 1 1 1 0 0 -2 1 -2 
0 -2 1 -1 0 -2 2 -2 0 -1 1 -1 0 -4 1 -2 
0 -3 1 -1 1 -1 -1 0 2 2 0 3 1 1 0 4 
1 2 0 4 1 2 0 5 1 2 0 1 1 -1 0 -3 
1 -1 0 -6 1 -2 0 -4 1 -1 0 -3 1 -1 1 0 
1 1 1 1 1 1 1 1 1 -1 0 -2 1 -1 0 -3 
1 -1 0 -1 1 -1 1 1 0 3 1 2 0 4 1 2 
0 9 1 2 0 5 1 1 0 -1 1 -2 0 -8 1 -3 
0 -6 1 -2 1 -3 -1 0 2 2 1 0 0 -2 1 -1 
0 -1 1 -1 0 -3 1 -1 0 -2 1 -1 0 -2 1 -1 
0 -2 1 -1 1 0 0 3 1 1 0 4 1 2 0 3 
1 2 0 3 1 1 0 2 1 2 0 3 1 2 0 4 
1 2 0 3 1 1 0 4 2 2 1 -1 1 -1 1 0 
-1 0 2 2 0 1 1 1 0 2 1 1 1 2 -1 0 
2 -2 0 -2 2 0 0 2 1 1 1 2 -1 0 2 -2 
0 -3 1 -1 0 -2 1 -1 0 -1 1 -1 0 -1 1 -1 
0 -1 1 -1 0 -2 1 -1 1 -1 1 0 -1 0 2 -2 
0 -2 1 -1 0 -1 1 -1 1 1 1 1 0 2 1 1 
0 3 1 2 0 5 1 2 0 1 1 -1 0 -5 1 -3 
0 -10 1 -3 0 -5 1 -2 0 -1 1 -1 1 0 0 2 
1 1 0 3 1 1 0 2 1 1 0 2 1 1 0 1 
1 1 1 0 0 -3 1 -2 0 -3 1 -2 0 -4 2 0 
0 2 1 1 0 4 1 1 0 2 1 1 0 2 1 1 
1 1 -1 0 2 -2 0 -4 1 -1 0 -3 1 -2 1 -1 
-1 0 2 2 0 2 1 1 0 2 1 1 0 1 1 1 
0 1 1 1 1 1 -1 0 2 -2 1 -1 1 1 0 3 
1 1 0 2 1 1 0 -1 1 -1 0 -4 1 -1 0 -4 
1 -1 0 -2 1 -1 0 -1 0 1 2 2 0 2 1 1 
1 1 -1 0 2 -2 0 -1 2 -2 1 -1 1 0 -1 0 
2 2 1 1 0 2 2 2 1 0 -1 0 2 -2 0 -1 
2 0 0 2 1 1 0 3 1 1 0 1 1 1 1 1 
1 1 -1 0 2 -2 0 -1 1 -1 0 -3 1 -1 1 0 
0 2 1 1 0 5 1 1 0 3 1 2 0 2 1 1 
1 1 1 -1 0 -1 2 -2 0 -1 1 -1 0 -2 1 -1 
0 -2 1 -1 0 -1 2 -2 0 -4 1 -2 0 -3 1 -2 
0 -3 1 -1 1 -1 1 1 0 3 1 1 0 1 1 1 
1 1 1 0 1 0 -1 0 2 -2 1 -1 0 -1 1 -1 
0 -1 1 -1 0 -1 3670 1169 300 MP stroke
1 -1 1 -1 1 1 0 2 1 1 0 1 1 1 0 1 
1 1 0 2 1 1 0 2 1 1 0 2 1 1 1 1 
-1 0 2 -2 0 -1 1 -1 0 -1 2 -2 0 -1 2 0 
1 1 1 1 1 0 1 0 1 1 0 2 1 1 0 1 
1 1 1 0 0 -3 1 -1 0 -1 1 -1 1 -1 1 1 
0 1 1 1 0 1 0 -1 2 -2 0 -4 1 -1 0 -3 
1 -1 1 -3 -1 0 2 2 0 4 1 2 0 5 1 1 
0 2 1 1 1 1 1 -1 1 1 0 1 2 2 0 1 
1 1 0 2 1 1 1 0 1 0 -1 0 2 2 0 1 
1 1 0 1 1 1 1 1 0 2 2 2 0 3 2 0 
0 -2 1 -3 0 -8 1 -3 0 -6 1 -2 0 -5 2 -2 
1 -1 1 -1 1 0 1 0 1 1 1 1 1 1 0 1 
1 1 0 1 1 1 1 1 1 -1 0 -1 1 -1 1 -1 
1 1 1 0 0 -1 2 -2 1 0 1 1 0 3 1 1 
0 2 1 1 0 3 1 1 1 1 1 0 0 -2 1 -1 
0 -3 1 -1 0 -3 1 -1 1 -1 1 1 1 0 -1 0 
2 -2 0 -2 1 -1 0 -1 1 -1 0 -1 1 -1 1 0 
1 0 1 0 -1 0 2 2 0 2 1 1 1 0 1 0 
0 -1 2 -2 0 -1 1 -1 0 -1 1 -1 1 0 1 1 
0 2 1 1 1 3 -1 0 2 -3 0 -4 1 -2 0 -8 
1 -2 0 -4 1 -1 0 -4 1 -1 0 -5 1 -2 0 -3 
1 -1 0 -2 1 -1 0 -2 1 -1 0 -5 1 -3 0 -7 
1 -2 0 -4 1 -2 0 -1 1 -1 1 0 0 3 1 1 
0 1 1 1 1 0 0 -3 1 -1 0 -2 2 0 0 3 
1 1 0 2 1 1 0 1 1 1 1 0 1 -1 1 1 
1 1 1 1 1 0 -1 0 2 -2 0 -1 2 -2 0 -2 
1 -1 0 -2 1 -1 1 -1 1 0 0 2 1 1 0 3 
1 1 0 2 1 1 1 1 -1 0 2 -2 0 -2 1 -1 
0 -1 1 -1 1 -1 1 1 0 2 1 1 0 2 1 1 
0 1 1 1 1 1 0 -2 1 -1 0 -3 1 -2 0 -2 
1 -1 0 -1 1 -1 1 0 1 1 0 1 1 1 0 2 
1 1 0 3 1 1 0 1 2 0 1 -1 1 0 1 -1 
1 -1 0 -2 1 -1 0 -3 1 -1 1 -1 1 0 -1 0 
2 2 0 1 2 2 1 1 0 2 1 1 0 1 1 1 
0 2 1 1 1 0 -1 0 2 -2 0 -5 1 -1 0 -3 
1 -2 0 -1 1 -1 0 3 1 1 0 4 1 2 0 2 
1 1 1 -1 1 -2 -1 0 2 2 0 1 1 1 0 1 
1 1 1 1 -1 0 3473 1220 300 MP stroke
2 -2 0 -3 1 -1 0 -3 1 -2 0 -5 1 -1 0 -3 
1 -1 1 -1 0 -1 0 1 1 1 0 2 1 1 0 4 
1 2 0 6 1 2 0 3 1 2 0 2 1 1 1 -1 
0 -2 1 -1 0 -4 1 -2 0 -4 1 -2 0 -6 1 -2 
0 -4 1 -1 1 -3 -1 0 2 2 0 3 1 1 0 5 
1 2 0 2 1 1 1 1 0 -2 1 -2 0 -4 1 -2 
0 -7 1 -3 0 -3 1 -1 0 -1 1 1 0 5 1 2 
0 4 1 2 1 3 -1 0 2 -3 0 -6 1 -2 0 -5 
1 -1 1 1 0 3 1 2 0 2 1 1 1 -1 0 -3 
1 -1 1 -1 -1 0 2 2 0 1 1 1 1 1 0 -4 
1 -1 0 -3 1 -1 0 -1 1 1 0 2 1 1 0 3 
1 1 0 -1 1 -1 0 -2 1 -2 1 -1 1 0 -1 0 
2 0 0 -2 2 -2 1 1 1 0 0 -2 1 -1 0 -3 
1 -1 1 -1 1 1 1 1 0 2 1 1 0 1 1 1 
1 0 0 -2 2 -2 1 0 1 -1 1 1 0 2 1 1 
1 0 0 -3 1 -2 0 -3 1 -1 0 -1 1 -1 1 0 
0 1 2 2 0 -1 2 -2 0 -2 1 -1 1 -1 1 -1 
1 -1 1 0 1 0 1 1 1 -1 0 -2 2 -2 1 0 
1 1 1 0 1 1 1 0 -1 0 2 -2 0 -3 1 -2 
0 -4 1 -2 1 -2 -1 0 2 2 0 3 1 1 0 1 
1 1 1 0 0 -3 1 -1 0 -1 1 -1 0 1 2 2 
0 3 2 2 1 0 1 1 1 1 1 -1 0 -2 1 -1 
0 -2 1 -1 1 -1 1 1 1 1 1 0 0 -2 1 -1 
0 -2 1 -1 0 -1 2 0 0 1 1 1 0 2 2 0 
0 -1 1 -1 0 -4 1 -2 0 -2 1 -1 1 0 1 1 
1 1 1 1 1 1 0 -1 2 -2 0 -1 1 -1 0 -2 
1 -1 0 -3 1 -1 0 -2 1 -1 0 -5 1 -1 0 -3 
1 -1 0 -1 1 -1 1 1 0 1 1 1 1 1 1 -1 
0 -3 1 -1 0 -4 1 -1 0 -2 1 -1 1 -2 -1 0 
2 2 0 3 1 1 0 3 1 1 1 -1 0 -3 1 -1 
0 -4 1 -3 0 -6 1 -1 0 -2 1 -1 1 1 1 0 
1 0 0 -2 1 -1 0 -2 1 -1 1 -1 1 1 1 1 
1 1 1 0 -1 0 2 -2 0 -1 1 -1 0 -1 1 -1 
0 -1 2 -2 0 -2 1 -1 0 -1 1 -1 0 -2 1 -1 
0 -2 1 -1 1 0 1 0 0 -2 2 -2 0 -1 2 -2 
0 -3 1 -1 0 -3 1 -1 1 -1 1 1 1 0 -1 0 
2 -2 0 -3 1 -2 0 -2 1 -1 1 -2 -1 0 2 2 
0 2 1 1 0 2 3276 1393 300 MP stroke
1 1 1 1 -1 0 2 -2 0 -4 1 -2 0 -3 1 -1 
0 -1 1 1 0 1 1 1 0 3 1 2 0 3 1 1 
1 1 -1 0 2 -2 0 -2 1 -2 0 -4 1 -1 0 -3 
1 -1 1 -1 1 1 0 1 1 1 0 3 1 1 0 4 
1 1 0 1 1 1 1 -1 0 -1 1 -1 0 -2 1 -1 
0 1 2 2 0 3 1 1 0 2 1 1 0 3 1 1 
0 2 1 1 0 2 1 1 0 3 1 1 0 3 1 1 
0 5 1 2 0 7 1 2 0 4 1 2 0 3 1 1 
1 1 1 1 0 5 1 3 0 5 1 4 0 10 1 3 
0 7 1 3 0 6 1 2 0 3 1 1 0 2 1 1 
0 2 1 1 1 1 1 1 1 -1 1 1 1 1 1 1 
1 0 -1 0 2 2 0 1 1 1 0 2 1 1 0 1 
1 1 0 2 1 1 0 3 1 1 0 2 1 1 1 0 
0 -2 1 -1 0 -1 1 -1 1 -1 1 0 0 -2 1 -1 
0 -2 1 -1 0 -3 1 -1 0 -4 1 -1 0 -2 2 -2 
1 -1 0 -2 1 -1 0 -3 1 -1 0 -3 1 -1 0 -4 
1 -1 0 -1 1 -1 0 -2 1 -1 0 -4 1 -2 0 -3 
1 -2 0 -6 1 -2 0 -4 1 -2 0 -6 1 -2 0 -8 
1 -3 0 -8 1 -4 0 -12 1 -4 0 -6 1 -3 0 -7 
1 -2 0 -3 1 -1 0 -3 1 -2 0 -6 1 -3 0 -7 
1 -3 0 -11 1 -4 0 -10 1 -2 0 -4 1 -1 0 -2 
1 -1 0 -2 1 -1 0 -6 1 -2 0 -5 1 -1 1 0 
0 2 1 1 0 2 1 1 0 1 1 -1 0 -4 1 -1 
0 -4 1 -1 0 -4 1 -1 0 -1 1 -1 0 -2 1 -1 
0 -3 1 -2 0 -2 1 -1 0 -3 1 -1 1 -1 0 -2 
1 -1 0 -3 1 -1 0 -4 1 -2 0 -9 1 -3 0 -6 
1 -3 0 -7 1 -1 0 -5 1 -1 0 -2 1 -1 0 -5 
1 -3 0 -6 1 -3 0 -13 1 -4 0 -13 1 -4 0 -8 
1 -3 0 -8 1 -2 0 -3 1 -1 0 -2 1 -1 1 -1 
1 0 -1 0 2 -2 0 -3 1 -1 0 -5 1 -1 0 -3 
1 -1 1 1 0 1 1 -1 0 -1 1 -2 0 -8 1 -3 
0 -9 1 -3 0 -4 1 -1 0 -4 1 -2 0 -3 1 -3 
0 -7 1 -3 0 -8 1 -2 0 -4 1 -2 0 -4 1 -1 
0 -4 1 -2 0 -7 1 -3 0 -8 1 -2 0 -5 1 -2 
0 -6 1 -2 0 -6 1 -2 0 -4 1 -1 0 -4 1 -2 
0 -2 1 -1 0 -5 1 -2 0 -6 1 -2 0 -5 1 -2 
0 -6 1 -2 0 -4 1 -1 0 -5 1 -2 0 -7 1 -2 
0 -6 1 -2 0 -8 3113 1856 300 MP stroke
1 -2 0 -3 1 -2 0 -5 1 -2 0 -7 1 -4 0 -7 
1 -4 0 -14 1 -4 0 -10 1 -6 0 -16 1 -5 0 -17 
1 -5 0 -10 1 -6 0 -19 1 -8 0 -16 1 -10 0 -30 
1 -10 0 -29 1 -8 0 -12 1 -4 0 -9 1 -2 0 -4 
1 -1 0 -3 1 -1 1 0 -1 0 2 2 0 1 1 1 
1 1 0 -1 1 -1 0 -2 1 -1 0 -2 1 -2 0 -4 
1 -1 0 -2 1 -1 0 -1 2 0 0 2 1 1 0 3 
1 1 0 4 1 1 0 5 1 1 0 1 1 -1 0 -3 
1 -1 0 -6 1 -2 0 -4 1 -1 0 -3 1 -1 1 1 
0 3 1 2 0 6 1 3 0 3 1 1 0 1 0 -1 
1 -1 0 -4 1 -1 0 -2 1 -1 1 -1 1 1 1 -1 
1 0 1 -1 1 0 0 1 2 2 1 1 1 0 1 0 
0 -1 2 -2 0 -3 1 -1 0 -1 1 -1 0 -1 1 1 
0 3 1 1 0 4 1 2 0 1 1 1 1 -1 0 -1 
2 -2 0 -2 2 -2 1 -1 0 1 2 2 0 1 1 1 
0 2 1 1 1 1 -1 0 2 -2 0 -2 1 -1 0 -2 
1 -1 1 -1 1 0 1 1 0 2 1 1 0 1 1 1 
1 0 -1 0 2 -2 0 -1 1 -1 1 0 1 1 0 2 
1 1 0 1 1 1 0 1 0 -1 1 -1 0 -2 1 -2 
0 -6 1 -1 0 -2 1 -1 0 2 1 1 0 7 1 2 
0 5 1 3 0 5 1 1 0 -2 1 -2 0 -5 1 -2 
0 -9 1 -3 0 -4 1 -1 0 -1 1 -1 0 4 1 2 
0 5 1 3 0 8 1 3 0 3 1 1 0 -1 1 -1 
0 -7 1 -2 0 -6 1 -2 0 -6 1 -1 1 0 0 4 
1 2 0 6 1 1 0 2 1 1 0 -1 1 -1 1 -1 
0 3 1 1 0 6 1 1 0 2 1 -1 0 -4 1 -3 
0 -4 1 -2 0 1 1 1 0 4 1 1 1 1 -1 0 
2 -2 0 -2 1 -2 0 -5 1 -1 0 -5 1 -1 0 -2 
1 -1 1 0 0 2 1 1 0 6 1 3 0 8 1 2 
0 3 1 2 1 -1 0 -3 1 -2 0 -8 1 -3 0 -6 
1 -2 0 -1 1 -1 0 2 1 2 0 3 1 2 0 7 
1 2 0 6 1 2 0 1 1 1 0 -4 1 -2 0 -5 
1 -3 0 -9 1 -3 0 -4 1 -1 1 2 0 7 1 3 
0 7 1 3 0 9 1 2 0 3 1 -1 0 -3 1 -2 
0 -11 1 -3 0 -8 1 -3 0 -7 1 -1 0 2 1 1 
0 6 1 3 0 11 1 4 0 5 1 2 0 2 0 -1 
1 -1 0 -7 1 -3 0 -7 1 -4 0 -8 1 -2 0 -2 
1 -1 0 5 1 3 2945 2168 300 MP stroke
0 12 1 4 0 8 1 3 0 3 1 -1 0 -3 1 -3 
0 -11 1 -3 0 -9 1 -1 0 -2 1 -1 0 3 1 2 
0 5 1 3 0 8 1 2 0 1 1 1 0 -3 1 -2 
0 -5 1 -2 0 -2 1 -1 0 -1 1 1 0 3 1 1 
0 3 1 1 0 1 1 1 1 -1 0 -3 1 -1 0 -3 
1 -1 0 -1 1 -1 1 0 0 2 1 1 0 4 1 1 
0 4 1 1 1 1 0 -2 1 -1 0 -3 1 -2 0 -4 
1 -1 1 -1 -1 0 2 2 0 2 1 1 0 1 1 1 
1 1 1 -1 1 -1 1 1 1 0 1 -1 0 -1 1 -1 
0 -1 1 -1 1 -1 1 1 0 2 1 1 0 2 1 1 
1 1 1 1 1 0 -1 0 2 -2 0 -4 1 -1 0 -1 
1 -1 1 -1 1 0 0 2 1 1 0 4 1 1 0 3 
2 0 0 -2 1 -1 0 -2 1 -1 1 1 1 1 1 -1 
0 -2 1 -1 0 -1 1 -1 1 1 0 2 1 1 0 1 
1 1 1 0 1 -1 1 -1 1 -1 1 -1 1 0 0 2 
1 1 0 2 1 1 0 1 1 1 1 1 -1 0 2 -2 
0 -3 1 -2 0 -4 1 -1 0 -1 1 -1 0 1 1 1 
0 1 1 2 0 3 1 2 0 3 1 1 1 2 -1 0 
2 -2 0 -2 1 -1 0 -6 1 -1 0 -5 1 -1 1 -1 
0 2 1 1 0 4 1 3 0 6 1 1 1 1 0 -2 
1 -1 0 -2 2 0 1 -1 0 -2 1 -1 0 -1 2 0 
1 0 -1 0 2 2 0 2 2 2 1 1 -1 0 2 -2 
0 -2 1 -1 0 -2 1 -1 0 -1 1 -1 1 -1 -1 0 
2 2 0 4 1 2 0 4 1 1 0 2 1 1 1 -1 
0 -3 1 -1 0 -7 1 -2 0 -6 1 -1 1 0 0 4 
1 3 0 4 1 3 0 6 1 1 0 1 1 1 0 -2 
1 -1 0 -6 1 -2 0 -5 1 -1 1 -3 -1 0 2 2 
0 2 1 2 0 3 1 1 0 2 1 1 0 1 1 1 
1 -1 0 -1 1 -1 0 -3 1 -2 0 -3 1 -1 0 -2 
1 -1 0 2 1 1 0 3 1 1 0 4 1 2 0 1 
1 1 1 1 0 -3 1 -1 0 -2 1 -1 0 -2 1 -1 
1 -1 1 0 -1 0 2 -2 1 -1 1 1 0 3 1 1 
0 5 1 1 0 3 1 1 1 1 1 -1 0 -2 1 -1 
0 -6 1 -2 0 -6 1 -1 1 -1 0 3 1 1 0 6 
1 1 0 4 1 1 1 2 -1 0 2 -2 0 -4 1 -1 
0 -4 1 -1 1 0 0 3 1 2 0 2 1 1 0 1 
1 -1 0 -3 1 -1 0 -1 0 1 1 -3 0 -2 1 1 
1 1 0 3 1 1 2767 2157 300 MP stroke
0 3 1 1 0 1 1 1 1 -1 0 -2 1 -2 0 -4 
1 -1 0 -3 1 -1 1 0 0 3 1 1 0 3 1 2 
0 5 1 1 1 2 -1 0 2 -2 0 -4 1 -2 0 -5 
1 -3 0 -8 1 -2 0 -3 1 1 0 5 1 4 0 13 
1 5 0 8 1 3 0 5 1 -1 0 -5 1 -2 0 -8 
1 -5 0 -15 1 -5 0 -8 1 -3 0 -1 1 2 0 12 
1 5 0 12 1 5 0 14 1 4 0 4 1 1 0 -4 
1 -3 0 -15 1 -6 0 -13 1 -5 0 -14 1 -2 0 -1 
1 2 0 10 1 5 0 18 1 6 0 11 1 5 0 8 
1 0 0 -3 1 -3 0 -14 1 -6 0 -17 1 -5 0 -9 
1 -3 0 -3 1 1 0 5 1 4 0 15 1 6 0 16 
1 4 0 7 1 2 0 1 0 -1 1 -2 0 -7 1 -5 
0 -18 1 -6 0 -14 1 -3 0 -3 1 1 0 6 1 4 
0 9 1 5 0 12 1 4 0 4 1 1 0 -1 1 -1 
0 -4 1 -2 0 -4 1 -2 0 -7 1 -2 0 -7 1 -1 
0 -2 1 0 0 4 1 3 0 8 1 4 0 11 1 3 
0 2 1 1 0 -4 1 -3 0 -12 1 -4 0 -7 1 -3 
0 -3 1 -1 0 4 1 2 0 6 1 2 0 7 1 2 
0 3 1 1 1 1 0 -2 1 -1 0 -2 1 -2 0 -6 
1 -2 0 -4 1 -2 0 -2 1 -1 0 2 1 2 0 4 
1 3 0 8 1 2 0 4 1 1 0 1 0 -1 1 -1 
0 -6 1 -2 0 -6 1 -3 0 -8 1 -2 0 -2 1 1 
0 5 1 3 0 10 1 3 0 4 1 2 0 1 1 -1 
0 -3 1 -1 0 -5 1 -1 0 -4 1 -1 0 -1 1 -1 
1 0 0 2 2 2 1 0 -1 0 2 2 0 3 1 1 
1 1 -1 0 2 -2 0 -2 1 -1 0 -1 1 -1 0 -2 
1 -1 1 -1 0 2 1 2 0 5 1 1 0 3 2 0 
0 -3 1 -1 0 -6 1 -1 0 -4 1 -1 1 1 0 5 
1 2 0 3 1 2 0 3 1 1 0 -3 1 -1 0 -4 
1 -2 0 -3 1 -1 1 0 0 2 1 1 0 2 1 1 
0 1 1 1 0 1 1 1 1 1 -1 0 2 -2 0 -3 
2 -2 1 0 1 -1 0 1 2 2 1 1 1 0 -1 0 
2 0 1 0 1 -1 0 -1 1 -1 0 -2 1 -1 1 0 
0 2 1 1 0 2 1 1 0 2 1 1 0 1 1 1 
1 -1 0 -4 1 -1 0 -4 1 -1 1 -1 1 1 1 1 
0 1 1 1 0 2 1 1 0 2 1 1 1 1 1 1 
1 0 0 -2 1 -1 0 -3 1 -2 0 -5 1 -1 0 -1 
1 -1 0 1 1 1 2602 2165 300 MP stroke
0 3 1 1 0 3 1 1 0 3 1 1 1 1 0 1 
2 0 0 -1 1 -1 0 -4 1 -1 0 -2 1 -1 0 -1 
1 -1 1 -1 1 0 -1 0 2 2 0 2 1 1 0 5 
1 1 0 5 1 2 1 1 0 -2 1 -2 0 -6 1 -2 
0 -8 1 -2 1 -3 -1 0 2 2 0 3 1 1 0 3 
1 2 0 6 1 2 0 4 2 0 0 -3 1 -2 0 -2 
1 -2 0 -5 1 -1 0 -3 1 -1 1 0 0 2 1 1 
0 3 1 1 0 4 1 1 0 5 1 1 0 1 1 1 
0 -2 1 -2 0 -3 1 -3 0 -6 1 -1 0 -4 2 0 
0 2 1 2 0 4 1 2 0 4 1 2 0 1 1 1 
1 1 0 -2 1 -1 0 -3 1 -2 0 -6 1 -2 0 -4 
2 0 0 4 1 1 0 4 1 1 0 5 1 1 0 2 
1 1 1 1 0 -1 1 -1 0 -2 1 -2 0 -5 1 -1 
0 -4 1 -1 1 -1 0 2 1 1 0 2 1 2 0 5 
1 2 0 5 1 1 1 1 0 -4 1 -2 0 -5 1 -2 
0 -7 1 -2 0 -5 1 -1 0 -1 1 1 0 7 1 3 
0 8 1 4 0 10 1 3 0 2 1 -1 0 -4 1 -3 
0 -13 1 -5 0 -10 1 -4 0 -9 1 0 0 6 1 5 
0 12 1 7 0 18 1 4 0 5 1 1 0 -6 1 -4 
0 -16 1 -7 0 -11 1 -6 0 -11 1 -1 0 1 1 2 
0 13 1 6 0 19 1 6 0 12 1 5 0 9 1 0 
0 -4 1 -4 0 -21 1 -9 0 -25 1 -6 0 -7 1 0 
0 14 1 8 0 17 1 8 0 21 1 5 0 4 0 -1 
1 -3 0 -9 1 -7 0 -25 1 -9 0 -15 1 -6 0 -9 
1 1 0 10 1 6 0 15 1 8 0 25 1 7 0 11 
1 3 0 1 0 -3 1 -5 0 -23 1 -10 0 -19 1 -9 
0 -20 1 -4 0 -2 1 2 0 17 1 8 0 29 1 10 
0 18 1 7 0 10 1 -1 0 -7 1 -6 0 -25 1 -10 
0 -28 1 -8 0 -13 1 -3 0 -3 0 1 1 3 0 11 
1 8 0 26 1 10 0 28 1 7 0 12 1 4 0 3 
0 -1 1 -2 0 -10 1 -7 0 -26 1 -10 0 -31 1 -10 
0 -16 1 -5 0 -6 0 1 1 2 0 11 1 6 0 18 
1 4 0 2 0 -2 1 -4 0 -11 1 -7 0 -16 1 -3 
0 -1 0 2 1 3 0 15 1 5 0 10 1 1 0 -3 
1 -4 0 -13 1 -4 0 -6 1 -2 0 -1 0 1 1 1 
0 3 1 1 0 -2 1 -2 0 -6 1 -1 1 1 0 2 
1 1 0 -3 1 -2 0 -1 1 -1 0 4 1 2 0 3 
1 1 0 -5 1 -3 2447 2224 300 MP stroke
0 -9 1 -2 0 -4 1 -1 0 -5 1 -2 0 -4 1 -2 
0 -1 1 -1 0 2 1 1 1 1 1 -1 0 -2 1 -2 
0 -3 1 -1 0 -4 1 -2 0 -3 1 -2 0 -3 1 -1 
1 -1 1 0 0 2 2 2 1 1 1 -1 0 -2 1 -1 
0 -6 1 -2 0 -4 1 -1 0 -1 1 -1 1 1 1 0 
1 0 1 0 1 1 1 -1 1 1 0 3 1 2 0 2 
1 2 0 1 1 1 1 -1 0 -2 1 -1 0 -2 1 -1 
1 0 -1 0 2 2 1 1 1 0 1 1 1 1 0 2 
1 1 1 1 1 0 1 -1 0 -2 2 -2 1 1 1 1 
1 0 1 -1 0 -2 1 -1 0 -2 1 -1 1 -1 -1 0 
2 2 0 1 1 1 0 2 1 1 1 0 0 -1 2 -2 
1 -1 1 1 1 0 1 -1 0 -1 1 -1 0 -1 1 -1 
0 -4 1 -2 0 -6 1 -2 0 -4 1 -2 0 -4 1 -1 
0 -3 1 -1 0 -3 1 -1 0 -3 1 -1 0 -2 2 -2 
1 0 0 -2 1 -1 0 -5 1 -2 0 -4 1 -2 0 -4 
1 -2 0 -1 1 -1 0 -2 1 -1 0 -3 1 -1 0 -2 
1 -1 0 -5 1 -1 0 -3 1 -2 0 -3 1 -1 0 -3 
1 -1 0 -1 1 -1 1 0 1 1 1 -1 0 -3 1 -2 
0 -3 1 -2 0 -6 1 -1 0 -3 1 -1 0 -2 1 -1 
0 -2 1 -1 0 -2 1 -1 0 -4 1 -2 0 -2 1 -1 
0 -4 1 -1 0 -2 1 -1 0 -1 1 -1 0 -3 1 -1 
0 -2 1 -1 0 -3 1 -1 0 -4 1 -1 0 -3 1 -1 
0 -2 1 -1 0 -2 1 -1 0 -4 1 -1 0 -4 1 -1 
0 -1 1 -1 0 -4 1 -2 0 -4 1 -3 0 -9 1 -3 
0 -9 1 -3 0 -7 1 -4 0 -13 1 -4 0 -10 1 -4 
0 -12 1 -2 0 -4 1 -1 1 0 -1 0 2 2 1 -1 
0 -6 1 -3 0 -10 1 -4 0 -6 1 -3 0 -6 1 -1 
0 -3 1 -1 0 -4 1 -2 0 -3 1 -2 0 -2 1 -1 
0 -5 1 -2 0 -4 1 -3 0 -7 1 -2 0 -8 1 -2 
0 -5 1 -2 0 -5 1 -1 0 -3 1 -2 0 -4 1 -1 
0 -2 1 -1 1 -1 0 -3 1 -1 0 -4 1 -2 0 -8 
1 -3 0 -6 1 -2 0 -4 1 -1 0 -6 1 -2 0 -4 
1 -3 0 -10 1 -3 0 -8 1 -2 0 -3 1 -1 0 -2 
1 -1 1 -1 1 -1 0 -1 1 -1 0 -3 1 -1 0 -5 
1 -1 0 -4 1 -2 0 -4 1 -1 1 1 0 1 1 1 
0 3 1 1 0 1 1 1 1 -1 0 -2 1 -1 0 -2 
1 -1 0 -5 1 -1 0 -4 1 -2 0 -5 1 -2 0 -2 
1 -1 1 1 1 1 2271 2806 300 MP stroke
0 -2 1 -1 0 -3 1 -1 0 -1 1 -1 1 -1 0 -1 
2 -2 1 0 1 -1 0 -2 2 -2 1 1 1 1 -1 0 
2 -2 0 -1 1 -1 0 -2 1 -1 0 -1 1 -1 0 -2 
1 -1 0 -2 2 -2 1 0 1 0 -1 0 2 -2 0 -1 
1 -1 0 -2 1 -1 0 -4 1 -1 0 -3 1 -2 0 -4 
1 -2 0 -3 1 -1 1 -1 0 -2 1 -1 0 -1 1 -1 
0 -1 1 -1 0 -2 1 -1 0 -2 1 -1 0 -5 1 -2 
0 -5 1 -2 0 -7 1 -1 0 -6 1 -2 0 -4 1 -2 
0 -5 1 -1 0 -3 1 -1 0 -7 1 -3 0 -11 1 -3 
0 -8 1 -3 0 -9 1 -2 0 -5 1 -2 0 -10 1 -5 
0 -16 1 -6 0 -11 1 -5 0 -14 1 -5 0 -6 1 -3 
0 -7 1 -2 0 -4 1 -1 1 -1 1 -1 1 1 1 1 
1 1 1 -1 0 -1 1 -1 0 -3 1 -2 0 -6 1 -1 
0 -5 1 -2 0 -1 1 -1 1 1 1 1 0 2 1 1 
0 2 1 1 0 1 1 1 0 1 1 1 0 1 2 2 
0 2 2 2 0 1 1 1 1 0 0 -2 1 -1 0 -6 
1 -2 0 -3 1 -2 0 -3 2 0 0 2 2 2 0 1 
2 2 0 1 1 1 0 2 2 2 1 1 0 3 1 1 
0 2 1 1 1 1 0 -3 1 -1 0 -4 1 -2 0 -6 
1 -1 0 -2 1 -1 1 1 0 3 1 1 0 1 1 1 
0 3 2 2 1 1 0 -2 1 -1 0 -2 1 -1 0 -3 
1 -1 0 -1 2 0 0 2 1 1 0 1 1 1 0 3 
1 1 0 3 2 2 0 -2 1 -2 0 -3 1 -2 0 -6 
1 -1 1 -2 -1 0 2 2 0 3 1 1 0 3 1 2 
0 4 1 2 0 1 1 1 0 1 0 -1 1 -1 0 -4 
1 -2 0 -3 1 -2 0 -5 1 -1 0 -1 1 -1 1 1 
0 1 1 1 0 2 1 2 0 4 1 2 0 3 1 2 
0 5 1 1 0 1 1 1 0 -3 1 -2 0 -8 1 -3 
0 -5 1 -2 0 -4 1 -1 1 1 0 2 1 2 0 7 
1 3 0 5 1 2 0 5 1 1 0 -3 1 -2 0 -5 
1 -3 0 -8 1 -2 0 -3 1 -1 1 -1 0 2 1 2 
0 3 1 2 0 7 1 2 0 5 1 2 0 3 1 1 
0 -4 1 -2 0 -5 1 -4 0 -10 1 -3 0 -4 1 -1 
0 -1 0 2 1 2 0 8 1 3 0 7 1 3 0 5 
1 1 0 -2 1 -2 0 -8 1 -2 0 -8 1 -2 0 -1 
1 -1 0 3 1 3 0 5 1 2 0 7 1 1 0 3 
1 -1 0 -2 1 -1 0 -6 1 -2 0 -3 1 -2 1 -3 
-1 0 2 2 0 4 2098 3087 300 MP stroke
1 2 0 6 1 2 0 3 1 1 0 -1 1 -2 0 -6 
1 -3 0 -6 1 -2 1 -4 -1 0 2 3 0 7 1 2 
0 8 1 2 0 1 1 1 1 -1 0 -5 1 -2 0 -4 
1 -3 0 -7 1 -1 0 -1 1 -1 0 4 1 2 0 8 
1 2 0 5 1 2 0 1 1 -1 0 -3 1 -2 0 -7 
1 -2 0 -5 1 -1 0 -1 1 1 0 5 1 3 0 5 
1 2 0 3 1 3 0 1 0 -2 1 -1 0 -3 1 -2 
0 -6 1 -1 0 -2 1 -1 1 0 0 4 1 1 0 3 
1 1 0 3 1 1 1 -1 0 -4 1 -2 0 -6 1 -2 
1 -1 0 2 1 2 0 4 1 2 0 6 1 1 1 2 
-1 0 2 -3 0 -5 1 -2 0 -4 1 -1 0 -3 1 -1 
0 3 1 1 0 5 1 2 0 6 1 1 1 -1 0 -5 
1 -2 0 -6 1 -2 1 -1 0 3 1 2 0 4 1 2 
0 3 1 1 0 -3 1 -1 0 -3 1 -2 0 -2 1 -1 
1 1 0 4 1 2 0 3 1 1 1 0 0 -4 1 -2 
0 -4 1 -2 0 -3 1 -1 0 2 1 2 0 4 1 2 
0 6 1 1 0 2 1 -1 0 -4 1 -2 0 -6 1 -1 
0 1 1 2 0 13 1 5 0 10 1 3 0 3 0 -1 
1 -3 0 -14 1 -4 0 -6 1 -2 0 -2 1 -1 1 0 
-1 0 2 2 0 2 1 1 1 1 0 -2 1 -1 0 -3 
1 -1 0 -3 1 -1 0 2 1 2 0 3 1 2 1 3 
-1 0 2 -3 0 -4 1 -2 1 -2 -1 0 2 2 0 4 
1 2 0 1 1 1 0 -2 1 -1 0 -4 1 -1 1 -1 
0 4 1 2 0 4 1 1 0 1 1 1 0 -5 1 -2 
0 -5 1 -3 0 -6 1 -1 0 -1 1 1 0 6 1 2 
0 9 1 3 0 4 1 2 0 2 1 1 0 -2 1 -2 
0 -9 1 -3 0 -10 1 -3 0 -3 1 -1 0 1 1 2 
0 3 1 2 0 6 1 2 0 6 1 2 0 3 1 1 
0 3 1 1 0 -1 1 -1 0 -6 1 -2 0 -8 1 -2 
0 -3 1 -2 1 -3 -1 0 2 2 0 5 1 2 0 8 
1 3 0 4 1 2 0 2 1 -1 0 -4 1 -2 0 -9 
1 -2 0 -6 1 -1 1 -1 0 3 1 2 0 4 1 2 
0 6 1 2 1 2 -1 0 2 -2 0 -6 1 -3 0 -4 
1 -2 0 -4 1 -1 0 -1 0 1 1 1 0 3 1 2 
0 7 1 3 0 4 1 2 1 3 -1 0 2 -2 0 -4 
1 -2 0 -10 1 -3 0 -6 1 -2 0 -3 1 1 0 8 
1 4 0 7 1 4 0 10 1 2 0 2 1 0 0 -5 
1 -3 0 -10 1 -4 1940 3088 300 MP stroke
0 -6 1 -3 0 -5 1 -1 1 -1 0 4 1 2 0 7 
1 4 0 7 1 4 0 11 1 3 0 5 1 1 0 -2 
1 -2 0 -11 1 -4 0 -10 1 -5 0 -15 1 -4 0 -6 
1 -2 0 -2 1 1 0 6 1 3 0 8 1 4 0 14 
1 5 0 10 1 5 0 12 1 3 0 2 1 -1 0 -5 
1 -3 0 -10 1 -4 0 -8 1 -4 0 -14 1 -4 0 -13 
1 -3 0 -5 1 -2 0 -1 1 1 0 3 1 2 0 10 
1 4 0 14 1 6 0 11 1 5 0 13 1 4 0 5 
1 1 0 1 0 -2 1 -1 0 -7 1 -3 0 -4 1 -2 
1 -3 -1 0 2 2 0 2 1 1 0 -1 1 -1 0 -2 
1 -2 0 -4 1 -1 0 -1 1 -1 0 2 1 1 0 8 
1 4 0 8 1 4 0 10 1 2 0 2 1 1 0 -3 
1 -2 0 -1 1 -3 1 -1 0 3 1 1 0 4 1 2 
0 6 1 2 1 1 0 -2 1 -1 0 -1 1 -1 0 2 
1 2 0 7 1 3 1 5 -1 0 2 -3 0 -7 1 -2 
0 -2 1 -1 0 2 1 1 0 5 1 2 0 2 1 1 
0 1 2 2 0 3 1 1 0 2 1 1 1 -1 0 -2 
1 -1 1 1 0 2 1 1 0 1 1 1 1 -1 1 -1 
1 1 1 1 1 0 -1 0 2 -2 0 -1 1 1 1 1 
0 1 1 1 1 0 1 0 -1 0 2 -2 0 -2 1 -1 
0 -7 1 -2 0 -6 1 -1 1 0 0 3 1 1 1 1 
0 1 0 -1 2 -2 1 1 0 4 1 2 0 2 1 1 
1 -1 1 -3 -1 0 2 3 0 5 1 2 0 3 1 1 
1 -1 0 -3 1 -1 1 0 1 1 1 -1 0 -2 1 -1 
1 1 0 2 1 1 0 1 1 1 1 0 1 1 0 1 
1 1 1 1 -1 0 2 0 1 1 0 4 1 1 1 1 
-1 0 2 -2 1 -2 -1 0 2 2 0 3 1 1 0 1 
1 1 1 1 0 3 1 1 0 2 1 1 0 1 1 1 
0 1 2 2 1 0 1 0 1 0 -1 0 2 -2 1 -1 
0 -2 2 -2 0 -1 2 -2 1 -1 -1 0 2 2 0 3 
1 2 0 5 1 1 1 1 1 -1 1 -1 1 -1 -1 0 
2 2 0 2 1 1 0 2 2 2 0 2 1 2 0 4 
1 1 0 1 1 1 0 1 2 2 0 1 1 1 0 4 
1 1 0 3 1 1 0 1 1 1 0 1 1 1 0 1 
2 2 0 2 1 1 0 1 2 2 1 1 0 2 2 2 
1 0 -1 0 2 -2 1 0 0 2 1 1 0 3 1 2 
0 3 1 2 0 4 1 1 0 3 1 1 1 1 1 0 
1 -1 1 1 0 2 1758 2894 300 MP stroke
1 1 0 4 1 2 0 3 1 1 1 0 0 -3 1 -2 
0 -2 1 -1 1 -3 -1 0 2 2 0 2 1 2 0 5 
1 1 0 2 1 1 0 3 1 1 0 3 1 2 0 4 
1 2 0 6 1 2 0 3 1 1 0 2 1 -1 0 -1 
1 -1 1 -1 0 -1 0 1 2 2 0 1 2 2 0 3 
1 1 0 4 1 1 1 1 0 -2 1 -1 0 -3 1 -1 
1 -1 1 0 1 1 1 0 0 2 1 2 0 3 1 2 
0 6 1 1 0 5 1 1 0 1 1 1 0 2 1 1 
0 2 1 1 0 1 1 1 0 2 2 2 0 4 1 1 
0 3 1 1 0 4 1 2 0 5 1 2 0 3 1 1 
0 5 1 1 0 3 1 1 0 4 1 2 0 4 1 2 
0 3 1 2 0 6 1 2 0 3 1 1 0 4 1 1 
0 3 1 1 0 2 1 1 0 4 1 1 0 4 1 2 
0 7 1 2 0 5 1 2 0 1 1 1 0 1 1 1 
0 2 1 1 0 4 1 2 0 5 1 2 0 3 1 2 
0 4 1 2 0 3 1 2 0 6 1 2 0 7 1 2 
0 4 1 1 0 5 1 2 0 5 1 2 0 10 1 3 
0 13 1 5 0 8 1 3 0 7 1 1 0 1 1 1 
0 3 1 2 0 8 1 4 0 9 1 6 0 18 1 6 
0 12 1 6 0 14 1 4 0 8 1 2 0 3 1 3 
0 9 1 5 0 10 1 5 0 15 1 5 0 14 1 5 
0 11 1 5 0 15 1 5 0 9 1 5 0 15 1 6 
0 22 1 9 0 22 1 12 0 37 1 12 0 19 1 8 
0 11 1 1 0 1 1 1 0 3 1 2 0 9 1 4 
0 7 1 3 0 7 1 1 0 -1 1 -2 0 -4 1 -3 
0 -8 1 -3 0 -4 1 -1 0 -1 1 1 0 5 1 2 
0 6 1 2 0 8 1 1 0 2 1 -1 0 -5 1 -4 
0 -10 1 -4 0 -5 1 -1 0 -1 0 1 1 1 0 5 
1 3 0 11 1 3 0 10 1 2 0 2 1 -1 0 -6 
1 -4 0 -8 1 -5 0 -14 1 -3 0 -6 1 1 0 4 
1 4 0 16 1 6 0 11 1 5 0 8 1 1 0 -5 
1 -4 0 -10 1 -5 0 -19 1 -7 0 -10 1 -4 0 -3 
0 2 1 2 0 17 1 8 0 16 1 8 0 17 1 2 
0 1 1 -3 0 -15 1 -8 0 -25 1 -7 0 -13 1 -3 
0 -3 0 2 1 4 0 12 1 7 0 24 1 7 0 16 
1 3 0 1 1 1 0 -8 1 -5 0 -11 1 -7 0 -22 
1 -6 0 -14 1 -2 0 -1 0 2 1 2 0 18 1 7 
0 17 1 8 0 20 1604 2124 300 MP stroke
1 4 0 4 0 -1 1 -3 0 -10 1 -7 0 -24 1 -9 
0 -17 1 -7 0 -12 1 -1 0 13 1 8 0 19 1 11 
0 29 1 7 0 8 1 1 0 -10 1 -8 0 -28 1 -10 
0 -20 1 -8 0 -15 1 0 0 6 1 7 0 29 1 11 
0 29 1 8 0 9 1 2 0 -7 1 -5 0 -16 1 -9 
0 -30 1 -10 0 -21 1 -3 0 -1 0 1 1 4 0 22 
1 10 0 22 1 11 0 26 1 6 0 5 1 -3 0 -12 
1 -8 0 -33 1 -12 0 -23 1 -9 0 -19 1 -1 0 8 
1 7 0 18 1 11 0 32 1 10 0 18 1 6 0 13 
1 3 0 4 1 2 0 5 1 3 0 11 1 3 0 6 
1 3 0 7 1 3 0 9 1 4 0 5 1 2 0 6 
1 2 0 3 1 1 0 4 1 2 0 4 1 2 0 3 
1 1 0 5 1 2 0 5 1 2 0 8 1 2 0 7 
1 2 0 5 1 3 0 8 1 3 0 5 1 3 0 6 
1 1 0 3 1 1 0 3 1 2 0 7 1 3 0 7 
1 3 0 11 1 3 0 10 1 3 0 5 1 1 0 3 
1 1 0 2 1 1 0 8 1 4 0 15 1 6 0 10 
1 4 0 5 1 0 1 -1 0 2 1 2 0 7 1 2 
0 6 1 3 0 10 1 4 0 6 1 4 0 11 1 3 
0 9 1 3 0 4 1 2 0 7 1 3 0 6 1 4 
0 13 1 5 0 15 1 5 0 10 1 4 0 11 1 2 
0 6 1 2 0 6 1 2 0 7 1 3 0 6 1 4 
0 11 1 4 0 7 1 2 0 8 1 3 0 9 1 4 
0 9 1 5 0 14 1 4 0 6 1 2 0 2 1 -1 
1 -1 -1 0 2 3 0 6 1 2 0 5 1 2 0 4 
1 1 0 3 1 1 0 3 1 2 0 9 1 4 0 8 
1 3 0 10 1 2 0 6 1 1 0 1 1 1 0 4 
1 2 0 5 1 3 0 11 1 4 0 11 1 3 0 5 
1 2 0 3 1 1 1 1 0 3 1 2 0 8 1 3 
0 8 1 4 0 10 1 3 0 5 1 2 0 5 1 1 
0 5 1 2 0 6 1 3 0 10 1 4 0 8 1 3 
0 10 1 3 0 7 1 2 0 2 1 1 0 3 1 1 
0 3 1 3 0 11 1 5 0 15 1 5 0 10 1 4 
0 10 1 3 0 4 1 2 0 4 1 2 0 5 1 1 
0 4 1 1 0 5 1 2 0 4 1 2 0 7 1 2 
0 6 1 1 0 3 1 1 1 1 1 0 0 2 1 1 
0 4 1 1 0 3 1 1 0 2 1 1 1 0 0 -2 
1 -1 0 -2 1 -1 1452 1138 300 MP stroke
0 -1 1 -1 0 -1 2 -2 0 -1 1 -1 1 1 0 2 
2 2 0 -1 2 -2 0 -2 1 -1 1 0 0 3 1 1 
0 2 1 1 0 3 2 2 0 1 2 2 1 0 0 -4 
1 -2 0 -5 1 -2 1 -2 -1 0 2 2 0 1 1 1 
0 1 1 1 1 0 1 0 1 0 1 0 -1 0 2 2 
0 1 1 1 1 1 0 2 1 1 1 0 1 0 0 -2 
1 -1 0 -2 1 -1 0 -4 1 -1 1 -1 1 1 0 1 
1 1 1 1 0 -2 1 -1 0 -2 1 -2 0 -5 1 -2 
0 -4 1 -1 0 -1 2 0 1 0 -1 0 2 -2 0 -2 
1 -2 0 -2 1 -1 0 -1 1 -1 1 -1 -1 0 2 2 
0 2 1 1 0 1 1 1 1 2 -1 0 2 -2 0 -4 
1 -1 0 -4 1 -1 0 -2 1 -1 0 -2 2 0 1 1 
1 1 1 0 -1 0 2 -2 1 -1 1 1 1 1 1 1 
1 1 0 3 1 2 0 2 1 1 0 2 1 1 1 0 
1 -1 0 1 2 2 1 1 1 -1 1 0 0 -2 1 -1 
0 -3 1 -1 0 -5 1 -2 1 -1 -1 0 2 2 0 4 
1 2 0 2 1 1 0 2 1 -1 0 -1 1 -1 0 -3 
1 -2 0 -3 1 -1 0 -1 1 -1 1 -1 1 1 1 1 
1 0 -1 0 2 2 0 3 1 1 0 3 1 2 0 4 
1 2 0 4 1 1 0 3 1 1 0 5 1 2 0 1 
1 1 1 1 0 -2 1 -2 0 -2 1 -1 0 -2 1 -1 
1 -1 1 0 1 1 0 1 2 2 1 1 1 -1 0 -2 
1 -1 1 0 1 -1 1 0 0 -3 1 -1 0 -4 1 -1 
0 -3 1 -1 1 -1 1 1 1 0 1 1 1 0 1 1 
0 1 2 2 0 2 1 1 0 2 1 1 0 2 1 1 
0 2 1 1 0 2 1 1 0 1 1 1 1 -1 0 -1 
1 -1 0 -2 1 -1 0 -3 1 -1 0 -1 1 -1 1 1 
1 1 1 1 1 -1 0 -3 1 -1 0 -3 1 -1 0 -4 
1 -1 0 -1 1 -1 0 -1 0 1 2 2 1 1 1 -1 
1 -1 1 -1 1 1 0 1 1 1 0 1 2 0 0 -1 
2 -2 0 -1 1 -1 0 -2 1 -1 1 -1 1 1 0 4 
1 1 0 1 1 1 1 1 1 -1 1 -1 0 -2 2 -2 
1 -1 1 0 0 2 1 1 0 4 1 1 0 2 1 1 
0 1 1 1 1 -1 1 0 -1 0 2 2 0 3 1 2 
0 4 1 1 1 1 0 -4 1 -2 0 -9 1 -2 0 -5 
1 -1 0 -2 1 0 1 0 1 -1 0 -1 1 -1 1 0 
-1 0 2 2 0 1 1 1 0 1 1 1 0 -1 1 -1 
1 -1 1 -1 1 1 1251 1173 300 MP stroke
1 0 1 -1 1 0 1 1 1 1 0 3 1 1 0 3 
1 1 1 1 1 1 1 0 -1 0 2 -2 0 -2 1 -1 
0 -1 1 -1 1 -1 0 1 2 2 0 2 1 1 0 2 
1 1 0 1 1 1 1 1 0 -2 1 -1 0 -2 2 0 
0 1 2 2 0 2 1 1 0 1 2 0 1 0 1 0 
1 0 1 0 1 0 -1 0 2 -2 0 -2 1 -1 0 -3 
1 -1 0 -2 1 -1 1 0 1 0 1 0 0 -2 1 -1 
0 -3 1 -1 0 -1 1 -1 0 -2 2 -2 0 -2 1 -1 
0 -3 1 -1 0 -2 2 -2 1 0 1 -1 1 0 1 -1 
1 1 0 1 2 2 1 0 1 0 1 0 1 0 1 0 
0 -1 2 -2 1 1 1 1 1 1 1 1 1 0 -1 0 
2 -2 1 -1 1 -1 0 -1 2 -2 1 0 1 0 1 -1 
1 1 1 1 1 1 1 1 0 1 1 1 0 2 1 1 
1 1 0 -1 2 -2 0 -2 1 -1 0 -2 2 -2 0 -1 
1 -1 1 -1 0 1 2 2 1 1 0 1 1 1 0 2 
1 1 0 1 1 1 1 -1 1 -1 0 -2 1 -1 1 -1 
1 0 -1 0 2 2 1 0 1 0 1 1 1 1 0 2 
2 2 0 2 1 1 1 1 0 2 1 1 0 3 1 1 
0 2 1 1 0 2 1 1 1 1 1 1 1 1 1 -1 
0 -1 1 -1 0 -2 1 -1 0 -1 1 -1 1 0 -1 0 
2 2 0 2 2 2 1 1 1 0 -1 0 2 -2 0 -2 
1 -1 0 -1 1 -1 1 -1 -1 0 2 2 0 1 1 1 
0 2 1 1 1 1 1 0 -1 0 2 -2 0 -1 1 -1 
0 -1 1 -1 1 -1 1 1 0 3 1 1 0 2 1 1 
0 3 1 1 1 1 1 1 1 -1 1 -1 1 -1 1 1 
1 1 0 2 2 2 1 0 1 -1 0 -2 1 -1 1 -1 
1 1 1 1 1 0 1 0 1 -1 1 -1 1 0 1 1 
0 2 1 1 0 3 1 2 0 2 1 1 1 1 1 -1 
0 -2 1 -1 0 -3 2 -2 0 -2 2 -2 0 -1 1 -1 
0 -2 1 -1 1 -1 0 -2 1 -1 0 -3 1 -1 0 -4 
1 -1 0 -5 1 -1 0 -3 1 -1 0 -5 1 -2 0 -5 
1 -3 0 -7 1 -2 1 -2 -1 0 2 2 1 0 0 -3 
1 -1 0 -6 1 -2 0 -2 1 -1 0 2 1 1 0 3 
1 1 1 -1 0 -3 1 -2 0 -6 1 -1 0 -1 1 -1 
0 2 1 2 0 4 1 2 0 4 1 1 1 -1 1 -1 
1 1 1 -1 0 -1 2 -2 1 -1 0 -1 1 -1 0 -2 
2 -2 0 -2 2 0 0 1 1 1 0 4 1 1 0 3 
1 1 0 2 1 1 1034 1223 300 MP stroke
0 1 2 0 0 -3 1 -1 0 -3 1 -1 0 -4 1 -1 
0 -1 1 -1 1 0 0 2 1 1 0 1 1 1 0 3 
1 1 0 1 1 1 1 0 1 -1 1 -1 0 -1 1 -1 
0 -1 1 -1 0 -1 1 -1 1 -1 1 0 0 2 1 1 
0 1 1 1 1 1 1 1 1 0 1 1 1 0 -1 0 
2 -2 0 -4 1 -1 0 -3 1 -1 0 -2 1 -1 1 1 
0 3 1 2 0 7 1 2 0 5 1 2 0 5 1 1 
1 -1 0 -4 1 -2 0 -8 1 -2 0 -6 1 -2 0 -6 
1 -1 1 -1 0 2 1 2 0 6 1 2 0 5 1 2 
0 7 1 2 0 2 1 1 1 1 0 -3 1 -1 0 -2 
1 -1 0 -2 1 -1 0 -1 1 -1 0 -3 1 -1 0 -5 
1 -2 0 -5 1 -3 0 -7 1 -1 0 -2 1 -1 0 2 
1 2 0 5 1 2 0 1 1 1 0 -2 1 -1 0 -4 
1 -1 0 -5 1 -1 0 -1 1 -1 1 -1 0 -2 1 -1 
1 0 -1 0 2 2 1 1 -1 0 2 -2 1 -2 -1 0 
2 2 0 1 1 1 1 -1 1 1 0 2 2 2 1 -1 
0 -2 1 -1 1 1 0 3 1 2 1 2 -1 0 2 -2 
0 -2 1 -1 1 0 0 3 1 1 0 1 1 1 0 -2 
1 -1 0 -3 1 -1 0 -1 1 1 0 1 1 1 1 0 
0 -3 1 -1 0 -3 1 -1 1 0 -1 0 2 2 1 0 
1 0 1 0 1 -1 0 -2 1 -1 0 -1 1 -1 1 0 
1 0 -1 0 2 -2 1 0 1 0 1 0 0 -2 2 -2 
0 -3 2 -2 1 0 1 1 1 0 1 0 0 -1 2 -2 
1 -1 1 0 1 1 1 1 1 1 1 -1 1 -1 1 -1 
1 -1 1 0 -1 0 2 -2 0 -3 1 -1 0 -4 1 -1 
0 -2 1 -1 0 -1 1 -1 1 0 1 -1 0 -2 1 -1 
0 -2 1 -1 0 -3 2 -2 0 -1 2 -2 1 -1 1 -1 
1 -1 0 -1 1 -1 0 -3 1 -1 0 -2 1 -1 0 -1 
1 1 0 1 1 1 0 1 1 1 0 3 1 1 0 2 
1 1 0 3 1 1 0 2 1 1 1 1 1 1 1 0 
0 -1 2 -2 0 -1 2 -2 1 0 1 1 1 0 1 0 
-1 0 2 -2 0 -1 1 -1 0 -1 1 -1 1 -1 1 1 
1 1 1 0 1 -1 1 -1 1 -1 1 1 0 2 1 1 
0 2 1 1 1 0 0 -3 1 -2 0 -6 1 -3 0 -3 
1 -1 1 -1 0 2 1 1 1 1 1 0 1 -1 0 -2 
1 -1 0 -2 1 -1 1 -1 0 1 2 2 0 1 1 1 
0 2 1 1 0 1 1 1 0 3 1 1 1 1 0 -2 
1 -2 0 -6 1 -2 836 1332 300 MP stroke
0 -4 1 -1 0 -2 1 -1 1 0 1 -1 0 -2 1 -1 
0 -2 1 -1 0 -3 1 -1 0 -2 1 -1 0 -2 1 -1 
0 -2 1 -1 0 -2 1 -1 0 -3 1 -1 1 -1 1 0 
1 1 1 0 1 -1 1 0 1 0 1 1 1 -1 0 -1 
1 -1 0 -3 1 -1 0 -6 1 -2 0 -5 1 -1 0 -1 
1 -1 0 -2 1 -1 0 -2 1 -1 0 -3 1 -1 0 -2 
2 -2 1 0 1 0 1 0 0 -1 2 -2 0 -1 1 -1 
1 -1 0 -1 1 -1 0 -2 2 -2 0 -1 1 -1 0 -2 
1 -1 0 -5 1 -2 0 -5 1 -2 0 -1 1 -1 1 1 
1 0 0 -2 1 -1 0 -2 1 -1 0 -1 1 -1 1 0 
1 0 0 -2 1 -1 0 -3 1 -2 0 -2 1 -1 0 -3 
1 -1 0 -2 1 -1 0 -1 1 -1 0 -1 2 -2 0 -3 
1 -1 0 -3 1 -2 0 -7 1 -2 0 -6 1 -1 0 -2 
1 -1 0 -3 1 -1 0 -2 1 -1 0 -1 1 -1 0 -2 
1 -1 0 -1 1 -1 0 -4 1 -1 0 -2 1 -1 0 -4 
1 -1 0 -2 1 -1 1 -1 1 -1 1 -1 0 -2 1 -1 
0 -5 1 -1 0 -4 1 -2 0 -5 1 -2 0 -2 1 -1 
0 -1 1 -1 0 -2 1 -1 0 -4 1 -2 0 -6 1 -1 
0 -3 1 -1 0 -1 1 -1 0 -4 1 -1 0 -4 1 -3 
0 -8 1 -2 0 -5 1 -3 0 -6 1 -2 0 -5 1 -2 
0 -3 1 -1 0 -3 1 -1 0 -3 1 -1 0 -4 1 -2 
0 -5 1 -2 0 -4 1 -3 0 -6 1 -2 0 -4 1 -2 
0 -6 1 -3 0 -9 1 -3 0 -6 1 -2 0 -4 1 -1 
0 -1 1 -1 0 -5 1 -2 0 -10 1 -3 0 -9 1 -4 
0 -12 1 -4 0 -7 1 -4 0 -11 1 -3 0 -11 1 -3 
0 -6 1 -3 0 -9 1 -4 0 -8 1 -5 0 -14 1 -5 
0 -15 1 -5 0 -8 1 -3 0 -10 1 -3 0 -7 1 -5 
0 -22 1 -10 0 -37 1 -13 0 -24 1 -10 0 -12 1 3 
0 16 1 11 0 27 1 1 0 -52 1 -38 0 -107 1 -63 
0 -174 1 -33 0 -8 0 22 1 56 0 384 1 191 0 649 
1 205 0 334 1 118 0 167 1 14 0 5 699 302 247 MP stroke
gr

c8
0 sg
 246 2051 mt  -90 rotate
(rpm) s
90 rotate
2558 3877 mt 
(seconds) s

end %%Color Dict

eplot
%%EndObject

epage
end

showpage

%%Trailer
%%EOF
