\relax 
\select@language{english}
\@writefile{toc}{\select@language{english}}
\@writefile{lof}{\select@language{english}}
\@writefile{lot}{\select@language{english}}
\@writefile{toc}{\contentsline {section}{\numberline {1}Introduction}{1}}
\newlabel{sec:wstep}{{1}{1}}
\@writefile{toc}{\contentsline {section}{\numberline {2}Preparation for classes}{1}}
\newlabel{sec:preparation}{{2}{1}}
\@writefile{toc}{\contentsline {section}{\numberline {3}Simulation exercise}{1}}
\newlabel{sec:zs}{{3}{1}}
\@writefile{toc}{\contentsline {subsection}{\numberline {3.1}Analysis of a control system using \textsf  {SISO Design Tool}}{1}}
\@writefile{lof}{\contentsline {figure}{\numberline {1}{\ignorespaces Analysis plots for the control system}}{2}}
\@writefile{lof}{\contentsline {subfigure}{\numberline{(a)}{\ignorespaces {loop gain amplitude graph}}}{2}}
\@writefile{lof}{\contentsline {subfigure}{\numberline{(b)}{\ignorespaces {output sensitivity function amplitude graph}}}{2}}
\@writefile{lof}{\contentsline {subfigure}{\numberline{(c)}{\ignorespaces {complementary noise sensitivity function amplitude graph}}}{2}}
\@writefile{lof}{\contentsline {subfigure}{\numberline{(d)}{\ignorespaces {input sensitivity function amplitude graph}}}{2}}
\@writefile{lof}{\contentsline {subfigure}{\numberline{(e)}{\ignorespaces {close-loop transfer function amplitude graph}}}{2}}
\newlabel{fig:wykresy}{{1}{2}}
\@writefile{toc}{\contentsline {subsection}{\numberline {3.2}Simulation study of a control system in Simulink}{3}}
\newlabel{sec:zs:simulink}{{3.2}{3}}
\@writefile{lof}{\contentsline {figure}{\numberline {2}{\ignorespaces The result of simulation of a system from the block diagram \texttt  {UkladRegulacji} for a given reference signal.}}{3}}
\newlabel{fig:s1}{{2}{3}}
\@writefile{toc}{\contentsline {subsection}{\numberline {3.3}RTW: simulation study of a control system with use of an external binary program.}{3}}
\newlabel{sec:zs:rtw-bin}{{3.3}{3}}
\@writefile{lof}{\contentsline {figure}{\numberline {3}{\ignorespaces The result of simulation of a system from the block diagram \texttt  {UkladRegulacji} with use of external binary executable code}}{3}}
\newlabel{fig:s2}{{3}{3}}
\@writefile{toc}{\contentsline {subsection}{\numberline {3.4}RTW: simulation study of the control system in the external mode}{4}}
\newlabel{sec:zs:rtw-ext}{{3.4}{4}}
\@writefile{lof}{\contentsline {figure}{\numberline {4}{\ignorespaces The result of simulation of a system from the block scheme \texttt  {UkladRegulacji} that were carried out with use of an external executable code in the external mode}}{4}}
\newlabel{fig:s3}{{4}{4}}
\@writefile{toc}{\contentsline {section}{\numberline {4}Experimental task}{5}}
\newlabel{sec:ze}{{4}{5}}
\@writefile{toc}{\contentsline {subsection}{\numberline {4.1}RTWT: recording of tests results of a control system consisting of a DC motor and an embedded controller with microcontroller ATmega32}{5}}
\newlabel{sec:ze:rtwt}{{4.1}{5}}
\@writefile{lof}{\contentsline {figure}{\numberline {5}{\ignorespaces The rotational velocity recorded in the course of experiments with the control system.}}{5}}
\newlabel{fig:s4}{{5}{5}}
