\relax 
\select@language{english}
\@writefile{toc}{\select@language{english}}
\@writefile{lof}{\select@language{english}}
\@writefile{lot}{\select@language{english}}
\@writefile{toc}{\contentsline {section}{\numberline {1}Introduction}{1}}
\newlabel{sec:wstep}{{1}{1}}
\@writefile{toc}{\contentsline {section}{\numberline {2}Preparation for laboratory classes}{1}}
\newlabel{sec:wnw-k}{{2}{1}}
\@writefile{toc}{\contentsline {section}{\numberline {3}Physical modeling of a pendulum on a cart in SimMechanics}{2}}
\newlabel{sec:mfsm}{{3}{2}}
\@writefile{toc}{\contentsline {section}{\numberline {4}Study of properties of a pendulum on a cart model}{2}}
\@writefile{lof}{\contentsline {figure}{\numberline {1}{\ignorespaces The courses of positions, velocities and accelerations in time for a cart and a pendulum for several different initial conditions.}}{3}}
\@writefile{lof}{\contentsline {subfigure}{\numberline{(a)}{\ignorespaces {$x(0)=0$, $\mathaccentV{dot}05F{x}(0)=0$, $\theta (0)=0$, $\mathaccentV{dot}05F{\theta }(0)=0$}}}{3}}
\@writefile{lof}{\contentsline {subfigure}{\numberline{(b)}{\ignorespaces {$x(0)=0$, $\mathaccentV{dot}05F{x}(0)=0$, $\theta (0)=120$, $\mathaccentV{dot}05F{\theta }(0)=0$}}}{3}}
\@writefile{lof}{\contentsline {subfigure}{\numberline{(c)}{\ignorespaces {$x(0)=0$, $\mathaccentV{dot}05F{x}(0)=0.5$, $\theta (0)=0$, $\mathaccentV{dot}05F{\theta }(0)=0$}}}{3}}
\newlabel{fig:sva}{{1}{3}}
\@writefile{lof}{\contentsline {figure}{\numberline {2}{\ignorespaces A diagram for comparative analysis of models}}{4}}
\newlabel{fig:por}{{2}{4}}
\@writefile{toc}{\contentsline {section}{\numberline {5}Control of a pendulum on a cart in a closed-loop system}{4}}
\newlabel{sec:swzps}{{5}{4}}
\@writefile{lof}{\contentsline {figure}{\numberline {3}{\ignorespaces A diagram of \textit  {System decyzyjny}. [K = 244.3028, 100.3198, 62.2308, 66.8799]}}{4}}
\newlabel{fig:systdecyz}{{3}{4}}
\@writefile{lof}{\contentsline {figure}{\numberline {4}{\ignorespaces Positions and velocities in the joints of the pendulum and the cart during the process of standing up and stabilisation of the pendulum in the unstable equilibrium point. [$x(0)=0$, $\mathaccentV {dot}05F{x}(0)=0$, $\theta (0)=0$, $\mathaccentV {dot}05F{\theta }(0)=2$]}}{5}}
\newlabel{fig:xvs2}{{4}{5}}
