%!PS-Adobe-3.0 EPSF-3.0
%%Creator: MATLAB, The MathWorks, Inc. Version 8.1.0.604 (R2013a). Operating System: Linux 4.9.0-040900-generic #201612111631 SMP Sun Dec 11 21:33:00 UTC 2016 x86_64.
%%Title: /home/lukas/Universidad/Master/2 Semester/Control Theory for Embedded Systems/lab/5lab/trunk/graphics/ack_force_exp.eps
%%CreationDate: 12/23/2016  12:10:25
%%DocumentNeededFonts: Helvetica
%%DocumentProcessColors: Cyan Magenta Yellow Black
%%LanguageLevel: 2
%%Pages: 1
%%BoundingBox:   100   241   509   549
%%EndComments

%%BeginProlog
% MathWorks dictionary
/MathWorks 160 dict begin
% definition operators
/bdef {bind def} bind def
/ldef {load def} bind def
/xdef {exch def} bdef
/xstore {exch store} bdef
% operator abbreviations
/c  /clip ldef
/cc /concat ldef
/cp /closepath ldef
/gr /grestore ldef
/gs /gsave ldef
/mt /moveto ldef
/np /newpath ldef
/cm /currentmatrix ldef
/sm /setmatrix ldef
/rm /rmoveto ldef
/rl /rlineto ldef
/s {show newpath} bdef
/sc {setcmykcolor} bdef
/sr /setrgbcolor ldef
/sg /setgray ldef
/w /setlinewidth ldef
/j /setlinejoin ldef
/cap /setlinecap ldef
/rc {rectclip} bdef
/rf {rectfill} bdef
% page state control
/pgsv () def
/bpage {/pgsv save def} bdef
/epage {pgsv restore} bdef
/bplot /gsave ldef
/eplot {stroke grestore} bdef
% orientation switch
/portraitMode 0 def /landscapeMode 1 def /rotateMode 2 def
% coordinate system mappings
/dpi2point 0 def
% font control
/FontSize 0 def
/FMS {/FontSize xstore findfont [FontSize 0 0 FontSize neg 0 0]
  makefont setfont} bdef
/reencode {exch dup where {pop load} {pop StandardEncoding} ifelse
  exch dup 3 1 roll findfont dup length dict begin
  { 1 index /FID ne {def}{pop pop} ifelse } forall
  /Encoding exch def currentdict end definefont pop} bdef
/isroman {findfont /CharStrings get /Agrave known} bdef
/FMSR {3 1 roll 1 index dup isroman {reencode} {pop pop} ifelse
  exch FMS} bdef
/csm {1 dpi2point div -1 dpi2point div scale neg translate
 dup landscapeMode eq {pop -90 rotate}
  {rotateMode eq {90 rotate} if} ifelse} bdef
% line types: solid, dotted, dashed, dotdash
/SO { [] 0 setdash } bdef
/DO { [.5 dpi2point mul 4 dpi2point mul] 0 setdash } bdef
/DA { [6 dpi2point mul] 0 setdash } bdef
/DD { [.5 dpi2point mul 4 dpi2point mul 6 dpi2point mul 4
  dpi2point mul] 0 setdash } bdef
% macros for lines and objects
/L {lineto stroke} bdef
/MP {3 1 roll moveto 1 sub {rlineto} repeat} bdef
/AP {{rlineto} repeat} bdef
/PDlw -1 def
/W {/PDlw currentlinewidth def setlinewidth} def
/PP {closepath eofill} bdef
/DP {closepath stroke} bdef
/MR {4 -2 roll moveto dup  0 exch rlineto exch 0 rlineto
  neg 0 exch rlineto closepath} bdef
/FR {MR stroke} bdef
/PR {MR fill} bdef
/L1i {{currentfile picstr readhexstring pop} image} bdef
/tMatrix matrix def
/MakeOval {newpath tMatrix currentmatrix pop translate scale
0 0 1 0 360 arc tMatrix setmatrix} bdef
/FO {MakeOval stroke} bdef
/PO {MakeOval fill} bdef
/PD {currentlinewidth 2 div 0 360 arc fill
   PDlw -1 eq not {PDlw w /PDlw -1 def} if} def
/FA {newpath tMatrix currentmatrix pop translate scale
  0 0 1 5 -2 roll arc tMatrix setmatrix stroke} bdef
/PA {newpath tMatrix currentmatrix pop	translate 0 0 moveto scale
  0 0 1 5 -2 roll arc closepath tMatrix setmatrix fill} bdef
/FAn {newpath tMatrix currentmatrix pop translate scale
  0 0 1 5 -2 roll arcn tMatrix setmatrix stroke} bdef
/PAn {newpath tMatrix currentmatrix pop translate 0 0 moveto scale
  0 0 1 5 -2 roll arcn closepath tMatrix setmatrix fill} bdef
/vradius 0 def /hradius 0 def /lry 0 def
/lrx 0 def /uly 0 def /ulx 0 def /rad 0 def
/MRR {/vradius xdef /hradius xdef /lry xdef /lrx xdef /uly xdef
  /ulx xdef newpath tMatrix currentmatrix pop ulx hradius add uly
  vradius add translate hradius vradius scale 0 0 1 180 270 arc 
  tMatrix setmatrix lrx hradius sub uly vradius add translate
  hradius vradius scale 0 0 1 270 360 arc tMatrix setmatrix
  lrx hradius sub lry vradius sub translate hradius vradius scale
  0 0 1 0 90 arc tMatrix setmatrix ulx hradius add lry vradius sub
  translate hradius vradius scale 0 0 1 90 180 arc tMatrix setmatrix
  closepath} bdef
/FRR {MRR stroke } bdef
/PRR {MRR fill } bdef
/MlrRR {/lry xdef /lrx xdef /uly xdef /ulx xdef /rad lry uly sub 2 div def
  newpath tMatrix currentmatrix pop ulx rad add uly rad add translate
  rad rad scale 0 0 1 90 270 arc tMatrix setmatrix lrx rad sub lry rad
  sub translate rad rad scale 0 0 1 270 90 arc tMatrix setmatrix
  closepath} bdef
/FlrRR {MlrRR stroke } bdef
/PlrRR {MlrRR fill } bdef
/MtbRR {/lry xdef /lrx xdef /uly xdef /ulx xdef /rad lrx ulx sub 2 div def
  newpath tMatrix currentmatrix pop ulx rad add uly rad add translate
  rad rad scale 0 0 1 180 360 arc tMatrix setmatrix lrx rad sub lry rad
  sub translate rad rad scale 0 0 1 0 180 arc tMatrix setmatrix
  closepath} bdef
/FtbRR {MtbRR stroke } bdef
/PtbRR {MtbRR fill } bdef
/stri 6 array def /dtri 6 array def
/smat 6 array def /dmat 6 array def
/tmat1 6 array def /tmat2 6 array def /dif 3 array def
/asub {/ind2 exch def /ind1 exch def dup dup
  ind1 get exch ind2 get sub exch } bdef
/tri_to_matrix {
  2 0 asub 3 1 asub 4 0 asub 5 1 asub
  dup 0 get exch 1 get 7 -1 roll astore } bdef
/compute_transform {
  dmat dtri tri_to_matrix tmat1 invertmatrix 
  smat stri tri_to_matrix tmat2 concatmatrix } bdef
/ds {stri astore pop} bdef
/dt {dtri astore pop} bdef
/db {2 copy /cols xdef /rows xdef mul dup 3 mul string
  currentfile 
  3 index 0 eq {/ASCIIHexDecode filter}
  {/ASCII85Decode filter 3 index 2 eq {/RunLengthDecode filter} if }
  ifelse exch readstring pop
  dup 0 3 index getinterval /rbmap xdef
  dup 2 index dup getinterval /gbmap xdef
  1 index dup 2 mul exch getinterval /bbmap xdef pop pop}bdef
/it {gs np dtri aload pop moveto lineto lineto cp c
  cols rows 8 compute_transform 
  rbmap gbmap bbmap true 3 colorimage gr}bdef
/il {newpath moveto lineto stroke}bdef
currentdict end def
%%EndProlog

%%BeginSetup
MathWorks begin

0 cap

end
%%EndSetup

%%Page: 1 1
%%BeginPageSetup
%%PageBoundingBox:   100   241   509   549
MathWorks begin
bpage
%%EndPageSetup

%%BeginObject: obj1
bplot

/dpi2point 12 def
portraitMode 1200 6588 csm

    0     0  4915  3687 rc
85 dict begin %Colortable dictionary
/c0 { 0.000000 0.000000 0.000000 sr} bdef
/c1 { 1.000000 1.000000 1.000000 sr} bdef
/c2 { 0.900000 0.000000 0.000000 sr} bdef
/c3 { 0.000000 0.820000 0.000000 sr} bdef
/c4 { 0.000000 0.000000 0.800000 sr} bdef
/c5 { 0.910000 0.820000 0.320000 sr} bdef
/c6 { 1.000000 0.260000 0.820000 sr} bdef
/c7 { 0.000000 0.820000 0.820000 sr} bdef
c0
1 j
1 sg
   0    0 4916 3688 rf
6 w
0 3004 3809 0 0 -3004 639 3281 4 MP
PP
-3809 0 0 3004 3809 0 0 -3004 639 3281 5 MP stroke
4 w
DO
0 sg
 639 3281 mt  639  277 L
 639  277 mt  639  277 L
1908 3281 mt 1908  277 L
1908  277 mt 1908  277 L
3178 3281 mt 3178  277 L
3178  277 mt 3178  277 L
4448 3281 mt 4448  277 L
4448  277 mt 4448  277 L
 639 3066 mt 4448 3066 L
4448 3066 mt 4448 3066 L
 639 2637 mt 4448 2637 L
4448 2637 mt 4448 2637 L
 639 2208 mt 4448 2208 L
4448 2208 mt 4448 2208 L
 639 1779 mt 4448 1779 L
4448 1779 mt 4448 1779 L
 639 1349 mt 4448 1349 L
4448 1349 mt 4448 1349 L
 639  920 mt 4448  920 L
4448  920 mt 4448  920 L
 639  491 mt 4448  491 L
4448  491 mt 4448  491 L
SO
6 w
 639 3281 mt 4448 3281 L
 639  277 mt 4448  277 L
 639 3281 mt  639  277 L
4448 3281 mt 4448  277 L
 639 3281 mt 4448 3281 L
 639 3281 mt  639  277 L
 639 3281 mt  639 3242 L
 639  277 mt  639  315 L
%%IncludeResource: font Helvetica
/Helvetica /ISOLatin1Encoding 120 FMSR

 606 3426 mt 
(0) s
1908 3281 mt 1908 3242 L
1908  277 mt 1908  315 L
1842 3426 mt 
(50) s
3178 3281 mt 3178 3242 L
3178  277 mt 3178  315 L
3078 3426 mt 
(100) s
4448 3281 mt 4448 3242 L
4448  277 mt 4448  315 L
4348 3426 mt 
(150) s
 639 3066 mt  677 3066 L
4448 3066 mt 4409 3066 L
 401 3110 mt 
(-30) s
 639 2637 mt  677 2637 L
4448 2637 mt 4409 2637 L
 401 2681 mt 
(-20) s
 639 2208 mt  677 2208 L
4448 2208 mt 4409 2208 L
 401 2252 mt 
(-10) s
 639 1779 mt  677 1779 L
4448 1779 mt 4409 1779 L
 538 1823 mt 
(0) s
 639 1349 mt  677 1349 L
4448 1349 mt 4409 1349 L
 471 1393 mt 
(10) s
 639  920 mt  677  920 L
4448  920 mt 4409  920 L
 471  964 mt 
(20) s
 639  491 mt  677  491 L
4448  491 mt 4409  491 L
 471  535 mt 
(30) s
 639 3281 mt 4448 3281 L
 639  277 mt 4448  277 L
 639 3281 mt  639  277 L
4448 3281 mt 4448  277 L
gs 639 277 3810 3005 rc
/c8 { 0.000000 0.000000 1.000000 sr} bdef
c8
1 1503 1 0 1 0 1 0 1 0 1 0 1 0 1 0 
1 0 1 0 1 0 1 0 1 0 1 0 1 0 1 0 
1 0 1 0 1 0 1 0 1 0 1 0 1 0 1 0 
1 0 1 0 1 0 1 0 1 0 1 0 1 0 1 0 
1 0 1 0 1 0 1 0 1 0 1 0 1 0 1 0 
1 0 1 0 1 0 1 0 1 0 1 0 1 0 1 0 
1 0 1 0 1 0 1 0 1 0 1 0 1 0 1 0 
1 0 1 0 1 0 1 0 1 0 1 0 1 0 1 0 
1 0 1 0 1 0 1 0 1 0 1 0 1 0 1 0 
1 0 1 0 1 0 1 0 1 0 1 0 1 0 1 0 
1 0 1 0 1 0 1 0 1 0 1 0 1 0 1 0 
1 0 1 0 1 0 1 0 1 0 1 0 1 0 1 0 
1 0 1 0 1 0 1 0 1 0 1 0 1 0 1 0 
1 0 1 0 1 0 1 0 1 0 1 0 1 0 1 0 
1 0 1 0 1 0 1 0 1 0 1 0 1 0 1 0 
1 0 1 0 1 0 1 0 1 0 1 0 1 0 1 0 
1 0 1 0 1 0 1 0 1 0 1 0 1 0 1 0 
1 0 1 0 1 0 1 0 1 0 1 0 1 0 1 0 
1 0 1 0 1 0 1 0 1 0 1 0 1 0 1 0 
1 0 1 0 1 0 1 0 1 0 1 0 1 0 1 0 
1 0 1 0 1 0 1 0 1 0 1 0 1 0 1 0 
1 0 1 0 1 0 1 0 1 0 1 0 1 0 1 0 
1 0 1 0 1 0 1 0 1 0 1 0 1 0 1 0 
1 0 1 0 1 0 1 0 1 0 1 0 1 0 1 0 
1 0 1 0 1 0 1 0 1 0 1 0 1 0 1 0 
1 0 1 0 1 0 1 0 1 0 1 0 1 0 1 0 
1 0 1 0 1 0 1 0 1 0 1 0 1 0 1 0 
1 0 1 0 1 0 1 0 1 0 1 0 1 0 1 0 
1 0 1 0 1 0 1 0 1 0 1 0 1 0 1 0 
1 0 1 0 1 0 1 0 1 0 1 0 1 0 1 0 
1 0 1 0 1 0 1 0 1 0 1 0 1 0 1 0 
1 0 1 0 1 0 1 0 1 0 1 0 1 0 1 0 
1 0 1 0 1 0 1 0 1 0 1 0 1 0 1 0 
1 0 1 0 1 0 1 0 1 0 1 0 1 0 1 0 
1 0 1 0 1 0 1 0 1 0 1 0 1 0 1 0 
1 0 1 0 1 0 1 0 1 0 1 0 1 0 1 0 
1 0 1 0 1 0 1 0 1 0 1 0 1 0 1 0 
1 0 1 0 1 0 1383 1779 300 MP stroke
1 0 1 0 1 0 1 0 1 0 1 0 1 0 1 0 
1 0 1 0 1 0 1 0 1 0 1 0 1 0 1 0 
1 0 1 0 1 0 1 0 1 0 1 0 1 0 1 0 
1 0 1 0 1 0 1 0 1 0 1 0 1 0 1 0 
1 0 1 0 1 0 1 0 1 0 1 0 1 0 1 0 
1 0 1 0 1 0 1 0 1 0 1 0 1 0 1 0 
1 0 1 0 1 0 1 0 1 0 1 0 1 0 1 0 
1 0 1 0 1 0 1 0 1 0 1 0 1 0 1 0 
1 0 1 0 1 0 1 0 1 0 1 0 1 0 1 0 
1 0 1 0 1 0 1 0 1 0 1 0 1 0 1 0 
1 0 1 0 1 0 1 0 1 0 1 0 1 0 1 0 
1 0 1 0 1 0 1 0 1 0 1 0 1 0 1 0 
1 0 1 0 1 0 1 0 1 0 1 0 1 0 1 0 
1 0 1 0 1 0 1 0 1 0 1 0 1 0 1 0 
1 0 1 0 1 0 1 0 1 0 1 0 1 0 1 0 
1 0 1 0 1 0 1 0 1 0 1 0 1 0 1 0 
1 0 1 0 1 0 1 0 1 0 1 0 1 0 1 0 
1 0 1 0 1 0 1 0 1 0 1 0 1 0 1 0 
1 0 1 0 1 0 1 0 1 0 1 0 1 0 1 0 
1 0 1 0 1 0 1 0 1 0 1 0 1 0 1 0 
1 0 1 0 1 0 1 0 1 0 1 0 1 0 1 0 
1 0 1 0 1 0 1 0 1 0 1 0 1 0 1 0 
1 0 1 0 1 0 1 0 1 0 1 0 1 0 1 0 
1 0 1 0 1 0 1 0 1 0 1 0 1 0 1 0 
1 0 1 0 1 0 1 0 1 0 1 0 1 0 1 0 
1 0 1 0 1 0 1 0 1 0 1 0 1 0 1 0 
1 0 1 0 1 0 1 0 1 0 1 0 1 0 1 0 
1 0 1 0 1 0 1 0 1 0 1 0 1 0 1 0 
1 0 1 0 1 0 1 0 1 0 1 0 1 0 1 0 
1 0 1 0 1 0 1 0 1 0 1 0 1 0 1 0 
1 0 1 0 1 0 1 0 1 0 1 0 1 0 1 0 
1 0 1 0 1 0 1 0 1 0 1 0 1 0 1 0 
1 0 1 0 1 0 1 0 1 0 1 0 1 0 1 0 
1 0 1 0 1 0 1 0 1 0 1 0 1 0 1 0 
1 0 1 0 1 0 1 0 1 0 1 0 1 0 1 0 
1 0 1 0 1 0 1 0 1 0 1 0 1 0 1 0 
1 0 1 0 1 0 1 0 1 0 1 0 1 0 1 0 
1 0 1 0 1 0 1084 1779 300 MP stroke
1 0 1 0 1 0 1 0 1 0 1 0 1 0 1 0 
1 0 1 0 1 0 1 0 1 0 1 0 1 0 1 0 
1 0 1 0 1 0 1 0 1 0 1 0 1 0 1 0 
1 0 1 0 1 0 1 0 1 0 1 0 1 0 1 0 
1 0 1 0 1 0 1 0 1 0 1 0 1 0 1 0 
1 0 1 0 1 0 1 0 1 0 1 0 1 0 1 0 
1 0 1 0 1 0 1 0 1 0 1 0 1 0 1 0 
1 0 1 0 1 0 1 0 1 0 1 0 1 0 1 0 
1 0 1 0 1 0 1 0 1 0 1 0 1 0 1 0 
1 0 1 0 1 0 1 0 1 0 1 0 1 0 1 0 
1 0 1 0 1 0 1 0 1 0 1 0 1 0 1 0 
1 0 1 0 1 0 1 0 1 0 1 0 1 0 1 0 
1 0 1 0 1 0 1 0 1 0 1 0 1 0 1 0 
1 0 1 0 1 0 1 0 1 0 1 0 1 0 1 0 
1 0 1 0 1 0 1 0 1 0 1 0 1 0 1 0 
1 0 1 0 1 0 1 0 1 0 1 0 1 0 1 0 
1 0 1 0 1 0 1 0 1 0 1 0 1 0 1 0 
1 0 1 0 1 0 1 0 1 0 1 0 1 0 1 0 
1 0 1 0 1 0 1 0 1 0 1 0 1 0 1 0 
1 0 1 0 1 0 1 0 1 0 1 0 1 0 1 0 
1 0 1 0 1 0 1 0 1 0 1 0 1 0 1 0 
1 0 1 0 1 0 1 0 1 0 1 0 1 0 1 0 
1 0 1 0 1 0 1 0 1 0 1 0 1 0 1 0 
1 0 1 0 1 0 1 0 1 0 1 0 1 0 1 0 
1 0 1 0 1 0 1 0 1 0 1 0 1 0 1 0 
1 0 1 0 1 0 1 0 1 0 1 0 1 0 1 0 
1 0 1 0 1 0 1 0 1 0 1 0 1 0 1 0 
1 0 1 0 1 0 1 0 1 0 1 0 1 0 1 0 
1 0 1 0 1 0 1 0 1 0 1 0 1 0 1 0 
1 0 1 0 1 0 1 0 1 0 1 0 1 0 1 0 
1 0 1 0 1 0 1 0 1 0 1 0 1 0 1 0 
1 0 1 0 1 0 1 0 1 0 1 0 1 0 1 0 
1 0 1 0 1 0 1 0 1 0 1 0 1 0 1 0 
1 0 1 0 1 0 1 0 1 0 1 0 1 0 1 0 
1 0 1 0 1 0 1 0 1 0 1 0 1 0 1 0 
1 0 1 0 1 0 1 0 1 0 1 0 1 0 1 0 
1 0 1 0 1 0 1 0 1 0 1 0 1 0 1 0 
1 0 1 0 1 0 785 1779 300 MP stroke
1 0 1 0 1 0 1 0 1 0 1 0 1 0 1 0 
1 0 1 0 1 0 1 0 1 0 1 0 1 0 1 0 
1 0 1 0 1 0 1 0 1 0 1 0 1 0 1 0 
1 0 1 0 1 0 1 0 1 0 1 0 1 0 1 0 
1 0 1 0 1 0 1 0 1 0 1 0 1 0 1 0 
1 0 1 0 1 0 1 0 1 0 1 0 1 0 1 0 
1 0 1 0 1 0 1 0 1 0 1 0 1 0 1 0 
0 219 0 -219 1 0 1 0 1 0 1 0 1 0 1 0 
1 0 1 0 1 0 1 0 1 0 1 0 1 0 1 0 
1 0 1 0 1 0 1 0 1 0 1 0 1 0 1 0 
1 0 1 0 1 0 1 0 1 0 1 0 1 0 1 0 
1 0 1 0 1 0 1 0 1 0 1 0 1 0 1 0 
1 0 1 0 1 0 1 0 1 0 1 0 1 0 1 0 
1 0 1 0 1 0 1 0 1 0 1 0 1 0 1 0 
1 0 1 0 1 0 1 0 1 0 1 0 1 0 1 0 
1 0 1 0 1 0 1 0 1 0 1 0 1 0 1 0 
1 0 1 0 1 0 1 0 1 0 1 0 1 0 1 0 
1 0 1 0 1 0 1 0 1 0 1 0 1 0 1 0 
1 0 1 0 1 0 1 0 639 1779 149 MP stroke
0 -126 1 -100 0 -335 1 11 0 -303 0 92 1 -90 0 -290 
1 -202 0 53 0 -195 1 -86 0 -154 1 19 0 -110 0 18 
1 -129 0 41 0 -62 0 48 1 -105 0 73 0 -160 0 78 
1 -89 0 29 0 -80 0 18 1 -60 0 32 0 -112 1 51 
0 -86 0 54 1 30 0 25 0 -251 1 -137 0 153 1 39 
0 367 1 7 0 138 0 -13 1 102 0 34 0 -89 0 23 
1 13 0 126 0 -69 1 102 0 95 0 -102 1 171 0 56 
0 -7 1 -2 0 130 0 -27 1 116 0 99 0 -76 1 142 
0 49 1 106 0 -21 0 10 1 158 0 -59 0 65 1 42 
0 -11 0 112 1 -55 0 98 0 -151 0 28 1 74 0 202 
0 -118 1 -39 0 -318 1 -94 0 -140 0 37 1 -91 0 51 
0 -89 1 -90 0 88 0 -144 1 75 0 -131 0 85 1 -80 
0 -51 0 13 1 -53 0 -60 0 40 1 -58 0 -161 1 50 
0 -119 0 6 1 -88 0 54 0 -53 1 -9 0 -115 0 96 
1 -97 0 -77 0 37 1 -87 0 -38 0 48 1 -37 0 57 
0 -123 1 -31 0 171 0 -186 1 -235 0 159 1 177 0 263 
1 46 0 55 0 -51 1 79 0 16 0 -63 1 86 0 125 
1 -86 0 171 0 -14 1 13 0 131 0 -82 1 3 0 211 
0 -43 1 -15 0 176 0 -32 1 22 0 124 1 4 0 115 
1 24 0 -12 0 134 1 -79 0 162 1 -26 0 -39 0 161 
1 -68 0 75 0 -110 0 39 1 16 0 304 0 -94 1 -60 
0 -402 1 -64 0 -92 1 -35 0 -37 0 52 1 5 0 -126 
0 45 1 -9 0 -180 0 62 1 -22 0 -111 0 17 1 -95 
0 -88 0 12 1 -54 0 -182 1 -26 0 47 0 -138 0 46 
1 -97 0 46 0 -98 1 -92 0 4 0 -91 0 47 1 -77 
0 4 0 -27 1 -113 0 56 1 -115 0 39 0 -48 0 32 
1 55 0 -382 0 38 1 -26 0 377 1 132 0 213 1 39 
0 -4 0 105 1 30 0 -44 0 101 1 -45 0 131 1 19 
0 116 1 71 0 -5 0 144 1 -32 0 189 0 -31 1 13 
0 229 0 -68 1 98 0 168 0 -38 1 1 0 188 0 -107 
1 88 0 66 0 -85 1 -69 0 472 0 -131 1 -151 0 -317 
1 -31 0 -244 1 -190 0 59 0 -133 1 -55 0 80 1 -130 
0 67 0 -127 1 119 0 -127 0 66 1 -34 0 -94 0 55 
1 -41 0 -65 1 46 0 -80 1 -106 0 103 1 -96 0 -93 
0 73 1 -11 0 -87 0 11 1 -4 0 17 0 -70 1 7 
0 35 0 -66 1 -53 0 153 1 -131 0 -191 0 71 1 -8 
0 191 1 47 0 213 1 -55 0 165 1 57 0 -47 0 67 
1 43 0 15 0 -48 2530 1793 300 MP stroke
0 25 1 -27 0 154 0 -26 1 -54 0 195 1 -52 0 35 
0 -44 1 94 0 52 0 -3 1 99 0 -67 0 89 1 0 
0 1 0 -8 1 77 0 -115 0 222 1 259 0 -80 1 -76 
0 -138 0 22 1 -64 0 -82 1 -114 0 -122 1 6 0 73 
0 -85 0 6 1 6 0 4 0 -5 0 3 1 1 0 5 
0 -11 1 18 0 -76 0 84 1 -22 0 47 0 -104 0 46 
1 -31 0 -174 1 28 0 -66 1 -37 0 45 0 -112 1 48 
0 46 0 -65 1 -28 0 -46 0 52 1 -20 0 -67 1 -11 
0 48 0 -99 1 -3 0 59 0 -94 1 69 0 -92 0 4 
1 83 0 -167 0 90 1 -6 0 13 0 -81 0 10 1 83 
0 -72 0 18 1 8 0 17 0 -80 0 22 1 12 0 106 
1 -72 0 12 0 -57 0 21 1 -47 0 -25 0 126 1 -83 
0 136 0 -75 1 58 0 137 1 61 0 67 0 -109 1 146 
0 33 0 -80 1 130 0 -54 0 67 1 -50 0 86 1 -47 
0 101 0 -36 1 100 0 -64 0 29 1 21 0 30 0 -7 
1 17 0 -1 0 19 1 5 0 80 0 -78 1 85 0 -95 
0 73 1 -3 0 59 0 -108 1 79 0 56 0 -111 1 72 
0 -66 1 -7 0 60 0 -100 0 71 1 -32 0 67 0 -50 
1 33 0 -84 0 15 1 19 0 -178 1 1 0 -150 0 25 
1 14 0 -67 1 -39 0 -41 0 75 1 -36 0 -77 0 56 
1 -47 0 -53 0 48 1 -23 0 -119 0 120 1 -98 0 -45 
0 79 1 -29 0 -99 0 72 1 -92 0 61 0 -75 0 69 
1 -85 0 -3 0 8 1 -2 0 13 0 -91 0 89 1 -72 
0 28 0 -5 1 -56 0 122 1 9 0 -289 0 41 1 -24 
0 145 0 0 1 75 0 222 1 70 0 -35 1 71 0 25 
0 -55 0 23 1 60 0 78 0 -45 1 -26 0 125 1 -48 
0 110 1 -42 0 -54 0 142 1 34 0 52 0 -114 0 39 
1 32 0 98 0 -52 1 19 0 102 1 -73 0 0 0 151 
1 -79 0 -23 0 82 1 -9 0 -24 0 123 1 -104 0 -38 
0 122 1 183 0 -162 1 -12 0 -233 1 -32 0 -172 1 12 
0 22 1 -64 0 -60 0 51 1 -61 0 52 0 -133 1 26 
0 -71 1 37 0 -137 1 46 0 -153 0 47 1 -26 0 48 
0 -122 1 -24 0 72 0 -118 1 6 0 -92 0 75 1 -75 
0 10 0 -61 1 9 0 18 0 -66 0 29 1 -59 0 36 
0 -50 0 24 1 38 0 42 0 -268 0 9 1 2 0 174 
0 -7 1 74 0 194 0 -60 1 113 0 105 1 -15 0 75 
0 -7 1 -17 0 74 0 -33 1 142 0 -105 0 47 1 60 
0 75 1 65 0 -31 2426 1625 300 MP stroke
0 77 1 122 0 -128 0 141 1 -47 0 130 1 45 0 -84 
0 186 1 -92 0 80 0 -13 1 65 0 -37 0 64 1 -33 
0 144 1 -127 0 0 0 181 1 147 0 -226 1 -11 0 -312 
1 -28 0 -127 1 83 0 -95 1 -5 0 -85 1 -1 0 -74 
0 9 1 -71 0 4 0 -52 0 8 1 6 0 -128 0 31 
1 -39 0 -132 0 3 1 -39 0 -74 1 -41 0 79 0 -195 
1 81 0 -162 0 87 1 -72 0 -88 1 27 0 3 0 -137 
1 55 0 -10 0 49 1 -19 0 -373 0 121 1 119 0 297 
1 10 0 184 0 -56 1 110 0 28 0 -73 1 30 0 140 
1 14 0 -60 0 167 1 8 0 -8 0 10 1 84 0 130 
1 -24 0 173 1 31 0 96 0 -132 0 71 1 114 0 38 
0 -64 1 97 0 95 0 -18 1 77 0 89 1 -35 0 119 
1 29 0 54 0 -107 0 44 1 22 0 -153 0 425 1 -67 
0 -387 1 -100 0 -155 1 59 0 -181 1 -10 0 119 0 -126 
1 -15 0 -160 1 9 0 -124 1 78 0 -246 1 8 0 46 
0 -187 0 83 1 -76 0 -87 0 70 1 -62 0 -114 1 -83 
0 -167 0 62 1 -62 0 -174 1 106 0 -191 1 43 0 -122 
1 55 0 149 0 -383 1 -131 0 246 1 128 0 317 1 22 
0 165 1 37 0 74 0 -118 0 72 1 15 0 183 1 9 
0 115 0 -9 1 74 0 153 1 -11 0 124 0 -45 1 134 
0 142 1 2 0 228 1 -16 0 133 1 -66 0 657 0 -143 
1 -69 0 -194 1 -130 0 -150 1 -134 0 -250 1 -177 0 -145 
1 -139 0 50 0 -155 1 -83 0 55 0 -88 1 3 0 66 
0 -88 0 5 1 -2 0 -73 0 81 1 4 0 -76 0 93 
1 -73 0 -56 0 87 1 20 0 25 0 -138 1 -47 0 -27 
0 37 1 -13 0 121 1 -8 0 163 1 80 0 111 1 -28 
0 140 1 -43 0 -41 0 80 1 37 0 -53 0 77 1 18 
0 50 0 -52 1 20 0 107 0 -54 1 19 0 100 0 -68 
1 88 0 6 0 -77 0 74 1 6 0 -12 0 84 1 -96 
0 139 0 -89 1 52 0 50 0 -113 1 59 0 64 0 -112 
0 49 1 42 0 -95 1 59 0 -115 0 57 1 -25 0 -101 
0 55 1 -87 0 72 0 -18 1 -92 0 88 0 -95 1 89 
0 -92 0 90 1 -42 0 -136 1 -55 0 17 0 -97 1 30 
0 7 0 -123 1 134 0 -147 0 51 1 -29 0 36 0 -116 
1 57 0 -64 1 -16 0 61 0 -124 1 0 0 70 0 -29 
1 -87 0 68 0 -83 0 82 1 -91 0 75 0 -77 1 1 
0 80 0 -159 1 86 0 14 0 -2 1 -78 0 95 0 -70 
1 8 0 92 0 -73 2315 2115 300 MP stroke
1 16 0 83 0 -221 0 38 1 -48 0 -5 0 152 1 -58 
0 140 1 92 0 136 1 -22 0 -30 0 106 1 31 0 -74 
0 55 1 26 0 74 0 -55 1 -32 0 114 0 -22 1 103 
0 -116 0 117 1 -71 0 113 0 -42 1 78 0 -56 0 21 
1 19 0 91 0 -82 1 91 0 6 0 -87 0 6 1 84 
0 -14 1 -9 0 69 0 -101 1 69 0 70 0 -115 1 70 
0 -41 0 229 1 -37 0 -94 0 8 1 -100 0 -278 1 90 
0 -196 1 30 0 22 0 -50 0 26 1 -50 0 66 0 -128 
1 33 0 -52 1 -41 0 7 0 -49 0 1 1 -25 0 42 
0 -152 1 78 0 -63 0 58 1 -97 0 -39 0 76 1 -174 
0 75 0 -11 1 3 0 -88 0 25 1 -2 0 -63 0 91 
1 -148 0 72 1 16 0 54 0 -273 1 -97 0 152 0 -6 
1 143 0 -18 0 116 1 -27 0 260 1 6 0 -19 0 146 
1 -101 0 128 0 -48 1 43 0 102 0 -128 0 90 1 -34 
0 206 1 -138 0 190 1 -131 0 149 1 25 0 114 1 -81 
0 88 0 -2 1 -6 0 73 0 -21 1 -25 0 382 1 -4 
0 -157 0 14 1 -68 0 19 0 -138 1 22 0 -211 1 0 
0 -101 0 75 1 -82 0 9 1 76 0 -80 0 7 1 3 
0 -69 0 86 1 0 0 18 0 -101 0 72 1 9 0 19 
0 -105 0 41 1 -28 0 -125 0 25 1 -51 0 -53 1 -33 
0 43 0 -64 1 -34 0 52 0 -56 1 -13 0 -45 0 54 
1 -21 0 -113 0 62 1 64 0 -118 1 -8 0 65 0 -88 
1 -12 0 -4 0 17 1 -95 0 89 0 -81 1 84 0 -72 
0 11 1 8 0 -63 0 102 1 -83 0 106 0 -77 1 13 
0 -57 0 98 1 1 0 24 0 -140 1 27 0 -25 0 118 
1 -76 0 125 0 -70 1 54 0 121 1 70 0 85 1 37 
0 4 0 -41 0 1 1 37 0 113 0 -99 1 24 0 114 
0 -34 1 -52 0 145 1 -65 0 92 0 -47 1 9 0 29 
1 4 0 87 0 -75 1 91 0 -88 0 79 1 2 0 -21 
1 78 0 -110 0 79 1 60 0 -108 0 68 1 -18 0 -44 
1 -5 0 -26 0 50 1 -69 0 156 1 -102 0 4 0 -55 
1 55 0 -203 1 -69 0 12 0 -63 0 27 1 -53 0 -49 
0 74 1 -120 0 51 1 -41 0 -59 0 45 1 -28 0 -60 
0 57 1 -34 0 -130 1 70 0 62 0 -117 1 -20 0 73 
0 -106 1 -13 0 81 0 -95 1 -5 0 -3 0 6 1 -82 
0 99 0 -77 1 4 0 28 0 -89 0 30 1 12 0 102 
0 -61 1 -202 0 -25 0 116 1 -39 0 145 1 27 0 136 
1 89 0 -13 0 67 2209 1840 300 MP stroke
1 51 0 53 1 -35 0 -34 0 160 1 -49 0 72 0 -115 
0 64 1 113 0 -52 0 46 1 -48 0 105 0 -67 1 102 
0 -51 0 87 1 8 0 17 1 -6 0 85 0 -13 1 -13 
0 66 0 -75 0 55 1 57 0 -73 1 60 0 -32 0 153 
1 -131 0 33 0 -78 1 -33 0 -67 1 -13 0 -96 0 62 
1 -9 0 -91 0 96 1 -21 0 19 0 -95 0 64 1 -57 
0 78 0 -78 1 80 0 -120 1 -68 0 -90 1 -40 0 44 
0 -77 1 43 0 -66 1 -28 0 51 0 -55 1 -25 0 59 
0 -132 1 65 0 -53 1 63 0 -121 1 -11 0 65 0 -90 
1 80 0 -95 0 5 1 -7 0 13 0 -76 1 79 0 13 
0 -87 0 12 1 11 0 24 1 4 0 27 0 -98 0 16 
1 97 0 4 0 -77 0 29 1 -143 0 74 0 -37 1 110 
0 2 0 -60 0 51 1 26 0 186 1 -11 0 186 1 -116 
0 123 0 -41 1 42 0 -45 0 75 1 -44 0 110 0 -26 
1 27 0 27 0 -61 0 32 1 101 0 -71 0 43 1 13 
0 36 1 9 0 81 0 -2 1 -70 0 78 0 -1 1 -9 
0 64 0 -74 0 59 1 -7 0 -27 0 66 1 -97 0 108 
1 -20 0 -111 0 120 1 -93 0 -28 0 69 1 -88 0 -90 
0 153 1 -94 0 72 0 -30 1 47 0 -75 0 47 1 -91 
0 29 0 -49 1 -67 0 -113 1 -47 0 33 0 -82 1 43 
0 2 0 -46 0 5 1 -34 0 16 0 -46 0 23 1 -35 
0 -53 0 67 1 -30 0 -72 1 -1 0 50 0 -102 1 58 
0 -106 1 -12 0 84 0 -99 1 83 0 -161 0 91 1 -6 
0 6 0 -80 1 13 0 91 0 -70 1 13 0 -70 0 110 
1 -60 0 -204 0 101 1 -15 0 115 1 6 0 146 1 16 
0 149 0 -22 1 57 0 30 0 -57 0 20 1 50 0 79 
0 -49 1 34 0 75 0 -116 0 65 1 32 0 62 0 -106 
0 51 1 33 0 57 1 98 0 -68 0 21 1 13 0 84 
0 -73 1 88 0 -9 1 -10 0 72 0 -20 1 57 0 50 
0 -151 0 32 1 67 0 -49 0 42 1 -29 0 55 1 -122 
0 54 0 -59 1 -25 0 -88 0 56 1 -20 0 -101 1 93 
0 -89 1 68 0 6 0 -24 1 -112 0 56 0 -44 1 -143 
0 56 0 -51 1 -39 0 11 0 -47 0 6 1 44 0 -111 
0 20 1 52 0 -124 0 55 1 -22 0 48 0 -114 1 -17 
0 68 0 -101 0 66 1 -7 0 -110 0 80 1 -91 0 75 
0 -82 0 75 1 -86 0 82 0 -85 0 9 1 -2 0 16 
1 -82 0 96 0 -67 1 88 0 -143 0 97 1 3 0 93 
0 -143 1 -53 0 -45 2107 2244 300 MP stroke
0 37 1 47 0 77 0 -135 0 80 1 13 0 214 1 10 
0 132 0 -147 0 35 1 145 0 5 0 -46 0 1 1 52 
0 35 0 -45 0 39 1 34 0 -46 0 67 1 32 0 18 
0 -47 0 29 1 25 0 58 1 20 0 33 0 -84 1 111 
0 -4 0 23 1 -72 0 160 1 -73 0 -4 0 75 1 -97 
0 148 0 -92 1 -7 0 103 1 -157 0 162 1 40 0 108 
0 -145 1 -35 0 14 0 -137 1 -6 0 -177 0 3 1 8 
0 -108 1 31 0 -102 0 41 1 33 0 -129 1 40 0 40 
0 -121 0 37 1 -37 0 10 0 -44 0 18 1 -112 0 106 
0 -112 1 -3 0 34 0 -93 1 -16 0 -19 1 62 0 -164 
0 81 1 -80 0 87 0 -142 1 93 0 -71 0 33 1 17 
0 -65 0 48 1 -53 0 -201 0 76 1 -19 0 160 0 -37 
1 77 0 190 1 30 0 139 1 -17 0 46 0 -67 0 28 
1 70 0 -38 0 105 1 -34 0 93 0 -39 1 -29 0 123 
1 45 0 -25 0 108 1 -61 0 77 1 -59 0 173 0 -57 
1 25 0 -6 0 95 1 -6 0 -11 1 64 0 -22 0 56 
1 -16 0 -54 0 142 1 -109 0 -37 0 286 1 -9 0 -163 
0 13 1 -74 0 -170 1 37 0 -192 0 2 1 8 0 -113 
1 -49 0 70 1 -138 0 106 0 -134 0 32 1 -42 0 23 
0 -78 1 24 0 -116 1 -19 0 22 0 -113 1 -11 0 47 
0 -106 1 10 0 -96 0 78 1 -83 0 -54 0 80 1 -63 
0 108 0 -464 1 -69 0 169 1 85 0 124 1 -1 0 -4 
0 92 1 49 0 -1 0 173 1 -139 0 161 1 -57 0 192 
1 148 0 297 1 -86 0 779 1 -29 0 -219 1 -133 0 25 
0 -337 1 -17 0 -304 1 -35 0 -190 0 9 1 -145 0 -165 
1 71 0 8 0 -82 0 37 1 167 0 -96 0 147 1 -29 
0 316 1 72 0 301 1 180 0 245 1 50 0 42 0 -1011 
1 0 1 0 1 0 1 0 1 0 1 0 1 0 1 0 
1 0 1 0 0 0 2 0 1 0 1 0 1 0 1 0 
1 0 1 0 1 0 1 0 1 0 1 0 0 0 2 0 
1 0 1 0 0 0 2 0 0 0 2 0 0 1 0 -1 
0 1 1 -1 0 1 0 -1 0 1 1 -1 1 0 1 0 
1 0 1 0 1 0 1 0 1 0 1 1 1 1 1 -1 
0 1 1 -1 1 -1 1 0 0 1 2 2 0 2 1 1 
0 1 1 1 0 -1 0 2 1 -1 0 1 0 -2 1 1 
1 -1 0 -4 1 -1 0 -3 2 -2 1 -1 0 -1 0 1 
1 -1 1 1 0 2 0 -1 1 1 0 -1 1 1 0 -3 
1 -1 0 -5 1 -1 1967 1852 300 MP stroke
0 -6 1 1 0 -4 1 -1 0 -4 0 1 1 -1 0 -2 
2 -2 0 -2 1 1 0 -3 1 -1 0 -3 1 -1 0 -2 
1 -1 0 -3 1 -1 0 -1 0 1 1 -3 0 1 1 -3 
0 -3 1 -2 0 -4 1 -2 0 -3 1 -1 0 -2 1 -3 
0 1 0 -2 1 -2 0 -1 0 1 1 -3 0 -4 1 -2 
0 -3 1 -2 0 -6 1 -1 0 -4 1 -1 0 -1 1 1 
1 -1 -1 0 2 0 1 0 1 0 1 0 1 0 1 0 
1 1 1 -1 1 0 1 0 1 0 1 1 1 -1 1 0 
1 0 1 0 1 0 1 0 1 0 1 0 1 0 1 0 
1 0 1 0 1 0 1 0 1 0 1 0 1 0 1 0 
1 0 1 0 1 0 1 0 1 0 1 0 1 0 1 0 
1 0 1 0 1 0 1 0 1 0 1 0 1 0 1 0 
1 0 1 0 1 0 1 0 1 0 1 0 1 0 1 0 
1 0 1 0 1 0 1 0 1 0 1 0 1 0 1 0 
1 0 1 0 1 0 1 0 1 0 1 0 1 0 1 0 
0 1 1 -1 -1 0 2 0 1 0 1 0 0 0 2 0 
1 0 1 0 1 1 1 -1 1 0 1 0 1 0 1 0 
1 0 1 0 1 0 1 0 1 0 0 0 2 0 1 0 
1 0 1 0 1 0 1 0 -1 0 2 0 0 1 0 -1 
1 1 1 0 1 0 1 0 1 1 0 1 0 -1 1 1 
0 1 0 -2 1 1 1 0 -1 0 2 0 1 -1 0 -1 
1 -1 1 0 1 -1 0 -1 2 -2 0 -2 2 -2 1 -1 
1 0 1 0 1 0 1 0 1 0 1 0 1 0 1 0 
1 0 1 0 1 0 1 0 1 0 1 0 1 0 1 0 
1 0 1 0 1 0 1 0 1 0 1 0 1 0 0 1 
0 -1 0 1 1 -1 0 1 0 0 1 -1 1 1 1 0 
1 1 1 0 0 -1 2 0 0 -2 2 -2 0 -1 2 0 
0 -1 0 1 1 -1 0 1 0 -1 1 1 1 -1 -1 0 
2 0 1 1 1 -1 1 0 0 0 2 0 1 0 1 0 
1 0 1 0 1 0 1 0 1 0 1 0 1 0 1 0 
1 0 1 0 1 0 1 0 1 0 0 0 2 0 1 0 
1 0 1 1 0 -1 1 1 1 0 0 2 1 -1 1 1 
0 -1 0 1 1 -1 0 2 1 1 0 1 1 1 0 2 
1 1 0 3 1 -1 0 2 1 -3 0 -2 1 -2 0 -3 
1 -2 0 -2 1 -1 0 -3 1 -1 0 -3 1 -1 0 -2 
1 -1 0 -4 2 -2 0 -1 0 1 1 -1 0 -1 1 -1 
0 -2 2 -2 0 -2 1 -1 1 -1 1 -1 0 -1 0 1 
1 -1 1 0 1 1 1736 1985 300 MP stroke
1 -1 -1 0 2 0 0 1 0 -1 1 1 0 1 0 -2 
1 1 0 3 1 -1 0 1 1 2 0 3 1 1 0 2 
1 3 0 5 1 1 0 7 1 0 0 6 1 -1 0 2 
1 1 0 4 1 1 0 2 1 -1 0 4 1 -1 0 2 
0 0 1 0 0 1 0 -2 1 4 0 3 0 -5 0 2 
1 3 0 -2 1 5 0 0 0 -5 0 3 1 4 0 1 
0 -7 1 5 0 -4 1 -1 0 1 0 -5 1 0 0 -2 
1 2 0 1 0 -4 1 7 0 5 0 -7 0 4 1 6 
0 -4 0 4 1 7 0 -11 0 2 1 3 0 3 0 -19 
1 8 0 2 0 -10 1 3 0 5 0 -13 1 4 0 -14 
1 5 0 -9 0 8 1 -6 0 7 0 -16 0 4 1 11 
0 -11 0 11 1 -2 0 -3 0 14 1 -8 0 -6 0 13 
1 -5 0 -5 0 4 1 -7 0 9 0 -14 0 11 1 -12 
0 0 0 12 1 2 0 -5 0 14 1 -12 0 9 1 -5 
0 -2 0 11 1 -1 0 -9 0 7 1 -12 0 12 0 -14 
0 12 1 -12 0 19 1 -15 0 3 0 -10 0 6 1 29 
0 -32 1 11 0 -36 1 34 0 -46 0 1 1 -26 0 -50 
1 -35 0 -142 1 -72 0 -326 1 -101 0 -538 1683 3282 143 MP stroke
0 66 2638 277 2 MP stroke
0 401 1 169 0 212 1 -73 0 161 1 78 0 133 0 -159 
0 139 1 139 0 -64 0 1 1 97 0 -55 0 171 1 55 
0 184 1 112 0 -40 0 240 1 0 0 309 1 41 0 190 
0 -8 1 50 0 211 1 2 0 309 2639 277 30 MP stroke
0 -132 1 -141 0 -265 1 -79 0 -254 1 -55 0 -146 1 44 
0 -203 1 -106 0 -173 1 11 0 -137 0 50 1 -206 0 -119 
1 -183 0 105 0 -401 1 -387 0 221 1 49 0 36 0 -54 
1 142 0 206 1 130 0 307 1 37 0 248 1 70 0 268 
1 227 0 434 0 -106 1 -4 0 -200 0 63 1 -174 0 -183 
1 22 0 -94 1 -23 0 -113 0 66 1 -166 0 64 0 -153 
1 13 0 -112 1 -5 0 -158 0 21 1 -38 0 -151 1 -13 
0 -155 0 3 1 -138 0 64 0 -34 1 -482 0 -114 0 170 
1 42 0 184 0 -2 1 4 0 190 1 89 0 -73 1 162 
0 204 1 128 0 411 1 213 0 191 1 71 0 66 1 -35 
0 54 0 -60 0 42 1 123 0 -207 0 405 1 55 0 -237 
1 -103 0 -179 0 19 1 -171 0 51 0 -142 1 -114 0 -105 
1 -65 0 93 0 -193 1 26 0 -130 1 59 0 -515 1 36 
0 -37 0 79 1 -39 0 48 0 -112 0 59 1 -99 0 79 
1 -2 0 -84 0 546 1 125 0 15 0 -50 0 30 1 110 
0 87 0 -57 1 7 0 10 0 -68 1 5 0 -119 0 17 
1 26 0 -141 0 62 1 -132 0 42 0 -78 1 -106 0 41 
0 -115 1 -18 0 -18 1 -81 0 17 0 -78 0 15 1 24 
0 -115 0 25 1 33 0 -92 0 32 1 124 0 -106 0 117 
1 23 0 108 0 -76 1 92 0 -81 0 20 1 18 0 -74 
0 94 1 8 0 26 0 -141 1 -119 0 97 0 -15 1 95 
0 22 0 -25 0 21 1 74 0 174 1 74 0 36 0 -61 
0 35 1 50 0 -25 0 79 1 42 0 -83 0 111 1 36 
0 -101 0 126 1 17 0 58 0 -119 0 53 1 24 0 56 
1 17 0 23 1 100 0 1 0 -95 1 89 0 80 0 -101 
1 75 0 -26 0 59 1 -15 0 -40 0 55 1 -26 0 50 
0 -105 1 57 0 11 0 -38 0 12 1 -34 0 27 0 -107 
1 66 0 -109 0 58 1 -9 0 -100 1 66 0 -69 0 5 
1 48 0 -48 0 42 1 -51 0 -161 1 -68 0 50 0 -45 
1 -51 0 -63 0 46 1 45 0 -105 1 -31 0 57 0 -132 
1 133 0 -142 1 51 0 -52 1 -88 0 78 0 -26 1 -10 
0 -20 0 3 1 -11 0 -81 0 82 1 -77 0 -1 0 8 
1 85 0 -146 1 90 0 5 0 -70 0 12 1 20 0 19 
1 84 0 -247 1 47 0 99 0 -139 0 65 1 150 0 -73 
0 74 1 69 0 166 1 -14 0 101 0 -31 1 -31 0 127 
1 -42 0 99 1 -50 0 104 0 -22 1 -55 0 121 0 -59 
1 101 0 -64 0 110 1 -71 0 99 0 -10 1 4 0 0 
0 11 1 -6 0 79 2801 1331 300 MP stroke
0 -12 1 -5 0 -20 0 64 1 -17 0 -30 0 58 1 51 
0 -123 0 61 1 -31 0 -43 0 50 1 -21 0 -129 0 150 
1 -107 0 59 0 -145 0 51 1 70 0 -109 1 -4 0 91 
0 -108 1 88 0 -146 1 -75 0 -62 0 44 1 -132 0 38 
0 -47 0 46 1 -45 0 -71 0 125 1 -116 0 52 0 -117 
0 59 1 49 0 -107 0 33 1 -113 0 130 0 -109 1 -7 
0 -20 0 72 1 -99 0 74 0 -97 0 70 1 -80 0 65 
0 -90 1 7 0 -6 0 5 1 -3 0 18 0 -93 0 13 
1 84 0 -72 0 15 1 9 0 -66 0 95 1 -74 0 172 
0 -268 1 -43 0 103 0 -37 1 150 0 -88 0 157 1 16 
0 171 0 -15 1 64 0 29 0 -58 0 24 1 121 0 -76 
0 33 1 -27 0 119 0 -8 1 -44 0 102 1 -47 0 102 
0 -24 1 -47 0 119 1 -59 0 102 0 -52 1 100 0 13 
0 -68 1 96 0 -72 0 77 1 1 0 -6 0 66 1 -2 
0 -107 0 154 1 -18 0 -94 0 54 1 60 0 -108 0 243 
1 16 0 -148 1 -89 0 28 0 -136 1 -96 0 -137 1 18 
0 18 0 -60 0 22 1 -51 0 -63 1 32 0 24 0 -90 
1 -51 0 33 0 -80 1 38 0 34 0 -150 1 41 0 -143 
1 146 0 -148 1 -5 0 -115 1 80 0 -86 1 -1 0 -65 
0 90 1 -80 0 -53 0 39 1 19 0 -107 0 100 1 40 
0 -321 0 81 1 2 0 162 0 -171 0 151 1 67 0 204 
1 29 0 88 0 -14 1 79 0 46 0 -69 0 38 1 65 
0 -45 0 143 1 -119 0 167 1 -99 0 137 1 54 0 63 
0 -109 0 74 1 36 0 85 0 -34 1 24 0 -63 0 146 
1 -89 0 195 0 -77 1 -5 0 88 0 -11 1 72 0 -25 
0 54 1 -24 0 114 0 -138 0 21 1 45 0 14 0 -42 
1 180 0 130 0 -181 1 -89 0 -216 1 -53 0 32 0 -179 
1 63 0 2 0 -162 0 91 1 -79 0 20 0 -3 1 -65 
0 -67 0 32 1 -73 0 35 0 -141 1 8 0 50 0 -122 
1 -43 0 24 0 -142 1 48 0 -53 1 -108 0 59 0 -110 
1 80 0 -184 0 80 1 9 0 -138 0 21 1 -57 0 51 
0 -127 1 118 0 -131 0 74 1 -29 0 134 0 -417 1 99 
0 -57 0 200 1 120 0 290 1 23 0 -32 0 76 1 18 
0 -65 0 110 1 13 0 -2 0 98 1 84 0 -96 0 168 
1 -7 0 -29 0 153 1 -28 0 174 1 -57 0 177 0 -54 
1 26 0 134 0 -62 1 15 0 102 1 69 0 -16 0 71 
1 45 0 39 0 -66 0 18 1 129 0 -92 0 42 1 100 
0 -123 0 32 1 316 2699 626 300 MP stroke
0 35 0 -181 1 -201 0 -239 1 -54 0 -112 0 27 1 -28 
0 40 0 -62 0 38 1 -119 0 -49 1 2 0 -143 1 -85 
0 87 0 -107 0 22 1 -99 0 27 0 -132 1 -80 0 32 
0 -119 0 36 1 -120 0 41 0 -99 0 60 1 -116 0 -92 
1 62 0 -207 1 91 0 -160 1 43 0 -105 1 53 0 -110 
0 44 1 -17 0 90 0 -426 1 161 0 397 1 121 0 -8 
0 109 1 109 0 -97 0 125 1 -51 0 83 1 55 0 -43 
0 136 1 22 0 195 1 5 0 -9 0 137 1 -38 0 145 
0 -90 1 75 0 69 0 -5 1 -46 0 146 0 -10 1 93 
0 137 1 70 0 242 1 -120 0 196 0 -55 1 119 0 47 
0 -84 1 29 0 86 0 -1 1 -86 0 -19 0 369 1 -15 
0 -499 1 -178 0 5 0 -106 1 18 0 -159 1 -34 0 75 
0 -129 1 -43 0 -218 0 150 1 -140 0 127 0 -24 1 15 
0 -123 0 2 1 -107 0 46 0 -220 1 -28 0 -148 1 53 
0 -302 1 15 0 130 0 -254 0 22 1 -58 0 -96 1 29 
0 -165 0 54 1 -121 0 -151 1 -172 0 -83 1 16 0 51 
0 -105 0 61 1 61 0 -192 2651 3282 133 MP stroke
0 41 1 63 0 550 1 90 0 505 1 38 0 457 1 35 
0 822 0 -95 1 -6 0 -213 1 7 0 -175 0 14 1 -183 
0 58 0 -61 1 -55 0 -132 1 -156 0 96 0 -126 1 -66 
0 29 0 -118 0 39 1 -55 0 -140 0 60 1 -9 0 -561 
1 52 0 -4 0 119 1 -99 0 72 0 -2 1 34 0 -22 
0 184 1 78 0 271 1 79 0 163 1 101 0 499 0 -71 
1 -64 0 11 0 -120 1 -44 0 2 0 -102 1 53 0 -221 
1 79 0 -159 0 22 1 -73 0 22 0 -74 1 23 0 -172 
1 27 0 38 0 -161 1 -38 0 67 0 -195 0 71 1 -92 
0 73 0 -168 0 89 1 -156 0 187 0 -617 1 11 0 108 
1 99 0 74 0 -47 1 121 0 128 1 164 0 108 1 103 
0 170 1 53 0 96 1 119 0 -30 0 106 1 21 0 231 
1 -92 0 151 1 22 0 228 0 -105 1 -104 0 -211 1 -59 
0 -151 1 -10 0 -24 1 9 0 -178 1 85 0 -154 1 111 
0 -210 1 80 0 -217 0 132 1 -150 0 43 0 -57 0 35 
1 -109 0 3 0 -54 0 17 1 -19 0 -77 1 -77 0 -20 
1 -147 0 103 0 -66 1 -55 0 49 0 -140 1 44 0 30 
0 -80 1 49 0 94 0 -324 1 -60 0 -42 0 226 1 180 
0 -19 0 247 1 33 0 46 1 105 0 -129 1 190 0 -149 
0 201 1 -69 0 175 0 -84 1 78 0 89 0 -23 1 85 
0 46 0 -36 1 157 0 44 1 51 0 -33 0 194 1 37 
0 -97 0 204 1 -90 0 154 1 -9 0 -19 0 179 1 -126 
0 161 0 -132 1 114 0 23 0 -115 1 9 0 390 0 -121 
1 -64 0 -428 1 -63 0 -81 0 61 1 -41 0 -139 1 157 
0 -193 1 -18 0 -63 1 -101 0 52 0 -163 1 -6 0 -147 
1 -50 0 16 0 -106 1 -16 0 27 0 -199 1 53 0 -150 
1 -96 0 -69 1 9 0 -127 0 49 1 -114 0 41 0 -53 
1 -49 0 72 0 -103 0 54 1 -13 0 164 0 -508 1 -22 
0 400 1 136 0 232 1 63 0 85 0 -113 0 75 1 -32 
0 115 0 -55 1 49 0 184 1 -70 0 176 0 -30 1 149 
0 16 1 151 0 99 1 98 0 -35 0 135 1 8 0 180 
0 -6 1 -26 0 240 1 -48 0 136 0 -62 1 230 0 314 
0 -117 1 -41 0 -220 1 60 0 -190 1 -67 0 -121 1 -92 
0 67 0 -109 1 -94 0 -19 1 -91 0 -89 0 83 1 -88 
0 5 1 -18 0 16 0 -125 1 27 0 -136 0 153 1 -137 
0 34 0 -131 0 50 1 -36 0 4 0 -46 0 10 1 -54 
0 52 0 -118 0 117 1 -112 0 -76 0 138 1 -119 0 47 
0 -107 0 59 1 47 3100 1889 300 MP stroke
0 -131 0 59 1 -105 0 66 0 -42 1 -7 0 -107 0 71 
1 -5 0 -87 1 -2 0 24 0 -84 0 11 1 95 0 -162 
0 111 1 -64 0 -51 0 115 1 20 0 -252 1 -7 0 127 
0 -11 1 113 0 -17 0 67 1 33 0 224 0 -83 1 148 
0 -38 0 59 1 -28 0 71 1 49 0 -37 0 76 1 41 
0 -43 0 64 1 -44 0 113 0 -36 1 39 0 119 1 -57 
0 107 0 -87 1 105 0 -11 0 82 1 -90 0 142 0 -97 
1 76 0 -104 0 325 1 25 0 -122 1 -56 0 -138 1 -38 
0 -75 1 64 0 -104 1 -8 0 -10 1 -4 0 -80 0 90 
1 -19 0 21 0 -90 0 72 1 -50 0 54 0 -47 1 45 
0 -139 1 -65 0 -75 1 31 0 -115 1 37 0 57 0 -148 
1 60 0 -54 0 55 1 -106 0 61 0 -47 1 -15 0 -36 
0 63 1 -95 0 64 0 -96 0 74 1 -19 0 -92 0 69 
1 -13 0 -84 1 79 0 -89 0 5 1 6 0 20 1 -73 
0 101 1 -67 0 -69 0 111 1 -77 0 178 0 -219 1 -49 
0 123 1 -66 0 114 0 -51 1 58 0 207 1 0 0 -8 
0 117 1 51 0 -117 0 164 1 -48 0 77 0 -111 0 64 
1 40 0 -27 0 106 1 -56 0 77 1 10 0 -61 0 110 
1 22 0 16 0 -68 1 100 0 -78 0 89 1 9 0 65 
0 -75 0 73 1 -85 0 153 0 -105 1 71 0 -39 1 -9 
0 60 0 -39 1 -26 0 62 0 -128 1 75 0 -48 1 -19 
0 44 0 -84 1 132 0 -115 0 52 1 -64 0 -72 0 122 
1 -57 0 -180 1 -63 0 18 0 -54 0 20 1 -45 0 22 
0 -80 1 39 0 10 0 -124 0 11 1 47 0 -66 0 57 
1 -32 0 -74 1 -21 0 54 0 -42 1 -26 0 -92 0 50 
1 -8 0 56 0 -102 1 -6 0 4 0 -15 1 -3 0 -3 
0 2 1 -5 0 -76 0 22 1 7 0 20 1 -64 0 120 
1 -67 0 -203 0 43 1 -59 0 177 0 -30 1 87 0 224 
1 -11 0 117 1 -35 0 101 0 -40 1 49 0 36 0 -84 
1 131 0 -53 1 118 0 -49 0 56 1 37 0 -64 0 148 
1 -150 0 183 0 -47 1 18 0 112 1 -78 0 91 1 -68 
0 75 0 -6 1 73 0 -89 0 70 1 -28 0 65 0 -99 
1 64 0 60 0 -120 1 57 0 234 0 -89 1 -43 0 -68 
0 5 1 -101 0 -219 1 -4 0 -123 1 21 0 17 0 -137 
0 110 1 -65 0 39 0 -118 1 44 0 -100 0 41 1 24 
0 -123 0 82 1 -131 0 32 0 -50 0 8 1 -33 0 32 
0 -48 0 22 1 -111 0 62 0 -106 1 1 0 70 0 -89 
1 -12 0 11 0 -82 2994 2267 300 MP stroke
1 21 0 -69 0 32 1 23 0 -127 0 110 1 -56 0 53 
0 -105 0 57 1 36 0 -260 1 149 0 135 0 -136 0 129 
1 57 0 236 0 -65 1 86 0 -3 0 7 1 58 0 -9 
0 124 1 -28 0 -23 0 125 1 -102 0 156 1 -18 0 94 
0 -138 0 97 1 52 0 99 1 30 0 21 0 -45 0 11 
1 125 0 -67 0 175 1 -76 0 7 1 91 0 -93 0 72 
1 74 0 -46 0 65 1 51 0 -101 1 153 0 -166 0 260 
1 -1 0 58 0 -112 1 -94 0 -255 1 -40 0 -141 1 7 
0 -82 0 15 1 -1 0 73 0 -226 1 88 0 11 0 -82 
1 -43 0 -83 0 34 1 -116 0 37 0 -116 1 28 0 -107 
1 -48 0 41 0 -105 1 -14 0 -46 1 -83 0 14 0 -1 
1 -79 0 30 0 -70 0 19 1 -51 0 22 0 -49 0 34 
1 -45 0 30 0 -78 1 61 0 55 0 -389 1 116 0 240 
1 156 0 179 1 21 0 112 0 -82 1 10 0 59 1 8 
0 180 1 -69 0 160 1 61 0 -27 0 58 1 66 0 -18 
0 171 1 -108 0 254 1 -116 0 198 1 -60 0 105 1 60 
0 90 0 -66 1 55 0 82 1 -39 0 -2 0 106 1 -39 
0 -54 0 309 1 45 0 28 0 -263 1 -135 0 -305 1 -52 
0 58 0 -68 1 -33 0 70 0 -73 1 -124 0 76 0 -137 
1 64 0 -219 1 10 0 -121 1 -58 0 7 0 -138 1 -42 
0 -80 1 -41 0 -163 1 66 0 -176 1 -6 0 -103 1 -59 
0 25 0 -79 1 48 0 -68 1 -25 0 -52 1 67 0 70 
0 -429 1 78 0 523 1 68 0 169 0 -37 1 -52 0 115 
0 -2 1 88 0 33 0 -47 1 42 0 162 1 57 0 -2 
0 83 1 42 0 30 0 -129 0 62 1 1 0 140 1 -31 
0 114 1 96 0 -15 0 88 1 133 0 -109 0 218 1 -20 
0 -71 0 237 1 -50 0 -30 0 188 1 5 0 244 1 38 
0 145 1 -110 0 -106 0 403 2912 277 221 MP stroke
0 -80 1 -155 0 -221 1 -141 0 52 0 -204 1 60 0 -177 
0 7 1 -58 0 -272 1 -84 0 -192 0 5 1 -52 0 -224 
1 -100 0 -338 1 -95 0 -170 1 -362 0 -204 3213 3282 23 MP stroke
0 39 3223 277 2 MP stroke
0 625 1 83 0 -10 0 127 1 62 0 -26 0 58 1 62 
0 -119 0 260 1 45 0 5 0 -170 1 88 0 -37 0 123 
1 50 0 159 1 -2 0 229 1 -29 0 276 0 -37 1 137 
0 -40 0 189 1 -70 0 198 1 -45 0 233 0 -109 1 150 
0 162 1 9 0 158 0 -2 1 -43 0 134 1 122 3224 277 40 MP stroke
0 -454 1 -75 0 -471 1 3 0 -568 0 85 1 -163 0 -233 
0 65 1 -113 0 -27 0 3 1 -89 0 6 0 -1 1 -75 
0 19 0 -129 1 124 0 -143 0 71 1 -47 0 -79 0 120 
1 -28 0 -336 0 27 1 96 0 199 1 69 0 176 0 -13 
1 157 0 -54 0 61 1 100 0 85 1 -12 0 143 1 -8 
0 -79 0 198 1 -18 0 -41 0 175 1 -100 0 234 1 34 
0 -159 0 202 1 79 0 -74 0 142 1 5 0 -36 0 470 
1 130 0 -229 1 -94 0 70 0 -139 1 -66 0 -179 1 -155 
0 -223 0 77 1 -149 0 -220 1 -25 0 -178 0 72 1 -4 
0 -76 0 14 1 10 0 17 0 -91 0 16 1 25 0 29 
1 -58 0 113 1 -58 0 -138 0 83 1 -56 0 190 1 -70 
0 -5 0 119 1 86 0 13 0 -11 1 155 0 19 0 -128 
0 101 1 39 0 -33 0 75 1 -53 0 123 0 -100 1 110 
0 29 0 -67 0 38 1 -54 0 136 1 -54 0 108 0 -74 
1 21 0 96 0 -69 1 73 0 16 0 -4 1 12 0 63 
0 -78 0 76 1 -81 0 126 1 -16 0 -99 0 60 1 63 
0 -121 0 67 1 61 0 -133 1 65 0 30 0 -62 0 23 
1 -28 0 53 0 -115 1 38 0 -119 0 124 1 -42 0 -194 
1 14 0 -120 0 31 1 -50 0 -47 0 77 1 -120 0 88 
0 -124 1 55 0 -66 0 49 1 -34 0 -54 0 51 1 -34 
0 -75 1 74 0 -120 0 56 1 -87 0 74 0 -98 0 69 
1 -86 0 1 0 -19 1 19 0 -11 0 2 1 -73 0 25 
0 -69 1 92 0 10 0 -132 1 107 0 32 1 -135 0 -97 
1 152 0 -66 0 151 1 -70 0 201 1 27 0 165 0 -167 
0 66 1 146 0 -104 0 100 1 41 0 -68 0 52 1 37 
0 68 0 -43 1 42 0 -59 0 78 1 40 0 36 0 -45 
1 99 0 40 0 -110 0 44 1 18 0 117 1 -78 0 100 
0 -8 1 2 0 84 0 -92 1 75 0 -21 0 72 1 -17 
0 -33 0 60 1 -22 0 -52 1 51 0 101 0 -195 0 145 
1 107 0 -168 1 -16 0 15 0 -141 1 -21 0 -189 1 -68 
0 23 0 -59 0 25 1 -52 0 53 0 -126 1 35 0 35 
0 -50 0 30 1 -117 0 -7 0 53 1 -50 0 -32 0 7 
1 -111 0 119 0 -127 1 45 0 -131 1 -23 0 85 0 -102 
0 61 1 -63 0 -92 0 78 1 -63 0 9 0 -59 1 8 
0 33 0 -73 1 35 0 -47 0 105 1 -63 0 35 0 -218 
1 6 0 -18 0 174 1 -30 0 234 1 43 0 128 1 -10 
0 71 0 -29 1 64 0 -19 0 112 1 -15 0 -43 0 106 
1 -22 0 97 0 -128 3328 1754 300 MP stroke
1 140 0 52 0 -55 0 30 1 134 0 -106 0 102 1 24 
0 -37 0 109 1 3 0 103 1 2 0 -75 0 150 1 -92 
0 129 1 -89 0 116 0 -21 1 -37 0 37 0 -53 0 22 
1 43 0 -47 0 186 1 65 0 -166 0 3 1 -158 0 26 
0 -198 1 -27 0 -103 1 0 0 -135 1 91 0 -133 1 21 
0 7 0 -124 1 33 0 -170 1 113 0 -137 1 36 0 -109 
0 7 1 -26 0 -127 0 67 1 -94 0 -26 0 11 1 -7 
0 -86 0 18 1 -60 0 -51 0 95 1 -140 0 67 0 -57 
1 -36 0 103 0 -5 1 -102 0 -239 0 119 1 101 0 99 
1 136 0 230 1 15 0 -66 0 95 1 -79 0 167 0 -78 
1 96 0 65 0 -77 1 164 0 -91 0 131 1 -10 0 -6 
0 101 1 70 0 80 0 -114 0 80 1 43 0 73 0 -54 
1 115 0 132 1 -82 0 168 0 -80 1 1 0 152 0 -19 
1 -119 0 202 0 -35 1 -38 0 111 1 -38 0 -53 0 336 
1 -29 0 -270 1 -38 0 -265 1 -51 0 46 0 -97 1 -10 
0 53 0 -101 0 58 1 -101 0 -44 1 -7 0 -115 1 -69 
0 61 0 -149 0 4 1 -67 0 99 0 -234 0 34 1 101 
0 -259 0 135 1 -76 0 -152 1 -17 0 -117 1 7 0 -128 
1 -65 0 57 0 -57 1 -37 0 -110 1 131 0 -138 0 66 
1 147 0 -530 0 133 1 132 0 345 1 89 0 130 1 -45 
0 157 1 -72 0 28 0 -43 0 35 1 119 0 68 1 87 
0 -56 0 110 1 16 0 138 0 -3 1 96 0 52 1 65 
0 -55 0 184 1 -36 0 275 1 -87 0 167 0 -77 1 78 
0 107 0 -28 1 -38 0 159 0 -40 1 96 0 37 0 -98 
0 41 1 72 0 -144 0 302 1 115 0 -396 1 -86 0 -222 
0 12 1 -59 0 -121 1 -43 0 91 1 -43 0 -214 1 -21 
0 -70 1 -193 0 96 0 -97 1 -110 0 139 0 -161 1 40 
0 -72 1 9 0 -228 1 47 0 -150 1 82 0 -267 0 58 
1 -39 0 -274 1 -72 0 -145 0 39 1 -21 0 -107 0 8 
1 -4 0 19 0 -66 1 94 0 25 0 -343 3240 3282 239 MP stroke
1 103 0 390 0 -1 1 114 0 -32 0 184 1 -73 0 272 
1 -93 0 268 1 -10 0 -137 0 157 1 97 0 -37 0 320 
1 -115 0 345 1 98 0 228 0 -119 1 171 0 276 1 -36 
0 331 1 158 0 146 3435 277 28 MP stroke
0 -81 3447 3282 2 MP stroke
1 -242 0 -320 1 -292 0 -374 1 -286 0 13 0 -154 1 -42 
0 -151 1 -3 0 -89 1 -26 0 -87 0 2 1 -75 0 -57 
0 16 1 -60 0 -104 0 126 1 -140 0 85 0 -35 1 -30 
0 -43 0 125 1 -326 0 -133 0 235 1 28 0 318 1 14 
0 193 1 117 0 -67 0 45 1 22 0 117 1 86 0 -80 
0 95 1 60 0 -6 0 77 1 69 0 87 1 45 0 183 
1 -65 0 124 1 158 0 52 0 -141 0 121 1 55 0 -80 
0 413 1 225 0 -185 1 -52 0 -176 0 65 1 -64 0 -499 
1 -134 0 -263 1 -69 0 29 0 -167 1 62 0 -125 0 73 
1 -22 0 -37 1 -92 0 90 0 -98 0 84 1 -6 0 -89 
0 91 1 -79 0 -77 0 85 1 22 0 -82 0 29 1 9 
0 34 0 -102 0 35 1 6 0 113 0 -211 1 34 0 -68 
0 127 1 -49 0 105 0 -39 1 56 0 168 1 82 0 52 
0 -68 0 45 1 61 0 -26 0 83 1 43 0 -84 0 119 
1 -47 0 90 1 -54 0 128 0 -60 1 32 0 46 1 20 
0 22 1 16 0 84 1 -80 0 88 0 -11 1 61 0 -15 
1 -21 0 67 0 -42 1 -21 0 114 0 -107 1 -28 0 101 
0 -37 1 -31 0 11 0 -46 0 18 1 -112 0 71 0 -110 
1 61 0 -109 1 76 0 -90 0 74 1 -28 0 31 0 -98 
0 38 1 -37 0 -193 1 32 0 24 0 -121 0 44 1 34 
0 -111 0 90 1 -123 0 77 1 -103 0 34 0 -65 0 34 
1 -24 0 62 0 -130 1 59 0 -53 1 -3 0 -35 1 83 
0 -181 0 74 1 3 0 -84 0 77 1 -1 0 -80 0 92 
1 -75 0 20 0 -89 0 22 1 22 0 42 1 -69 0 121 
1 -144 0 64 0 -133 1 127 0 14 0 -30 0 7 1 120 
0 -73 0 58 1 54 0 154 1 -2 0 108 0 -36 1 48 
0 -40 0 85 1 29 0 -50 0 69 1 31 0 51 0 -113 
0 51 1 29 0 62 1 8 0 -61 0 103 1 1 0 22 
0 -71 1 90 0 77 1 -70 0 -5 0 81 1 -20 0 79 
0 -95 0 69 1 -14 0 -32 0 65 1 -18 0 -40 0 60 
1 -33 0 -54 1 -18 0 -31 0 66 1 -16 0 49 0 -152 
0 53 1 -23 0 67 0 -105 1 57 0 -114 0 88 1 -55 
0 -172 1 22 0 -105 0 38 1 -49 0 9 0 -46 0 5 
1 -38 0 51 0 -62 1 -40 0 66 0 -36 1 -31 0 -50 
0 66 1 -31 0 -69 1 -4 0 59 0 -106 1 -13 0 71 
0 -101 1 -9 0 1 0 -3 1 -6 0 6 0 -82 1 92 
0 -79 0 22 1 -72 0 110 0 -72 1 14 0 -44 0 87 
1 27 0 -119 0 27 3889 2187 300 MP stroke
1 -33 0 88 0 -148 0 71 1 121 0 -57 0 62 1 60 
0 105 0 -14 1 152 0 37 0 -130 0 98 1 -28 0 126 
1 -49 0 77 1 -52 0 92 1 20 0 -30 0 43 1 92 
0 -62 0 42 1 2 0 51 1 -78 0 189 1 -82 0 81 
0 -78 1 156 0 -166 0 149 1 -20 0 -81 0 56 1 55 
0 -88 0 48 1 44 0 -130 1 57 0 -22 0 92 1 -32 
0 26 0 -144 1 34 0 -87 1 -87 0 -138 1 -57 0 110 
0 -134 0 38 1 -47 0 41 0 -51 0 47 1 -122 0 51 
0 -44 1 46 0 5 0 -117 1 55 0 -63 0 47 1 -97 
0 72 1 -98 0 55 0 -118 1 -5 0 63 0 -95 1 -8 
0 5 0 -83 1 75 0 3 0 -143 1 98 0 -61 0 14 
1 11 0 35 0 -99 0 37 1 11 0 48 0 -207 1 -23 
0 112 0 -45 1 150 0 -66 0 160 1 -47 0 212 1 9 
0 143 0 -155 0 52 1 139 0 21 0 -141 0 23 1 132 
0 -36 0 45 1 -48 0 126 0 -3 1 -46 0 105 0 -16 
1 22 0 -56 0 130 1 15 0 -71 0 115 1 -70 0 184 
1 -103 0 90 0 -6 1 -16 0 72 0 -23 1 -85 0 347 
1 15 0 -177 1 -57 0 -99 1 -42 0 -55 1 55 0 -107 
1 -11 0 -82 1 87 0 -11 1 -76 0 97 1 -92 0 43 
0 -36 1 -50 0 -183 1 122 0 -134 0 5 1 45 0 -117 
0 24 1 44 0 -82 1 -25 0 58 0 -108 0 66 1 -23 
0 54 0 -122 1 69 0 -114 0 65 1 -9 0 -98 0 65 
1 -1 0 -96 1 86 0 -90 0 85 1 -79 0 21 0 -91 
0 87 1 -65 0 89 0 -150 0 98 1 18 0 -60 0 91 
1 -71 0 92 0 -56 1 -46 0 -87 0 93 1 62 0 -85 
0 42 1 130 0 -119 0 111 1 72 0 152 1 -27 0 73 
1 36 0 -34 0 72 1 -50 0 111 0 -13 1 -64 0 122 
0 -41 1 27 0 98 0 -131 1 107 0 38 1 -79 0 114 
1 -1 0 84 0 -82 1 80 0 -25 0 9 1 -11 0 69 
0 -97 1 68 0 70 0 -107 0 69 1 -18 0 -47 0 72 
1 -108 0 66 0 -113 1 68 0 -30 1 -9 0 59 0 -46 
1 44 0 -153 1 122 0 -153 1 -71 0 -105 1 30 0 -96 
0 40 1 -45 0 -63 0 40 1 -27 0 45 0 -113 0 50 
1 47 0 -103 0 11 1 -9 0 -51 0 55 1 -24 0 -98 
0 48 1 -21 0 -44 1 9 0 -98 0 76 1 -10 0 8 
0 -82 1 5 0 19 0 -23 0 21 1 -66 0 41 1 -71 
0 101 0 -67 1 13 0 88 0 -109 1 -134 0 82 1 82 
0 29 0 -50 0 25 3783 2170 300 MP stroke
1 70 0 167 1 76 0 -20 0 60 1 52 0 50 0 -75 
1 123 0 -86 0 123 1 -46 0 -51 0 152 1 -67 0 88 
1 16 0 45 1 23 0 -62 0 99 1 -5 0 89 0 -74 
1 66 0 76 0 -88 1 -14 0 146 0 -101 1 -20 0 119 
0 -105 1 139 0 -113 0 50 1 -33 0 41 0 0 1 -34 
0 -114 0 23 1 -23 0 -125 1 76 0 -31 1 -77 0 75 
1 -102 0 107 0 -33 1 -111 0 48 0 -127 1 28 0 -107 
0 39 1 -43 0 -69 0 43 1 -29 0 46 0 -115 0 57 
1 50 0 -131 0 51 1 -30 0 -37 0 61 1 -101 0 48 
0 -70 0 51 1 -99 0 148 0 -119 1 8 0 -101 0 79 
1 -1 0 -87 1 5 0 82 0 -78 1 -2 0 18 0 -69 
1 7 0 52 1 -1 0 33 0 -88 0 18 1 92 0 -123 
0 31 1 -50 0 73 0 -105 0 70 1 0 0 148 0 -78 
1 63 0 136 0 -1 1 79 0 43 0 -61 0 31 1 50 
0 78 0 -42 1 36 0 73 0 -134 1 121 0 -34 0 112 
1 -66 0 72 1 21 0 -52 0 101 1 5 0 -58 0 87 
1 6 0 14 1 81 0 -88 0 4 1 81 0 63 0 -97 
1 -11 0 72 0 -32 1 -13 0 66 0 -45 1 -17 0 56 
0 -93 0 55 1 -14 0 -99 0 56 1 -19 0 60 0 -50 
1 55 0 -109 0 51 1 -117 0 89 0 -41 1 -122 0 38 
0 -78 0 13 1 -63 0 -96 0 35 1 -44 0 35 0 -75 
1 43 0 -68 0 43 1 -106 0 77 1 -39 0 -106 0 43 
1 56 0 -111 0 40 1 -90 0 61 0 -13 1 -17 0 -102 
0 79 1 -3 0 -91 1 -4 0 94 0 -179 0 115 1 -13 
0 -68 0 27 1 15 0 -56 0 89 1 -67 0 130 1 -151 
0 -116 0 84 1 -44 0 175 0 -81 1 69 0 68 0 -68 
0 65 1 75 0 97 0 -10 1 73 0 113 0 -127 0 17 
1 44 0 82 0 -42 1 44 0 34 0 -50 0 34 1 36 
0 51 0 -60 1 114 0 -59 0 122 1 -73 0 38 1 16 
0 93 0 -72 1 1 0 92 0 -15 1 5 0 73 0 -79 
0 60 1 -10 0 -22 0 70 1 -20 0 37 0 -54 0 29 
1 -21 0 53 0 -59 1 -31 0 55 0 -52 1 -32 0 33 
0 -98 1 56 0 -108 1 71 0 -91 0 59 1 -4 0 -84 
0 87 1 -96 0 35 0 -102 1 -60 0 13 0 -108 1 39 
0 -110 1 41 0 39 0 -108 0 43 1 -35 0 62 0 -113 
1 -30 0 72 0 -61 1 67 0 -114 0 42 1 -29 0 -39 
1 -13 0 -25 1 -5 0 -19 0 11 1 -12 0 3 0 -80 
0 10 1 -1 0 94 3682 2054 300 MP stroke
0 -152 1 86 0 22 0 -87 0 26 1 1 0 32 0 -74 
0 18 1 91 0 14 0 -119 1 -51 0 79 0 -63 1 142 
0 -90 0 68 1 74 0 -24 0 177 1 -12 0 112 1 -24 
0 88 0 -34 1 37 0 40 0 -48 1 35 0 65 0 -50 
1 101 0 -49 0 51 1 14 0 -58 0 111 1 25 0 -76 
0 116 1 1 0 -72 0 98 1 -15 0 89 0 -82 1 81 
0 -92 0 77 1 62 0 -94 0 48 1 -10 0 64 0 -46 
1 -14 0 -40 0 67 1 -32 0 -50 1 -11 0 47 0 -67 
0 37 1 -21 0 56 0 -105 0 58 1 -9 0 -113 0 86 
1 -31 0 -124 0 23 1 -141 0 18 0 -47 1 -45 0 35 
0 -47 0 40 1 -40 0 5 0 -45 0 12 1 -38 0 -31 
0 98 1 -116 0 24 0 -41 0 28 1 -107 0 142 0 -128 
1 64 0 -120 0 65 1 -22 0 -33 1 -20 0 1 0 -72 
1 65 0 -75 0 10 1 4 0 -75 0 97 1 -78 0 26 
0 -63 1 23 0 44 1 91 0 -236 1 48 0 87 0 -127 
0 74 1 101 0 -45 0 59 1 62 0 95 1 81 0 55 
0 -68 0 47 1 63 0 -30 0 82 1 40 0 -50 1 121 
0 -71 1 111 0 -56 0 123 1 -55 0 47 1 17 0 33 
1 6 0 85 1 -5 0 -2 0 73 1 -92 0 135 1 -109 
0 126 0 -105 1 58 0 38 0 -121 1 62 0 43 0 -67 
1 -20 0 21 0 -59 0 25 1 -100 0 61 0 -108 1 81 
0 -105 0 79 1 -12 0 -79 0 66 1 -19 0 36 0 -111 
0 39 1 -42 0 -197 1 101 0 -130 1 -33 0 80 0 -117 
1 49 0 -80 1 41 0 -75 1 -12 0 54 0 -46 1 -29 
0 -43 1 -16 0 69 0 -103 1 5 0 -21 0 76 1 -86 
0 -74 0 78 1 -2 0 -71 0 15 1 1 0 22 0 -60 
1 9 0 107 0 -77 1 -60 0 126 1 -232 0 146 0 -126 
1 121 0 45 0 -113 0 101 1 43 0 -33 0 96 1 171 
0 -17 0 64 1 -24 0 142 1 -120 0 163 0 -52 1 -44 
0 124 0 -20 1 33 0 19 0 -44 0 25 1 27 0 98 
0 -49 1 25 0 31 0 -74 1 99 0 92 0 -149 1 91 
0 85 0 -87 0 77 1 3 0 -23 1 71 0 -97 0 71 
1 59 0 -96 0 50 1 52 0 -135 1 140 0 -185 0 62 
1 123 0 -90 1 24 0 -113 0 14 1 -42 0 67 0 -133 
1 -86 0 1 0 -68 0 17 1 -61 0 -63 1 40 0 -122 
1 51 0 3 0 -45 0 1 1 -30 0 41 0 -63 1 -31 
0 26 0 -108 1 134 0 -142 1 -18 0 71 0 -113 1 -9 
0 -20 1 -1 0 -75 3579 2193 300 MP stroke
0 67 1 -63 0 -2 0 25 1 -85 0 53 1 15 0 -67 
0 20 1 17 0 42 0 -135 1 -25 0 30 0 -70 0 22 
1 164 0 -67 0 146 1 45 0 188 1 -19 0 95 1 -17 
0 68 1 39 0 19 0 -55 0 1 1 136 0 -126 0 72 
1 114 0 -83 0 90 1 43 0 -65 0 128 1 -131 0 195 
0 -60 1 -2 0 105 0 -87 1 17 0 162 0 -88 1 -3 
0 76 0 -21 1 56 0 -45 1 65 0 -45 1 -22 0 66 
0 -114 0 49 1 197 0 13 0 -135 1 -100 0 98 0 -198 
1 -41 0 -184 0 4 1 7 0 11 0 -125 1 19 0 26 
0 -63 0 29 1 -62 0 32 0 -125 0 107 1 -57 0 34 
0 -135 0 49 1 -46 0 41 0 -116 0 100 1 -105 0 -71 
0 132 1 -112 0 -100 0 114 1 -95 0 -95 0 66 1 -94 
0 86 0 -83 1 -72 0 87 0 -62 1 -60 0 -44 0 98 
1 -58 0 21 0 -54 1 30 0 63 0 -199 1 -79 0 -2 
0 174 1 -2 0 209 1 119 0 -48 0 184 1 -82 0 140 
0 -83 1 69 0 58 0 -24 1 68 0 -35 0 56 1 64 
0 48 0 -56 1 57 0 95 0 -43 1 38 0 118 0 -20 
1 -55 0 201 0 -131 1 184 0 7 0 -83 1 127 0 -105 
0 165 1 -20 0 64 0 -74 0 55 1 -22 0 118 0 -145 
0 108 1 -35 0 -30 0 49 1 43 0 -99 0 254 1 67 
0 -299 1 5 0 -301 1 47 0 -128 0 68 1 -83 0 -80 
1 1 0 3 0 -160 1 91 0 7 0 -154 0 15 1 20 
0 15 0 -157 0 41 1 21 0 -140 1 26 0 -160 0 47 
1 -34 0 -139 0 87 1 -102 0 58 0 -147 0 62 1 -68 
0 7 0 -70 1 14 0 -86 1 30 0 -84 0 34 1 44 
0 -132 0 198 1 -269 0 -143 0 28 1 119 0 261 1 174 
0 -8 0 159 1 -55 0 44 1 23 0 108 0 -69 1 77 
0 91 0 -64 1 94 0 71 0 -6 1 -2 0 195 1 -6 
0 100 0 -41 1 130 0 -44 0 153 1 19 0 39 1 31 
0 146 1 -84 0 134 0 -22 1 50 0 -36 0 164 1 -122 
0 144 0 -64 1 -50 0 382 1 -53 0 -194 1 -130 0 -325 
1 30 0 -113 1 -12 0 35 0 -55 1 -25 0 -136 0 58 
1 -99 0 -144 1 84 0 -259 1 18 0 2 0 -148 0 28 
1 24 0 -172 0 27 1 -50 0 -161 1 67 0 -189 0 10 
1 10 0 -160 0 33 1 -123 0 72 0 -48 1 -42 0 26 
0 -59 0 20 1 -94 0 119 0 -20 1 85 0 -499 0 156 
1 138 0 250 1 130 0 196 1 -37 0 72 0 -40 1 128 
0 -63 0 4 1 115 3475 2066 300 MP stroke
0 172 1 10 0 97 1 47 0 137 0 -146 1 157 0 -65 
0 39 1 52 0 84 0 -66 1 167 0 -18 0 98 1 -62 
0 212 1 -79 0 225 1 136 0 152 0 -15 1 72 0 58 
0 -67 0 13 1 98 0 76 0 -85 1 -5 0 81 0 -111 
0 50 1 275 0 -108 1 -339 0 -260 0 5 1 -67 0 16 
0 -53 0 19 1 -148 0 73 0 -71 1 -55 0 -246 0 63 
1 -9 0 150 0 -70 1 9 0 -228 1 -115 0 96 0 -142 
0 10 1 -70 0 -158 1 -10 0 -175 1 14 0 -261 0 8 
1 70 0 -240 1 -44 0 11 0 -175 1 13 0 -145 1 -54 
0 68 0 -284 1 -95 0 64 0 -72 3448 3282 78 MP stroke
0 273 1 136 0 -30 0 221 1 105 0 -30 0 93 1 63 
0 53 0 -100 1 272 0 -11 0 369 1 -46 0 305 1 227 
0 -91 0 366 1 64 0 247 1 163 0 -38 0 149 1 -32 
0 277 0 -109 1 -11 0 120 3999 277 29 MP stroke
0 -210 1 -75 0 2 0 -198 1 -120 0 -165 0 53 1 -62 
0 37 0 -213 1 -205 0 -200 1 -60 0 -277 1 -93 0 -428 
1 -89 0 -274 1 -41 0 -243 1 5 0 -149 4024 3282 23 MP stroke
0 3005 4058 277 2 MP stroke
0 -3005 4060 3282 2 MP stroke
0 3005 4074 277 2 MP stroke
0 -3005 4126 3282 2 MP stroke
0 3005 4163 277 2 MP stroke
0 -3005 4195 3282 2 MP stroke
0 3005 4226 277 2 MP stroke
0 -3005 4255 3282 2 MP stroke
0 3005 4283 277 2 MP stroke
0 -3005 4311 3282 2 MP stroke
0 3005 4338 277 2 MP stroke
0 -3005 4364 3282 2 MP stroke
0 3005 4390 277 2 MP stroke
0 -3005 4416 3282 2 MP stroke
0 3004 4440 277 2 MP stroke
gr

c8
0 sg
2319 3569 mt 
(seconds) s
 319 2005 mt  -90 rotate
(force [N]) s
90 rotate
1950  182 mt 
(force \(experiment\) ack) s

end %%Color Dict

eplot
%%EndObject

epage
end

showpage

%%Trailer
%%EOF
