%!PS-Adobe-3.0 EPSF-3.0
%%Creator: MATLAB, The MathWorks, Inc. Version 8.1.0.604 (R2013a). Operating System: Linux 4.9.0-040900-generic #201612111631 SMP Sun Dec 11 21:33:00 UTC 2016 x86_64.
%%Title: /home/lukas/Universidad/Master/2 Semester/Control Theory for Embedded Systems/lab/5lab/trunk/graphics/ack_pos_pen_exp.eps
%%CreationDate: 12/23/2016  12:11:03
%%DocumentNeededFonts: Helvetica
%%DocumentProcessColors: Cyan Magenta Yellow Black
%%LanguageLevel: 2
%%Pages: 1
%%BoundingBox:   100   241   509   549
%%EndComments

%%BeginProlog
% MathWorks dictionary
/MathWorks 160 dict begin
% definition operators
/bdef {bind def} bind def
/ldef {load def} bind def
/xdef {exch def} bdef
/xstore {exch store} bdef
% operator abbreviations
/c  /clip ldef
/cc /concat ldef
/cp /closepath ldef
/gr /grestore ldef
/gs /gsave ldef
/mt /moveto ldef
/np /newpath ldef
/cm /currentmatrix ldef
/sm /setmatrix ldef
/rm /rmoveto ldef
/rl /rlineto ldef
/s {show newpath} bdef
/sc {setcmykcolor} bdef
/sr /setrgbcolor ldef
/sg /setgray ldef
/w /setlinewidth ldef
/j /setlinejoin ldef
/cap /setlinecap ldef
/rc {rectclip} bdef
/rf {rectfill} bdef
% page state control
/pgsv () def
/bpage {/pgsv save def} bdef
/epage {pgsv restore} bdef
/bplot /gsave ldef
/eplot {stroke grestore} bdef
% orientation switch
/portraitMode 0 def /landscapeMode 1 def /rotateMode 2 def
% coordinate system mappings
/dpi2point 0 def
% font control
/FontSize 0 def
/FMS {/FontSize xstore findfont [FontSize 0 0 FontSize neg 0 0]
  makefont setfont} bdef
/reencode {exch dup where {pop load} {pop StandardEncoding} ifelse
  exch dup 3 1 roll findfont dup length dict begin
  { 1 index /FID ne {def}{pop pop} ifelse } forall
  /Encoding exch def currentdict end definefont pop} bdef
/isroman {findfont /CharStrings get /Agrave known} bdef
/FMSR {3 1 roll 1 index dup isroman {reencode} {pop pop} ifelse
  exch FMS} bdef
/csm {1 dpi2point div -1 dpi2point div scale neg translate
 dup landscapeMode eq {pop -90 rotate}
  {rotateMode eq {90 rotate} if} ifelse} bdef
% line types: solid, dotted, dashed, dotdash
/SO { [] 0 setdash } bdef
/DO { [.5 dpi2point mul 4 dpi2point mul] 0 setdash } bdef
/DA { [6 dpi2point mul] 0 setdash } bdef
/DD { [.5 dpi2point mul 4 dpi2point mul 6 dpi2point mul 4
  dpi2point mul] 0 setdash } bdef
% macros for lines and objects
/L {lineto stroke} bdef
/MP {3 1 roll moveto 1 sub {rlineto} repeat} bdef
/AP {{rlineto} repeat} bdef
/PDlw -1 def
/W {/PDlw currentlinewidth def setlinewidth} def
/PP {closepath eofill} bdef
/DP {closepath stroke} bdef
/MR {4 -2 roll moveto dup  0 exch rlineto exch 0 rlineto
  neg 0 exch rlineto closepath} bdef
/FR {MR stroke} bdef
/PR {MR fill} bdef
/L1i {{currentfile picstr readhexstring pop} image} bdef
/tMatrix matrix def
/MakeOval {newpath tMatrix currentmatrix pop translate scale
0 0 1 0 360 arc tMatrix setmatrix} bdef
/FO {MakeOval stroke} bdef
/PO {MakeOval fill} bdef
/PD {currentlinewidth 2 div 0 360 arc fill
   PDlw -1 eq not {PDlw w /PDlw -1 def} if} def
/FA {newpath tMatrix currentmatrix pop translate scale
  0 0 1 5 -2 roll arc tMatrix setmatrix stroke} bdef
/PA {newpath tMatrix currentmatrix pop	translate 0 0 moveto scale
  0 0 1 5 -2 roll arc closepath tMatrix setmatrix fill} bdef
/FAn {newpath tMatrix currentmatrix pop translate scale
  0 0 1 5 -2 roll arcn tMatrix setmatrix stroke} bdef
/PAn {newpath tMatrix currentmatrix pop translate 0 0 moveto scale
  0 0 1 5 -2 roll arcn closepath tMatrix setmatrix fill} bdef
/vradius 0 def /hradius 0 def /lry 0 def
/lrx 0 def /uly 0 def /ulx 0 def /rad 0 def
/MRR {/vradius xdef /hradius xdef /lry xdef /lrx xdef /uly xdef
  /ulx xdef newpath tMatrix currentmatrix pop ulx hradius add uly
  vradius add translate hradius vradius scale 0 0 1 180 270 arc 
  tMatrix setmatrix lrx hradius sub uly vradius add translate
  hradius vradius scale 0 0 1 270 360 arc tMatrix setmatrix
  lrx hradius sub lry vradius sub translate hradius vradius scale
  0 0 1 0 90 arc tMatrix setmatrix ulx hradius add lry vradius sub
  translate hradius vradius scale 0 0 1 90 180 arc tMatrix setmatrix
  closepath} bdef
/FRR {MRR stroke } bdef
/PRR {MRR fill } bdef
/MlrRR {/lry xdef /lrx xdef /uly xdef /ulx xdef /rad lry uly sub 2 div def
  newpath tMatrix currentmatrix pop ulx rad add uly rad add translate
  rad rad scale 0 0 1 90 270 arc tMatrix setmatrix lrx rad sub lry rad
  sub translate rad rad scale 0 0 1 270 90 arc tMatrix setmatrix
  closepath} bdef
/FlrRR {MlrRR stroke } bdef
/PlrRR {MlrRR fill } bdef
/MtbRR {/lry xdef /lrx xdef /uly xdef /ulx xdef /rad lrx ulx sub 2 div def
  newpath tMatrix currentmatrix pop ulx rad add uly rad add translate
  rad rad scale 0 0 1 180 360 arc tMatrix setmatrix lrx rad sub lry rad
  sub translate rad rad scale 0 0 1 0 180 arc tMatrix setmatrix
  closepath} bdef
/FtbRR {MtbRR stroke } bdef
/PtbRR {MtbRR fill } bdef
/stri 6 array def /dtri 6 array def
/smat 6 array def /dmat 6 array def
/tmat1 6 array def /tmat2 6 array def /dif 3 array def
/asub {/ind2 exch def /ind1 exch def dup dup
  ind1 get exch ind2 get sub exch } bdef
/tri_to_matrix {
  2 0 asub 3 1 asub 4 0 asub 5 1 asub
  dup 0 get exch 1 get 7 -1 roll astore } bdef
/compute_transform {
  dmat dtri tri_to_matrix tmat1 invertmatrix 
  smat stri tri_to_matrix tmat2 concatmatrix } bdef
/ds {stri astore pop} bdef
/dt {dtri astore pop} bdef
/db {2 copy /cols xdef /rows xdef mul dup 3 mul string
  currentfile 
  3 index 0 eq {/ASCIIHexDecode filter}
  {/ASCII85Decode filter 3 index 2 eq {/RunLengthDecode filter} if }
  ifelse exch readstring pop
  dup 0 3 index getinterval /rbmap xdef
  dup 2 index dup getinterval /gbmap xdef
  1 index dup 2 mul exch getinterval /bbmap xdef pop pop}bdef
/it {gs np dtri aload pop moveto lineto lineto cp c
  cols rows 8 compute_transform 
  rbmap gbmap bbmap true 3 colorimage gr}bdef
/il {newpath moveto lineto stroke}bdef
currentdict end def
%%EndProlog

%%BeginSetup
MathWorks begin

0 cap

end
%%EndSetup

%%Page: 1 1
%%BeginPageSetup
%%PageBoundingBox:   100   241   509   549
MathWorks begin
bpage
%%EndPageSetup

%%BeginObject: obj1
bplot

/dpi2point 12 def
portraitMode 1200 6588 csm

    0     0  4915  3687 rc
85 dict begin %Colortable dictionary
/c0 { 0.000000 0.000000 0.000000 sr} bdef
/c1 { 1.000000 1.000000 1.000000 sr} bdef
/c2 { 0.900000 0.000000 0.000000 sr} bdef
/c3 { 0.000000 0.820000 0.000000 sr} bdef
/c4 { 0.000000 0.000000 0.800000 sr} bdef
/c5 { 0.910000 0.820000 0.320000 sr} bdef
/c6 { 1.000000 0.260000 0.820000 sr} bdef
/c7 { 0.000000 0.820000 0.820000 sr} bdef
c0
1 j
1 sg
   0    0 4916 3688 rf
6 w
0 3005 3809 0 0 -3005 639 3281 4 MP
PP
-3809 0 0 3005 3809 0 0 -3005 639 3281 5 MP stroke
4 w
DO
0 sg
 639 3281 mt  639  277 L
 639  277 mt  639  277 L
1908 3281 mt 1908  277 L
1908  277 mt 1908  277 L
3178 3281 mt 3178  277 L
3178  277 mt 3178  277 L
4448 3281 mt 4448  277 L
4448  277 mt 4448  277 L
 639 3281 mt 4448 3281 L
4448 3281 mt 4448 3281 L
 639 2980 mt 4448 2980 L
4448 2980 mt 4448 2980 L
 639 2680 mt 4448 2680 L
4448 2680 mt 4448 2680 L
 639 2379 mt 4448 2379 L
4448 2379 mt 4448 2379 L
 639 2079 mt 4448 2079 L
4448 2079 mt 4448 2079 L
 639 1779 mt 4448 1779 L
4448 1779 mt 4448 1779 L
 639 1478 mt 4448 1478 L
4448 1478 mt 4448 1478 L
 639 1178 mt 4448 1178 L
4448 1178 mt 4448 1178 L
 639  877 mt 4448  877 L
4448  877 mt 4448  877 L
 639  577 mt 4448  577 L
4448  577 mt 4448  577 L
 639  277 mt 4448  277 L
4448  277 mt 4448  277 L
SO
6 w
 639 3281 mt 4448 3281 L
 639  276 mt 4448  276 L
 639 3281 mt  639  276 L
4448 3281 mt 4448  276 L
 639 3281 mt 4448 3281 L
 639 3281 mt  639  276 L
 639 3281 mt  639 3242 L
 639  277 mt  639  315 L
%%IncludeResource: font Helvetica
/Helvetica /ISOLatin1Encoding 120 FMSR

 606 3426 mt 
(0) s
1908 3281 mt 1908 3242 L
1908  277 mt 1908  315 L
1842 3426 mt 
(50) s
3178 3281 mt 3178 3242 L
3178  277 mt 3178  315 L
3078 3426 mt 
(100) s
4448 3281 mt 4448 3242 L
4448  277 mt 4448  315 L
4348 3426 mt 
(150) s
 639 3281 mt  677 3281 L
4448 3281 mt 4409 3281 L
 468 3325 mt 
(-5) s
 639 2980 mt  677 2980 L
4448 2980 mt 4409 2980 L
 468 3024 mt 
(-4) s
 639 2680 mt  677 2680 L
4448 2680 mt 4409 2680 L
 468 2724 mt 
(-3) s
 639 2379 mt  677 2379 L
4448 2379 mt 4409 2379 L
 468 2423 mt 
(-2) s
 639 2079 mt  677 2079 L
4448 2079 mt 4409 2079 L
 468 2123 mt 
(-1) s
 639 1779 mt  677 1779 L
4448 1779 mt 4409 1779 L
 538 1823 mt 
(0) s
 639 1478 mt  677 1478 L
4448 1478 mt 4409 1478 L
 538 1522 mt 
(1) s
 639 1178 mt  677 1178 L
4448 1178 mt 4409 1178 L
 538 1222 mt 
(2) s
 639  877 mt  677  877 L
4448  877 mt 4409  877 L
 538  921 mt 
(3) s
 639  577 mt  677  577 L
4448  577 mt 4409  577 L
 538  621 mt 
(4) s
 639  277 mt  677  277 L
4448  277 mt 4409  277 L
 538  321 mt 
(5) s
 639 3281 mt 4448 3281 L
 639  276 mt 4448  276 L
 639 3281 mt  639  276 L
4448 3281 mt 4448  276 L
gs 639 277 3810 3005 rc
/c8 { 0.000000 0.000000 1.000000 sr} bdef
c8
0 -2447 0 2437 1 -3 0 -9 1 -3 0 -8 1 -3 0 -7 
1 -3 0 -6 1 -2 0 -5 1 -2 0 -4 1 -1 0 -1 
1 -1 1 0 -1 0 2 2 0 2 1 1 0 4 1 2 
0 3 1 2 0 7 1 2 0 8 1 3 0 9 1 2 
0 9 1 2 0 7 1 3 1 0 1 0 1 0 1 0 
1 0 1 0 1 0 1 0 1 0 1 0 1 0 1 0 
1 0 1 0 1 0 1 0 1 0 1 0 1 0 1 0 
1 0 1 0 1 0 1 0 1 0 1 0 1 0 1 0 
1 0 1 0 1 0 1 0 1 0 1 0 1 0 1 0 
1 0 1 0 1 0 1 0 1 0 1 0 1 0 1 0 
1 0 1 0 1 0 1 0 1 0 1 0 1 0 1 0 
1 0 1 0 1 0 1 0 1 0 1 0 1 0 1 0 
1 0 1 0 1 0 1 0 1 0 1 0 1 0 1 0 
1 0 1 0 1 0 1 0 1 0 1 0 1 0 1 0 
1 0 1 0 1 0 1 0 1 0 1 0 1 0 1 0 
1 0 1 0 1 0 1 0 1 0 1 0 1 0 1 0 
1 0 1 0 1 0 1 0 1 0 1 0 1 0 1 0 
1 0 1 0 1 0 1 0 1 0 1 0 1 0 1 0 
1 0 1 0 1 0 1 0 1 0 1 0 1 0 1 0 
1 0 1 0 1 0 1 0 1 0 1 0 1 0 1 0 
1 0 1 0 1 0 1 0 1 0 1 0 1 0 1 0 
1 0 1 0 1 0 1 0 1 0 1 0 1 0 1 0 
1 0 1 0 1 0 1 0 1 0 1 0 1 0 1 0 
1 0 1 0 1 0 1 0 1 0 1 0 1 0 1 0 
1 0 1 0 1 0 1 0 1 0 1 0 1 0 1 0 
1 0 1 0 1 0 1 0 1 0 1 0 1 0 1 0 
1 0 1 0 1 0 1 0 1 0 1 0 1 0 1 0 
1 0 1 0 1 0 1 0 1 0 1 0 1 0 1 0 
1 0 1 0 1 0 1 0 1 0 1 0 1 0 1 0 
1 0 1 0 1 0 1 0 1 0 1 0 1 0 1 0 
1 0 1 0 1 0 1 0 1 0 1 0 1 0 1 0 
1 0 1 0 1 0 1 0 1 0 1 0 1 0 1 0 
1 0 1 0 1 0 1 0 1 0 1 0 1 0 1 0 
1 0 1 0 1 0 1 0 1 0 1 0 1 0 1 0 
1 0 1 0 1 0 1 0 1 0 1 0 1 0 1 0 
1 0 1 0 1 0 1 0 1 0 1 0 1 0 1 0 
1 0 1 0 1 0 1 0 1 0 1 0 1 0 1 0 
1 0 1 0 1 0 1419 835 300 MP stroke
1 0 1 0 1 0 1 0 1 0 1 0 1 0 1 0 
1 0 1 0 1 0 1 0 1 0 1 0 1 0 1 0 
1 0 1 0 1 0 1 0 1 0 1 0 1 0 1 0 
1 0 1 0 1 0 1 0 1 0 1 0 1 0 1 0 
1 0 1 0 1 0 1 0 1 0 1 0 1 0 1 0 
1 0 1 0 1 0 1 0 1 0 1 0 1 0 1 0 
1 0 1 0 1 0 1 0 1 0 1 0 1 0 1 0 
1 0 1 0 1 0 1 0 1 0 1 0 1 0 1 0 
1 0 1 0 1 0 1 0 1 0 1 0 1 0 1 0 
1 0 1 0 1 0 1 0 1 0 1 0 1 0 1 0 
1 0 1 0 1 0 1 0 1 0 1 0 1 0 1 0 
1 0 1 0 1 0 1 0 1 0 1 0 1 0 1 0 
1 0 1 0 1 0 1 0 1 0 1 0 1 0 1 0 
1 0 1 0 1 0 1 0 1 0 1 0 1 0 1 0 
1 0 1 0 1 0 1 0 1 0 1 0 1 0 1 0 
1 0 1 0 1 0 1 0 1 0 1 0 1 0 1 0 
1 0 1 0 1 0 1 0 1 0 1 0 1 0 1 0 
1 0 1 0 1 0 1 0 1 0 1 0 1 0 1 0 
1 0 1 0 1 0 1 0 1 0 1 0 1 0 1 0 
1 0 1 0 1 0 1 0 1 0 1 0 1 0 1 0 
1 0 1 0 1 0 1 0 1 0 1 0 1 0 1 0 
1 0 1 0 1 0 1 0 1 0 1 0 1 0 1 0 
1 0 1 0 1 0 1 0 1 0 1 0 1 0 1 0 
1 0 1 0 1 0 1 0 1 0 1 0 1 0 1 0 
1 0 1 0 1 0 1 0 1 0 1 0 1 0 1 0 
1 0 1 0 1 0 1 0 1 0 1 0 1 0 1 0 
1 0 1 0 1 0 1 0 1 0 1 0 1 0 1 0 
1 0 1 0 1 0 1 0 1 0 1 0 1 0 1 0 
1 0 1 0 1 0 1 0 1 0 1 0 1 0 1 0 
1 0 1 0 1 0 1 0 1 0 1 0 1 0 1 0 
1 0 1 0 1 0 1 0 1 0 1 0 1 0 1 0 
1 0 1 0 1 0 1 0 1 0 1 0 1 0 1 0 
1 0 1 0 1 0 1 0 1 0 1 0 1 0 1 0 
1 0 1 0 1 0 1 0 1 0 1 0 1 0 1 0 
1 0 1 0 1 0 1 0 1 0 1 0 1 0 1 0 
1 0 1 0 1 0 1 0 1 0 1 0 1 0 1 0 
1 0 1 0 1 0 1 0 1 0 1 0 1 0 1 0 
1 0 1 0 1 0 1120 835 300 MP stroke
1 0 1 0 1 0 1 0 1 0 1 0 1 0 1 0 
1 0 1 0 1 0 1 0 1 0 1 0 1 0 1 0 
1 0 1 0 1 0 1 0 1 0 1 0 1 0 1 0 
1 0 1 0 1 0 1 0 1 0 1 0 1 0 1 0 
1 0 1 0 1 0 1 0 1 0 1 0 1 0 1 0 
1 0 1 0 1 0 1 0 1 0 1 0 1 0 1 0 
1 0 1 0 1 0 1 0 1 0 1 0 1 0 1 0 
1 0 1 0 1 0 1 0 1 0 1 0 1 0 1 0 
1 0 1 0 1 0 1 0 1 0 1 0 1 0 1 0 
1 0 1 0 1 0 1 0 1 0 1 0 1 0 1 0 
1 0 1 0 1 0 1 0 1 0 1 0 1 0 1 0 
1 0 1 0 1 0 1 0 1 0 1 0 1 0 1 0 
1 0 1 0 1 0 1 0 1 0 1 0 1 0 1 0 
1 0 1 0 1 0 1 0 1 0 1 0 1 0 1 0 
1 0 1 0 1 0 1 0 1 0 1 0 1 0 1 0 
1 0 1 0 1 0 1 0 1 0 1 0 1 0 1 0 
1 0 1 0 1 0 1 0 1 0 1 0 1 0 1 0 
1 0 1 0 1 0 1 0 1 0 1 0 1 0 1 0 
1 0 1 0 1 0 1 0 1 0 1 0 1 0 1 0 
1 0 1 0 1 0 1 0 1 0 1 0 1 0 1 0 
1 0 1 0 1 0 1 0 1 0 1 0 1 0 1 0 
1 0 1 0 1 0 1 0 1 0 1 0 1 0 1 0 
1 0 1 0 1 0 1 0 1 0 1 0 1 0 1 0 
1 0 1 0 1 0 1 0 1 0 1 0 1 0 1 0 
1 0 1 0 1 0 1 0 1 0 1 0 1 0 1 0 
1 0 1 0 1 0 1 0 1 0 1 0 1 0 1 0 
1 0 1 0 1 0 1 0 1 0 1 0 1 0 1 0 
1 0 1 0 1 0 1 0 1 0 1 0 1 0 1 0 
1 0 1 0 1 0 1 0 1 0 1 0 1 0 1 0 
1 0 1 0 1 0 1 0 1 0 1 0 1 0 1 0 
1 0 1 0 1 0 1 0 1 0 1 0 1 0 1 0 
1 0 1 0 1 0 1 0 1 0 1 0 1 0 1 0 
1 0 1 0 1 0 1 0 1 0 1 0 1 0 1 0 
1 0 1 0 1 0 1 0 1 0 1 0 1 0 1 0 
1 0 1 0 1 0 1 0 1 0 1 0 1 0 1 0 
1 0 1 0 1 0 1 0 1 0 1 0 1 0 1 0 
1 0 1 0 1 0 1 0 1 0 1 0 1 0 1 0 
1 0 1 0 1 0 821 835 300 MP stroke
1 0 1 0 1 0 1 0 1 0 1 0 1 0 1 0 
1 0 1 0 1 0 1 0 1 0 1 0 1 0 1 0 
1 0 1 0 1 0 1 0 1 0 1 0 1 0 1 0 
1 0 1 0 1 0 1 0 1 0 1 0 1 0 1 0 
1 0 1 0 1 0 1 0 1 0 1 0 1 0 1 0 
1 0 1 0 1 0 1 0 1 0 1 0 1 0 1 0 
1 0 1 0 1 0 1 0 1 0 1 0 1 0 1 0 
1 0 1 0 1 0 1 0 1 0 1 0 1 0 1 0 
1 0 1 0 1 0 1 0 1 0 1 0 1 0 1 0 
1 0 1 0 1 0 1 0 1 0 1 0 1 0 1 0 
1 0 1 0 1 0 1 0 1 0 1 0 1 0 1 0 
1 0 1 0 1 0 1 0 0 -1887 1 0 1 0 1 0 
1 0 1 0 1 0 1 0 1 0 1 0 1 0 1 0 
1 0 1 0 1 0 1 0 1 0 1 0 1 0 1 0 
1 0 1 0 1 0 1 0 1 0 1 0 1 0 1 0 
1 0 1 0 1 0 1 0 1 0 1 0 1 0 1 0 
1 0 1 0 1 0 1 0 1 0 1 0 1 0 1 0 
1 0 1 0 1 0 1 0 1 0 1 0 1 0 1 0 
1 0 1 0 1 0 1 0 1 0 1 0 1 0 1 0 
1 0 1 0 1 0 1 0 1 0 1 0 1 0 1 0 
1 0 1 0 1 0 1 0 1 0 1 0 1 0 1 0 
1 0 1 0 1 0 1 0 1 0 1 0 1 0 1 0 
1 0 1 0 1 0 1 0 1 0 1 0 1 0 639 2722 184 MP stroke
0 -2446 0 2443 1 -3 0 -9 1 -2 0 -9 1 -2 0 -9 
1 -2 0 -7 1 -3 0 -6 1 -2 0 -6 1 -1 0 -3 
1 -2 0 -3 1 -1 0 -1 1 -1 1 -1 1 1 0 2 
1 1 0 3 1 2 0 4 1 2 0 6 1 2 0 7 
1 2 0 8 1 3 0 9 1 3 0 9 1 3 0 10 
0 -2447 1723 3282 42 MP stroke
0 2447 1 -2 0 -6 1 -2 0 -8 1 -3 0 -7 1 -3 
0 -7 1 -2 0 -6 1 -2 0 -6 1 -1 0 -5 1 -1 
0 -4 1 -1 0 -2 1 -1 1 0 1 0 -1 0 2 2 
0 2 1 1 0 4 1 1 0 5 1 2 0 6 1 2 
0 4 1 2 0 7 1 3 0 7 1 3 0 8 1 2 
0 6 0 -2445 1764 3282 43 MP stroke
0 -2447 0 2444 1 -2 0 -8 1 -2 0 -7 1 -2 0 -7 
1 -2 0 -6 1 -2 0 -6 1 -1 0 -5 1 -1 0 -4 
1 -1 0 -3 1 -1 1 -1 1 0 1 1 0 1 1 1 
0 2 1 1 0 4 1 1 0 5 1 2 0 5 1 2 
0 7 1 2 0 7 1 2 0 7 1 3 0 7 1 3 
0 -2446 1805 3282 42 MP stroke
0 -2446 0 2439 1 -2 0 -6 1 -3 0 -4 1 -2 0 -6 
1 -2 0 -5 1 -2 0 -5 1 -1 0 -4 1 -1 0 -3 
1 -1 0 -2 1 -1 1 -1 1 1 1 1 0 2 1 1 
0 3 1 1 0 4 1 1 0 5 1 2 0 5 1 2 
0 6 1 2 0 4 1 3 0 6 1 3 0 7 0 -2447 
1847 3282 41 MP stroke
0 -2442 0 2394 1 -23 0 -70 1 -23 0 -67 1 -22 0 -64 
1 -20 0 -59 1 -19 0 -54 1 -17 0 -49 1 -15 0 -44 
1 -14 0 -39 1 -13 0 -36 1 -11 0 -33 1 -10 0 -31 
1 -9 0 -29 1 -9 0 -27 1 -10 0 -17 1 -9 0 -24 
1 -4 0 -3 1 -1 1 -1 1 -1 1 0 1 0 1 1 
1 0 1 1 0 1 2 2 0 1 1 1 0 1 1 1 
0 2 1 1 0 3 1 1 0 2 1 2 0 3 1 2 
0 4 1 2 0 5 1 2 0 6 1 2 0 7 1 3 
0 8 1 3 0 9 1 2 0 6 1 2 0 1 0 -1 
1 3 1 0 0 -2 1 -1 0 -4 1 -2 0 -6 1 -2 
0 -8 1 -3 0 -8 1 -3 0 -6 1 -3 0 -8 1 -3 
0 -7 1 -2 0 -7 1 -2 0 -6 1 -2 0 -6 1 -2 
0 -6 1 -2 0 -5 1 -2 0 -6 1 -2 0 -6 1 -2 
0 -6 1 -2 0 -7 1 -2 0 -8 1 -3 0 -8 1 -3 
0 -9 1 -3 0 -8 1 -2 0 -4 1 -2 0 -3 1 -1 
1 0 0 2 1 1 0 5 1 1 0 6 1 3 0 7 
1 3 0 10 1 3 0 10 1 3 0 10 1 3 0 9 
1 3 0 9 1 3 0 9 1 3 0 9 1 3 0 7 
1 2 0 1 1 1 1 -1 0 -4 1 -1 0 -5 1 -2 
0 -5 1 -2 0 -5 1 -2 0 -5 1 -2 0 -6 1 -1 
0 -6 1 -1 0 -5 1 -2 0 -4 1 -1 0 -3 1 -1 
0 -3 1 -1 1 -1 0 0 2 2 0 1 1 1 0 3 
1 2 0 2 1 1 0 5 1 1 0 5 1 1 0 5 
1 2 0 4 1 2 0 4 1 1 0 3 1 1 1 0 
1 0 -1 0 2 -2 0 -2 1 -1 0 -1 1 -1 0 -2 
1 -1 0 -1 1 -1 0 -2 1 -1 0 -2 2 -2 0 -1 
1 -1 0 -1 1 -1 1 -1 1 0 1 0 1 0 1 0 
-1 0 2 2 0 1 1 1 0 1 1 1 0 1 1 1 
0 2 1 1 0 2 1 1 0 1 1 1 0 2 1 1 
0 1 2 2 1 1 1 0 1 1 1 0 1 0 1 0 
1 0 1 0 1 -1 1 -1 0 -1 2 -2 0 -1 1 -1 
0 -2 2 -2 0 -1 1 -1 0 -2 2 -2 0 -2 2 -2 
1 -1 1 -1 1 0 1 0 1 0 0 1 2 2 0 1 
2 2 0 2 1 1 0 1 1 1 0 1 1 1 0 1 
1 1 0 2 2 2 1 1 1 1 1 1 1 1 1 0 
1 0 1 0 1 0 1 0 1 -1 0 -1 2 -2 0 -1 
1 -1 0 -1 1 -1 0 -1 1 -1 0 -2 1 -1 0 -2 
2 -2 0 -2 2 -2 3890 1789 300 MP stroke
1 -1 1 -1 1 -1 1 0 1 1 1 0 -1 0 2 2 
1 1 0 2 1 1 0 1 1 1 0 2 1 1 0 1 
1 1 0 2 1 1 0 2 1 1 0 1 1 1 0 1 
1 1 0 1 2 2 1 0 1 1 1 0 1 -1 1 0 
-1 0 2 -2 1 -1 0 -2 1 -1 0 -1 1 -1 0 -2 
1 -1 0 -2 1 -1 0 -3 1 -1 0 -1 1 -1 0 -2 
1 -1 0 -2 1 -1 0 -1 1 -1 1 -1 1 -1 1 0 
1 0 1 1 0 2 2 2 0 1 1 1 0 2 1 1 
0 2 1 1 0 3 1 1 0 2 1 1 0 1 1 1 
0 2 1 1 1 1 1 0 1 0 1 0 1 0 1 0 
1 0 1 0 1 0 1 0 1 0 1 -1 0 -2 2 -2 
0 -1 1 -1 0 -1 1 -1 0 -1 1 -1 0 -1 1 -1 
0 -2 2 -2 0 -1 2 -2 1 -1 1 0 1 0 1 -1 
1 1 1 1 0 1 2 2 0 1 1 1 0 1 1 1 
0 2 1 1 0 1 1 1 0 1 1 1 0 2 2 2 
1 1 1 1 1 1 1 1 1 0 1 0 1 0 1 0 
1 -1 0 -1 2 -2 0 -1 1 -1 0 -1 1 -1 0 -2 
1 -1 0 -1 1 -1 0 -2 1 -1 0 -1 1 -1 0 -2 
1 -1 0 -1 1 -1 1 -1 1 -1 1 -1 1 0 1 0 
0 1 2 2 0 1 1 1 0 1 1 1 0 2 1 1 
0 1 1 1 0 2 1 1 0 2 1 1 0 1 1 1 
0 1 1 1 1 1 1 1 1 0 1 0 1 0 1 0 
1 0 1 1 1 0 1 -1 1 -1 0 -1 2 -2 0 -1 
1 -1 0 -1 1 -1 0 -1 1 -1 0 -1 1 -1 0 -2 
2 -2 0 -1 1 -1 1 -1 1 -1 1 -1 1 -1 1 0 
1 0 1 1 0 1 2 2 0 2 2 2 0 2 1 1 
0 1 1 1 0 2 2 2 0 1 1 1 0 1 2 2 
1 1 1 0 1 1 1 0 1 0 1 0 1 0 1 -1 
0 -2 2 -2 0 -1 1 -1 0 -2 1 -1 0 -1 1 -1 
0 -1 1 -1 0 -2 1 -1 0 -1 1 -1 0 -1 1 -1 
0 -1 1 -1 1 -1 1 -1 1 0 1 0 1 0 0 1 
2 2 0 1 1 1 0 1 1 1 0 2 1 1 0 1 
1 1 0 1 1 1 0 2 1 1 0 1 1 1 0 1 
1 1 1 1 1 1 1 0 1 1 1 0 1 0 1 0 
1 0 1 0 1 -1 0 -1 2 -2 1 -1 0 -2 1 -1 
0 -1 1 -1 0 -1 1 -1 0 -2 2 -2 0 -2 2 -2 
0 -1 2 -2 1 0 1 0 1 0 1 1 1 1 0 1 
2 2 0 1 1 1 3670 1784 300 MP stroke
0 2 1 1 0 1 1 1 0 1 1 1 0 2 1 1 
0 1 1 1 1 1 1 1 1 1 1 1 1 1 1 0 
1 0 1 0 1 0 1 -1 0 -1 2 -2 0 -2 2 -2 
0 -2 1 -1 0 -2 1 -1 0 -1 1 -1 0 -1 1 -1 
0 -2 1 -1 0 -1 2 -2 1 -1 1 0 1 0 1 0 
1 1 0 1 2 2 0 1 1 1 0 2 1 1 0 1 
1 1 0 2 1 1 0 1 1 1 0 2 1 1 0 1 
2 2 1 1 1 0 1 1 1 0 1 0 1 0 1 0 
1 0 1 -1 1 -1 1 -1 0 -2 2 -2 0 -2 1 -1 
0 -1 1 -1 0 -1 1 -1 0 -2 1 -1 0 -1 1 -1 
0 -1 2 -2 1 -1 1 -1 1 0 1 0 1 1 1 1 
1 1 0 2 1 1 0 1 1 1 0 2 1 1 0 1 
1 1 0 2 1 1 0 2 1 1 0 1 1 1 0 1 
1 1 0 1 2 2 1 1 1 0 1 0 1 0 1 0 
0 -1 2 -2 0 -1 1 -1 0 -1 1 -1 0 -2 1 -1 
0 -2 1 -1 0 -2 1 -1 0 -2 1 -1 0 -2 1 -1 
0 -2 1 -1 0 -2 2 -2 1 -1 1 -1 1 0 1 1 
0 1 2 2 0 2 1 1 0 2 1 1 0 2 1 1 
0 3 1 1 0 3 1 1 0 2 1 1 0 3 1 1 
0 2 1 1 0 2 2 2 0 1 1 1 1 1 1 0 
1 -1 1 -1 0 -2 1 -1 0 -1 1 -1 0 -3 1 -1 
0 -3 1 -1 0 -3 1 -2 0 -3 1 -1 0 -3 1 -2 
0 -3 1 -1 0 -3 1 -1 0 -2 1 -1 0 -1 1 -1 
0 -1 1 -1 1 -1 1 0 0 1 2 2 0 2 1 1 
0 3 1 1 0 3 1 1 0 4 1 1 0 4 1 2 
0 4 1 1 0 4 1 1 0 4 1 1 0 3 1 1 
0 3 1 1 0 1 1 1 0 2 1 1 1 0 1 0 
-1 0 2 -2 0 -1 1 -1 0 -3 1 -1 0 -4 1 -1 
0 -4 1 -1 0 -5 1 -1 0 -5 1 -2 0 -4 1 -2 
0 -5 1 -1 0 -4 1 -2 0 -3 1 -2 0 -3 1 -1 
0 -2 1 -1 1 -1 1 0 0 1 2 2 0 3 1 1 
0 4 1 1 0 5 1 1 0 5 1 2 0 5 1 2 
0 6 1 2 0 5 1 2 0 5 1 2 0 4 1 2 
0 4 1 1 0 3 1 1 0 2 1 1 1 0 1 0 
-1 0 2 -2 0 -3 1 -1 0 -4 1 -1 0 -5 1 -2 
0 -5 1 -2 0 -6 1 -2 0 -7 1 -2 0 -6 1 -2 
0 -7 1 -2 0 -5 1 -2 0 -5 1 -1 0 -4 1 -2 
0 -3 1 -1 1 -1 3479 1823 300 MP stroke
1 0 1 1 0 2 1 1 0 3 1 1 0 5 1 2 
0 5 1 2 0 6 1 2 0 6 1 3 0 7 1 2 
0 7 1 3 0 8 1 2 0 8 1 2 0 7 1 2 
0 6 1 2 0 4 1 1 0 4 1 1 1 0 1 0 
0 -2 1 -1 0 -3 1 -1 0 -5 1 -1 0 -6 1 -2 
0 -7 1 -2 0 -8 1 -3 0 -8 1 -3 0 -9 1 -3 
0 -9 1 -3 0 -10 1 -3 0 -8 1 -3 0 -8 1 -2 
0 -7 1 -2 0 -6 1 -1 0 -3 1 -1 1 0 1 1 
0 3 1 1 0 4 1 2 0 6 1 2 0 8 1 2 
0 9 1 3 0 9 1 3 0 9 1 3 0 9 1 2 
0 8 1 2 0 6 1 1 1 1 0 -2 1 -1 0 -4 
1 -2 0 -4 1 -2 0 -5 1 -2 0 -4 1 -2 0 -5 
1 -1 0 -4 1 -2 0 -4 1 -1 0 -3 1 -1 0 -3 
2 -2 1 0 1 0 -1 0 2 2 0 1 1 1 0 3 
1 1 0 4 1 1 0 4 1 1 0 3 1 1 0 4 
1 1 0 3 1 1 0 3 1 1 1 0 1 -1 0 -1 
1 -1 0 -2 1 -1 0 -1 1 -1 0 -2 1 -1 0 -1 
1 -1 0 -1 2 -2 1 -1 1 -1 1 0 1 0 1 0 
0 1 2 2 1 1 0 2 1 1 0 1 1 1 0 1 
1 1 0 2 1 1 0 2 2 2 0 2 2 2 1 1 
1 1 1 0 1 1 1 0 1 0 1 -1 1 -1 0 -1 
2 -2 0 -2 1 -1 0 -1 1 -1 0 -2 1 -1 0 -2 
1 -1 0 -2 1 -1 0 -2 2 -2 0 -2 2 -2 1 -1 
1 0 1 0 1 1 0 1 2 2 0 1 1 1 0 2 
1 1 0 2 1 1 0 3 1 1 0 2 1 1 0 2 
1 1 0 2 1 1 0 1 1 1 0 2 1 1 0 1 
2 2 1 0 1 0 1 -1 1 -1 0 -1 1 -1 0 -1 
1 -1 0 -2 1 -1 0 -3 1 -1 0 -3 1 -1 0 -3 
1 -1 0 -3 1 -1 0 -2 1 -1 0 -3 1 -1 0 -1 
1 -1 0 -2 1 -1 0 -1 1 -1 1 0 1 0 0 1 
2 2 0 1 1 1 0 3 1 1 0 2 1 2 0 3 
1 1 0 3 1 1 0 4 1 1 0 3 1 1 0 4 
1 1 0 2 1 1 0 3 1 1 0 2 1 1 1 1 
1 0 1 0 0 -1 2 -2 0 -2 1 -1 0 -3 1 -1 
0 -4 1 -1 0 -4 1 -1 0 -4 1 -2 0 -4 1 -1 
0 -4 1 -2 0 -3 1 -2 0 -3 1 -1 0 -3 1 -1 
0 -2 1 -1 1 -1 1 0 1 1 1 1 0 3 1 1 
0 3 1 1 0 4 3297 1794 300 MP stroke
1 1 0 4 1 2 0 5 1 1 0 5 1 2 0 4 
1 2 0 5 1 1 0 4 1 2 0 3 1 1 0 3 
1 1 0 2 1 1 1 1 1 -1 1 -1 0 -2 1 -1 
0 -3 1 -1 0 -4 1 -2 0 -5 1 -1 0 -6 1 -1 
0 -6 1 -2 0 -6 1 -2 0 -5 1 -2 0 -5 1 -2 
0 -4 1 -2 0 -4 1 -1 0 -3 2 -2 1 0 0 1 
2 2 0 4 1 1 0 4 1 2 0 5 1 2 0 6 
1 2 0 6 1 2 0 7 1 2 0 7 1 2 0 6 
1 2 0 6 1 2 0 5 1 1 0 4 1 1 0 2 
1 1 1 1 1 -1 0 -1 1 -1 0 -2 1 -1 0 -5 
1 -1 0 -5 1 -2 0 -6 1 -2 0 -6 1 -3 0 -7 
1 -2 0 -8 1 -2 0 -8 1 -3 0 -8 1 -2 0 -8 
1 -2 0 -7 1 -2 0 -6 1 -1 0 -5 1 -1 0 -2 
1 -1 1 0 -1 0 2 2 0 1 1 1 0 4 1 1 
0 5 1 2 0 6 1 2 0 7 1 3 0 8 1 3 
0 9 1 3 0 9 1 3 0 9 1 3 0 10 1 3 
0 8 1 3 0 8 1 2 0 6 1 2 0 5 1 2 
0 1 1 1 1 0 -1 0 2 -2 0 -3 1 -1 0 -4 
1 -2 0 -7 1 -2 0 -7 1 -2 0 -7 1 -2 0 -7 
1 -2 0 -5 1 -1 1 -2 -1 0 2 2 0 3 1 1 
0 5 1 1 0 4 1 1 0 2 1 1 1 0 1 0 
0 -1 2 -2 0 -2 1 -1 0 -2 1 -1 0 -3 1 -1 
0 -1 1 -1 1 0 1 1 0 2 1 1 0 2 1 1 
0 2 1 1 1 1 1 0 1 0 -1 0 2 -2 0 -2 
1 -1 0 -2 1 -1 0 -3 1 -1 0 -4 1 -1 0 -3 
1 -1 0 -3 1 -1 0 -2 1 -1 1 0 1 1 0 1 
1 1 0 2 1 1 0 4 1 1 0 3 1 2 0 3 
1 1 0 1 1 3 0 3 1 1 1 1 1 0 1 -1 
1 -1 0 -2 1 -1 0 -3 1 -1 0 -4 1 -1 0 -4 
1 -2 0 -4 1 -2 0 -4 1 -2 0 -5 1 -1 0 -5 
1 -1 0 -4 1 -2 0 -3 1 -1 0 -3 1 -1 0 -2 
1 -1 0 0 2 0 1 1 0 2 1 1 0 3 1 1 
0 4 1 2 0 4 1 2 0 5 1 2 0 6 1 1 
0 6 1 2 0 5 1 2 0 5 1 2 0 5 1 1 
0 4 1 1 0 3 1 1 0 1 1 1 1 -1 1 -1 
0 -1 1 -1 0 -3 1 -2 0 -4 1 -1 0 -6 1 -1 
0 -6 1 -2 0 -6 1 -2 0 -7 1 -2 0 -6 1 -2 
0 -6 1 -2 0 -5 3131 1805 300 MP stroke
1 -2 0 -5 1 -1 0 -3 1 -1 0 -2 1 -1 1 0 
1 1 0 1 1 1 0 2 1 2 0 4 1 1 0 5 
1 2 0 6 1 2 0 6 1 2 0 6 1 2 0 6 
1 2 0 4 1 2 0 4 1 1 1 1 1 0 0 -1 
2 -2 1 -1 1 -1 1 0 1 0 1 0 0 -1 2 -2 
0 -1 2 -2 0 -2 1 -1 0 -2 1 -1 0 -2 1 -1 
0 -2 1 -1 0 -3 1 -1 0 -2 1 -1 0 -2 1 -1 
0 -1 1 -1 0 -2 1 -1 1 -1 1 0 1 0 1 1 
0 1 2 2 0 2 1 1 0 2 1 1 0 2 1 1 
0 2 1 1 0 2 1 1 0 2 1 1 0 2 1 1 
0 1 1 1 1 0 1 0 1 0 1 0 1 0 1 0 
1 0 1 0 1 0 1 0 1 -1 1 -1 1 -1 0 -2 
2 -2 0 -2 2 -2 0 -2 1 -1 0 -1 1 -1 0 -1 
1 -1 1 -1 1 -1 1 -1 1 -1 1 0 1 0 1 1 
0 1 2 2 0 1 1 1 0 1 1 1 0 1 1 1 
0 2 1 1 0 1 1 1 0 1 1 1 0 1 1 1 
1 1 1 1 1 1 1 1 1 1 1 0 1 0 1 0 
1 0 1 -1 0 -2 2 -2 0 -1 1 -1 0 -2 1 -1 
0 -1 1 -1 0 -2 1 -1 0 -1 1 -1 0 -2 1 -1 
0 -1 1 -1 0 -2 2 -2 1 -1 1 0 1 0 1 1 
1 1 0 2 1 1 0 1 1 1 0 2 1 1 0 2 
1 1 0 3 1 1 0 2 1 1 0 1 1 1 0 3 
1 1 0 1 1 1 0 2 1 1 0 1 1 1 1 1 
1 0 1 0 1 -1 0 -1 1 -1 0 -1 1 -1 0 -2 
1 -1 0 -3 1 -1 0 -3 1 -1 0 -3 1 -1 0 -4 
1 -1 0 -2 1 -1 0 -3 1 -1 0 -2 1 -1 0 -2 
1 -1 0 -2 1 -1 1 -1 1 0 1 1 1 1 0 2 
1 1 0 2 1 1 0 3 1 1 0 4 1 1 0 4 
1 1 0 4 1 1 0 4 1 1 0 3 1 1 0 3 
1 1 0 1 1 3 0 3 1 1 0 1 1 1 1 1 
1 0 1 -1 0 -2 1 -1 0 -2 1 -1 0 -3 1 -2 
0 -3 1 -2 0 -4 1 -1 0 -5 1 -1 0 -5 1 -2 
0 -4 1 -2 0 -2 1 -2 0 -4 1 -1 0 -3 1 -1 
0 -3 1 -1 0 -1 1 -1 1 0 1 1 0 1 1 1 
0 2 1 1 0 4 1 1 0 4 1 2 0 5 1 1 
0 6 1 1 0 6 1 2 0 5 1 2 0 5 1 2 
0 4 1 2 0 2 1 2 0 3 1 1 0 2 1 1 
1 0 1 0 -1 0 2942 1742 300 MP stroke
2 -2 0 -3 1 -1 0 -4 1 -1 0 -5 1 -2 0 -5 
1 -2 0 -6 1 -3 0 -6 1 -2 0 -7 1 -2 0 -6 
1 -2 0 -6 1 -2 0 -5 1 -1 0 -3 1 -1 0 -4 
1 -1 0 -2 1 -1 1 0 1 1 0 2 1 1 0 3 
1 1 0 4 1 2 0 4 1 2 0 5 1 2 0 6 
1 2 0 7 1 2 0 7 1 3 0 7 1 2 0 7 
1 2 0 7 1 2 0 4 1 2 0 5 1 1 0 3 
1 1 1 0 1 0 -1 0 2 -2 0 -3 1 -1 0 -4 
1 -1 0 -5 1 -1 0 -5 1 -1 0 -5 1 -1 0 -4 
1 -1 1 0 1 1 0 2 1 1 0 3 1 2 0 2 
1 1 0 4 1 1 1 1 1 0 1 -1 0 -2 1 -1 
0 -3 1 -1 0 -4 1 -1 0 -4 1 -2 0 -5 1 -1 
0 -5 1 -1 0 -5 1 -1 0 -3 1 -1 1 -1 1 1 
0 2 1 1 0 3 1 2 0 5 1 2 0 6 1 2 
0 5 1 1 0 4 1 1 0 3 1 1 0 2 1 1 
1 0 1 0 1 -1 0 -1 2 -2 0 -2 1 -1 0 -1 
1 -1 1 0 0 1 2 2 0 1 1 1 1 0 1 -1 
0 -2 1 -1 0 -2 1 -1 0 -3 1 -2 0 -3 1 -1 
0 -3 1 -1 0 -3 1 -2 0 -2 1 -1 0 -2 1 -1 
0 -2 2 -2 0 -2 2 -2 0 -1 2 -2 1 0 1 0 
1 0 1 0 0 2 2 2 0 1 1 1 0 1 1 1 
0 2 1 1 0 2 1 1 0 2 2 2 0 2 2 2 
1 0 1 1 1 0 1 0 1 1 1 0 1 0 1 0 
1 -1 1 0 0 -2 2 -2 0 -1 1 -1 0 -1 1 -1 
0 -2 2 -2 0 -2 1 -1 1 -1 0 -2 2 -2 1 -1 
1 -1 1 -1 1 0 1 1 1 1 0 1 2 2 0 1 
1 1 0 2 1 1 0 1 1 1 0 1 1 1 0 2 
1 1 0 1 2 2 1 1 1 1 1 1 1 0 1 1 
1 0 1 0 1 0 1 0 1 -1 1 -1 0 -2 2 -2 
0 -2 1 -1 1 -1 0 -2 1 -1 0 -2 2 -2 0 -2 
2 -2 0 -2 2 -2 1 0 1 0 1 0 1 1 0 2 
2 2 0 2 1 1 0 2 1 1 0 1 1 1 0 2 
1 1 0 3 1 1 0 2 1 1 0 2 1 1 0 1 
1 1 0 2 1 1 1 1 1 1 1 0 1 -1 1 -1 
0 -2 1 -1 0 -1 1 -1 0 -3 1 -1 0 -3 1 -1 
0 -2 1 -1 0 -3 1 -1 0 -3 1 -1 0 -3 1 -1 
0 -3 1 -1 0 -2 1 -1 0 -2 2 -2 1 0 1 0 
-1 0 2 2 0 1 2742 1798 300 MP stroke
1 1 0 2 1 1 0 3 1 1 0 3 1 1 0 4 
1 1 0 2 1 1 0 4 1 1 0 4 1 1 0 4 
1 1 0 3 1 1 0 3 1 1 0 1 1 1 1 1 
1 0 1 -1 0 -1 1 -1 0 -2 1 -1 0 -3 1 -1 
0 -4 1 -1 0 -4 1 -2 0 -4 1 -1 0 -3 1 -2 
0 -4 1 -2 0 -4 1 -1 0 -4 1 -2 0 -3 1 -1 
0 -2 1 -1 0 -2 1 -1 1 0 1 0 -1 0 2 2 
0 2 1 1 0 4 1 1 0 4 1 1 0 5 1 2 
0 5 1 2 0 5 1 2 0 5 1 2 0 3 1 2 
0 5 1 1 0 4 1 2 0 3 1 1 0 3 1 1 
1 0 1 0 -1 0 2 -2 0 -2 1 -1 0 -4 1 -1 
0 -4 1 -2 0 -5 1 -2 0 -6 1 -2 0 -6 1 -2 
0 -6 1 -2 0 -6 1 -2 0 -4 1 -1 0 -6 1 -1 
0 -4 1 -2 0 -3 1 -1 0 -1 1 -1 1 0 1 1 
0 2 1 1 0 3 1 2 0 4 1 2 0 6 1 1 
0 7 1 2 0 6 1 2 0 7 1 2 0 8 1 2 
0 8 1 2 0 5 1 2 0 6 1 2 0 5 1 2 
0 4 1 1 0 2 1 1 1 0 1 -1 0 -2 1 -1 
0 -4 1 -2 0 -4 1 -2 0 -6 1 -2 0 -6 1 -3 
0 -7 1 -3 0 -8 1 -3 0 -9 1 -2 0 -9 1 -3 
0 -6 1 -2 0 -8 1 -3 0 -7 1 -3 0 -6 1 -1 
0 -5 1 -1 0 -1 1 -1 1 1 0 1 1 1 0 3 
1 2 0 5 1 2 0 6 1 2 0 7 1 3 0 8 
1 3 0 8 1 3 0 9 1 3 0 7 1 3 0 4 
1 2 0 6 1 1 0 2 1 1 1 0 1 -1 0 -3 
1 -1 0 -4 1 -2 0 -5 1 -1 0 -5 1 -2 0 -5 
1 -1 0 -5 1 -2 0 -5 1 -1 0 -5 1 -1 0 -4 
1 -1 0 -3 1 -1 0 -2 1 -1 1 -1 0 0 2 2 
0 1 1 1 0 3 1 1 0 4 1 2 0 4 1 2 
0 5 1 2 0 5 1 1 0 6 1 1 0 5 1 2 
0 4 1 1 0 4 1 1 0 2 1 1 1 1 1 0 
1 0 1 -1 0 -2 1 -1 0 -2 1 -1 0 -4 1 -1 
0 -4 1 -1 0 -4 1 -2 0 -4 1 -2 0 -4 1 -2 
0 -4 1 -1 0 -5 1 -1 0 -3 1 -1 0 -3 1 -1 
0 -2 1 -1 1 -1 1 0 -1 0 2 2 0 1 1 1 
0 3 1 1 0 3 1 2 0 4 1 2 0 5 1 1 
0 6 1 1 0 6 1 2 0 5 1 2 0 5 1 1 
0 5 1 1 0 4 2581 1747 300 MP stroke
1 1 0 3 1 1 1 1 1 0 -1 0 2 -2 0 -1 
1 -1 0 -3 1 -1 0 -4 1 -1 0 -5 1 -2 0 -5 
1 -2 0 -6 1 -2 0 -6 1 -2 0 -6 1 -2 0 -6 
1 -2 0 -5 1 -1 0 -5 1 -1 0 -3 1 -1 0 -1 
1 -1 1 0 1 0 0 2 1 1 0 3 1 1 0 3 
1 1 0 5 1 2 0 5 1 1 0 6 1 2 0 5 
1 2 0 5 1 1 0 5 1 1 0 3 1 1 1 1 
1 1 1 -1 1 0 0 -1 2 -2 0 -2 1 -1 0 -2 
1 -1 0 -2 1 -1 0 -2 1 -1 0 -3 1 -1 0 -3 
1 -1 0 -2 1 -1 0 -3 1 -1 0 -2 1 -1 0 -1 
1 -1 1 -1 1 0 1 0 -1 0 2 2 0 1 1 1 
0 1 1 1 0 2 1 1 0 3 1 1 0 2 1 1 
0 3 1 1 0 2 1 1 0 3 1 1 0 2 1 1 
1 0 1 0 1 -1 1 0 1 0 1 0 1 0 1 0 
1 0 1 0 1 0 0 -1 2 -2 0 -1 2 -2 0 -2 
2 -2 0 -2 2 -2 0 -1 1 -1 0 -1 2 -2 1 -1 
1 -1 1 0 1 0 1 0 1 0 1 1 0 2 2 2 
0 1 1 1 0 2 2 2 0 2 1 1 0 1 1 1 
0 1 1 1 0 1 1 1 1 1 1 1 1 1 1 0 
1 1 1 0 1 -1 1 0 -1 0 2 -2 0 -1 1 -1 
0 -1 1 -1 0 -2 1 -1 0 -2 1 -1 0 -1 1 -1 
0 -2 1 -1 0 -2 1 -1 0 -1 1 -1 0 -2 1 -1 
0 -1 1 -1 1 -1 1 0 1 0 1 1 0 1 2 2 
0 2 1 1 0 2 1 1 0 2 1 1 0 3 1 1 
0 3 1 1 0 2 1 1 0 3 1 1 0 2 1 1 
0 2 1 1 0 1 1 1 1 1 1 0 1 -1 1 -1 
0 -1 1 -1 0 -2 1 -1 0 -2 1 -1 0 -4 1 -1 
0 -3 1 -1 0 -4 1 -1 0 -3 1 -1 0 -4 1 -1 
0 -3 1 -1 0 -2 1 -1 0 -3 2 -2 1 0 1 0 
-1 0 2 2 1 1 0 3 1 1 0 3 1 1 0 3 
1 2 0 3 1 2 0 4 1 1 0 4 1 2 0 4 
1 1 0 4 1 1 0 3 1 1 0 3 1 1 0 2 
1 1 1 0 1 0 0 -1 2 -2 0 -2 1 -1 0 -4 
1 -1 0 -4 1 -1 0 -4 1 -2 0 -5 1 -1 0 -5 
1 -2 0 -5 1 -1 0 -5 1 -1 0 -4 1 -2 0 -3 
1 -1 0 -3 2 -2 1 0 1 1 0 2 1 1 0 3 
1 1 0 3 1 1 0 5 1 1 0 5 1 2 0 6 
1 2 0 6 1 1 2393 1772 300 MP stroke
0 6 1 2 0 6 1 1 0 5 1 2 0 4 1 1 
0 3 1 1 0 2 1 1 1 0 1 -1 0 -2 1 -1 
0 -3 1 -1 0 -4 1 -2 0 -3 1 -2 0 -5 1 -2 
0 -6 1 -2 0 -6 1 -3 0 -6 1 -2 0 -7 1 -2 
0 -5 1 -2 0 -5 1 -1 0 -4 1 -1 0 -3 1 -1 
1 0 1 0 -1 0 2 2 0 3 1 1 0 4 1 1 
0 5 1 2 0 5 1 2 0 4 1 1 0 6 1 1 
0 5 1 2 0 4 1 1 0 1 1 1 1 -1 1 -1 
0 -2 1 -1 0 -2 1 -1 0 -1 1 -1 0 -2 1 -1 
0 -1 1 -1 0 -2 2 -2 0 -2 2 -2 1 0 1 0 
1 0 1 1 0 1 2 2 0 1 1 1 0 1 1 1 
0 2 1 1 0 1 1 1 0 2 1 1 0 1 1 1 
0 1 1 1 1 1 1 1 1 0 1 0 1 1 1 0 
1 0 1 0 1 0 1 0 0 -1 2 -2 0 -1 2 -2 
0 -2 2 -2 0 -2 2 -2 0 -2 2 -2 0 -1 2 -2 
1 -1 1 0 1 0 1 0 0 1 2 2 0 1 1 1 
0 1 1 1 0 2 1 1 0 2 1 1 0 2 1 1 
0 2 1 1 0 2 2 2 0 2 1 1 0 1 1 1 
1 1 1 1 1 0 0 -1 2 -2 0 -1 1 -1 0 -2 
1 -1 0 -2 1 -1 0 -2 1 -1 0 -3 1 -1 0 -3 
1 -1 0 -3 1 -1 0 -2 1 -1 0 -2 1 -1 0 -1 
1 -1 0 -2 1 -1 1 0 1 0 1 1 0 1 2 2 
0 2 1 1 0 2 1 1 0 3 1 1 0 3 1 1 
0 3 1 1 0 2 1 1 0 3 2 2 1 0 1 0 
1 -1 1 0 1 0 1 -1 1 1 1 0 1 0 1 0 
1 -1 1 -1 0 -1 2 -2 0 -1 1 -1 0 -1 1 -1 
0 -1 1 -1 0 -1 2 -2 0 -1 2 -2 1 -1 1 -1 
1 -1 1 0 1 0 1 0 1 0 0 1 2 2 0 1 
1 1 0 1 1 1 0 1 1 1 0 1 1 1 0 1 
1 1 0 1 1 1 0 1 1 1 0 1 2 2 1 1 
1 1 1 0 1 1 1 0 1 -1 1 -1 0 -1 2 -2 
0 -2 1 -1 1 -1 0 -2 1 -1 0 -2 1 -1 0 -2 
1 -1 0 -1 1 -1 0 -2 1 -1 0 -1 1 -1 0 -1 
1 -1 1 0 1 0 1 0 1 1 1 1 0 2 2 2 
0 2 1 1 0 1 1 1 0 2 1 1 0 2 1 1 
0 1 1 1 0 2 2 2 1 0 1 0 1 0 1 0 
1 1 1 0 1 0 1 0 1 0 1 -1 1 -1 1 -1 
0 -2 2 -2 0 -1 2184 1777 300 MP stroke
1 -1 0 -1 1 -1 0 -1 1 -1 0 -1 1 -1 0 -1 
2 -2 0 -1 2 -2 1 0 1 0 1 0 1 1 1 0 
-1 0 2 2 0 1 1 1 0 1 1 1 0 1 1 1 
0 1 1 1 0 1 1 1 0 2 2 2 1 1 1 1 
1 1 1 1 1 1 1 0 1 0 1 0 1 0 1 -1 
0 -1 2 -2 0 -1 1 -1 0 -1 1 -1 0 -1 1 -1 
0 -2 1 -1 0 -2 2 -2 0 -2 1 -1 0 -1 1 -1 
1 -1 1 -1 1 0 1 0 1 0 -1 0 2 2 0 1 
2 2 0 2 1 1 0 1 1 1 0 2 1 1 0 1 
1 1 0 2 1 1 0 1 1 1 1 1 1 1 1 1 
1 0 1 0 1 0 1 0 1 0 1 0 1 -1 1 0 
0 -2 2 -2 0 -1 1 -1 0 -1 1 -1 0 -1 1 -1 
0 -1 1 -1 0 -1 1 -1 0 -1 1 -1 0 -1 2 -2 
1 -1 1 -1 1 0 1 0 1 1 1 1 0 1 1 1 
0 1 1 1 0 1 1 1 0 2 1 1 0 2 1 1 
0 1 1 1 0 2 1 1 0 1 1 1 0 2 1 1 
0 1 2 2 1 0 1 1 1 -1 1 -1 0 -1 2 -2 
0 -2 1 -1 0 -2 1 -1 0 -3 1 -1 0 -2 1 -1 
0 -3 1 -1 0 -2 1 -1 0 -2 1 -1 0 -2 1 -1 
0 -1 1 -1 1 -1 1 0 1 0 0 1 2 2 0 1 
1 1 0 3 1 1 0 2 1 1 0 3 1 1 0 3 
1 1 0 4 1 1 0 3 1 1 0 2 1 1 0 3 
1 1 0 2 2 2 1 1 1 0 0 -1 2 -2 0 -1 
1 -1 0 -3 1 -1 0 -2 1 -1 0 -3 1 -1 0 -4 
1 -1 0 -3 1 -1 0 -3 1 -1 0 -3 1 -1 0 -1 
1 -1 1 0 1 0 0 1 2 2 0 3 1 1 0 4 
1 1 0 4 1 1 0 1 1 1 1 0 1 0 1 0 
1 0 -1 0 2 2 0 3 1 1 0 4 1 2 0 5 
1 2 0 5 1 2 0 4 1 1 0 2 1 1 0 1 
1 1 0 2 1 1 0 2 1 1 0 2 1 1 0 3 
1 1 0 2 1 1 0 2 1 1 0 2 1 1 0 2 
1 1 0 2 1 1 0 2 1 1 0 2 1 1 0 1 
1 1 0 2 1 1 0 2 1 1 0 2 1 1 0 2 
1 1 0 2 1 1 0 2 1 1 0 3 1 1 0 4 
1 1 0 4 1 1 0 4 1 1 0 3 1 2 0 3 
1 1 0 4 1 1 0 4 1 1 0 4 1 1 0 3 
1 1 0 3 1 1 0 3 1 1 0 2 1 1 0 3 
1 1 0 3 1 1 1994 1616 300 MP stroke
0 2 1 1 0 4 1 1 0 3 1 1 0 4 1 1 
0 4 1 1 0 4 1 1 0 4 1 2 0 4 1 1 
0 5 1 1 0 5 1 1 0 5 1 1 0 5 1 1 
0 5 1 1 0 4 1 2 0 4 1 1 0 3 1 2 
0 2 1 1 0 3 1 1 0 3 1 1 0 3 1 1 
0 3 1 1 0 2 1 1 0 2 1 1 0 3 1 1 
0 2 1 1 0 4 1 1 0 4 1 1 0 4 1 2 
0 4 1 2 0 5 1 2 0 5 1 2 0 5 1 2 
0 4 1 2 0 6 1 2 0 6 1 2 0 6 1 2 
0 7 1 2 0 7 1 2 0 7 1 3 0 7 1 3 
0 7 1 3 0 7 1 3 0 7 1 2 0 7 1 3 
0 6 1 2 0 6 1 2 0 5 1 2 0 5 1 2 
0 3 1 1 0 5 1 2 0 4 1 1 0 5 1 1 
0 4 1 1 0 4 1 2 0 3 1 2 0 4 1 2 
0 4 1 2 0 5 1 1 0 6 1 2 0 5 1 2 
0 6 1 2 0 5 1 2 0 6 1 2 0 6 1 2 
0 4 1 2 0 6 1 2 0 6 1 2 0 6 1 1 
0 5 1 1 0 4 1 2 0 3 1 1 0 3 1 1 
0 3 1 1 0 3 1 2 0 3 1 2 0 4 1 1 
0 4 1 2 0 5 1 1 0 5 1 2 0 4 1 2 
0 2 1 2 0 4 1 1 0 4 1 2 0 4 1 2 
0 4 1 2 0 6 1 1 0 6 1 3 0 6 1 2 
0 8 1 2 0 8 1 2 0 8 1 2 0 8 1 2 
0 7 1 3 0 7 1 2 0 7 1 2 0 7 1 3 
0 7 1 2 0 5 1 3 0 7 1 2 0 7 1 2 
0 7 1 2 0 6 1 2 0 7 1 2 0 6 1 2 
0 6 1 2 0 5 1 2 0 5 1 2 0 5 1 2 
0 5 1 2 0 5 1 2 0 6 1 2 0 6 1 2 
0 6 1 2 0 4 1 2 0 5 1 2 0 6 1 2 
0 3 0 -2446 1878 3282 235 MP stroke
0 2440 1 -22 0 -65 1 -22 0 -64 1 -21 0 -61 1 -20 
0 -57 1 -19 0 -52 1 -16 0 -32 1 -16 0 -43 1 -13 
0 -38 1 -12 0 -33 1 -11 0 -28 1 -9 0 -24 1 -7 
0 -20 1 -6 0 -17 1 -5 0 -13 1 -3 0 -10 1 -3 
0 -7 1 -2 0 -4 1 -1 1 0 -1 0 2 2 0 4 
1 2 0 7 1 2 0 7 1 3 0 12 1 5 0 16 
1 6 0 19 1 7 0 23 1 9 0 27 1 10 0 32 
1 12 0 37 1 14 0 42 1 16 0 48 1 17 0 53 
1 19 0 58 1 21 0 62 1 22 0 66 1 22 0 68 
0 -2434 4127 3282 74 MP stroke
0 -2429 0 2408 1 -21 0 -61 1 -21 0 -59 1 -19 0 -57 
1 -18 0 -35 1 -17 0 -48 1 -16 0 -43 1 -14 0 -38 
1 -12 0 -32 1 -11 0 -27 1 -9 0 -23 1 -6 0 -19 
1 -5 0 -14 1 -4 0 -9 1 -3 0 -6 2 0 0 2 
1 2 0 7 1 2 0 11 1 5 0 15 1 6 0 20 
1 7 0 16 1 9 0 29 1 10 0 34 1 12 0 39 
1 14 0 44 1 16 0 50 1 18 0 54 1 19 0 59 
1 20 0 62 1 21 0 64 0 -2428 4196 3282 62 MP stroke
0 -2434 0 2374 1 -19 0 -58 1 -19 0 -55 1 -18 0 -51 
1 -17 0 -47 1 -15 0 -42 1 -13 0 -38 1 -11 0 -32 
1 -10 0 -26 1 -8 0 -22 1 -6 0 -16 1 -5 0 -12 
1 -3 0 -7 1 -1 1 -1 -1 0 2 3 0 6 1 3 
0 10 1 5 0 16 1 6 0 20 1 8 0 26 1 10 
0 31 1 12 0 37 1 13 0 42 1 15 0 47 1 17 
0 52 1 18 0 56 1 19 0 58 1 20 0 61 0 -2433 
4256 3282 57 MP stroke
0 -2434 0 2415 1 -18 0 -56 1 -18 0 -54 1 -18 0 -34 
1 -17 0 -48 1 -15 0 -43 1 -14 0 -39 1 -12 0 -34 
1 -10 0 -28 1 -9 0 -23 1 -6 0 -18 1 -5 0 -13 
1 -3 0 -8 1 -2 0 -1 1 1 0 2 1 2 0 7 
1 4 0 13 1 5 0 18 1 7 0 23 1 9 0 28 
1 11 0 22 1 12 0 38 1 14 0 43 1 15 0 48 
1 17 0 52 1 18 0 55 1 18 0 57 1 20 0 19 
0 -2447 4311 3282 58 MP stroke
0 -2447 0 2411 1 -18 0 -53 1 -17 0 -51 1 -17 0 -48 
1 -15 0 -45 1 -14 0 -40 1 -12 0 -35 1 -11 0 -20 
1 -10 0 -25 1 -8 0 -21 1 -6 0 -15 1 -4 0 -10 
1 -3 1 -4 -1 0 2 2 0 5 1 3 0 11 1 5 
0 16 1 6 0 22 1 8 0 27 1 10 0 33 1 12 
0 37 1 14 0 42 1 15 0 47 1 16 0 34 1 17 
0 52 1 18 0 55 1 18 0 -2434 4364 3282 54 MP stroke
0 -2431 0 2380 1 -16 0 -50 1 -17 0 -47 1 -15 0 -44 
1 -15 0 -40 1 -13 0 -35 1 -11 0 -31 1 -9 0 -26 
1 -8 0 -20 1 -6 0 -10 1 -5 0 -11 1 -2 0 -5 
1 -1 1 1 0 5 1 2 0 11 1 4 0 16 1 6 
0 21 1 8 0 27 1 10 0 31 1 12 0 37 1 13 
0 41 1 15 0 45 1 16 0 49 1 16 0 51 1 18 
0 35 0 -2433 4416 3282 51 MP stroke
gr

c8
0 sg
2319 3569 mt 
(seconds) s
 386 1987 mt  -90 rotate
(position) s
90 rotate
1478  182 mt 
(position of a pendulum \(experiment\) ack) s

end %%Color Dict

eplot
%%EndObject

epage
end

showpage

%%Trailer
%%EOF
