%!PS-Adobe-3.0 EPSF-3.0
%%Creator: MATLAB, The MathWorks, Inc. Version 8.1.0.604 (R2013a). Operating System: Linux 4.9.0-040900-generic #201612111631 SMP Sun Dec 11 21:33:00 UTC 2016 x86_64.
%%Title: /home/lukas/Universidad/Master/2 Semester/Control Theory for Embedded Systems/lab/5lab/trunk/graphics/lqr_force_exp.eps
%%CreationDate: 12/23/2016  12:08:40
%%DocumentNeededFonts: Helvetica
%%DocumentProcessColors: Cyan Magenta Yellow Black
%%LanguageLevel: 2
%%Pages: 1
%%BoundingBox:   100   241   509   549
%%EndComments

%%BeginProlog
% MathWorks dictionary
/MathWorks 160 dict begin
% definition operators
/bdef {bind def} bind def
/ldef {load def} bind def
/xdef {exch def} bdef
/xstore {exch store} bdef
% operator abbreviations
/c  /clip ldef
/cc /concat ldef
/cp /closepath ldef
/gr /grestore ldef
/gs /gsave ldef
/mt /moveto ldef
/np /newpath ldef
/cm /currentmatrix ldef
/sm /setmatrix ldef
/rm /rmoveto ldef
/rl /rlineto ldef
/s {show newpath} bdef
/sc {setcmykcolor} bdef
/sr /setrgbcolor ldef
/sg /setgray ldef
/w /setlinewidth ldef
/j /setlinejoin ldef
/cap /setlinecap ldef
/rc {rectclip} bdef
/rf {rectfill} bdef
% page state control
/pgsv () def
/bpage {/pgsv save def} bdef
/epage {pgsv restore} bdef
/bplot /gsave ldef
/eplot {stroke grestore} bdef
% orientation switch
/portraitMode 0 def /landscapeMode 1 def /rotateMode 2 def
% coordinate system mappings
/dpi2point 0 def
% font control
/FontSize 0 def
/FMS {/FontSize xstore findfont [FontSize 0 0 FontSize neg 0 0]
  makefont setfont} bdef
/reencode {exch dup where {pop load} {pop StandardEncoding} ifelse
  exch dup 3 1 roll findfont dup length dict begin
  { 1 index /FID ne {def}{pop pop} ifelse } forall
  /Encoding exch def currentdict end definefont pop} bdef
/isroman {findfont /CharStrings get /Agrave known} bdef
/FMSR {3 1 roll 1 index dup isroman {reencode} {pop pop} ifelse
  exch FMS} bdef
/csm {1 dpi2point div -1 dpi2point div scale neg translate
 dup landscapeMode eq {pop -90 rotate}
  {rotateMode eq {90 rotate} if} ifelse} bdef
% line types: solid, dotted, dashed, dotdash
/SO { [] 0 setdash } bdef
/DO { [.5 dpi2point mul 4 dpi2point mul] 0 setdash } bdef
/DA { [6 dpi2point mul] 0 setdash } bdef
/DD { [.5 dpi2point mul 4 dpi2point mul 6 dpi2point mul 4
  dpi2point mul] 0 setdash } bdef
% macros for lines and objects
/L {lineto stroke} bdef
/MP {3 1 roll moveto 1 sub {rlineto} repeat} bdef
/AP {{rlineto} repeat} bdef
/PDlw -1 def
/W {/PDlw currentlinewidth def setlinewidth} def
/PP {closepath eofill} bdef
/DP {closepath stroke} bdef
/MR {4 -2 roll moveto dup  0 exch rlineto exch 0 rlineto
  neg 0 exch rlineto closepath} bdef
/FR {MR stroke} bdef
/PR {MR fill} bdef
/L1i {{currentfile picstr readhexstring pop} image} bdef
/tMatrix matrix def
/MakeOval {newpath tMatrix currentmatrix pop translate scale
0 0 1 0 360 arc tMatrix setmatrix} bdef
/FO {MakeOval stroke} bdef
/PO {MakeOval fill} bdef
/PD {currentlinewidth 2 div 0 360 arc fill
   PDlw -1 eq not {PDlw w /PDlw -1 def} if} def
/FA {newpath tMatrix currentmatrix pop translate scale
  0 0 1 5 -2 roll arc tMatrix setmatrix stroke} bdef
/PA {newpath tMatrix currentmatrix pop	translate 0 0 moveto scale
  0 0 1 5 -2 roll arc closepath tMatrix setmatrix fill} bdef
/FAn {newpath tMatrix currentmatrix pop translate scale
  0 0 1 5 -2 roll arcn tMatrix setmatrix stroke} bdef
/PAn {newpath tMatrix currentmatrix pop translate 0 0 moveto scale
  0 0 1 5 -2 roll arcn closepath tMatrix setmatrix fill} bdef
/vradius 0 def /hradius 0 def /lry 0 def
/lrx 0 def /uly 0 def /ulx 0 def /rad 0 def
/MRR {/vradius xdef /hradius xdef /lry xdef /lrx xdef /uly xdef
  /ulx xdef newpath tMatrix currentmatrix pop ulx hradius add uly
  vradius add translate hradius vradius scale 0 0 1 180 270 arc 
  tMatrix setmatrix lrx hradius sub uly vradius add translate
  hradius vradius scale 0 0 1 270 360 arc tMatrix setmatrix
  lrx hradius sub lry vradius sub translate hradius vradius scale
  0 0 1 0 90 arc tMatrix setmatrix ulx hradius add lry vradius sub
  translate hradius vradius scale 0 0 1 90 180 arc tMatrix setmatrix
  closepath} bdef
/FRR {MRR stroke } bdef
/PRR {MRR fill } bdef
/MlrRR {/lry xdef /lrx xdef /uly xdef /ulx xdef /rad lry uly sub 2 div def
  newpath tMatrix currentmatrix pop ulx rad add uly rad add translate
  rad rad scale 0 0 1 90 270 arc tMatrix setmatrix lrx rad sub lry rad
  sub translate rad rad scale 0 0 1 270 90 arc tMatrix setmatrix
  closepath} bdef
/FlrRR {MlrRR stroke } bdef
/PlrRR {MlrRR fill } bdef
/MtbRR {/lry xdef /lrx xdef /uly xdef /ulx xdef /rad lrx ulx sub 2 div def
  newpath tMatrix currentmatrix pop ulx rad add uly rad add translate
  rad rad scale 0 0 1 180 360 arc tMatrix setmatrix lrx rad sub lry rad
  sub translate rad rad scale 0 0 1 0 180 arc tMatrix setmatrix
  closepath} bdef
/FtbRR {MtbRR stroke } bdef
/PtbRR {MtbRR fill } bdef
/stri 6 array def /dtri 6 array def
/smat 6 array def /dmat 6 array def
/tmat1 6 array def /tmat2 6 array def /dif 3 array def
/asub {/ind2 exch def /ind1 exch def dup dup
  ind1 get exch ind2 get sub exch } bdef
/tri_to_matrix {
  2 0 asub 3 1 asub 4 0 asub 5 1 asub
  dup 0 get exch 1 get 7 -1 roll astore } bdef
/compute_transform {
  dmat dtri tri_to_matrix tmat1 invertmatrix 
  smat stri tri_to_matrix tmat2 concatmatrix } bdef
/ds {stri astore pop} bdef
/dt {dtri astore pop} bdef
/db {2 copy /cols xdef /rows xdef mul dup 3 mul string
  currentfile 
  3 index 0 eq {/ASCIIHexDecode filter}
  {/ASCII85Decode filter 3 index 2 eq {/RunLengthDecode filter} if }
  ifelse exch readstring pop
  dup 0 3 index getinterval /rbmap xdef
  dup 2 index dup getinterval /gbmap xdef
  1 index dup 2 mul exch getinterval /bbmap xdef pop pop}bdef
/it {gs np dtri aload pop moveto lineto lineto cp c
  cols rows 8 compute_transform 
  rbmap gbmap bbmap true 3 colorimage gr}bdef
/il {newpath moveto lineto stroke}bdef
currentdict end def
%%EndProlog

%%BeginSetup
MathWorks begin

0 cap

end
%%EndSetup

%%Page: 1 1
%%BeginPageSetup
%%PageBoundingBox:   100   241   509   549
MathWorks begin
bpage
%%EndPageSetup

%%BeginObject: obj1
bplot

/dpi2point 12 def
portraitMode 1200 6588 csm

    0     0  4915  3687 rc
85 dict begin %Colortable dictionary
/c0 { 0.000000 0.000000 0.000000 sr} bdef
/c1 { 1.000000 1.000000 1.000000 sr} bdef
/c2 { 0.900000 0.000000 0.000000 sr} bdef
/c3 { 0.000000 0.820000 0.000000 sr} bdef
/c4 { 0.000000 0.000000 0.800000 sr} bdef
/c5 { 0.910000 0.820000 0.320000 sr} bdef
/c6 { 1.000000 0.260000 0.820000 sr} bdef
/c7 { 0.000000 0.820000 0.820000 sr} bdef
c0
1 j
1 sg
   0    0 4916 3688 rf
6 w
0 3004 3809 0 0 -3004 639 3281 4 MP
PP
-3809 0 0 3004 3809 0 0 -3004 639 3281 5 MP stroke
4 w
DO
0 sg
 639 3281 mt  639  277 L
 639  277 mt  639  277 L
1908 3281 mt 1908  277 L
1908  277 mt 1908  277 L
3178 3281 mt 3178  277 L
3178  277 mt 3178  277 L
4448 3281 mt 4448  277 L
4448  277 mt 4448  277 L
 639 3066 mt 4448 3066 L
4448 3066 mt 4448 3066 L
 639 2637 mt 4448 2637 L
4448 2637 mt 4448 2637 L
 639 2208 mt 4448 2208 L
4448 2208 mt 4448 2208 L
 639 1779 mt 4448 1779 L
4448 1779 mt 4448 1779 L
 639 1349 mt 4448 1349 L
4448 1349 mt 4448 1349 L
 639  920 mt 4448  920 L
4448  920 mt 4448  920 L
 639  491 mt 4448  491 L
4448  491 mt 4448  491 L
SO
6 w
 639 3281 mt 4448 3281 L
 639  277 mt 4448  277 L
 639 3281 mt  639  277 L
4448 3281 mt 4448  277 L
 639 3281 mt 4448 3281 L
 639 3281 mt  639  277 L
 639 3281 mt  639 3242 L
 639  277 mt  639  315 L
%%IncludeResource: font Helvetica
/Helvetica /ISOLatin1Encoding 120 FMSR

 606 3426 mt 
(0) s
1908 3281 mt 1908 3242 L
1908  277 mt 1908  315 L
1842 3426 mt 
(50) s
3178 3281 mt 3178 3242 L
3178  277 mt 3178  315 L
3078 3426 mt 
(100) s
4448 3281 mt 4448 3242 L
4448  277 mt 4448  315 L
4348 3426 mt 
(150) s
 639 3066 mt  677 3066 L
4448 3066 mt 4409 3066 L
 401 3110 mt 
(-30) s
 639 2637 mt  677 2637 L
4448 2637 mt 4409 2637 L
 401 2681 mt 
(-20) s
 639 2208 mt  677 2208 L
4448 2208 mt 4409 2208 L
 401 2252 mt 
(-10) s
 639 1779 mt  677 1779 L
4448 1779 mt 4409 1779 L
 538 1823 mt 
(0) s
 639 1349 mt  677 1349 L
4448 1349 mt 4409 1349 L
 471 1393 mt 
(10) s
 639  920 mt  677  920 L
4448  920 mt 4409  920 L
 471  964 mt 
(20) s
 639  491 mt  677  491 L
4448  491 mt 4409  491 L
 471  535 mt 
(30) s
 639 3281 mt 4448 3281 L
 639  277 mt 4448  277 L
 639 3281 mt  639  277 L
4448 3281 mt 4448  277 L
gs 639 277 3810 3005 rc
/c8 { 0.000000 0.000000 1.000000 sr} bdef
c8
0 1503 1 0 1 0 1 0 1 0 1 0 1 0 1 0 
1 0 1 0 1 0 1 0 1 0 1 0 1 0 1 0 
1 0 1 0 1 0 1 0 1 0 1 0 1 0 1 0 
1 0 1 0 1 0 1 0 1 0 1 0 1 0 1 0 
1 0 1 0 1 0 1 0 1 0 1 0 1 0 1 0 
1 0 1 0 1 0 1 0 1 0 1 0 1 0 1 0 
1 0 1 0 1 0 1 0 1 0 1 0 1 0 1 0 
1 0 1 0 1 0 1 0 1 0 1 0 1 0 1 0 
1 0 1 0 1 0 1 0 1 0 1 0 1 0 1 0 
1 0 1 0 1 0 1 0 1 0 1 0 1 0 1 0 
1 0 1 0 1 0 1 0 1 0 1 0 1 0 1 0 
1 0 1 0 1 0 1 0 1 0 1 0 1 0 1 0 
1 0 1 0 1 0 1 0 1 0 1 0 1 0 1 0 
1 0 1 0 1 0 1 0 1 0 1 0 1 0 1 0 
1 0 1 0 1 0 1 0 1 0 1 0 1 0 1 0 
1 0 1 0 1 0 1 0 1 0 1 0 1 0 1 0 
1 0 1 0 1 0 1 0 1 0 1 0 1 0 1 0 
1 0 1 0 1 0 1 0 1 0 1 0 1 0 1 0 
1 0 1 0 1 0 1 0 1 0 1 0 1 0 1 0 
1 0 1 0 1 0 1 0 1 0 1 0 1 0 1 0 
1 0 1 0 1 0 1 0 1 0 1 0 1 0 1 0 
0 219 1 -219 1 0 1 0 1 0 1 0 1 0 1 0 
1 0 1 0 1 0 1 0 1 0 1 0 1 0 1 0 
1 0 1 0 1 0 1 0 1 0 1 0 1 0 1 0 
1 0 1 0 1 0 1 0 1 0 1 0 1 0 1 0 
1 0 1 0 1 0 1 0 1 0 1 0 1 0 1 0 
1 0 1 0 1 0 1 0 1 0 1 0 639 1779 215 MP stroke
1 4 0 8 1 3 0 -43 0 56 1 -47 0 17 1 -45 
0 58 0 -37 1 7 0 17 0 -60 0 7 1 35 0 -66 
0 67 1 -63 0 31 0 -60 1 42 0 -70 1 89 0 39 
0 -30 1 35 0 -61 0 25 1 -55 0 40 0 -18 1 -10 
0 -22 1 -7 0 40 0 -57 0 45 1 -60 0 39 0 -16 
1 43 0 -81 1 44 0 41 0 -75 1 -7 0 37 0 -8 
1 -60 0 91 0 -77 1 -5 0 36 0 -25 1 -19 0 37 
0 -41 0 25 1 -64 0 35 0 -19 1 -13 0 39 0 -63 
0 44 1 -24 0 -36 1 -5 0 39 0 -79 1 42 0 -35 
1 28 0 -71 1 34 0 -65 0 35 1 -7 0 -31 0 53 
1 -67 0 -20 0 49 1 -63 0 39 0 -61 1 -7 0 42 
0 -62 1 3 0 -24 1 7 0 -56 0 97 1 -60 0 -49 
0 53 1 -7 0 -46 0 49 1 -48 0 58 0 -111 0 10 
1 51 0 12 0 -60 0 10 1 -45 0 66 0 -44 1 58 
0 -79 0 59 1 -35 0 64 0 -68 1 68 0 35 0 -28 
1 69 0 83 0 -76 1 -15 0 131 1 54 0 100 1 26 
0 -26 0 47 1 23 0 -31 1 76 0 -58 0 78 1 -25 
0 45 0 -77 0 55 1 20 0 26 0 -21 1 19 0 84 
1 -84 0 86 1 26 0 -2 0 69 1 -37 0 -33 0 46 
1 52 0 -78 0 67 1 5 0 33 1 28 0 -26 0 122 
1 -57 0 80 1 62 0 -27 0 43 1 33 0 44 1 9 
0 100 1 36 0 -13 0 99 1 -13 0 396 1 0 0 84 
0 -92 0 69 1 -95 0 155 1 -64 0 35 0 -21 1 -79 
0 -195 1 -115 0 -629 1 -74 0 -125 1 2 0 -92 1 5 
0 17 1 6 0 5 0 -46 1 -10 0 115 0 -26 1 -18 
0 30 0 -67 0 36 1 -16 0 -83 1 43 0 -27 1 -8 
0 42 0 -63 1 46 0 -63 0 43 1 -7 0 -21 1 -5 
0 -19 1 46 0 -73 1 48 0 -16 1 -10 0 -18 1 44 
0 -70 1 43 0 -22 1 -5 0 -18 1 39 0 -73 1 46 
0 -22 1 -8 0 -13 0 45 1 -59 0 -10 0 44 1 -56 
0 46 0 -59 0 50 1 -59 0 45 0 -55 1 44 0 -60 
1 -4 0 49 0 -54 1 43 0 -145 1 -43 0 -21 0 64 
1 -38 0 78 0 -35 1 12 0 -32 0 68 1 -33 0 55 
1 -30 0 69 0 -12 1 22 0 -13 0 64 1 -31 0 88 
1 -38 0 69 0 -42 1 60 0 -35 0 56 1 4 0 67 
1 1 0 55 0 -52 1 46 0 -53 1 52 0 -1 0 6 
1 -45 0 52 1 0 0 48 0 -52 1 3 0 49 0 -51 
1 49 0 -53 0 51 4337 1773 300 MP stroke
1 -2 0 46 0 -54 1 -2 0 49 0 -4 1 -54 0 49 
0 -8 1 47 0 -65 1 47 0 -12 0 45 1 -58 0 96 
0 -149 1 -10 0 65 0 -20 1 74 0 -29 0 42 1 12 
0 36 1 11 0 19 0 -42 1 60 0 -41 0 18 1 7 
0 17 0 -43 1 10 0 29 1 5 0 19 0 -39 1 7 
0 -31 0 112 1 -94 0 82 1 -45 0 79 1 -44 0 -31 
0 58 1 10 0 -43 0 60 1 -42 0 72 1 -42 0 57 
0 -35 1 7 0 61 0 -41 1 7 0 66 1 -43 0 19 
1 -49 0 68 1 0 0 11 1 7 0 -51 0 147 1 93 
0 -30 0 33 1 -65 0 36 0 -38 1 31 0 -69 0 5 
1 16 0 26 0 -116 1 16 0 39 0 -146 1 -53 0 -83 
1 -108 0 -178 1 7 0 -11 0 81 1 -20 0 31 1 -72 
0 35 0 -79 1 34 0 -31 1 -7 0 -26 1 43 0 -65 
0 45 1 -56 0 43 0 -60 0 47 1 -4 0 -22 1 -9 
0 38 0 -59 1 44 0 -66 0 93 1 -63 0 -19 1 40 
0 -57 0 33 1 -56 0 41 0 -15 1 40 0 -76 1 47 
0 -65 0 37 1 40 0 -68 0 43 1 -60 0 46 0 -60 
1 43 0 -24 1 -14 0 2 0 -22 1 -50 0 90 0 -66 
1 -1 0 42 0 -62 1 45 0 -61 0 45 1 -53 0 -9 
1 -5 0 -6 1 -2 0 0 0 -48 0 44 1 3 0 -143 
1 -32 0 31 0 -68 0 29 1 71 0 -37 0 37 1 -28 
0 67 0 -2 1 -22 0 73 1 24 0 44 0 -25 1 25 
0 94 1 58 0 9 1 50 0 -49 0 53 1 0 1 -1 
0 41 1 -4 0 -22 0 3 1 56 0 -44 0 53 1 -3 
0 47 0 -12 1 -7 0 91 0 -110 0 12 1 -55 0 85 
0 -87 0 68 1 81 0 -27 0 42 1 16 0 38 1 10 
0 25 0 -61 0 20 1 59 0 -41 0 19 1 -38 0 64 
0 -31 1 12 0 17 0 -38 1 17 0 61 0 -76 1 58 
0 13 0 -39 1 10 0 40 1 -38 0 42 1 10 0 26 
0 -60 0 27 1 56 0 -37 0 24 1 12 0 -36 0 71 
1 8 0 -39 0 71 1 15 0 -48 0 73 1 9 0 -45 
0 65 1 -50 0 70 0 -3 1 8 0 13 0 -4 1 5 
0 -1 0 150 1 85 0 -34 0 33 1 -69 0 58 0 -18 
1 -25 0 63 1 -49 0 96 0 -120 0 78 1 13 0 -458 
1 -75 0 -218 1 54 0 -49 0 8 1 3 0 12 1 -47 
0 17 1 5 0 6 0 -45 0 6 1 -14 0 91 1 -24 
0 26 0 -73 0 35 1 -17 0 -64 0 25 1 -11 0 -27 
1 -10 0 36 0 -58 4228 1921 300 MP stroke
1 -8 0 46 0 -58 0 41 1 -54 0 44 0 -15 1 -7 
0 39 0 -63 1 -3 0 37 0 -9 1 -66 0 90 0 -59 
1 -10 0 -9 0 47 1 -63 0 45 0 -18 1 -6 0 33 
0 -63 1 -6 0 42 0 -23 1 -4 0 -18 0 36 1 -57 
0 44 0 -21 1 -57 0 37 0 -14 1 -7 0 37 0 -64 
1 -8 0 35 0 -54 1 40 0 -62 0 42 1 -2 0 -62 
0 41 1 -56 0 49 0 -56 0 44 1 -51 0 43 0 -54 
1 44 0 -54 0 50 1 -52 0 -6 0 2 1 3 0 -178 
1 23 0 -21 0 65 1 -33 0 44 1 -31 0 75 1 25 
0 -23 0 58 1 -22 0 80 0 -4 1 63 0 76 1 50 
0 -44 0 52 1 -1 0 2 1 -1 0 49 0 -49 1 50 
0 44 0 -51 1 49 0 -9 0 29 1 -23 0 41 0 -87 
1 -14 0 89 0 -11 1 82 0 -21 0 46 1 19 0 41 
1 14 0 -31 0 61 1 -39 0 33 1 10 0 -40 0 60 
1 -38 0 32 1 -35 0 69 0 -37 1 15 0 25 0 -65 
0 28 1 10 0 31 0 -44 1 69 0 10 0 -75 1 66 
0 14 0 -37 0 17 1 59 0 -60 1 61 0 15 0 -34 
0 8 1 61 0 10 0 -41 0 11 1 65 0 -48 0 25 
1 61 0 -48 0 73 1 -4 0 -39 0 104 1 -93 0 112 
1 -48 0 -47 0 234 1 35 0 15 0 -70 1 35 0 -19 
0 29 1 -23 0 50 0 -35 1 72 0 4 0 -48 0 12 
1 2 0 -110 1 -347 0 -216 1 -53 1 0 1 0 0 -50 
0 52 1 0 0 2 0 -52 0 1 1 53 0 2 0 -53 
0 2 1 2 0 54 0 -50 1 2 0 5 1 -48 0 56 
0 -49 1 54 0 6 0 -55 0 6 1 4 0 11 1 4 
0 -47 0 60 1 -47 0 11 1 6 0 11 0 -45 1 6 
0 -1 0 111 1 -70 0 74 0 -41 1 -66 0 35 0 -28 
1 -11 0 -60 0 35 1 -8 0 34 0 -59 1 -7 0 37 
0 -57 1 47 0 -58 0 39 1 -11 0 -18 1 -6 0 39 
0 -58 1 43 0 -65 0 42 1 -5 0 40 0 -65 1 41 
0 -55 0 34 1 -56 0 43 0 -16 1 -4 0 39 0 -64 
1 37 0 -12 1 -12 0 -22 1 -4 0 42 0 -68 1 49 
0 -71 1 43 0 -65 0 46 1 -6 0 -63 0 48 1 -9 
0 -15 1 -55 0 46 0 -3 1 -5 0 -54 0 1 1 44 
0 -146 1 6 0 -74 0 65 1 -35 0 77 0 -35 1 -35 
0 83 0 -29 1 16 0 40 0 -29 1 24 0 61 1 -29 
0 106 1 -40 0 69 0 -42 1 20 0 77 1 -38 0 70 
1 7 0 58 1 52 4121 1838 300 MP stroke
0 2 0 -52 0 1 1 51 0 -21 0 5 1 -44 0 60 
1 3 0 47 0 -50 1 1 0 49 0 -50 0 47 1 0 
0 -51 0 100 1 -55 0 47 0 -54 1 49 0 -11 1 46 
0 -56 0 41 1 -5 0 38 0 -62 1 -43 0 -19 0 82 
1 -19 0 75 0 -8 1 20 0 30 1 11 0 -29 0 61 
1 -38 0 69 0 -40 1 -44 0 70 0 -40 1 11 0 59 
0 -36 1 10 0 18 0 -56 0 19 1 56 0 -40 0 21 
1 -43 0 82 1 -42 0 22 0 -41 1 65 0 -37 0 64 
1 -46 0 70 0 -42 1 8 0 26 1 9 0 20 1 7 
0 -37 0 60 1 4 0 16 1 6 0 -43 0 58 1 5 
0 54 0 -50 1 5 0 51 0 -48 1 2 0 183 1 -13 
0 36 0 -67 0 34 1 -63 0 46 1 -73 0 30 0 -50 
1 30 0 -53 0 19 1 -75 0 28 0 -50 1 25 0 -96 
1 36 0 -80 1 -5 0 -56 0 38 1 -56 0 52 0 -56 
0 16 1 -56 0 76 0 -17 1 -19 0 -77 0 40 1 -53 
0 -57 1 51 0 -53 0 51 1 -53 0 51 1 -52 1 0 
1 0 1 0 1 -51 0 54 1 -50 0 52 0 -48 1 1 
0 53 0 -50 1 -48 0 58 1 -47 0 53 0 -45 1 3 
0 13 1 3 0 -43 0 56 1 -47 0 16 1 5 0 14 
0 -57 0 12 1 8 0 14 0 -42 1 57 0 -58 0 24 
1 -16 0 -30 1 39 0 -60 0 44 1 -10 0 -56 0 36 
1 41 0 62 1 -63 0 40 0 -75 1 43 0 -27 1 -11 
0 -20 1 40 0 -64 0 44 1 -7 0 -57 0 32 1 -3 
0 39 0 -63 0 47 1 -11 0 -32 1 41 0 -58 0 32 
1 -15 0 -34 1 49 0 -67 0 27 1 -5 0 22 0 -60 
1 35 0 -32 1 -15 0 31 0 -58 1 33 0 -18 1 -17 
0 -17 0 34 1 -61 0 42 0 -59 0 37 1 -15 0 -27 
1 -11 0 43 0 -63 0 36 1 -54 0 38 0 -68 1 42 
0 -24 1 -11 0 -20 1 -11 0 1 0 -18 1 -1 0 -57 
0 42 1 -47 0 46 0 -54 1 -8 0 49 0 -47 1 -47 
0 53 0 -52 1 59 0 -57 0 13 1 5 0 5 0 -41 
1 5 0 25 1 -41 0 63 0 -43 1 16 0 32 0 -66 
0 33 1 67 0 -30 0 78 1 21 0 18 0 -90 1 53 
0 215 1 -9 0 98 1 -27 0 66 1 -24 0 43 0 -32 
1 73 0 -80 0 94 1 -23 0 -34 0 57 1 20 0 -26 
0 56 1 19 0 -41 0 73 1 20 0 -73 0 100 1 -22 
0 50 0 -65 0 44 1 24 0 81 0 -81 1 20 0 89 
0 -21 1 -41 0 98 4012 1485 300 MP stroke
1 -44 0 -1 0 94 1 12 0 -29 0 44 1 18 0 81 
1 -13 0 64 1 81 0 -33 0 52 1 57 0 -43 0 121 
1 63 0 238 1 73 0 17 0 -45 0 17 1 -40 0 -34 
0 61 1 -44 0 -3 0 3 1 -12 0 -186 1 -34 0 -453 
1 -126 0 -76 0 44 1 -53 0 -36 0 65 1 -4 0 -32 
0 42 1 24 0 -67 1 32 0 -95 1 -36 0 16 0 -57 
1 23 0 -46 0 25 1 -69 0 30 0 -37 1 -66 0 -72 
0 43 1 -57 0 42 0 -10 1 -10 0 -19 1 -6 0 39 
0 -54 0 42 1 -55 0 39 0 -52 0 42 1 -9 0 -11 
0 42 1 -61 0 41 0 -61 1 -1 0 42 0 -15 1 -58 
0 84 0 -53 1 -7 0 -12 0 43 1 -9 0 -61 0 46 
1 -8 0 -66 1 46 0 -57 1 -2 0 45 0 -57 1 -3 
0 52 0 -57 1 46 0 -101 1 -92 0 26 0 -36 1 64 
0 -35 0 31 1 17 0 27 0 -26 1 15 0 63 1 -33 
0 64 1 19 0 -17 0 71 1 8 0 31 0 -61 0 25 
1 12 0 121 1 0 0 56 0 -1 1 -49 0 52 0 -51 
1 53 0 -7 1 -17 0 -3 0 11 1 53 0 -42 0 3 
1 51 0 -7 1 -1 0 47 0 -54 1 48 0 -11 1 -3 
0 46 0 -56 0 47 1 -5 0 44 0 -71 1 -38 0 27 
0 -40 0 24 1 79 0 49 0 -74 0 41 1 22 0 42 
1 8 0 26 0 -60 0 21 1 61 0 -44 0 21 1 9 
0 20 0 -60 0 19 1 57 0 -42 0 20 1 -40 0 83 
1 -96 0 83 1 8 0 8 0 -38 0 8 1 11 0 60 
0 -90 1 59 0 19 0 -41 1 58 0 -34 0 59 1 -42 
0 68 0 -41 1 6 0 60 0 -35 1 3 0 23 1 7 
0 21 1 5 0 10 0 -45 1 57 0 13 0 -56 0 54 
1 6 0 6 0 -49 1 101 0 134 0 -13 1 33 0 -66 
0 20 1 -21 0 -53 1 26 0 -58 1 23 0 -75 1 17 
0 27 0 -101 1 25 0 -86 1 -13 0 -77 1 46 0 -60 
0 3 1 -10 0 35 1 -67 0 -80 1 -1 0 -54 0 49 
1 -52 0 50 0 -52 1 0 1 0 0 -51 1 53 0 -101 
0 56 1 -49 0 54 0 -45 1 55 0 -49 0 7 1 -46 
0 59 0 -46 1 56 0 -47 0 11 1 -45 0 139 1 -24 
0 -46 0 27 1 -19 0 -82 1 38 0 -36 1 -8 0 -17 
0 41 1 -56 0 35 0 -58 1 46 0 -21 1 -9 0 -15 
1 -6 0 -11 0 45 1 -59 0 47 0 -58 0 47 1 -8 
0 39 0 -98 0 39 1 -8 0 -12 0 44 1 -57 0 40 
0 -54 0 42 1 -5 3904 1985 300 MP stroke
0 32 0 -92 0 39 1 -12 0 -14 0 49 1 -61 0 45 
0 -60 0 49 1 -59 0 45 0 -13 1 -9 0 -18 1 40 
0 -54 0 45 1 -58 0 45 0 -59 1 42 0 -61 1 47 
0 -53 0 39 1 -43 0 -10 0 51 1 -52 0 -131 1 10 
0 -37 0 78 1 -39 0 41 1 14 0 16 0 -36 0 19 
1 18 0 34 0 -31 1 69 0 -36 0 38 1 20 0 -19 
0 68 1 11 0 27 0 -62 0 25 1 62 0 -41 0 61 
1 8 0 -41 0 52 1 9 0 64 1 3 0 52 1 -56 
0 47 0 -46 1 51 0 6 1 -46 1 52 -1 0 2 0 
0 51 0 -53 1 50 0 -53 1 50 0 -5 1 -2 0 -4 
0 49 1 -55 0 49 0 -58 1 49 0 43 0 -56 1 -4 
0 47 0 -63 1 49 0 44 0 -58 0 44 1 -11 0 -132 
0 15 1 81 0 52 0 -74 0 46 1 23 0 46 1 10 
0 20 0 -37 1 60 0 -38 0 8 1 10 0 22 1 11 
0 -39 0 64 1 -41 0 -31 0 56 1 11 0 17 0 -63 
0 19 1 6 0 58 0 -31 1 5 0 -42 0 67 1 -43 
0 75 1 -46 0 76 1 -43 0 -42 0 113 1 -45 0 -39 
0 60 1 9 0 -40 0 58 1 -43 0 72 1 -46 0 63 
0 -95 1 58 0 53 0 -41 1 5 0 9 1 8 0 49 
0 -46 1 -2 0 193 0 -62 1 86 0 -67 0 18 1 -68 
0 67 0 -68 1 -20 0 59 0 -76 1 29 0 -72 0 54 
1 -78 0 9 0 -25 0 5 1 -20 0 -68 0 65 1 -66 
0 -69 0 42 1 -9 0 -64 0 45 1 -53 0 44 0 -93 
1 51 0 16 0 -19 1 -17 0 -70 0 45 1 -55 0 -6 
1 -52 0 50 0 -52 1 0 0 50 0 -52 1 0 0 51 
1 -53 1 0 1 0 1 -50 0 52 0 -50 1 52 0 2 
0 -53 0 2 1 53 0 -51 0 4 1 2 0 5 1 2 
0 6 0 -55 0 6 1 54 0 -48 0 7 1 4 0 11 
1 -47 0 56 0 -41 1 5 0 -39 0 106 1 -15 0 48 
0 -75 1 30 0 -71 0 14 1 -12 0 -37 1 -6 0 -17 
1 41 0 -65 0 43 1 -8 0 -58 0 39 1 -9 0 -16 
1 -9 0 40 0 -56 1 -2 0 42 0 -57 0 46 1 -6 
0 -57 0 40 1 -7 0 35 0 -60 1 -3 0 43 0 -59 
0 44 1 -8 0 -56 0 34 1 -4 0 -16 0 43 1 -54 
0 40 0 -54 0 39 1 -53 0 43 0 -16 1 -52 0 42 
0 -10 1 41 0 -62 0 43 1 -58 0 44 0 -60 1 -7 
0 52 0 -57 1 -5 0 46 0 -58 1 -2 0 47 0 -53 
1 46 0 -193 1 61 3798 2229 300 MP stroke
0 -91 0 27 1 65 0 -41 0 29 1 15 0 -22 0 70 
1 -35 0 53 1 -31 0 67 0 -15 1 21 0 -15 0 68 
1 14 0 31 0 -68 0 26 1 65 0 -33 0 56 1 7 
0 -36 0 52 1 8 0 62 0 -1 1 4 0 54 0 -53 
1 44 0 -50 0 51 1 0 0 8 1 -47 0 53 1 -2 
0 2 1 49 0 -51 0 50 1 -52 0 50 0 -51 0 50 
1 -2 0 -5 1 -2 0 47 0 -54 1 48 0 -11 1 -4 
0 -7 0 47 1 -6 0 -56 0 92 1 -58 0 45 0 -98 
1 -14 0 67 0 -83 0 62 1 73 0 -28 0 39 1 14 
0 38 1 8 0 21 0 -60 0 22 1 11 0 26 1 5 
0 -37 0 57 1 -45 0 27 1 13 0 -47 0 70 1 -45 
0 67 0 -43 1 13 0 15 0 -44 1 60 0 -37 0 62 
1 -48 0 59 0 -35 1 12 0 51 0 -34 1 8 0 21 
1 7 0 -41 0 61 1 4 0 -37 0 59 1 -51 0 70 
0 -48 1 12 0 14 1 7 0 63 1 -50 0 58 1 -44 
0 -6 0 145 1 35 0 22 0 -66 1 36 0 -38 1 -17 
0 32 0 -68 0 29 1 -24 0 28 0 -48 1 -28 0 -43 
0 29 1 -22 0 -67 0 15 1 -18 0 -42 1 -59 0 43 
0 -18 1 -57 0 47 0 -55 1 5 0 -55 0 71 1 -5 
0 -41 1 -59 0 42 0 -56 1 -3 0 -54 1 0 0 51 
0 -53 1 0 0 51 0 -53 1 0 1 51 0 -103 1 52 
1 0 0 -50 1 52 0 -50 0 52 1 -50 0 54 0 -51 
1 2 0 6 1 2 0 -47 0 54 1 -49 0 55 0 -45 
1 3 0 12 1 3 0 10 0 -57 0 10 1 56 0 -92 
0 8 1 108 0 13 0 -26 1 24 0 -94 0 33 1 -18 
0 -41 1 -9 0 -26 1 -5 0 40 0 -58 0 43 1 -57 
0 43 0 -13 1 -6 0 -59 0 99 1 -59 0 -15 1 -6 
0 43 0 -58 0 47 1 -8 0 -56 0 38 1 -9 0 -18 
1 43 0 -73 1 44 0 -56 0 35 1 -9 0 38 0 -60 
1 -8 0 41 0 -10 1 -55 0 42 0 -13 1 -58 0 83 
1 -60 0 38 0 -57 1 -2 0 41 0 -59 1 44 0 -62 
1 42 0 -57 1 41 0 -50 0 1 1 44 0 1 0 -147 
1 -42 0 24 0 -37 1 16 0 61 0 -23 1 15 0 30 
0 -37 1 19 0 65 0 -65 1 73 0 -33 0 87 1 -33 
0 -32 0 84 1 13 0 31 0 -62 0 26 1 62 0 24 
0 -64 0 20 1 60 0 10 1 5 0 64 0 -105 0 60 
1 54 0 39 0 -51 1 54 0 6 0 -52 0 51 1 7 
0 6 0 -53 0 52 3692 1816 300 MP stroke
1 1 0 -2 1 1 0 -1 1 1 0 51 1 -52 0 50 
0 -52 0 49 1 -51 0 51 0 -4 1 -2 0 -4 0 49 
1 -54 0 48 0 -57 1 48 0 43 0 -56 1 -4 0 47 
0 -61 1 46 0 45 0 -67 1 -6 0 -75 0 69 1 -18 
0 77 0 -4 1 20 0 41 1 13 0 20 0 -40 1 63 
0 -42 0 19 1 8 0 16 0 -38 1 8 0 55 0 -32 
1 10 0 -42 0 67 1 -43 0 60 0 -43 1 6 0 29 
1 3 0 19 0 -42 1 54 0 20 0 -60 0 12 1 58 
0 -41 0 14 1 60 0 -46 0 14 1 8 0 -38 0 60 
1 8 0 15 1 -46 0 72 1 -46 0 19 1 7 0 55 
0 -44 1 5 0 12 0 -2 1 57 0 -50 0 1 1 149 
0 38 0 -29 1 38 0 -69 0 19 1 -19 0 17 0 -35 
0 12 1 -70 0 79 0 -73 1 26 0 -47 0 22 1 -73 
0 33 0 -72 0 32 1 -20 0 -46 1 -59 0 39 0 -18 
1 -60 0 44 0 -65 1 -3 0 42 0 -57 1 -1 0 -43 
0 60 1 -8 0 -65 0 39 1 -8 0 -68 1 -2 0 -54 
1 51 0 -53 0 51 1 -52 1 50 0 -52 1 0 1 0 
1 0 1 -1 0 -50 0 53 1 -1 0 2 0 -51 0 2 
1 51 0 -51 0 55 1 -51 0 6 1 2 0 5 1 -48 
0 56 0 -49 1 4 0 54 0 -45 1 4 0 7 0 -46 
1 56 0 9 0 -56 0 9 1 6 0 5 0 -45 0 8 
1 102 0 25 0 -51 1 28 0 -90 0 30 1 -11 0 -40 
1 -10 0 -23 1 41 0 -74 1 46 0 -58 0 39 1 -8 
0 -11 1 -6 0 -16 1 42 0 -64 1 64 0 -84 0 43 
1 -6 0 -16 0 48 1 -62 0 40 0 -45 0 35 1 -58 
0 44 0 -15 1 -9 0 -11 0 41 1 -59 0 49 0 -61 
0 42 1 -52 0 41 0 -62 1 44 0 -15 0 45 1 -60 
0 38 0 -55 1 42 0 -55 0 37 1 -56 0 51 0 -58 
0 1 1 42 0 -60 1 46 0 -54 0 51 1 -6 0 -146 
0 8 1 -40 0 -26 0 64 1 -36 0 41 1 15 0 28 
0 -38 1 71 0 -66 0 68 1 19 0 -32 0 39 1 16 
0 34 0 -32 1 64 0 30 0 -64 0 24 1 63 0 -32 
0 58 1 6 0 -42 0 59 1 5 0 67 1 1 0 -2 
0 46 1 -49 0 57 1 0 0 5 0 -46 1 52 1 0 
1 0 0 50 0 -51 1 0 0 49 0 -51 0 50 1 -52 
0 50 0 -3 1 -2 0 -6 1 49 0 -60 1 49 0 -11 
1 46 0 -65 1 47 0 -11 0 45 1 -8 0 -110 1 -16 
0 136 1 -28 0 52 3582 1663 300 MP stroke
1 12 0 22 0 -36 1 59 0 12 0 -44 0 12 1 7 
0 23 1 -37 0 58 0 -34 1 9 0 23 1 7 0 -39 
0 56 1 -40 0 75 1 -43 0 -34 0 58 1 8 0 -37 
0 61 1 -48 0 58 0 -33 1 8 0 57 0 -37 1 8 
0 21 1 -43 0 67 1 5 0 13 0 -53 0 11 1 60 
0 -49 0 67 1 -48 0 15 0 -2 1 10 0 13 1 2 
0 56 0 -46 1 -1 0 177 1 -13 0 36 0 -66 0 35 
1 -18 0 -50 1 32 0 -73 0 34 1 23 0 -70 0 4 
1 -28 0 7 0 -69 1 30 0 -60 1 -15 0 -75 0 41 
1 -13 0 -72 1 45 0 -53 0 7 1 -9 0 17 0 -9 
1 -10 0 -61 0 26 1 -55 0 -6 1 -52 0 50 0 -52 
1 50 0 -52 0 1 1 49 0 -52 1 0 1 0 1 0 
1 -51 0 53 0 -51 1 53 0 1 0 -52 0 2 1 2 
0 52 0 -48 1 1 0 4 0 -49 1 55 0 2 0 -49 
0 4 1 54 0 -49 0 8 1 3 0 -43 0 56 1 -46 
0 56 0 -42 1 -45 0 100 1 24 0 21 0 -70 0 24 
1 -68 0 31 0 -33 1 -12 0 -32 1 -10 0 35 0 -59 
1 44 0 -56 0 34 1 -57 0 46 0 -14 1 -7 0 43 
0 -60 1 -8 0 45 0 -56 1 40 0 -66 1 43 0 -12 
0 43 1 -59 0 37 0 -56 1 43 0 -66 0 45 1 -10 
0 42 0 -66 1 -5 0 42 0 -58 0 45 1 -58 0 44 
0 -64 1 45 0 -22 1 -8 0 48 0 -62 0 43 1 -53 
0 43 0 -59 0 46 1 -4 0 -57 0 42 1 -57 0 49 
0 -59 0 51 1 -5 0 -55 0 47 1 -51 0 46 0 -92 
1 -98 0 25 0 -35 1 64 0 -38 0 29 1 13 0 32 
1 -36 0 57 1 22 0 37 0 -73 0 37 1 22 0 34 
0 -29 1 66 0 31 0 -62 0 26 1 63 0 23 0 -62 
0 19 1 61 0 -37 0 55 1 4 0 13 1 55 0 43 
0 -55 1 54 0 -49 0 58 1 -44 0 52 0 -2 1 2 
0 -2 0 0 1 1 0 1 0 -2 0 1 1 1 0 50 
0 -53 1 2 0 49 0 -53 1 50 0 -5 1 -2 0 49 
0 -55 1 49 0 -54 0 45 1 -4 0 -7 0 46 1 -56 
0 47 0 -11 1 -6 0 39 0 -44 0 35 1 -103 0 25 
0 -41 0 29 1 75 0 -22 0 91 1 -36 0 45 1 9 
0 25 0 -59 0 20 1 60 0 -41 0 18 1 7 0 -40 
0 68 1 -46 0 30 1 8 0 15 0 -42 1 58 0 12 
0 -51 0 14 1 5 0 23 1 13 0 -47 0 69 1 3 
0 -44 0 13 1 55 3478 1491 300 MP stroke
0 -41 0 64 1 -42 0 19 1 10 0 -38 0 112 1 -99 
0 69 1 10 0 14 0 -58 0 8 1 12 0 18 1 5 
0 16 1 3 0 15 1 50 0 -51 0 7 1 47 0 134 
0 -18 1 38 0 -84 0 37 1 -16 0 -36 0 30 1 -18 
0 -44 0 26 1 -71 0 25 0 0 1 -71 0 26 0 -38 
1 -65 0 36 0 -18 1 -13 0 -69 0 42 1 -5 0 -60 
0 45 1 -51 0 -47 0 58 1 -6 0 -49 1 -10 0 -59 
1 -3 0 -52 0 50 1 -52 0 51 0 -53 1 0 1 2 
0 49 0 -53 1 -50 0 53 0 -1 1 1 0 -50 0 51 
1 0 0 -50 0 54 1 -51 0 6 1 2 0 3 0 -48 
1 54 0 -49 0 58 1 -48 0 7 1 -47 0 60 0 -47 
1 5 0 -44 0 111 1 32 0 -80 1 34 0 -90 0 35 
1 -15 0 -36 1 -9 0 41 0 -60 0 37 1 -54 0 41 
0 -19 1 -4 0 -16 0 45 1 -62 0 44 0 -56 0 42 
1 -6 0 -63 0 45 1 -5 0 -14 0 42 1 -60 0 39 
0 -56 1 42 0 -56 0 36 1 -9 0 -19 1 -10 0 45 
0 -59 0 42 1 -55 0 40 0 -7 1 -56 0 46 0 -14 
1 -9 0 37 0 -56 1 -6 0 40 0 -58 1 41 0 -58 
0 50 1 -13 0 -58 1 -5 0 48 0 -51 0 44 1 -53 
0 50 0 -146 1 7 0 -89 0 30 1 62 0 -36 0 30 
1 19 0 -16 0 65 1 -30 0 -12 0 70 1 -30 0 66 
0 -9 1 -34 0 84 0 -31 1 60 0 24 0 -59 0 18 
1 60 0 14 1 -42 0 61 1 52 0 -45 0 106 1 -50 
0 54 1 0 0 -50 0 52 1 0 0 -10 1 -7 0 -5 
0 6 1 6 0 52 1 -46 0 50 0 -52 0 3 1 50 
0 -6 1 -1 0 -4 0 48 1 -54 0 49 0 -54 0 48 
1 -3 0 -11 1 46 0 -56 0 42 1 -6 0 -11 0 45 
1 -58 0 45 0 -15 1 47 0 -39 0 82 1 -74 0 3 
0 -78 0 5 1 70 0 -30 0 70 1 -33 0 91 1 -44 
0 29 1 -40 0 68 0 -45 1 61 0 -46 0 70 1 -50 
0 -33 0 63 1 2 0 17 0 -59 0 16 1 58 0 -42 
0 18 1 9 0 16 0 -62 0 20 1 59 0 -44 0 22 
1 2 0 24 0 -40 1 8 0 63 0 -83 1 65 0 4 
0 -38 0 18 1 1 0 38 1 -46 0 77 0 -47 1 11 
0 64 0 -37 1 14 0 20 1 2 0 23 1 -36 0 64 
0 -42 1 57 0 12 0 -50 0 9 1 59 0 -41 0 50 
1 7 0 -49 0 107 1 -47 0 -6 0 56 1 -1 0 -57 
1 144 0 73 0 -15 3374 1132 300 MP stroke
1 33 0 -69 0 15 1 -19 0 -38 0 26 1 -24 0 -37 
1 -27 0 -59 0 20 1 -35 0 -56 0 28 1 -74 0 28 
0 -161 1 -3 0 -54 1 2 0 49 0 -53 1 0 0 10 
0 -42 1 61 0 7 0 -61 1 37 0 -81 0 16 1 -30 
0 -71 1 -22 0 34 0 -67 0 34 1 -63 0 35 0 -24 
1 34 0 -82 1 41 0 -36 1 40 0 -74 0 44 1 -14 
0 -116 1 -3 0 1 0 -50 0 7 1 -1 0 52 0 -44 
1 5 0 2 0 -42 1 55 0 9 0 -91 1 55 0 20 
1 7 0 58 1 -45 0 56 1 -1 0 -48 0 53 1 -1 
0 -3 1 1 0 -4 1 53 0 -57 0 48 1 -6 0 -12 
1 -5 0 45 0 -55 0 44 1 -9 0 42 0 -114 1 -1 
0 -53 0 1 1 4 0 50 0 -51 0 2 1 2 0 6 
1 2 0 -1 0 8 1 -47 0 60 1 0 0 6 1 3 
0 3 0 -4 0 2 1 52 0 -50 0 45 1 46 0 -68 
1 42 0 -22 1 -4 0 -20 1 -5 0 44 0 -61 0 1 
1 -7 0 46 0 -60 0 50 1 -10 0 -19 1 48 0 -62 
0 33 1 -4 0 -27 1 -8 0 39 0 -62 1 -6 0 49 
0 -62 0 46 1 -61 0 48 0 -56 0 39 1 -4 0 -67 
1 43 0 -15 1 -8 0 -56 0 48 1 -5 0 -9 1 -58 
0 51 0 -1 1 -8 0 2 0 -52 0 48 1 -54 0 51 
0 -4 1 -99 0 -111 1 67 0 -36 0 81 1 -34 0 -15 
0 70 1 -33 0 43 0 -28 1 24 0 50 0 -28 1 74 
0 38 0 -69 0 41 1 17 0 82 0 -38 1 17 0 82 
1 6 0 108 1 -49 0 52 0 -50 1 52 1 0 0 -9 
1 -15 0 44 0 -47 0 7 1 4 0 51 0 -43 1 4 
0 85 1 32 0 50 0 -74 0 44 1 68 0 -62 0 65 
1 12 0 12 0 -37 0 14 1 11 0 26 0 -37 1 62 
0 -41 0 23 1 11 0 26 1 11 0 -32 0 61 1 -46 
0 59 0 -31 1 58 0 -44 0 16 1 8 0 20 1 9 
0 22 1 2 0 -44 0 62 1 9 0 -50 0 108 1 44 
0 69 1 -59 0 38 0 -31 1 -12 0 -31 1 35 0 -71 
0 16 1 -18 0 32 0 -73 0 37 1 -22 0 -62 0 22 
1 -19 0 -31 1 -53 0 80 0 -63 1 28 0 -185 1 46 
0 -53 1 1 0 -1 1 1 0 -1 0 1 1 -1 0 0 
0 2 1 -45 0 47 0 -2 1 -86 0 20 0 -58 1 27 
0 -48 0 30 1 -22 0 29 0 -70 0 29 1 29 0 -72 
0 7 1 -19 0 -18 0 28 1 -20 0 -100 1 29 0 -50 
1 -62 0 30 0 -39 3266 2102 300 MP stroke
0 22 1 -60 0 -21 1 -2 0 48 0 -104 0 2 1 -92 
0 -55 1 66 0 -37 0 34 1 20 0 17 0 -33 0 26 
1 17 0 43 0 -25 1 25 0 -23 0 94 1 -26 0 89 
0 -35 1 23 0 44 1 14 0 110 1 52 0 2 0 -52 
0 51 1 -49 0 52 1 0 1 0 0 37 0 -72 1 -6 
0 56 0 -32 1 57 0 -35 0 77 1 29 0 51 0 -29 
1 26 0 53 1 8 0 30 0 -64 0 25 1 17 0 34 
1 -40 0 59 0 -24 1 9 0 31 1 7 0 25 0 -63 
0 17 1 61 0 -40 0 20 1 10 0 26 1 8 0 -33 
0 58 1 11 0 -46 0 71 1 -44 0 70 1 -38 0 11 
1 50 0 11 0 -51 0 3 1 9 0 142 1 43 0 25 
0 -65 1 35 0 -49 1 -15 0 33 0 -42 1 -19 0 23 
1 -73 0 29 0 -44 1 -25 0 32 0 -83 1 30 0 -82 
1 40 0 -69 1 -2 0 40 0 -63 1 -6 0 -56 0 43 
1 -6 0 -67 1 46 0 -68 1 46 0 -67 1 47 0 -62 
1 47 0 -65 1 -4 0 47 0 -62 1 47 0 -15 1 94 
0 -188 1 40 0 63 0 -79 0 52 1 73 0 -31 0 35 
1 17 0 -30 0 64 1 5 0 20 0 -57 0 15 1 12 
0 22 1 7 0 -34 0 58 1 -44 0 66 0 -43 1 5 
0 15 0 -42 1 59 0 -39 0 56 1 -39 0 52 0 -36 
1 9 0 61 0 -44 1 8 0 6 0 -41 1 53 0 14 
0 -41 1 53 0 -36 0 53 1 -44 0 66 0 -46 1 6 
0 17 1 11 0 -42 0 60 1 2 0 -43 0 64 1 0 
0 -45 0 64 1 -52 0 61 1 3 0 -50 0 102 1 93 
0 -41 1 38 0 -80 0 38 1 -16 0 20 0 -72 1 36 
0 -60 1 -14 0 30 0 -66 0 29 1 -17 0 -43 1 -64 
0 42 0 -13 1 -9 0 -72 1 32 0 45 0 -76 1 -17 
0 -72 1 -51 0 48 0 -52 0 2 1 2 0 46 0 -52 
1 0 1 0 1 0 0 -50 0 52 1 -51 0 53 0 -49 
1 2 0 4 0 -49 1 54 0 6 0 -54 0 5 1 4 
0 7 0 -46 1 56 0 -47 0 11 1 6 0 96 0 -55 
1 24 0 -73 0 7 1 -17 0 -44 1 -12 0 -18 1 -11 
0 43 0 -60 0 44 1 -11 0 -26 1 -6 0 42 0 -66 
1 45 0 -27 1 -7 0 -18 1 -8 0 33 0 -55 1 45 
0 -68 0 42 1 -5 0 -26 1 46 0 -79 1 43 0 -26 
1 -57 0 93 0 -65 1 -8 0 43 0 -65 1 44 0 -64 
0 41 1 -7 0 -67 1 43 0 39 0 -57 1 -3 0 -54 
0 48 1 -6 0 -59 3155 2173 300 MP stroke
1 48 0 2 0 -147 1 -37 0 -22 0 65 1 -37 0 52 
1 13 0 36 0 -67 0 39 1 17 0 -24 0 47 1 20 
0 -26 0 87 1 -31 0 48 1 14 0 57 0 -27 1 13 
0 70 1 -45 0 59 0 -44 1 56 0 56 1 -55 0 41 
0 -46 1 60 0 25 1 4 0 49 0 -47 1 53 0 -5 
0 1 1 -47 0 52 1 -2 0 -48 1 52 1 51 0 -53 
1 0 0 51 0 -52 1 50 0 -54 1 50 0 -5 1 -2 
0 -6 1 -1 0 48 0 -54 0 49 1 -4 0 -54 0 45 
1 -4 0 43 0 -56 1 -4 0 47 0 -11 1 -6 0 40 
0 -45 0 34 1 -107 0 -3 0 41 1 -14 0 101 0 -30 
1 19 0 29 1 17 0 -29 0 60 1 8 0 -41 0 68 
1 -90 0 74 1 8 0 14 0 -57 0 15 1 7 0 67 
0 -48 1 11 0 -37 0 57 1 8 0 -44 0 63 1 -40 
0 69 1 -45 0 23 1 -45 0 74 1 -49 0 73 1 -43 
0 53 0 -37 1 7 0 61 0 -42 1 -41 0 68 1 -43 
0 63 0 -46 1 54 0 -44 0 8 1 5 0 59 1 -46 
0 56 1 -46 0 190 1 -13 0 21 0 -62 1 36 0 -45 
1 -18 0 19 0 -70 1 33 0 9 0 -72 1 31 0 -86 
0 33 1 -14 0 -34 0 31 1 -62 0 -29 1 -10 0 -19 
0 6 1 -3 0 -96 1 -8 0 -54 0 47 1 -51 0 49 
0 -52 1 0 0 50 1 -52 1 0 0 -51 0 53 1 0 
0 1 0 -52 0 2 1 52 0 -50 0 3 1 2 0 -46 
0 54 1 -49 0 54 0 -45 1 4 0 9 0 -56 0 10 
1 56 0 -98 0 114 1 -7 0 42 0 -76 1 29 0 -92 
0 35 1 -17 0 -38 1 -9 0 29 0 -59 1 43 0 -71 
0 47 1 -13 0 -13 0 43 1 -59 0 35 0 -43 0 36 
1 -7 0 -60 0 38 1 -6 0 -13 1 42 0 -73 1 43 
0 -60 0 40 1 -12 0 -15 0 44 1 -62 0 42 0 -57 
0 40 1 -6 0 -59 0 36 1 -10 0 34 0 -57 1 -5 
0 40 0 -59 1 40 0 -26 1 -2 0 -64 0 45 1 -7 
0 46 0 -65 1 -3 0 -57 0 45 1 1 0 -55 0 95 
1 -103 0 -173 1 65 0 13 0 -33 0 14 1 18 0 47 
1 -33 0 59 1 20 0 -31 0 23 1 18 0 26 0 -30 
0 22 1 67 0 -30 0 32 1 10 0 64 0 -25 1 6 
0 66 0 -42 1 53 0 -42 0 60 1 2 0 -8 1 55 
0 -62 0 66 1 -35 0 117 1 -50 0 53 1 0 0 6 
0 -53 0 51 1 -3 0 -46 0 52 1 0 1 0 1 0 
0 51 0 -53 1 1 3044 1794 300 MP stroke
0 50 0 -53 0 1 1 50 0 -54 1 51 0 -6 1 -2 
0 -5 1 48 0 -60 1 49 0 -11 1 -4 0 -7 0 47 
1 -56 0 46 0 -11 1 -5 0 39 0 -45 0 37 1 -106 
0 24 0 -25 1 82 0 -25 0 45 1 65 0 -38 0 29 
1 -33 0 67 0 -36 1 12 0 64 0 -92 1 59 0 18 
0 -44 1 54 0 -39 0 68 1 -48 0 -34 0 61 1 8 
0 4 0 -42 1 56 0 -40 0 14 1 6 0 26 1 1 
0 25 1 -46 0 72 1 -44 0 60 0 -39 1 54 0 -45 
0 15 1 4 0 58 0 -86 1 56 0 -37 0 58 1 4 
0 -48 0 64 1 -46 0 16 1 57 0 -47 0 55 1 4 
0 -53 0 56 1 46 0 89 0 -21 1 31 0 -64 0 20 
1 -17 0 -34 0 36 1 -71 0 58 1 -70 0 8 0 -29 
0 8 1 -21 0 11 0 -68 1 -14 0 32 0 -72 1 -9 
0 39 0 -64 1 -7 0 2 0 -13 0 1 1 6 0 -53 
1 -58 0 -59 1 49 0 -52 0 2 1 48 0 -52 1 2 
0 49 0 -53 1 1 0 -51 0 52 1 0 0 -50 1 52 
0 -51 0 55 1 -51 0 4 0 -49 1 54 0 -46 0 54 
1 -49 0 8 1 3 0 8 0 -47 1 6 0 16 1 6 
0 90 1 -78 0 27 0 -72 0 33 1 -22 0 -39 1 -7 
0 -24 0 43 1 -61 0 35 0 -42 0 33 1 -55 0 44 
0 -18 1 -6 0 41 0 -65 1 46 0 -67 0 46 1 -9 
0 -55 0 87 1 -59 0 -13 0 40 1 -53 0 41 0 -59 
0 42 1 -5 0 -28 1 -4 0 34 0 -41 0 30 1 -60 
0 48 0 -62 1 45 0 -23 1 -8 0 36 0 -60 1 -2 
0 39 0 -56 0 47 1 -60 0 44 0 -11 1 -9 0 -18 
1 -6 0 -50 0 41 1 -7 0 -48 0 41 1 -51 0 49 
0 -55 1 -140 0 40 1 -39 0 82 0 -39 1 14 0 -18 
0 70 1 -34 0 39 0 -29 1 71 0 -54 0 71 1 18 
0 38 0 -69 0 35 1 20 0 78 0 -40 1 15 0 20 
1 55 0 -43 0 58 1 -44 0 58 1 3 0 44 0 -48 
0 7 1 59 0 59 1 2 0 -47 0 51 1 -49 0 49 
0 -4 1 3 0 -45 0 52 1 0 1 -1 0 52 0 -52 
1 -1 0 50 0 -51 1 50 0 -54 0 50 1 -1 0 -6 
1 -2 0 49 0 -56 1 48 0 -11 1 -3 0 -12 1 47 
0 -56 0 41 1 -5 0 45 0 -8 1 -58 0 -66 0 37 
1 -19 0 79 0 -2 1 65 0 -29 0 29 1 16 0 -40 
0 74 1 -41 0 68 0 -40 1 5 0 -38 0 64 1 -39 
0 68 0 -45 1 9 2938 1593 300 MP stroke
0 -33 0 60 1 5 0 17 0 -59 0 14 1 12 0 63 
0 -46 1 -38 0 70 1 -41 0 64 0 -43 1 56 0 17 
0 -61 0 13 1 10 0 62 0 -44 1 8 0 19 1 7 
0 8 1 9 0 -40 0 58 1 -43 0 60 0 -45 1 4 
0 64 0 -48 1 2 0 57 0 -45 1 54 0 -50 0 57 
1 43 0 116 1 -68 0 38 0 -84 1 36 0 32 0 -72 
0 34 1 -71 0 58 0 -72 1 29 0 -65 1 -18 0 30 
0 -70 0 38 1 -67 0 34 0 -74 1 -5 0 41 0 -59 
0 2 1 -9 0 2 0 -64 1 71 0 22 0 -74 1 -13 
0 -60 1 -2 0 -54 0 48 1 -52 0 51 0 -53 1 0 
0 51 1 -53 1 0 1 0 0 -50 0 52 1 -50 0 54 
1 -51 0 55 0 -51 1 2 0 -49 0 56 1 2 0 -48 
0 58 1 -49 0 11 1 -47 0 66 1 -47 0 17 1 -45 
0 72 1 27 0 23 0 -74 0 28 1 -69 0 34 0 -14 
1 -16 0 -31 1 -13 0 -21 1 -7 0 43 0 -56 0 41 
1 -56 0 46 0 -59 0 48 1 -8 0 -61 0 45 1 -8 
0 47 0 -66 1 -4 0 43 0 -64 1 42 0 -21 1 -8 
0 41 0 -63 1 40 0 -26 1 -10 0 -12 0 41 1 -59 
0 43 0 -56 0 41 1 -53 0 73 1 -60 0 31 0 -54 
1 42 0 -57 0 35 1 -9 0 -66 1 46 0 -17 1 -7 
0 -18 1 -5 0 46 0 -63 1 -5 0 -11 1 3 0 -59 
1 52 0 -102 1 -39 0 -42 0 29 1 -35 0 97 1 -84 
0 83 0 -31 1 70 0 -60 0 73 1 -27 0 66 1 18 
0 41 0 -68 0 36 1 70 0 -36 0 79 1 10 0 113 
1 -49 0 51 0 -49 1 53 1 -1 0 -15 1 2 0 59 
0 -49 1 50 0 -4 1 47 0 -52 0 45 1 -4 0 43 
0 -46 0 28 1 38 0 -122 1 -6 0 103 1 75 0 -29 
0 35 1 18 0 -22 0 61 1 -38 0 38 1 8 0 11 
0 -42 0 13 1 62 0 -81 0 61 1 -40 0 65 0 -30 
1 9 0 -30 0 62 1 -38 0 33 1 -37 0 65 0 -45 
1 17 0 31 1 11 0 25 0 -61 0 16 1 63 0 13 
0 -46 0 11 1 11 0 60 0 -35 1 59 0 -49 0 20 
1 55 0 -41 0 14 1 55 0 -49 0 64 1 -48 0 60 
1 3 0 -47 0 149 1 37 0 39 0 -34 1 36 0 -85 
0 81 1 -73 0 25 0 -53 1 -25 0 15 0 -105 1 -6 
0 -175 1 17 0 -117 1 -46 0 -75 1 -28 0 -70 1 -20 
0 -90 1 40 0 -59 0 39 1 -9 0 -19 1 -10 0 45 
0 -66 1 45 0 -65 2828 2032 300 MP stroke
0 42 1 -4 0 32 0 -56 1 40 0 -54 0 33 1 -57 
0 44 0 -16 1 -3 0 39 0 -61 1 -12 0 49 0 -60 
0 46 1 -61 0 47 0 -53 0 41 1 -51 0 42 0 -55 
0 49 1 -10 0 -54 0 42 1 -54 0 46 0 -55 1 44 
0 -55 1 51 0 -97 1 -44 0 -73 0 59 1 -33 0 76 
0 -36 1 14 0 -35 0 80 1 -32 0 40 0 -34 1 23 
0 67 0 -6 1 -32 0 90 0 -34 1 67 0 -36 0 29 
1 64 0 -44 0 70 1 -45 0 62 1 3 0 61 0 -68 
1 -40 0 148 1 8 0 54 0 -49 1 51 0 -48 0 52 
1 -3 0 -47 0 52 1 0 1 0 1 0 0 51 0 -53 
1 0 0 51 0 -54 1 50 0 -5 1 -3 0 47 0 -54 
1 49 0 -62 1 -2 0 -7 1 -32 0 116 0 -26 1 24 
0 56 1 11 0 28 0 -62 0 27 1 58 0 -40 0 26 
1 -42 0 70 0 -39 1 5 0 60 0 -33 1 7 0 -33 
0 60 1 -44 0 61 0 -32 1 3 0 60 0 -93 0 58 
1 9 0 9 1 8 0 14 0 -57 0 13 1 56 0 -46 
0 63 1 -41 0 157 1 -56 0 94 0 -21 1 -60 0 41 
0 -23 1 -10 0 -20 0 29 1 -14 0 -48 1 33 0 -60 
1 -13 0 32 0 -61 0 28 1 -6 0 -80 0 25 1 -23 
0 2 0 -38 1 -22 0 -86 1 -3 0 -51 0 32 1 -40 
0 -85 1 -32 0 16 0 -81 0 24 1 25 0 -93 1 30 
0 -102 1 -17 0 25 0 -35 0 24 1 -60 0 -152 0 6 
1 9 0 8 0 -41 0 14 1 63 0 -52 1 65 0 18 
0 -37 0 27 1 15 0 42 0 -67 0 36 1 70 0 -36 
0 37 1 -26 0 94 1 -37 0 130 1 3 0 53 1 -50 
0 53 0 -51 1 53 1 -5 0 -13 0 1 1 51 0 7 
0 -55 0 9 1 50 0 -3 1 -2 0 48 0 -52 0 48 
1 -4 0 -11 1 47 0 -56 0 41 1 -5 0 41 0 -110 
1 -12 0 78 0 -22 1 77 0 -26 0 43 1 15 0 39 
1 -37 0 61 0 -27 1 11 0 27 1 9 0 -42 0 23 
1 9 0 30 1 -46 0 35 1 6 0 22 0 -42 1 61 
0 -42 0 71 1 -45 0 -36 0 68 1 9 0 10 0 -46 
1 13 0 79 1 -46 0 69 0 -43 1 4 0 21 0 -27 
1 39 0 22 1 9 0 -43 0 63 1 6 0 -41 0 61 
1 -46 0 64 1 -45 0 99 1 94 0 54 1 -69 0 32 
0 -39 1 30 0 -73 0 1 1 23 0 -62 0 16 1 -83 
0 17 0 -37 0 20 1 -80 0 -179 1 47 0 2 0 -53 
1 -13 0 43 0 -59 2721 1670 300 MP stroke
1 0 0 3 0 -53 0 1 1 51 0 -99 0 54 1 -49 
0 66 1 -1 0 -93 1 21 0 -115 1 39 0 -26 0 36 
1 -61 0 -15 0 39 1 -57 0 43 0 -19 1 -5 0 -22 
1 42 0 -70 1 41 0 -54 0 35 1 -6 0 -21 1 43 
0 -72 1 43 0 -60 0 38 1 -8 0 34 0 -61 1 -7 
0 43 0 -58 0 42 1 -11 0 -62 1 43 0 -16 0 46 
1 -64 0 41 0 -58 1 -8 0 46 0 -18 1 -7 0 -64 
0 51 1 -7 0 -17 1 -1 0 -64 1 50 0 1 0 -60 
0 52 1 -1 0 -184 0 11 1 -36 0 94 1 -39 0 -15 
0 67 1 17 0 -38 0 41 1 -29 0 69 0 -8 1 13 
0 36 0 -27 1 62 0 35 0 -65 0 28 1 17 0 80 
1 -41 0 59 0 -44 1 57 0 7 1 -1 0 72 1 3 
0 54 1 -53 0 46 0 -49 1 53 0 -1 0 5 1 -45 
0 52 1 0 1 51 0 -53 1 50 0 -53 1 50 0 -5 
1 -2 0 -4 0 49 1 -54 0 48 0 -54 0 49 1 -4 
0 -11 1 47 0 -57 0 42 1 -56 0 97 0 -20 1 -58 
0 -92 0 40 1 35 0 40 1 23 0 68 0 -17 1 -35 
0 72 0 -37 1 60 0 18 0 -58 0 16 1 10 0 -34 
0 60 1 -43 0 63 0 -38 1 11 0 24 1 -45 0 66 
0 -41 1 9 0 63 0 -39 1 1 0 23 1 -42 0 62 
0 -38 1 57 0 12 0 -56 0 14 1 9 0 53 0 -34 
1 4 0 57 0 -36 1 3 0 15 0 -44 1 56 0 14 
1 -49 0 61 0 -41 1 56 0 -41 0 7 1 55 0 -47 
0 9 1 53 0 -46 0 4 1 100 0 119 1 -68 0 38 
0 -66 0 35 1 -17 0 13 0 -66 1 -18 0 59 0 -73 
1 -18 0 26 0 -47 1 -13 0 24 0 -67 0 34 1 -65 
0 24 0 -36 0 24 1 -63 0 35 0 -59 1 1 0 -16 
1 -7 0 13 0 -25 1 -20 0 -71 1 -2 0 -54 1 49 
0 -53 0 2 1 49 0 -53 1 1 0 50 0 -52 1 0 
1 0 0 -51 0 52 1 0 0 2 0 -52 0 2 1 2 
0 52 0 -49 1 2 0 6 1 -49 0 60 1 -49 0 11 
1 4 0 9 0 -56 0 10 1 56 0 -98 0 64 1 54 
0 28 0 -50 1 23 0 -72 0 13 1 -18 0 -39 1 -9 
0 -19 1 43 0 -65 0 43 1 -11 0 -58 0 39 1 -7 
0 -20 1 43 0 -71 1 47 0 -61 0 42 1 -10 0 -21 
1 -2 0 39 0 -57 0 41 1 -54 0 43 0 -18 1 -10 
0 -20 1 41 0 -75 1 48 0 -75 1 47 0 -14 0 42 
1 -57 0 37 0 -61 2611 2077 300 MP stroke
1 45 0 -59 0 40 1 -7 0 -57 0 41 1 -5 0 -51 
0 47 1 -58 0 50 0 -55 1 -7 0 51 0 -4 1 -148 
0 -41 0 27 1 -39 0 67 0 -21 1 12 0 45 1 -35 
0 55 1 21 0 -31 0 88 1 -34 0 -28 0 87 1 -34 
0 93 1 -37 0 77 1 -40 0 72 1 2 0 7 1 3 
0 65 1 4 0 51 0 -50 1 47 0 -50 0 51 1 -2 
0 -1 0 5 1 -46 0 53 1 0 0 50 0 -52 1 0 
0 50 0 -53 1 2 0 50 0 -54 1 50 0 -5 1 -2 
0 47 0 -55 1 49 0 -54 0 45 1 -4 0 -7 0 46 
1 -56 0 47 0 -11 1 -6 0 45 0 -116 1 -20 0 72 
0 -85 0 64 1 77 0 -30 0 41 1 18 0 36 1 -35 
0 78 1 -41 0 28 1 -40 0 56 0 -31 1 10 0 57 
0 -94 1 58 0 25 1 -47 0 61 0 -31 1 5 0 64 
0 -43 1 -45 0 74 1 7 0 13 0 -61 0 18 1 58 
0 12 0 -55 0 14 1 4 0 59 0 -40 1 10 0 50 
0 -34 1 2 0 19 1 5 0 -41 0 58 1 -45 0 67 
1 -48 0 63 1 -45 0 56 1 -47 0 148 0 -10 1 38 
0 35 0 -63 0 34 1 -15 0 -31 1 -19 0 -30 0 28 
1 -19 0 -41 0 30 1 -24 0 -62 1 -13 0 -33 0 33 
1 -60 0 -18 0 34 1 -49 0 -58 0 46 1 -15 0 14 
0 -30 1 -18 0 -71 1 -51 0 49 0 -50 0 47 1 -52 
0 51 1 -53 1 0 1 0 0 -51 0 53 1 0 0 1 
0 -52 0 2 1 2 0 5 1 2 0 4 1 -49 0 54 
0 -44 1 3 0 11 1 -46 0 56 0 -42 1 6 0 -39 
0 58 1 -45 0 2 0 -25 1 79 0 26 0 -44 1 27 
0 -84 0 36 1 -16 0 -32 1 -10 0 -22 1 -6 0 -13 
0 43 1 -56 0 36 0 -42 0 37 1 -58 0 47 0 -14 
1 -7 0 -12 0 41 1 -62 0 47 0 -67 1 41 0 -21 
1 42 0 -62 0 45 1 -59 0 41 0 -17 1 -10 0 36 
0 -60 1 42 0 -60 0 35 1 -12 0 -16 0 41 1 -10 
0 -67 0 42 1 -8 0 -28 1 -7 0 -20 1 39 0 -67 
0 45 1 -61 0 47 0 -57 0 42 1 -52 0 40 0 -61 
1 1 0 40 0 -54 0 45 1 -52 0 47 0 -57 0 51 
1 -54 0 42 0 -48 1 -6 0 3 0 -53 1 56 0 -49 
1 57 0 -49 0 3 1 6 0 -130 0 18 1 -33 0 68 
0 -9 1 19 0 66 1 21 0 -10 0 71 1 12 0 44 
1 10 0 30 1 50 0 3 0 -3 0 1 1 45 0 -11 
0 75 1 7 0 -136 2502 2022 300 MP stroke
1 52 0 99 1 32 0 72 1 17 0 30 0 -36 1 64 
0 -38 0 27 1 -38 0 66 0 -27 1 15 0 23 0 -36 
1 14 0 63 0 -38 1 -35 0 80 0 -38 1 -34 0 82 
0 -39 1 19 0 48 1 -39 0 49 1 14 0 18 0 -39 
0 17 1 18 0 61 0 -23 1 -36 0 88 1 11 0 -42 
0 75 1 3 0 73 1 -51 0 65 1 -5 0 52 0 -45 
1 -5 0 56 0 -53 1 55 0 -59 0 49 1 -53 0 130 
1 88 0 6 0 -69 1 33 0 -62 1 -20 0 30 0 -28 
1 -23 0 -52 0 19 1 -27 0 -101 0 24 1 27 0 -112 
1 37 0 -77 0 37 1 -60 0 -20 1 2 0 -17 0 7 
1 -18 0 -95 1 -2 0 -54 1 1 0 48 0 -51 0 1 
1 48 0 -52 1 0 1 0 0 -50 1 52 0 -51 0 53 
1 -51 0 6 1 2 0 3 0 -47 1 53 0 -49 0 5 
1 53 0 -95 0 57 1 3 0 -47 0 11 1 5 0 129 
1 -78 0 -27 0 1 1 -67 0 33 0 -32 1 -9 0 -31 
1 38 0 -76 1 41 0 -25 1 -4 0 35 0 -58 1 43 
0 -61 0 37 1 -55 0 46 0 -15 1 -8 0 39 0 -63 
1 48 0 -62 0 34 1 -5 0 -23 1 -7 0 32 0 -58 
1 43 0 -62 0 47 1 -11 0 -22 1 -8 0 42 0 -64 
1 -9 0 48 0 -70 1 45 0 -21 1 -6 0 -18 1 -3 
0 -53 0 41 1 -2 0 -57 0 50 1 -57 0 50 0 -99 
1 -90 0 27 0 -37 1 16 0 66 0 -19 1 14 0 36 
0 -69 0 37 1 21 0 -11 0 69 1 -33 0 43 0 -27 
1 69 0 35 0 -66 0 34 1 12 0 66 0 -28 1 57 
0 -40 0 58 1 -43 0 59 0 -42 1 56 0 12 1 54 
0 5 1 45 0 -60 0 4 1 54 0 8 1 -44 0 52 
0 -1 1 1 0 -1 1 1 0 -1 0 49 1 -50 0 49 
0 -51 1 50 0 -53 0 50 1 -2 0 -3 0 48 1 -54 
0 47 0 -49 0 44 1 -53 0 49 0 -8 1 47 0 -60 
0 47 1 -6 0 -11 0 45 1 -63 0 -90 1 39 0 96 
1 -25 0 57 1 13 0 30 0 -40 1 59 0 11 0 -38 
0 7 1 9 0 20 0 -45 1 62 0 7 0 -46 0 11 
1 58 0 -77 1 61 0 -34 0 57 1 -44 0 58 0 -35 
1 9 0 21 1 7 0 13 0 -40 1 54 0 17 0 -59 
0 17 1 52 0 -40 0 64 1 -45 0 22 1 52 0 -94 
0 64 1 8 0 5 0 -42 1 56 0 13 0 -57 0 10 
1 8 0 55 0 -41 1 8 0 56 0 -46 1 6 0 55 
1 -97 0 230 1 -14 2392 1248 300 MP stroke
0 37 0 -67 0 35 1 -17 0 -48 1 33 0 -71 0 13 
1 -23 0 30 0 -71 0 30 1 -26 0 31 0 -87 1 29 
0 -90 1 -11 0 39 0 -60 1 -4 0 -19 1 2 0 7 
0 -40 1 -13 0 -66 1 -51 0 49 0 -51 1 1 0 48 
0 -53 1 2 0 49 0 -53 1 0 1 0 0 -50 0 52 
1 0 0 -50 0 52 1 -50 0 56 1 -51 0 -48 0 56 
1 2 0 -49 0 58 1 -49 0 11 1 -46 0 56 0 -42 
1 6 0 104 1 -29 0 -53 0 30 1 -25 0 -65 0 20 
1 -16 0 -33 1 38 0 -68 0 42 1 -9 0 -57 0 36 
1 -10 0 -14 1 44 0 -64 0 43 1 -59 0 46 0 -64 
1 46 0 -14 0 41 1 -59 0 -11 0 41 1 -9 0 -57 
0 36 1 -8 0 -17 0 40 1 -58 0 41 0 -56 0 42 
1 -59 0 45 0 -16 1 -9 0 -21 1 45 0 -76 1 47 
0 -58 0 36 1 -5 0 -21 1 -3 0 -55 0 42 1 -3 
0 -59 0 48 1 -51 0 44 0 -1 1 -148 0 10 0 -40 
1 14 0 -34 0 78 1 -35 0 48 1 -33 0 56 1 20 
0 -32 0 93 1 -80 0 103 1 -33 0 82 0 -35 1 62 
0 -37 0 69 1 5 0 -43 0 59 1 4 0 -37 0 54 
1 55 0 -44 0 106 1 -49 0 53 1 -1 0 -53 0 44 
1 -3 0 10 0 -45 1 52 0 1 1 46 0 -51 0 1 
1 2 0 49 0 -51 1 51 0 -55 0 51 1 -2 0 -6 
1 49 0 -60 1 49 0 -11 1 -4 0 43 0 -56 1 47 
0 -11 0 43 1 -15 0 -135 0 36 1 37 0 60 0 -77 
0 53 1 23 0 51 1 10 0 -22 0 59 1 -41 0 60 
0 -29 1 3 0 -30 0 61 1 7 0 -43 0 17 1 11 
0 21 1 -41 0 66 0 -46 1 11 0 67 1 -45 0 -43 
0 70 1 2 0 -36 0 59 1 10 0 -50 0 70 1 -42 
0 64 0 -45 1 6 0 23 1 5 0 16 1 5 0 16 
0 -55 0 11 1 55 0 -41 0 58 1 -40 0 13 1 57 
0 -51 0 10 1 53 0 -47 0 1 1 151 0 -15 0 75 
1 -62 0 31 0 -34 1 -15 0 -52 1 36 0 -47 0 29 
1 -23 0 -70 0 30 1 24 0 -98 1 27 0 -62 0 19 
1 -63 0 36 0 -54 1 -6 0 -59 1 55 0 47 0 -85 
1 -13 0 -65 1 -4 0 -55 1 2 0 49 0 -53 1 2 
0 49 0 -53 1 0 1 1 0 -51 0 52 1 1 0 -50 
0 50 1 -49 0 52 0 -49 1 2 0 6 1 -49 0 60 
1 -49 0 8 1 3 0 8 0 -47 1 6 0 68 1 44 
0 -49 0 23 1 -73 2281 1820 300 MP stroke
0 31 0 -40 1 -15 0 -37 1 -10 0 32 0 -60 1 40 
0 -26 1 -8 0 -21 1 45 0 -66 0 47 1 -60 0 48 
0 -64 1 42 0 43 0 -61 0 1 1 -16 0 39 0 -55 
1 44 0 -66 0 44 1 -8 0 -21 1 40 0 -75 1 45 
0 -22 1 -2 0 -24 1 -4 0 34 0 -57 1 -2 0 43 
0 -61 0 47 1 -53 0 43 0 -58 0 49 1 -8 0 -58 
1 43 0 -59 1 46 0 1 0 -146 1 -36 0 -27 0 64 
1 -36 0 46 1 18 0 -20 0 71 1 -35 0 43 0 -71 
0 38 1 71 0 -33 0 38 1 -24 0 92 1 -33 0 81 
1 -44 0 63 0 -41 1 56 0 12 1 2 0 10 1 54 
0 -1 0 43 1 -55 0 54 0 -46 1 54 0 6 0 -45 
1 51 1 1 0 -1 0 1 1 -1 1 1 0 50 0 -52 
1 49 0 -53 0 50 1 -3 0 0 0 -50 0 48 1 49 
0 -58 1 49 0 -54 0 45 1 -4 0 -11 1 -4 0 47 
0 -56 0 46 1 -5 0 -11 0 45 1 -58 0 45 0 -41 
1 -69 0 35 0 -15 1 75 0 -25 0 40 1 63 0 -35 
0 29 1 5 0 -39 0 72 1 -43 0 58 0 -32 1 8 
0 26 1 5 0 17 0 -63 0 16 1 59 0 -41 0 13 
1 5 0 16 0 -43 1 58 0 17 0 -57 0 15 1 5 
0 62 0 -38 1 8 0 -38 0 61 1 8 0 14 0 -59 
0 13 1 60 0 -42 0 18 1 4 0 19 0 -45 1 58 
0 18 0 -61 0 11 1 13 0 13 1 57 0 -41 0 9 
1 8 0 13 1 3 0 56 0 -44 1 2 0 57 1 -50 
0 59 0 -1 1 -4 0 170 1 -64 0 36 0 -62 0 36 
1 -18 0 -43 1 34 0 -60 1 -20 0 25 0 -88 1 27 
0 32 0 -89 1 31 0 -95 1 -10 0 40 0 -67 1 0 
0 -23 0 10 1 38 0 -104 1 -57 0 -53 1 47 0 -51 
0 49 1 -52 0 3 1 47 0 -52 1 0 0 -50 0 52 
1 0 0 2 0 -53 0 2 1 53 0 -51 0 4 1 -49 
0 58 1 3 0 53 1 -59 0 24 0 -72 0 31 1 -22 
0 -49 1 -12 0 35 0 -62 0 36 1 -60 0 42 0 -19 
1 -11 0 -15 0 38 1 -57 0 33 0 -41 0 31 1 -5 
0 -23 1 -12 0 42 0 -57 1 -9 0 47 0 -70 1 47 
0 -23 1 -9 0 -10 0 38 1 -52 0 41 0 -59 1 -102 
0 55 0 -95 0 60 1 -46 0 57 0 -31 1 8 0 32 
1 -41 0 61 0 -22 1 -29 0 67 0 -6 1 13 0 39 
0 -65 0 35 1 66 0 -21 0 59 1 -42 0 73 0 -47 
1 22 0 87 0 -35 2175 1886 300 MP stroke
1 60 0 58 0 -44 1 54 0 50 0 -48 1 28 0 44 
0 -5 1 36 0 46 1 74 0 -56 0 68 1 -32 0 71 
0 -18 1 15 0 129 1 49 0 -15 0 46 1 -13 0 -56 
0 31 1 -8 0 -24 0 34 1 -16 0 -48 1 -17 0 34 
0 -87 1 37 0 -30 0 29 1 -65 0 -34 1 -4 0 -24 
1 -13 0 45 0 -119 1 36 0 -112 0 49 1 -54 0 49 
0 -51 0 3 1 -1 0 47 0 -53 1 0 1 0 1 -50 
0 53 0 -51 1 2 0 52 0 -49 1 2 0 -47 0 55 
1 -49 0 54 0 -45 1 4 0 9 0 -56 0 9 1 6 
0 112 1 -26 0 -80 1 28 0 -58 1 -13 0 -29 1 -12 
0 31 0 -40 0 30 1 -59 0 42 0 -15 1 -9 0 34 
0 -61 1 47 0 -59 0 34 1 -10 0 -12 1 -7 0 -19 
1 42 0 -59 0 33 1 -53 0 43 0 -17 1 -11 0 45 
0 -61 0 42 1 -60 0 41 0 -15 1 -59 0 77 1 -57 
0 34 0 -57 1 41 0 -58 0 37 1 -10 0 -61 0 45 
1 -8 0 47 0 -109 0 45 1 -4 0 47 0 -108 0 46 
1 0 0 -61 1 49 0 -146 1 -38 0 26 0 -35 1 17 
0 50 1 15 0 18 0 -34 0 26 1 15 0 -24 0 70 
1 -75 0 112 1 -28 0 86 0 -41 1 17 0 61 0 -28 
1 61 0 -43 0 66 1 -42 0 63 1 5 0 6 1 7 
0 92 1 -51 0 62 1 0 0 -40 0 53 1 0 0 0 
2 0 1 0 0 50 0 -53 0 1 1 50 0 -54 0 51 
1 -2 0 -2 1 -5 0 47 0 -53 1 -2 0 49 0 -58 
1 48 0 43 0 -56 1 -4 0 47 0 -56 0 47 1 -5 
0 44 0 -73 1 -97 0 108 1 -20 0 71 1 17 0 41 
1 11 0 20 0 -60 0 17 1 60 0 -42 0 18 1 8 
0 -44 0 69 1 -42 0 64 0 -44 1 7 0 18 0 -43 
1 59 0 -37 0 59 1 -47 0 65 0 -41 1 3 0 26 
1 4 0 15 1 -42 0 61 0 -41 1 52 0 17 0 -56 
0 9 1 58 0 -44 0 61 1 -45 0 20 1 7 0 -46 
0 64 1 -43 0 54 0 -36 1 56 0 9 0 -58 0 11 
1 3 0 60 1 -47 0 99 1 46 0 63 1 -67 0 35 
0 -34 1 -12 0 -31 0 31 1 -68 0 40 1 -71 0 33 
0 -69 0 30 1 -15 0 -37 0 34 1 -65 0 -20 1 -7 
0 -60 1 32 0 26 1 -70 0 -72 1 -51 0 49 0 -50 
0 48 1 -53 0 6 1 45 0 -53 1 0 1 0 0 -50 
0 52 1 -50 0 52 0 -48 1 1 0 6 1 2 0 5 
0 -54 0 6 1 3 2063 1796 300 MP stroke
0 12 1 3 0 10 0 -98 1 58 0 82 1 19 0 -79 
0 5 1 -68 0 35 0 -15 1 -15 0 -24 0 36 1 -60 
0 33 0 -61 1 43 0 -72 1 42 0 40 0 -62 1 41 
0 -73 1 47 0 -66 0 45 1 42 0 -71 1 43 0 -67 
0 51 1 -18 0 -19 1 -9 0 -19 1 38 0 -67 0 43 
1 -9 0 -63 0 43 1 -7 0 42 0 -69 1 45 0 -72 
1 43 0 -19 1 -8 0 -57 0 97 1 -53 0 -58 0 43 
1 -5 0 -53 0 45 1 -55 0 51 0 -53 1 -95 0 -37 
0 26 1 -38 0 82 0 -36 1 17 0 -34 0 82 1 -29 
0 -9 0 73 1 -38 0 67 1 12 0 38 0 -64 0 33 
1 63 0 -35 0 76 1 -41 0 70 0 -41 1 56 0 10 
1 -42 0 112 1 -46 0 91 1 -52 0 62 1 0 0 7 
0 -45 1 52 0 -1 1 1 0 -1 1 1 0 -1 1 1 
0 50 0 -52 0 50 1 -52 0 50 0 -51 0 50 1 -2 
0 -5 1 -2 0 48 0 -54 0 49 1 -54 0 48 0 -7 
1 -4 0 -7 0 47 1 -56 0 46 0 -11 1 45 0 -162 
1 38 0 97 1 -23 0 60 1 16 0 33 1 -37 0 63 
0 -35 1 61 0 -77 1 62 0 7 0 -46 1 11 0 65 
0 -41 1 6 0 -39 0 67 1 -44 0 73 1 -43 0 22 
1 8 0 19 1 -41 0 75 1 -46 0 70 1 -44 0 22 
1 6 0 55 0 -88 1 58 0 12 0 -42 1 54 0 7 
0 -46 0 9 1 52 0 -40 0 9 1 53 0 -42 0 5 
1 55 0 -47 0 54 1 -50 0 180 1 -15 0 37 0 -66 
1 36 0 -51 1 -17 0 16 0 -31 0 8 1 -19 0 25 
0 -69 0 27 1 -21 0 -56 1 -20 0 37 0 -82 1 41 
0 -76 1 -2 0 -19 1 -6 0 8 0 -32 1 -16 0 -67 
1 -52 0 48 0 -52 0 2 1 1 0 48 0 -53 1 1 
0 50 0 -53 1 0 0 -50 1 52 0 -50 1 52 0 -50 
0 1 1 2 0 55 1 -101 0 57 1 -48 0 58 0 -49 
1 4 0 -43 0 56 1 -47 0 118 1 -52 0 44 0 -75 
1 25 0 -58 1 -61 0 69 0 -58 1 -12 0 33 0 -62 
1 45 0 -59 0 34 1 -8 0 -15 0 41 1 -55 0 36 
0 -44 0 34 1 -56 0 45 0 -15 1 -8 0 -19 1 42 
0 -64 0 43 1 -8 0 -64 0 41 1 -5 0 40 0 -60 
1 -9 0 38 0 -41 0 32 1 -59 0 43 0 -17 1 -7 
0 -12 0 38 1 -55 0 36 0 -56 1 42 0 -53 0 35 
1 -55 0 44 0 -11 1 -56 0 48 0 -57 1 46 0 -59 
1 50 0 -104 1 -41 1952 2238 300 MP stroke
0 -64 1 16 0 69 0 -22 1 19 0 17 0 -33 0 22 
1 70 0 -84 0 90 1 -27 0 65 0 -9 1 -25 0 89 
1 -32 0 61 0 -38 1 59 0 57 1 3 0 55 1 0 
0 -51 0 52 1 0 1 0 0 51 1 -64 0 -11 0 52 
1 3 0 7 1 -2 0 44 0 -51 1 49 0 -8 0 47 
1 -56 0 47 0 -11 1 -6 0 45 0 -58 0 45 1 -7 
0 47 0 -70 1 -17 0 -40 0 83 1 22 0 -30 0 41 
1 14 0 63 0 -31 1 14 0 -41 0 61 1 11 0 16 
0 -63 0 18 1 11 0 25 1 7 0 18 0 -61 0 18 
1 57 0 -41 0 17 1 9 0 -38 0 63 1 -35 0 25 
1 14 0 14 0 -40 1 61 0 -46 0 24 1 15 0 7 
0 -40 0 18 1 3 0 38 1 -38 0 75 0 -44 1 16 
0 29 1 8 0 15 0 -38 1 61 0 16 0 -43 1 6 
0 70 0 -49 1 14 0 58 0 -42 1 5 0 65 0 -46 
1 56 0 -95 0 109 1 -47 0 57 1 1 0 48 0 -53 
1 0 0 228 0 -22 1 -19 0 12 0 -30 0 9 1 -25 
0 5 0 -27 1 -32 0 -48 1 18 0 -93 0 36 1 -125 
0 -79 1 -5 0 -58 0 45 1 -54 0 -2 0 1 1 -2 
0 -42 0 14 1 -36 0 38 1 39 0 1 0 -92 1 11 
0 -93 1 -24 0 -37 1 -18 0 32 0 -63 0 38 1 -15 
0 -61 0 27 1 40 0 -69 0 39 1 -58 0 42 0 -62 
0 47 1 -63 0 45 0 -16 1 -3 0 -57 0 40 1 -4 
0 -20 1 0 0 35 0 -53 1 -7 0 -10 1 46 0 -59 
1 -4 0 -3 0 45 1 -49 0 -11 1 51 0 -57 0 2 
1 -2 0 1 0 -1 1 50 0 -54 0 1 1 1 0 -3 
1 6 0 -6 0 1 1 -1 0 52 0 -55 1 -2 0 46 
0 -47 0 44 1 -56 0 52 0 -9 1 -6 0 -51 0 40 
1 51 0 -67 1 47 0 -64 1 45 0 -19 1 -7 0 36 
0 -56 1 45 0 -70 1 44 0 -55 0 39 1 -54 0 45 
0 -46 0 43 1 -59 0 50 1 -58 0 50 0 -50 1 -97 
0 6 0 -75 1 64 0 -40 0 65 1 -38 0 43 1 -32 
0 66 0 -15 1 19 0 36 0 -31 1 21 0 66 0 -17 
1 15 0 -32 0 77 1 10 0 25 0 -39 1 62 0 19 
1 55 0 56 1 -48 0 51 0 -49 1 52 0 -5 1 -4 
0 1 1 1 0 7 1 49 0 -50 0 45 1 -49 0 50 
0 -3 1 48 0 -60 1 50 0 -8 1 -4 0 47 0 -56 
0 46 1 -4 0 38 0 -116 1 -37 0 68 0 -24 1 40 
0 76 0 -9 1 18 1844 1688 300 MP stroke
0 30 0 -34 1 62 0 8 0 -38 0 12 1 9 0 33 
1 -43 0 60 0 -31 1 10 0 24 1 -40 0 58 0 -32 
1 11 0 25 1 5 0 -33 0 61 1 -49 0 68 0 -37 
1 6 0 65 0 -41 1 4 0 -39 0 66 1 10 0 -48 
0 61 1 8 0 3 0 -46 0 10 1 58 0 6 0 -49 
0 9 1 57 0 -43 0 60 1 -43 0 16 1 4 0 49 
0 -40 1 2 0 54 1 46 0 111 1 -64 0 32 0 -32 
1 -17 0 -35 0 30 1 -26 0 6 0 -76 1 79 0 -121 
1 32 0 -86 0 30 1 -15 0 -74 0 37 1 -10 0 -69 
0 42 1 -56 0 46 0 -54 0 3 1 -4 0 7 0 -54 
1 54 0 6 0 -41 0 21 1 -14 0 -77 1 -52 0 50 
0 -51 0 50 1 -52 0 50 0 -53 1 0 0 51 1 -52 
1 0 1 0 1 -51 0 52 0 -50 1 52 0 2 0 -52 
0 2 1 1 0 53 0 -49 1 2 0 -47 0 54 1 2 
0 6 0 -54 0 5 1 54 0 -48 0 7 1 4 0 -43 
0 56 1 -47 0 56 0 -47 1 6 0 11 0 -45 1 58 
0 -58 0 33 1 77 0 -48 0 30 1 -21 0 -69 0 24 
1 -13 0 -69 0 42 1 -8 0 38 0 -63 1 -8 0 40 
0 -58 1 -6 0 43 0 -15 1 -7 0 -17 1 -8 0 38 
0 -62 1 47 0 -28 1 -4 0 -16 0 41 1 -54 0 33 
0 -42 0 36 1 -12 0 -21 1 -7 0 40 0 -57 0 43 
1 -61 0 44 0 -16 1 -11 0 -13 1 42 0 -74 1 45 
0 -71 0 48 1 -9 0 -20 1 -58 0 48 0 -12 1 -5 
0 -14 1 -11 0 39 0 -50 1 -4 0 -59 1 53 0 -59 
0 56 1 -8 0 4 0 -190 1 15 0 29 0 -39 1 17 
0 50 1 16 0 15 0 -31 0 22 1 18 0 43 0 -26 
1 24 0 63 1 -26 0 71 0 -6 1 15 0 117 1 1 
0 55 0 -49 1 52 0 -51 1 53 0 -1 1 1 0 49 
0 -52 0 48 1 -50 0 52 0 -4 1 49 0 -13 0 16 
1 -65 0 -43 0 20 1 22 0 79 0 -88 0 71 1 35 
0 67 1 16 0 -20 0 66 1 -37 0 35 1 -35 0 61 
0 -24 1 6 0 22 0 -35 1 9 0 37 1 8 0 -38 
0 72 1 -85 0 73 1 8 0 25 0 -62 0 18 1 16 
0 19 0 -34 1 61 0 22 0 -60 0 21 1 11 0 71 
0 -92 1 58 0 68 0 -93 1 59 0 57 0 -41 1 8 
0 63 1 0 0 9 0 -55 0 7 1 100 0 136 0 -14 
1 -18 0 36 0 -34 1 -22 0 10 0 -25 0 8 1 -32 
0 -25 1 -41 0 -7 1739 1326 300 MP stroke
0 2 1 -160 0 33 0 -124 0 32 1 -109 0 2 0 -81 
1 -34 0 -29 0 20 1 -77 0 -65 1 -69 0 36 0 -64 
0 37 1 -60 0 37 0 -59 1 45 0 -59 0 35 1 -51 
0 42 0 -57 0 49 1 -7 0 -55 0 42 1 -55 0 47 
0 -52 0 46 1 -53 0 48 0 -55 1 48 0 -55 1 -96 
0 -63 1 67 0 -39 0 83 1 -84 0 97 1 -32 0 59 
1 -31 0 72 0 -13 1 22 0 -11 0 64 1 17 0 11 
0 -33 1 63 0 -40 0 68 1 53 0 57 1 -49 0 51 
0 -50 1 53 0 -6 1 -2 0 6 1 0 0 51 0 -53 
0 50 1 -50 0 51 0 -4 1 -2 0 49 0 -55 0 49 
1 -4 0 -11 1 47 0 -37 1 -95 0 53 0 -9 1 82 
0 -20 0 49 1 22 0 46 1 13 0 10 0 -41 0 15 
1 12 0 59 0 -91 0 62 1 8 0 -40 0 10 1 60 
0 -71 1 61 0 21 0 -62 0 19 1 12 0 -42 0 74 
1 -44 0 62 0 -31 1 8 0 23 0 -43 1 61 0 -32 
0 58 1 -39 0 65 0 -43 1 12 0 24 1 9 0 21 
1 -41 0 71 1 3 0 -41 0 60 1 5 0 -43 0 58 
1 -43 0 60 0 -3 1 8 0 -46 0 50 1 8 0 -52 
0 238 1 -63 0 82 0 -69 1 30 0 -69 0 12 1 -27 
0 1 0 -74 1 26 0 -85 0 3 1 -57 0 50 0 -129 
1 -5 0 -147 1 12 0 -85 1 28 0 -110 1 33 0 -65 
0 19 1 -66 0 36 0 -59 0 38 1 -64 0 43 0 -21 
1 -7 0 -29 1 -5 0 38 0 -19 1 -59 0 85 0 -65 
1 -9 0 43 0 -58 0 38 1 -12 0 -26 1 -11 0 46 
0 -74 1 47 0 -68 1 39 0 -71 1 44 0 -71 1 40 
0 43 0 -63 1 -3 0 -58 0 48 1 -9 0 -54 1 46 
0 -55 1 -1 0 50 0 -52 0 1 1 -143 0 13 0 -66 
1 69 0 -34 0 40 1 23 0 20 0 -28 0 25 1 27 
0 -23 0 61 1 25 0 31 1 68 0 82 1 55 0 5 
0 -54 0 52 1 2 0 -45 0 52 1 50 0 -54 0 4 
1 48 0 -15 1 86 0 -105 1 -2 0 1 0 -28 0 27 
1 95 0 -7 0 66 1 27 0 57 1 -34 0 67 0 -22 
1 9 0 37 1 -41 0 64 0 -29 1 12 0 25 0 -63 
0 26 1 8 0 39 1 -35 0 40 1 13 0 25 0 -62 
0 27 1 14 0 8 0 -27 0 10 1 67 0 -38 0 28 
1 14 0 23 0 -64 0 29 1 16 0 56 0 -36 1 7 
0 36 1 12 0 65 0 -44 1 14 0 60 0 -38 1 1 
0 66 1 -2 0 60 1634 1263 300 MP stroke
1 -52 0 189 1 -13 0 82 0 -39 1 -68 0 38 1 -74 
0 47 0 -80 1 19 0 -98 1 -28 0 -166 1 46 0 -83 
0 21 1 -12 0 -76 1 -47 0 -68 1 18 0 -106 0 78 
1 -73 0 -36 1 -17 0 -42 1 -11 0 -28 1 -8 0 -21 
1 42 0 -71 1 45 0 -24 1 -9 0 -13 0 44 1 -59 
0 42 0 -15 1 -59 0 80 1 -60 0 -12 0 39 1 -55 
0 42 0 -56 0 42 1 -6 0 -55 0 38 1 -56 0 48 
0 -13 1 -53 0 45 0 -13 1 -50 0 47 0 -55 0 50 
1 -5 0 -57 1 56 0 -196 1 59 0 -86 0 30 1 14 
0 63 0 -19 1 -32 0 106 1 -79 0 108 1 -29 0 -7 
0 72 1 15 0 32 0 -65 0 31 1 61 0 26 0 -61 
0 22 1 61 0 -33 0 57 1 10 0 106 1 -50 0 56 
1 -4 1 6 -1 -53 0 53 2 0 0 50 0 -53 1 1 
0 50 0 -54 1 51 0 -4 0 48 1 -54 0 50 0 -5 
1 -9 0 -73 1 7 0 32 0 -74 0 64 1 30 0 78 
0 -5 1 22 0 -29 0 79 1 -36 0 60 0 -23 1 -38 
0 72 0 -39 1 60 0 -71 1 61 0 -30 0 60 1 -43 
0 30 1 10 0 -42 0 74 1 -43 0 28 1 -37 0 67 
0 -42 1 59 0 -41 0 19 1 54 0 -40 0 14 1 6 
0 18 1 57 0 -47 0 5 1 52 0 -46 0 59 1 -50 
0 148 1 40 0 34 0 -67 0 40 1 -67 0 36 0 -34 
1 -18 0 13 0 -67 1 29 0 12 0 -69 1 -15 0 32 
0 -65 0 35 1 -19 0 -41 1 -10 0 -52 0 34 1 -7 
0 -56 1 5 0 -38 0 38 1 11 0 29 0 -73 1 -25 
0 5 0 -46 0 2 1 7 0 -62 1 -30 0 -29 0 43 
1 -78 0 23 0 -96 1 29 0 -42 1 31 0 -152 1 -13 
0 -77 1 -50 0 -10 0 103 1 -55 0 -176 1 -34 0 66 
0 -21 1 62 0 -51 1 66 0 -33 0 41 1 14 0 44 
0 -70 0 39 1 -28 0 102 1 -30 0 94 1 -39 0 80 
1 -45 0 69 1 1 0 -39 0 113 1 1 0 57 1 -48 
0 52 0 -3 1 -47 0 52 1 0 0 -10 1 -1 0 5 
1 3 0 52 1 -51 0 51 0 -54 1 50 0 -5 1 48 
0 -56 0 49 1 -4 0 -54 0 45 1 47 0 -60 0 47 
1 -6 0 32 0 -109 1 0 0 12 0 -42 0 30 1 79 
0 -25 0 49 1 20 0 40 1 13 0 23 0 -61 0 18 
1 62 0 -71 1 60 0 16 0 -57 0 16 1 10 0 57 
0 -45 1 -41 0 76 1 -41 0 57 0 -31 1 8 0 20 
1 11 0 10 0 -39 1522 1576 300 MP stroke
1 55 0 -35 0 56 1 -42 0 63 0 -41 1 7 0 22 
1 6 0 18 1 6 0 -37 0 55 1 7 0 11 0 -58 
0 17 1 49 0 13 0 -52 0 5 1 5 0 62 1 -49 
0 58 0 -48 1 49 0 136 0 -15 1 -13 0 37 0 -80 
1 36 0 -35 1 31 0 -68 0 9 1 -20 0 27 0 -48 
1 -20 0 -55 1 35 0 -95 1 41 0 -66 0 37 1 -55 
0 -11 1 -6 0 -48 0 46 1 3 0 -95 1 40 0 -62 
1 -53 0 51 0 -53 1 2 0 49 0 -52 1 0 0 50 
0 -52 1 0 1 0 1 -51 0 53 1 -51 0 52 0 -50 
1 2 0 52 0 -49 1 2 0 6 1 2 0 5 0 -54 
0 6 1 54 0 -49 0 8 1 3 0 8 0 -47 1 56 
0 -47 0 11 1 -44 0 121 1 20 0 -110 1 30 0 -45 
1 -14 0 -27 1 -8 0 42 0 -65 1 43 0 -56 0 37 
1 -9 0 -56 0 39 1 41 0 -68 1 42 0 -55 0 36 
1 -9 0 -18 1 -1 0 35 0 -62 1 41 0 -23 1 -9 
0 -24 1 -1 0 41 0 -60 0 46 1 -59 0 45 0 -14 
1 -59 0 76 1 -56 0 33 0 -51 1 42 0 -59 0 38 
1 -4 0 -60 0 41 1 -51 0 42 0 -52 0 47 1 -3 
0 -59 1 -1 0 -3 0 47 1 -97 0 -96 0 28 1 -39 
0 64 0 -21 1 17 0 42 1 -31 0 39 1 13 0 37 
0 -30 1 68 0 -33 0 40 1 -31 0 96 1 -42 0 71 
0 -38 1 58 0 20 1 55 0 52 1 -48 0 50 0 -48 
1 52 0 -1 1 -4 0 -1 1 1 0 54 1 -50 0 46 
0 -50 1 50 0 -3 0 48 1 -54 0 47 0 -49 0 45 
1 -4 0 -11 1 47 0 -33 1 -5 0 -95 0 63 1 30 
0 -17 0 30 1 24 0 70 0 -14 1 -32 0 84 1 -36 
0 33 1 11 0 14 0 -38 1 59 0 -44 0 22 1 7 
0 16 0 -42 1 61 0 -43 0 21 1 9 0 26 1 7 
0 14 0 -59 0 18 1 8 0 59 0 -34 1 10 0 22 
1 7 0 14 0 -42 1 58 0 -36 0 56 1 -44 0 70 
1 -46 0 59 0 -40 1 55 0 -43 0 3 1 6 0 56 
0 -44 1 5 0 61 1 -50 0 189 1 -14 0 22 0 -66 
1 34 0 -52 1 31 0 -71 0 57 1 -74 0 -20 0 48 
1 -74 0 4 0 -26 0 5 1 -68 0 34 0 -34 1 -12 
0 -34 1 -55 0 43 0 -54 0 43 1 -53 0 43 0 -60 
1 -4 0 -1 0 10 1 -48 0 46 0 -67 1 44 0 -66 
1 45 0 -53 1 45 0 -108 1 50 0 -54 1 50 0 -52 
1 51 0 -53 1 0 1408 1783 300 MP stroke
0 51 0 -53 1 0 1 0 1 0 1 0 1 -50 0 52 
1 -50 0 52 0 -50 1 52 0 2 0 -53 0 2 1 53 
0 -51 0 4 1 52 0 -50 0 3 1 2 0 4 0 -49 
1 55 0 1 0 -48 1 54 0 6 0 -55 0 6 1 4 
0 54 0 -45 1 -47 0 64 1 -47 0 61 0 -46 1 5 
0 -45 0 65 1 35 0 26 1 -73 0 34 0 -81 1 37 
0 -36 1 -9 0 -23 1 43 0 -66 0 46 1 -59 0 45 
0 -58 0 47 1 -7 0 -20 1 -10 0 47 0 -65 1 43 
0 -23 1 -7 0 -16 0 44 1 -58 0 44 0 -61 1 47 
0 -67 0 44 1 -7 0 45 0 -67 1 -6 0 43 0 -58 
0 43 1 -57 0 46 0 -16 1 -8 0 -23 1 46 0 -65 
0 45 1 -8 0 -69 1 48 0 -62 1 44 0 -60 1 -2 
0 47 0 -55 1 -1 0 45 0 -97 1 -92 0 24 0 -38 
1 62 0 -33 0 28 1 15 0 32 0 -33 1 67 0 -35 
0 37 1 -27 0 65 0 -28 1 17 0 52 1 14 0 40 
1 -38 0 81 1 8 0 106 0 -49 1 51 0 2 0 -51 
0 49 1 -47 0 53 1 -7 0 -3 0 3 1 2 0 53 
1 -50 0 47 0 -51 1 50 0 47 0 -54 1 -2 0 49 
0 -58 1 49 0 46 0 -56 0 48 1 -14 0 -69 0 3 
1 -40 0 67 0 -13 1 31 0 76 0 -9 1 18 0 17 
0 -37 1 68 0 -29 0 60 1 -37 0 20 0 -41 1 62 
0 8 0 -42 0 14 1 8 0 23 1 -32 0 65 0 -43 
1 12 0 -33 0 60 1 10 0 9 0 -45 0 13 1 10 
0 57 0 -36 1 11 0 -41 0 66 1 9 0 -43 0 65 
1 -42 0 67 0 -43 1 57 0 -46 0 16 1 56 0 -46 
0 63 1 -46 0 65 1 -45 0 14 1 52 0 -45 0 1 
1 4 0 139 1 40 0 34 0 -63 0 32 1 -64 0 45 
1 -70 0 31 0 -45 1 -20 0 26 0 -45 1 -25 0 8 
0 -69 1 25 0 -96 1 37 0 -33 1 -60 0 45 0 -63 
1 43 0 -63 1 -5 0 -1 0 6 1 7 0 -53 0 34 
1 -60 0 46 0 -58 0 46 1 -53 0 -3 0 44 1 -54 
0 -5 1 -2 0 -6 1 -2 0 -3 1 -2 0 -54 0 50 
1 -2 0 -54 1 1 0 50 0 -54 0 2 1 50 0 -53 
1 0 0 51 0 -53 1 0 1 0 0 51 0 -52 1 0 
1 0 1 0 1 0 1 0 1 0 1 0 0 -51 0 52 
1 0 0 -50 1 52 1 -50 0 52 0 -50 1 52 0 -50 
0 52 1 -51 0 53 0 -49 1 52 0 2 0 -52 0 2 
1 1 0 55 0 -51 1295 1830 300 MP stroke
1 2 0 6 1 2 0 3 0 -48 1 54 0 -47 0 54 
1 -48 0 54 0 -45 1 54 0 -48 0 7 1 4 0 7 
0 -47 1 56 0 10 0 -56 0 9 1 5 0 17 1 -45 
0 66 0 -46 1 -4 0 -17 0 40 1 25 0 32 0 -22 
1 -20 0 34 0 -85 1 38 0 -36 1 -8 0 -26 1 -5 
0 -18 1 44 0 -58 0 35 1 -56 0 46 0 -18 1 44 
0 -65 0 45 1 -59 0 47 0 -60 0 46 1 -11 0 -13 
0 42 1 -58 0 38 0 -60 1 43 0 -24 1 -10 0 45 
0 -62 0 43 1 -58 0 43 0 -16 1 -11 0 -14 0 41 
1 -59 0 -14 0 47 1 -10 0 -59 0 45 1 -57 0 46 
0 -63 0 49 1 -10 0 -20 1 -3 0 -20 1 -1 0 -17 
1 0 0 -15 1 1 0 -56 0 47 1 -3 0 -59 1 104 
0 -195 0 8 1 -35 0 30 0 -67 0 32 1 15 0 68 
0 -66 1 69 0 19 0 -58 1 75 0 -27 0 47 1 27 
0 -8 0 69 1 -30 0 67 0 -17 1 65 0 -38 0 70 
1 8 0 104 0 -50 1 53 0 -51 0 53 1 0 1 0 
0 -15 1 -1 0 26 0 -46 0 4 1 13 0 61 0 -39 
1 39 0 94 1 -23 0 71 0 -8 1 17 0 34 0 -67 
0 30 1 16 0 35 1 -36 0 61 0 -26 1 10 0 33 
1 11 0 19 0 -62 0 21 1 62 0 -42 0 18 1 12 
0 -31 0 58 1 12 0 20 0 -63 0 20 1 9 0 70 
1 -44 0 68 0 -109 0 66 1 7 0 -42 0 65 1 5 
0 51 0 -41 1 4 0 55 0 -48 1 97 0 130 0 -69 
1 35 0 -68 0 17 1 -18 0 -39 0 32 1 -75 0 39 
0 -37 1 24 0 -68 0 12 1 -16 0 -43 1 -10 0 -28 
1 -8 0 -18 1 -5 0 -53 0 44 1 -51 0 48 0 -62 
1 -1 0 -6 1 -2 0 -52 1 50 0 -52 1 50 0 -52 
0 1 1 -1 0 51 0 -53 1 0 1 0 1 0 1 -50 
0 52 1 -50 0 52 0 -50 1 14 0 -1 0 67 1 -71 
0 73 0 -74 0 73 1 -26 0 24 0 -31 0 24 1 19 
0 -36 1 23 0 47 0 -78 1 26 0 -2 0 26 1 -23 
0 10 0 -30 0 7 1 34 0 -50 1 38 0 -25 1 -59 
0 98 0 -110 1 52 0 145 0 -8 1 40 0 243 1 120 
0 244 1 91 0 207 1 -149 0 -1087 1 0 1 0 1 0 
0 0 2 0 1 0 1 0 1 0 0 0 2 0 1 0 
0 0 2 0 1 0 0 0 2 0 1 0 0 0 2 0 
1 0 1 0 1 0 1 0 1 0 1 0 1 0 1 0 
1 0 1 0 1 0 1167 1827 300 MP stroke
1 0 1 0 1 0 1 0 1 0 1 0 1 0 1 1 
1 -1 1 0 1 0 1 0 1 1 1 0 -1 0 2 0 
1 0 -1 0 2 2 1 1 0 0 0 1 1 -1 0 1 
0 -1 1 1 0 -1 1 -1 0 1 0 -1 1 -1 0 1 
0 -1 1 -1 0 1 1 -3 -1 0 2 0 0 1 0 -1 
1 1 0 -1 0 2 1 1 0 2 0 -1 1 -1 0 1 
0 -1 1 -1 0 -2 2 -2 0 1 0 -1 1 -1 0 -3 
0 1 1 -1 1 -1 0 1 0 -1 1 -2 0 -2 1 -2 
0 -3 1 -2 0 -5 1 -1 0 -4 1 -1 0 -5 1 0 
0 -6 1 -1 0 -4 1 -3 0 -5 1 0 0 -3 1 -1 
0 -2 0 1 1 -2 0 -3 1 -2 0 -3 1 -1 0 -4 
1 -2 0 -4 1 -2 0 -5 1 -1 0 -3 1 -2 0 -1 
0 1 1 -3 0 -3 1 1 0 -2 1 -1 0 -5 1 -1 
0 -5 1 0 1 -1 1 0 1 0 1 0 1 0 1 0 
1 0 1 0 1 0 1 0 1 0 1 0 1 0 1 0 
1 0 1 0 1 0 1 0 1 0 1 0 1 0 1 0 
1 0 1 0 1 0 1 0 1 0 1 0 1 0 1 0 
1 0 1 0 1 0 1 0 1 0 1 0 1 0 1 0 
1 0 1 0 1 0 1 0 1 0 1 0 1 0 1 0 
1 0 1 0 1 0 1 0 1 0 1 0 1 0 1 0 
1 0 1 0 1 0 1 0 1 0 1 0 1 0 1 0 
1 0 1 0 1 0 1 0 1 0 1 0 1 0 1 0 
1 0 1 0 1 -1 1 0 1 0 1 0 1 0 1 0 
1 0 1 0 1 0 1 0 1 0 1 0 1 0 0 0 
2 0 1 0 1 0 1 0 1 0 1 0 1 1 0 -1 
1 1 0 -1 1 1 0 -1 1 1 0 -1 0 1 1 1 
0 0 0 -1 1 1 0 0 0 -2 1 2 0 -1 1 1 
0 -1 1 1 0 -2 0 2 1 -2 0 3 1 -1 0 3 
1 -2 0 2 0 -1 1 -2 0 2 0 -2 0 1 1 -2 
0 2 1 -1 0 1 0 -3 0 2 1 -2 0 1 0 -3 
0 1 1 -2 0 1 0 -2 1 -1 0 1 0 -1 1 -1 
0 1 1 -1 1 0 1 0 1 0 1 0 1 0 1 0 
1 0 1 0 1 0 1 0 1 0 1 0 1 0 1 0 
1 0 1 0 1 0 1 0 1 0 1 0 1 0 1 0 
1 0 0 1 0 0 1 -1 0 1 1 -1 0 0 0 3 
1 -2 0 3 1 -2 0 3 0 -1 1 -2 0 1 0 -2 
0 2 1 -2 0 2 1 -1 0 2 1 -1 0 1 0 -1 
1 -1 0 1 0 -2 967 1946 300 MP stroke
0 1 1 -1 0 -1 0 1 1 -1 0 1 0 -2 1 -1 
0 -1 0 1 1 -2 0 1 0 -2 1 -2 0 1 0 -2 
0 1 1 -2 0 1 0 -1 1 1 1 -1 1 0 1 0 
1 0 1 0 1 0 1 0 1 0 1 0 1 0 1 0 
1 0 1 0 1 0 1 0 1 0 1 0 1 0 1 0 
1 0 1 0 1 0 1 0 1 0 1 0 1 0 1 -1 
0 2 1 -1 0 2 1 -1 0 3 1 -2 0 3 1 -2 
0 3 0 -2 1 3 0 1 0 -3 0 1 1 3 0 0 
0 -3 1 4 0 0 0 -3 0 1 1 1 0 0 0 -3 
1 2 0 -5 1 3 0 -5 1 2 0 -6 1 2 0 -4 
1 -1 0 -4 1 2 0 -4 1 2 0 -3 1 1 0 -4 
1 1 0 -4 1 1 0 -5 1 1 0 -3 1 1 0 -3 
0 2 1 -3 0 1 0 -2 1 -2 0 1 0 -2 0 2 
1 -2 0 2 0 -3 0 2 1 -2 0 3 1 -3 0 3 
0 -3 0 2 1 -3 0 2 0 -2 0 2 1 -3 0 2 
0 -2 0 2 1 -2 0 -1 0 2 1 -1 0 3 1 -2 
0 3 1 -2 0 3 0 0 1 -2 0 4 1 -1 0 5 
1 -2 0 6 1 -2 0 6 1 1 0 3 1 2 0 2 
1 0 0 1 0 -1 1 3 0 3 1 2 0 1 0 -2 
0 0 1 2 0 3 1 2 0 3 0 -2 1 4 0 2 
0 -3 0 0 1 3 0 -2 0 6 1 1 0 -1 0 3 
1 1 0 -7 1 6 0 -6 0 2 1 3 0 -6 1 3 
0 -6 0 1 1 1 0 1 0 -3 1 7 0 -4 0 10 
1 -3 0 6 1 1 0 4 1 -10 0 12 0 -4 1 -2 
0 -8 0 2 1 -1 0 -5 1 2 0 5 0 -7 1 -6 
0 4 0 -11 1 -6 0 7 1 -9 0 8 1 -4 0 6 
0 -7 0 4 1 -2 0 10 0 -5 1 -5 0 8 0 -10 
1 -1 0 7 0 -10 0 7 1 -1 0 -6 0 5 1 -11 
0 16 1 -6 0 7 1 -10 0 19 0 -7 1 -11 0 7 
1 -2 0 3 0 -7 1 11 0 -22 0 6 1 0 0 10 
0 -9 1 10 0 9 0 -43 0 14 1 6 0 12 0 -16 
0 10 1 -2 0 -22 1 17 0 -38 1 -10 0 -54 1 -31 
0 -106 1 -57 0 -253 1 -134 0 -520 1 -110 852 3282 263 MP stroke
gr

c8
0 sg
2319 3569 mt 
(seconds) s
 319 2005 mt  -90 rotate
(force [N]) s
90 rotate
1976  182 mt 
(force \(experiment\) lqr) s

end %%Color Dict

eplot
%%EndObject

epage
end

showpage

%%Trailer
%%EOF
