%!PS-Adobe-3.0 EPSF-3.0
%%Creator: MATLAB, The MathWorks, Inc. Version 8.1.0.604 (R2013a). Operating System: Linux 4.9.0-040900-generic #201612111631 SMP Sun Dec 11 21:33:00 UTC 2016 x86_64.
%%Title: /home/lukas/Universidad/Master/2 Semester/Control Theory for Embedded Systems/lab/5lab/trunk/graphics/lqr_vel_car_exp.eps
%%CreationDate: 12/23/2016  12:09:09
%%DocumentNeededFonts: Helvetica
%%DocumentProcessColors: Cyan Magenta Yellow Black
%%LanguageLevel: 2
%%Pages: 1
%%BoundingBox:   100   241   509   549
%%EndComments

%%BeginProlog
% MathWorks dictionary
/MathWorks 160 dict begin
% definition operators
/bdef {bind def} bind def
/ldef {load def} bind def
/xdef {exch def} bdef
/xstore {exch store} bdef
% operator abbreviations
/c  /clip ldef
/cc /concat ldef
/cp /closepath ldef
/gr /grestore ldef
/gs /gsave ldef
/mt /moveto ldef
/np /newpath ldef
/cm /currentmatrix ldef
/sm /setmatrix ldef
/rm /rmoveto ldef
/rl /rlineto ldef
/s {show newpath} bdef
/sc {setcmykcolor} bdef
/sr /setrgbcolor ldef
/sg /setgray ldef
/w /setlinewidth ldef
/j /setlinejoin ldef
/cap /setlinecap ldef
/rc {rectclip} bdef
/rf {rectfill} bdef
% page state control
/pgsv () def
/bpage {/pgsv save def} bdef
/epage {pgsv restore} bdef
/bplot /gsave ldef
/eplot {stroke grestore} bdef
% orientation switch
/portraitMode 0 def /landscapeMode 1 def /rotateMode 2 def
% coordinate system mappings
/dpi2point 0 def
% font control
/FontSize 0 def
/FMS {/FontSize xstore findfont [FontSize 0 0 FontSize neg 0 0]
  makefont setfont} bdef
/reencode {exch dup where {pop load} {pop StandardEncoding} ifelse
  exch dup 3 1 roll findfont dup length dict begin
  { 1 index /FID ne {def}{pop pop} ifelse } forall
  /Encoding exch def currentdict end definefont pop} bdef
/isroman {findfont /CharStrings get /Agrave known} bdef
/FMSR {3 1 roll 1 index dup isroman {reencode} {pop pop} ifelse
  exch FMS} bdef
/csm {1 dpi2point div -1 dpi2point div scale neg translate
 dup landscapeMode eq {pop -90 rotate}
  {rotateMode eq {90 rotate} if} ifelse} bdef
% line types: solid, dotted, dashed, dotdash
/SO { [] 0 setdash } bdef
/DO { [.5 dpi2point mul 4 dpi2point mul] 0 setdash } bdef
/DA { [6 dpi2point mul] 0 setdash } bdef
/DD { [.5 dpi2point mul 4 dpi2point mul 6 dpi2point mul 4
  dpi2point mul] 0 setdash } bdef
% macros for lines and objects
/L {lineto stroke} bdef
/MP {3 1 roll moveto 1 sub {rlineto} repeat} bdef
/AP {{rlineto} repeat} bdef
/PDlw -1 def
/W {/PDlw currentlinewidth def setlinewidth} def
/PP {closepath eofill} bdef
/DP {closepath stroke} bdef
/MR {4 -2 roll moveto dup  0 exch rlineto exch 0 rlineto
  neg 0 exch rlineto closepath} bdef
/FR {MR stroke} bdef
/PR {MR fill} bdef
/L1i {{currentfile picstr readhexstring pop} image} bdef
/tMatrix matrix def
/MakeOval {newpath tMatrix currentmatrix pop translate scale
0 0 1 0 360 arc tMatrix setmatrix} bdef
/FO {MakeOval stroke} bdef
/PO {MakeOval fill} bdef
/PD {currentlinewidth 2 div 0 360 arc fill
   PDlw -1 eq not {PDlw w /PDlw -1 def} if} def
/FA {newpath tMatrix currentmatrix pop translate scale
  0 0 1 5 -2 roll arc tMatrix setmatrix stroke} bdef
/PA {newpath tMatrix currentmatrix pop	translate 0 0 moveto scale
  0 0 1 5 -2 roll arc closepath tMatrix setmatrix fill} bdef
/FAn {newpath tMatrix currentmatrix pop translate scale
  0 0 1 5 -2 roll arcn tMatrix setmatrix stroke} bdef
/PAn {newpath tMatrix currentmatrix pop translate 0 0 moveto scale
  0 0 1 5 -2 roll arcn closepath tMatrix setmatrix fill} bdef
/vradius 0 def /hradius 0 def /lry 0 def
/lrx 0 def /uly 0 def /ulx 0 def /rad 0 def
/MRR {/vradius xdef /hradius xdef /lry xdef /lrx xdef /uly xdef
  /ulx xdef newpath tMatrix currentmatrix pop ulx hradius add uly
  vradius add translate hradius vradius scale 0 0 1 180 270 arc 
  tMatrix setmatrix lrx hradius sub uly vradius add translate
  hradius vradius scale 0 0 1 270 360 arc tMatrix setmatrix
  lrx hradius sub lry vradius sub translate hradius vradius scale
  0 0 1 0 90 arc tMatrix setmatrix ulx hradius add lry vradius sub
  translate hradius vradius scale 0 0 1 90 180 arc tMatrix setmatrix
  closepath} bdef
/FRR {MRR stroke } bdef
/PRR {MRR fill } bdef
/MlrRR {/lry xdef /lrx xdef /uly xdef /ulx xdef /rad lry uly sub 2 div def
  newpath tMatrix currentmatrix pop ulx rad add uly rad add translate
  rad rad scale 0 0 1 90 270 arc tMatrix setmatrix lrx rad sub lry rad
  sub translate rad rad scale 0 0 1 270 90 arc tMatrix setmatrix
  closepath} bdef
/FlrRR {MlrRR stroke } bdef
/PlrRR {MlrRR fill } bdef
/MtbRR {/lry xdef /lrx xdef /uly xdef /ulx xdef /rad lrx ulx sub 2 div def
  newpath tMatrix currentmatrix pop ulx rad add uly rad add translate
  rad rad scale 0 0 1 180 360 arc tMatrix setmatrix lrx rad sub lry rad
  sub translate rad rad scale 0 0 1 0 180 arc tMatrix setmatrix
  closepath} bdef
/FtbRR {MtbRR stroke } bdef
/PtbRR {MtbRR fill } bdef
/stri 6 array def /dtri 6 array def
/smat 6 array def /dmat 6 array def
/tmat1 6 array def /tmat2 6 array def /dif 3 array def
/asub {/ind2 exch def /ind1 exch def dup dup
  ind1 get exch ind2 get sub exch } bdef
/tri_to_matrix {
  2 0 asub 3 1 asub 4 0 asub 5 1 asub
  dup 0 get exch 1 get 7 -1 roll astore } bdef
/compute_transform {
  dmat dtri tri_to_matrix tmat1 invertmatrix 
  smat stri tri_to_matrix tmat2 concatmatrix } bdef
/ds {stri astore pop} bdef
/dt {dtri astore pop} bdef
/db {2 copy /cols xdef /rows xdef mul dup 3 mul string
  currentfile 
  3 index 0 eq {/ASCIIHexDecode filter}
  {/ASCII85Decode filter 3 index 2 eq {/RunLengthDecode filter} if }
  ifelse exch readstring pop
  dup 0 3 index getinterval /rbmap xdef
  dup 2 index dup getinterval /gbmap xdef
  1 index dup 2 mul exch getinterval /bbmap xdef pop pop}bdef
/it {gs np dtri aload pop moveto lineto lineto cp c
  cols rows 8 compute_transform 
  rbmap gbmap bbmap true 3 colorimage gr}bdef
/il {newpath moveto lineto stroke}bdef
currentdict end def
%%EndProlog

%%BeginSetup
MathWorks begin

0 cap

end
%%EndSetup

%%Page: 1 1
%%BeginPageSetup
%%PageBoundingBox:   100   241   509   549
MathWorks begin
bpage
%%EndPageSetup

%%BeginObject: obj1
bplot

/dpi2point 12 def
portraitMode 1200 6588 csm

    0     0  4915  3687 rc
85 dict begin %Colortable dictionary
/c0 { 0.000000 0.000000 0.000000 sr} bdef
/c1 { 1.000000 1.000000 1.000000 sr} bdef
/c2 { 0.900000 0.000000 0.000000 sr} bdef
/c3 { 0.000000 0.820000 0.000000 sr} bdef
/c4 { 0.000000 0.000000 0.800000 sr} bdef
/c5 { 0.910000 0.820000 0.320000 sr} bdef
/c6 { 1.000000 0.260000 0.820000 sr} bdef
/c7 { 0.000000 0.820000 0.820000 sr} bdef
c0
1 j
1 sg
   0    0 4916 3688 rf
6 w
0 3005 3809 0 0 -3005 639 3281 4 MP
PP
-3809 0 0 3005 3809 0 0 -3005 639 3281 5 MP stroke
4 w
DO
0 sg
 639 3281 mt  639  277 L
 639  277 mt  639  277 L
1908 3281 mt 1908  277 L
1908  277 mt 1908  277 L
3178 3281 mt 3178  277 L
3178  277 mt 3178  277 L
4448 3281 mt 4448  277 L
4448  277 mt 4448  277 L
 639 3281 mt 4448 3281 L
4448 3281 mt 4448 3281 L
 639 2980 mt 4448 2980 L
4448 2980 mt 4448 2980 L
 639 2680 mt 4448 2680 L
4448 2680 mt 4448 2680 L
 639 2379 mt 4448 2379 L
4448 2379 mt 4448 2379 L
 639 2079 mt 4448 2079 L
4448 2079 mt 4448 2079 L
 639 1779 mt 4448 1779 L
4448 1779 mt 4448 1779 L
 639 1478 mt 4448 1478 L
4448 1478 mt 4448 1478 L
 639 1178 mt 4448 1178 L
4448 1178 mt 4448 1178 L
 639  877 mt 4448  877 L
4448  877 mt 4448  877 L
 639  577 mt 4448  577 L
4448  577 mt 4448  577 L
 639  277 mt 4448  277 L
4448  277 mt 4448  277 L
SO
6 w
 639 3281 mt 4448 3281 L
 639  276 mt 4448  276 L
 639 3281 mt  639  276 L
4448 3281 mt 4448  276 L
 639 3281 mt 4448 3281 L
 639 3281 mt  639  276 L
 639 3281 mt  639 3242 L
 639  277 mt  639  315 L
%%IncludeResource: font Helvetica
/Helvetica /ISOLatin1Encoding 120 FMSR

 606 3426 mt 
(0) s
1908 3281 mt 1908 3242 L
1908  277 mt 1908  315 L
1842 3426 mt 
(50) s
3178 3281 mt 3178 3242 L
3178  277 mt 3178  315 L
3078 3426 mt 
(100) s
4448 3281 mt 4448 3242 L
4448  277 mt 4448  315 L
4348 3426 mt 
(150) s
 639 3281 mt  677 3281 L
4448 3281 mt 4409 3281 L
 468 3325 mt 
(-5) s
 639 2980 mt  677 2980 L
4448 2980 mt 4409 2980 L
 468 3024 mt 
(-4) s
 639 2680 mt  677 2680 L
4448 2680 mt 4409 2680 L
 468 2724 mt 
(-3) s
 639 2379 mt  677 2379 L
4448 2379 mt 4409 2379 L
 468 2423 mt 
(-2) s
 639 2079 mt  677 2079 L
4448 2079 mt 4409 2079 L
 468 2123 mt 
(-1) s
 639 1779 mt  677 1779 L
4448 1779 mt 4409 1779 L
 538 1823 mt 
(0) s
 639 1478 mt  677 1478 L
4448 1478 mt 4409 1478 L
 538 1522 mt 
(1) s
 639 1178 mt  677 1178 L
4448 1178 mt 4409 1178 L
 538 1222 mt 
(2) s
 639  877 mt  677  877 L
4448  877 mt 4409  877 L
 538  921 mt 
(3) s
 639  577 mt  677  577 L
4448  577 mt 4409  577 L
 538  621 mt 
(4) s
 639  277 mt  677  277 L
4448  277 mt 4409  277 L
 538  321 mt 
(5) s
 639 3281 mt 4448 3281 L
 639  276 mt 4448  276 L
 639 3281 mt  639  276 L
4448 3281 mt 4448  276 L
gs 639 277 3810 3005 rc
/c8 { 0.000000 0.000000 1.000000 sr} bdef
c8
1 -1501 1 0 1 0 1 0 1 0 1 0 1 0 1 0 
1 0 1 0 1 0 1 0 1 0 1 0 1 0 1 0 
1 0 1 0 1 0 1 0 1 0 1 0 1 0 1 0 
1 0 1 0 1 0 1 0 1 0 1 0 1 0 1 0 
1 0 1 0 1 0 1 0 1 0 1 0 1 0 1 0 
1 0 1 0 1 0 1 0 1 0 639 1778 46 MP stroke
1 0 1 0 1 0 1 0 1 0 0 -2 1 -2 0 -8 
1 -2 0 -7 1 -2 0 -6 1 -4 0 -9 1 -4 0 -10 
1 -2 0 -9 1 -3 0 -7 1 -3 0 -7 1 -3 0 -8 
1 -3 0 -8 1 -2 0 -8 1 -1 0 -6 1 -1 0 -9 
1 0 0 -9 1 -4 0 -4 1 -2 0 -6 1 -2 0 -3 
1 -5 0 1 0 -4 1 0 0 -3 1 -1 0 -2 1 -4 
0 4 0 -1 1 -2 0 -1 0 2 1 1 0 -3 0 4 
1 -1 0 1 0 -1 1 4 0 4 1 2 0 4 1 5 
0 3 1 5 0 4 1 1 0 11 1 2 0 10 1 4 
0 12 1 3 0 13 1 4 0 14 1 4 0 15 1 6 
0 14 1 5 0 11 1 3 0 10 1 5 0 25 1 7 
0 20 1 6 0 19 1 6 0 20 1 6 0 18 1 7 
0 17 1 4 0 13 1 3 0 18 1 2 0 17 1 5 
0 9 1 1 0 7 1 -4 0 14 1 -3 0 10 1 3 
0 13 1 -7 0 7 0 -1 1 -2 0 12 0 -9 1 4 
0 -7 0 4 1 -3 0 2 0 -7 0 3 1 -10 0 7 
0 -11 0 1 1 -8 0 -14 1 0 0 -24 1 -12 0 -37 
1 -15 0 -32 1 -17 0 -47 1 -15 0 -19 1 -2 1 -1 
1 0 0 0 2 -3 0 -9 1 -2 0 -7 1 -2 0 -5 
1 -2 0 -5 1 -2 0 -4 1 -1 0 -5 1 -1 0 -4 
1 -1 0 -5 1 -1 0 -4 1 -1 0 -3 1 -2 0 -3 
1 -1 0 -3 1 -1 0 -2 1 -1 0 -2 1 -2 0 -2 
1 0 0 -2 1 -1 0 2 0 -2 1 0 0 1 0 -1 
1 1 0 1 2 2 0 3 1 1 0 4 1 -1 0 8 
1 3 0 11 1 4 0 9 1 3 0 6 1 3 0 7 
1 3 0 6 1 2 0 4 1 2 0 2 1 1 0 1 
1 1 1 1 1 1 1 -1 1 -1 -1 0 2 2 0 -1 
1 1 0 -1 1 1 0 -1 0 1 1 -1 1 1 1 0 
1 0 1 0 1 0 1 0 0 -1 0 2 1 5 0 10 
1 3 0 9 1 2 0 6 1 2 0 6 1 2 0 6 
1 2 0 5 1 2 0 6 1 1 0 6 1 1 0 5 
1 2 0 4 1 1 0 3 1 1 0 2 1 2 0 1 
1 1 0 1 0 -1 1 1 1 1 0 1 0 -2 1 1 
0 -2 2 -2 0 -2 1 -2 0 -4 1 0 0 -8 1 -4 
0 -13 1 -3 0 -12 1 -4 0 -11 1 -5 0 -10 1 -3 
0 -9 1 1 0 1 0 -4 1 0 0 -3 1 -1 0 -4 
1 -3 0 -9 1 -3 0 -7 1 -3 0 -5 1 -2 0 -6 
1 -1 0 -5 1 -1 4296 1828 300 MP stroke
0 -6 1 0 0 -6 1 -2 0 -5 1 -1 0 -5 1 -3 
0 -4 1 -2 0 -1 1 -3 0 -5 1 -2 0 -1 0 1 
1 -3 0 -4 1 -2 0 1 0 -2 1 -1 1 -1 0 -2 
0 1 1 -2 0 2 0 -2 1 2 0 -1 0 0 1 2 
0 -1 0 1 1 1 0 2 1 2 0 4 1 1 0 4 
1 2 0 5 1 3 0 8 1 5 0 12 1 5 0 11 
1 4 0 11 1 4 0 8 1 2 0 6 1 2 0 3 
1 1 0 0 2 0 0 1 1 -1 1 -1 0 -2 1 1 
0 2 1 1 1 -1 0 2 1 4 0 13 1 4 0 10 
1 3 0 7 1 3 0 8 1 2 0 7 1 3 0 8 
1 2 0 7 1 4 0 7 1 1 0 5 1 1 0 8 
1 2 0 6 1 1 0 6 1 -1 0 4 1 1 0 2 
2 3 0 -2 1 1 0 -3 0 1 1 -3 0 0 0 1 
1 -4 0 -5 1 -2 0 -8 1 -6 0 -15 1 -4 0 -16 
1 -6 0 -18 1 -7 0 -17 1 -3 0 -8 1 -2 0 -6 
1 0 1 0 1 0 0 0 2 -3 0 -8 1 -3 0 -9 
1 -3 0 -6 1 -3 0 -5 1 -3 0 -5 1 -2 0 -5 
1 -1 0 -5 1 -2 0 -2 1 -4 0 -5 1 -4 0 -4 
1 -2 0 -3 1 -2 0 -4 1 -1 0 -5 1 -1 0 -5 
1 1 0 -3 1 -2 0 -3 1 1 0 -3 0 1 1 -1 
0 -1 0 1 1 -1 0 1 0 -2 0 2 1 -1 0 1 
1 2 0 -1 0 2 1 1 0 3 1 2 0 1 1 3 
0 6 1 2 0 5 1 3 0 12 1 6 0 12 1 4 
0 10 1 3 0 12 1 3 0 10 1 3 0 6 1 1 
0 1 1 1 1 0 1 0 1 1 -1 0 2 0 0 -2 
1 -2 0 -1 0 3 1 4 0 14 1 3 0 11 1 4 
0 8 1 3 0 7 1 3 0 8 1 2 0 5 1 3 
0 8 1 4 0 6 1 3 0 8 1 1 0 6 1 4 
0 5 1 2 0 7 1 0 0 5 1 0 0 4 2 2 
0 -1 1 1 0 -2 0 1 1 -4 0 1 1 -4 0 -5 
1 -1 0 -11 1 -5 0 -16 1 -4 0 -11 1 -5 0 -19 
1 -5 0 -19 1 -11 0 -16 1 -2 1 0 1 0 1 0 
1 0 1 0 1 0 1 0 1 0 1 0 1 0 1 0 
1 0 1 0 1 -1 0 -6 1 -3 0 -8 1 -2 0 -7 
1 -2 0 -5 1 -2 0 -5 1 -1 0 -5 1 -1 0 -4 
1 -3 0 -4 1 -1 0 -4 1 -2 0 -5 1 -1 0 -4 
1 -2 0 -3 1 -1 0 -4 1 0 0 -3 1 -3 0 1 
0 -2 1 -1 0 -1 4140 1873 300 MP stroke
1 -1 0 -2 1 1 0 -2 0 2 2 0 0 2 1 -1 
0 2 1 1 0 4 1 1 0 1 1 4 0 8 1 2 
0 12 1 4 0 10 1 3 0 10 1 3 0 8 1 3 
0 6 1 2 0 4 1 1 0 2 1 2 0 1 1 1 
1 1 0 -1 1 1 1 -1 0 -2 1 1 1 1 1 0 
-1 0 2 0 1 1 1 0 1 0 0 0 2 0 0 12 
1 3 0 9 1 3 0 5 1 2 0 6 1 2 0 6 
1 2 0 6 1 2 0 5 1 2 0 2 1 4 0 6 
1 1 0 5 1 1 0 4 1 2 0 3 1 -1 0 3 
0 -1 1 1 1 1 1 0 0 -1 0 1 1 -2 0 -1 
1 -1 0 -2 1 -1 0 -5 1 -1 0 -3 1 -1 0 -10 
1 -4 0 -12 1 -3 0 -11 1 -4 0 -10 1 -3 0 -8 
1 -2 0 -6 1 -2 0 -2 1 -1 1 -1 1 0 0 2 
1 0 0 3 0 -1 1 -2 0 -1 1 -1 1 0 1 0 
1 0 1 0 1 0 1 0 1 0 1 0 1 0 -1 0 
2 0 0 -1 1 1 1 -1 1 1 -1 0 2 0 1 -1 
1 1 0 -1 0 1 1 -1 0 -6 1 -3 0 -6 1 -2 
0 -4 1 -2 0 -7 1 -2 0 -10 1 -3 0 -9 1 -3 
0 -8 1 -3 0 -7 1 -4 0 -6 1 -2 0 -8 1 -1 
0 -8 1 -2 0 -8 1 -3 0 -6 1 -3 0 -7 1 0 
0 -4 1 -4 0 -7 1 -3 0 -4 1 -3 0 1 0 -3 
1 -4 0 1 0 -1 1 -3 0 -1 1 -2 0 0 0 -2 
1 -1 0 1 0 -1 1 -1 0 1 0 -2 1 3 0 -1 
0 1 1 1 0 1 0 -1 1 3 0 1 1 3 0 5 
1 3 0 6 1 4 0 8 1 1 0 10 1 4 0 10 
1 4 0 11 1 4 0 12 1 4 0 14 1 4 0 9 
1 5 0 14 1 3 0 10 1 4 0 11 1 6 0 23 
1 7 0 19 1 6 0 17 1 7 0 16 1 6 0 16 
1 7 0 16 1 4 0 17 1 4 0 16 1 3 0 13 
1 6 0 12 1 2 0 4 0 -1 1 2 0 -3 0 9 
1 -2 0 -1 0 5 1 -3 0 12 1 -2 0 3 1 -1 
0 -1 0 8 1 -9 0 5 0 -4 1 4 0 -11 1 -3 
0 1 0 -8 1 0 0 1 0 -16 1 -9 0 -32 1 -11 
0 -33 1 -11 0 -36 1 -13 0 -31 1 -10 0 -17 1 -2 
1 -2 -1 0 2 2 0 2 0 -1 1 2 0 -2 1 -2 
0 -9 1 -5 0 -11 1 -4 0 -11 1 -3 0 -10 1 -3 
0 -6 1 -1 0 -3 1 -2 0 -4 1 -1 0 -4 1 0 
0 -4 1 -1 0 -3 3986 1862 300 MP stroke
1 -1 0 -2 1 1 0 -1 0 1 1 -3 0 -2 1 1 
0 -1 0 0 2 0 0 1 1 1 0 3 1 1 0 2 
1 1 0 4 1 1 0 6 1 3 0 12 1 3 0 10 
1 3 0 10 1 2 0 8 1 2 0 6 1 2 0 4 
1 1 0 3 1 1 0 1 1 -1 0 1 0 -1 1 1 
0 0 2 -3 1 1 1 2 -1 0 2 0 0 0 2 0 
0 0 2 1 0 11 1 3 0 9 1 3 0 7 1 2 
0 8 1 2 0 6 1 2 0 6 1 1 0 6 1 2 
0 6 1 1 0 6 1 1 0 4 1 2 0 1 0 -1 
1 3 0 1 1 3 0 2 1 1 0 2 1 -1 0 2 
1 -1 0 1 1 -1 1 -1 0 -2 1 -1 0 -3 1 -1 
0 -4 1 -3 0 -11 1 -5 0 -12 1 -5 0 -11 1 -5 
0 -8 1 -4 0 -7 1 -4 0 -5 1 -2 0 -2 1 -1 
0 -1 2 0 0 2 0 -3 1 -1 1 -1 1 0 1 0 
1 0 1 0 1 0 1 0 1 0 1 0 1 0 0 -4 
1 -3 0 -8 1 -3 0 -4 1 -2 0 -6 1 -1 0 -5 
1 -1 0 -5 1 -1 0 -4 1 -2 0 -3 1 -1 0 -3 
1 -2 0 -3 1 -1 0 -4 1 -1 0 -3 1 -1 0 -4 
1 0 0 -4 0 1 1 -2 0 -2 0 1 1 -1 0 -2 
0 1 1 -1 0 -2 0 1 1 -1 0 -1 0 1 1 -2 
0 2 2 0 0 3 1 1 0 3 0 -2 1 5 0 -1 
0 3 1 2 0 9 1 3 0 9 1 3 0 9 1 2 
0 8 1 3 0 6 1 2 0 5 1 2 0 4 1 1 
0 3 2 2 0 0 0 -1 1 1 0 1 0 -1 1 1 
1 -1 0 -1 0 1 1 -1 0 0 0 1 1 1 0 0 
2 0 1 -1 0 1 0 -1 1 1 1 0 1 0 1 0 
0 0 2 0 1 -1 0 9 1 4 0 9 1 3 0 7 
1 1 0 7 1 1 0 5 1 1 0 5 1 2 0 5 
1 2 0 4 1 3 0 3 1 1 0 5 1 0 0 4 
0 -1 1 1 0 2 1 1 0 3 1 1 0 2 0 -2 
1 1 0 1 0 -1 1 1 0 1 0 -1 1 1 0 0 
2 -2 0 -2 1 -1 0 -1 1 -3 0 -3 1 -2 0 -10 
1 -5 0 -11 1 -4 0 -10 1 -3 0 -9 1 -3 0 -6 
1 -3 0 -5 1 -1 0 -4 1 -1 1 -1 1 0 -1 0 
2 2 0 1 0 -1 1 -1 1 -1 1 0 1 0 1 0 
1 0 1 0 1 0 1 0 1 0 1 0 1 0 1 0 
1 0 1 0 1 0 1 0 0 -1 1 -2 0 -9 1 -2 
0 -8 1 -2 0 -6 3819 1808 300 MP stroke
1 -1 0 -3 1 -2 0 -4 1 -2 0 -4 1 -2 0 -3 
1 -2 0 1 0 -3 1 -1 0 -4 1 -1 0 -3 1 -1 
0 -2 1 -3 0 -4 1 -1 0 -1 0 1 1 -3 0 -4 
1 1 0 -3 1 1 0 -3 1 1 0 -2 0 2 1 -2 
0 -1 0 2 1 -1 0 2 1 -1 0 3 1 0 0 3 
1 1 0 3 1 1 0 8 1 3 0 10 1 3 0 9 
1 3 0 8 1 2 0 7 1 3 0 5 1 2 0 4 
1 1 0 3 1 1 1 1 1 1 0 1 0 -1 1 1 
0 -1 1 -1 1 0 1 1 1 0 -1 0 2 0 0 1 
1 -1 1 1 1 0 1 0 1 0 1 0 1 0 0 -1 
0 2 1 4 0 10 1 3 0 8 1 2 0 7 1 1 
0 7 1 2 0 5 1 1 0 4 1 1 0 5 1 3 
0 4 1 1 0 3 1 3 0 3 1 1 0 1 0 -1 
1 3 0 2 1 2 0 1 0 -3 0 2 1 1 0 1 
0 -1 1 1 0 2 0 -1 1 -1 0 1 1 -1 0 2 
0 -2 1 1 0 -1 1 -1 0 -3 1 -2 0 -1 0 1 
1 -4 0 -9 1 -5 0 -11 1 -4 0 -7 1 -3 0 -10 
1 -3 0 -8 1 -2 0 -6 1 -2 0 -3 1 -1 0 -2 
1 -1 1 -1 1 1 0 3 1 -1 0 -2 1 -1 1 0 
1 0 1 0 1 0 1 0 1 0 1 0 1 0 1 0 
1 0 1 0 1 0 1 0 1 0 1 0 1 0 0 -8 
1 -3 0 -8 1 -3 0 -6 1 -1 0 -5 1 -1 0 -5 
1 -2 0 -4 1 -1 0 -2 1 -2 0 -3 1 -1 0 -4 
1 -1 0 -4 1 -1 0 -3 1 -2 0 -3 1 -1 0 -3 
1 -1 0 -3 1 -1 0 1 0 -3 2 -2 0 1 0 -1 
1 -1 1 1 0 -1 0 2 1 -1 0 3 1 -1 0 5 
1 -1 0 4 1 1 0 6 1 3 0 10 1 4 0 9 
1 3 0 8 1 2 0 7 1 3 0 5 1 2 0 4 
1 1 0 3 1 1 0 2 1 1 0 -1 1 1 1 1 
-1 0 2 -2 1 1 0 1 0 -1 1 1 1 -1 1 0 
1 1 0 -1 1 1 1 0 1 0 1 0 1 0 1 0 
1 -1 0 10 1 4 0 9 1 2 0 7 1 2 0 6 
1 2 0 6 1 1 0 7 1 1 0 4 1 2 0 4 
1 2 0 2 1 1 0 4 1 1 0 4 1 -1 0 2 
1 1 0 3 1 1 0 1 2 2 0 -1 0 1 1 -1 
0 1 1 -1 1 -1 0 -3 1 -1 0 -3 1 -1 0 -5 
1 -3 0 -12 1 -3 0 -12 1 -3 0 -10 1 -2 0 -6 
1 -3 0 -7 1 -2 3655 1767 300 MP stroke
0 -4 1 -2 0 -2 1 -1 1 -1 1 -1 1 0 0 3 
1 -1 0 -1 1 -1 1 0 1 0 1 0 1 0 1 0 
1 0 1 0 1 -1 0 1 1 -1 0 1 0 0 2 0 
1 0 1 0 1 0 1 0 1 0 1 0 0 -1 0 1 
1 -1 0 -9 1 -3 0 -8 1 -2 0 -6 1 -1 0 -5 
1 -2 0 -4 1 -1 0 -4 1 -2 0 -2 1 -1 0 -3 
1 -2 0 -3 0 1 1 3 0 -9 1 -1 0 -3 1 -2 
0 -3 1 -1 0 -4 1 -1 0 -2 1 -1 0 1 0 -3 
1 1 0 -2 0 1 1 -1 0 -1 1 -1 0 1 1 -1 
1 1 0 4 1 -1 0 3 1 1 0 2 1 3 0 7 
1 3 0 10 1 4 0 8 1 3 0 7 1 3 0 7 
1 2 0 6 1 2 0 4 1 1 0 3 1 1 1 1 
0 1 2 0 1 -1 1 1 0 -1 0 1 1 1 0 0 
2 0 0 -1 1 1 0 -1 0 0 1 1 1 0 1 0 
1 0 1 0 1 0 1 0 0 5 1 4 0 9 1 3 
0 7 1 2 0 7 1 1 0 7 1 1 0 5 1 3 
0 4 1 2 0 4 1 1 0 3 1 2 0 4 1 1 
0 3 1 1 0 3 1 -1 0 3 1 1 0 1 1 1 
0 1 1 1 0 -1 0 1 1 -1 0 1 0 -1 1 1 
0 -1 0 1 1 -1 0 0 0 -3 1 1 0 -3 1 -2 
0 -3 1 -2 0 -11 1 -4 0 -11 1 -4 0 -9 1 -4 
0 -5 1 -4 0 -7 1 -2 0 -6 1 -1 0 -4 1 -1 
0 -2 1 -1 1 0 1 1 0 2 1 -1 0 -1 1 -1 
1 0 1 0 1 0 1 0 1 0 1 0 1 0 1 0 
1 0 1 0 1 0 1 0 1 0 1 0 1 0 0 -3 
1 -3 0 -9 1 -2 0 -7 1 -2 0 -6 1 -2 0 -4 
1 -2 0 -4 1 -1 0 -4 1 -2 0 -3 1 -2 0 -2 
1 -2 0 -2 1 -2 0 -4 1 -1 0 -3 1 -1 0 -3 
1 -2 0 -2 1 -1 0 -2 1 -1 0 -1 1 -1 0 -1 
1 -1 0 1 0 -2 1 2 0 -1 0 1 1 1 0 -1 
0 1 1 1 0 3 1 1 0 3 1 2 0 7 1 2 
0 11 1 3 0 10 1 2 0 6 1 3 0 8 1 2 
0 6 1 2 0 5 1 1 0 3 1 1 0 2 1 1 
1 0 1 1 1 -2 -1 0 2 2 0 -1 0 1 1 -1 
1 0 1 0 0 1 0 -1 1 1 0 -1 1 1 1 0 
1 0 1 0 1 0 0 0 2 0 0 12 1 2 0 9 
1 2 0 7 1 2 0 7 1 1 0 6 1 2 0 5 
1 1 0 6 1 1 3483 1715 300 MP stroke
0 5 1 1 0 4 1 1 0 3 1 2 0 3 1 -1 
0 1 0 -1 1 3 0 2 1 1 0 2 0 -1 1 1 
0 2 1 -1 0 1 0 -1 1 1 0 -1 1 1 0 -1 
1 -1 0 -2 1 -1 0 -2 1 -3 0 -4 1 -3 0 -12 
1 -3 0 -11 1 -4 0 -10 1 -3 0 -9 1 -2 0 -7 
1 -2 0 -4 1 -1 0 -2 1 -1 1 -1 1 0 0 1 
1 1 0 -3 1 -1 1 0 1 0 1 0 1 0 1 0 
0 0 0 -1 1 1 0 -1 1 1 1 0 1 0 1 0 
1 0 1 0 1 -1 0 1 0 -1 1 -2 0 -9 1 -2 
0 -8 1 -2 0 -6 1 -1 0 -6 1 -1 0 -5 1 -1 
0 -4 1 -2 0 -4 1 -1 0 -3 1 -1 0 -4 1 -1 
0 -2 1 -2 0 -2 1 -2 0 -2 1 -1 0 -3 1 1 
0 -3 1 1 0 -2 0 1 1 -1 0 -1 1 1 0 -1 
0 1 1 -1 0 3 1 -1 0 4 1 0 0 3 1 1 
0 7 1 3 0 11 1 3 0 9 1 4 0 7 1 3 
0 7 1 2 0 6 1 1 0 4 1 1 0 1 1 1 
1 1 1 0 1 1 0 0 2 0 0 -2 2 0 1 1 
1 1 -1 0 2 0 0 -1 1 1 1 0 1 0 1 0 
1 0 1 0 0 6 1 4 0 10 1 3 0 6 1 3 
0 8 1 2 0 6 1 3 0 6 1 3 0 6 1 0 
0 8 1 0 0 6 1 2 0 6 1 2 0 5 1 2 
0 4 1 1 0 7 1 1 0 5 1 2 0 5 1 -1 
0 5 1 -1 0 4 1 -1 0 2 0 -1 1 2 0 1 
1 -2 0 2 0 -3 1 2 0 -1 1 -2 0 2 0 -3 
1 -1 0 -5 1 -1 0 -6 1 -1 0 -8 1 -3 0 -8 
1 -5 0 -14 1 -5 0 -13 1 -5 0 -13 1 -4 0 -12 
1 -3 0 -8 1 -3 0 -6 1 -2 1 -1 1 0 1 0 
-1 0 2 2 0 1 0 -1 1 -2 0 -7 1 -3 0 -9 
1 -3 0 -7 1 -2 0 -7 1 -3 0 -5 1 -2 0 -7 
1 -2 0 -5 1 -3 0 -1 1 -1 0 2 2 2 0 2 
1 0 0 3 1 1 0 3 1 1 1 1 1 -1 0 1 
1 -1 0 -2 0 1 1 -1 0 -2 1 1 0 -3 1 -1 
0 -3 1 -1 0 -4 1 -2 0 -3 2 0 1 -1 1 1 
0 -1 0 1 1 1 1 1 0 1 0 -1 1 1 0 -1 
0 1 1 -1 0 -2 1 -1 0 -4 1 -2 0 -4 1 -1 
0 -4 1 -1 0 -3 1 -1 0 -2 1 -2 0 -1 1 -1 
0 -3 1 -1 0 -3 1 -1 0 1 1 -3 0 1 0 -1 
1 -1 0 1 0 -2 3323 1890 300 MP stroke
1 1 0 2 1 -1 0 1 1 1 0 3 1 1 0 2 
1 1 0 4 1 0 0 5 1 1 0 5 1 3 0 13 
1 4 0 12 1 4 0 11 1 3 0 10 1 3 0 8 
1 2 0 5 1 1 0 3 1 2 1 1 0 1 0 -1 
1 1 0 -1 1 1 0 0 2 -3 0 -1 0 1 1 1 
1 1 0 9 1 3 0 8 1 2 0 6 1 2 0 6 
1 1 0 6 1 1 0 5 1 1 0 3 1 1 0 3 
1 1 0 3 2 2 1 1 0 1 1 -1 0 1 1 -1 
0 -3 1 -3 0 -8 1 -2 0 -9 1 -2 0 -5 1 -2 
0 -7 1 -2 0 -6 1 -2 0 -3 1 -1 0 -2 1 0 
0 -2 0 0 1 -2 0 -1 1 -1 1 0 1 0 1 0 
1 0 0 -6 1 -4 0 -10 1 -3 0 -9 1 -3 0 -10 
1 -3 0 -10 1 -3 0 -7 1 -2 0 -7 1 -4 0 -6 
1 0 0 -1 1 -3 0 1 0 -2 0 1 1 2 0 5 
1 4 0 14 1 4 0 11 1 5 0 11 1 3 0 9 
1 3 0 7 1 3 0 4 1 2 0 3 1 1 0 -1 
0 1 1 -1 0 1 0 -1 1 1 1 0 1 0 0 -4 
1 -1 0 3 1 1 0 9 1 3 0 8 1 3 0 7 
1 1 0 6 1 3 0 5 1 1 0 5 1 2 0 1 
1 3 0 4 1 1 0 4 1 1 0 2 1 1 0 1 
1 1 0 1 1 1 0 0 0 -2 1 2 0 -2 0 1 
1 -2 0 1 0 -2 1 -1 0 -8 1 -2 0 -10 1 -4 
0 -9 1 -2 0 -8 1 -3 0 -8 1 -1 0 -6 1 -1 
0 -3 1 -2 1 -1 1 0 1 0 1 0 1 0 1 0 
1 0 1 0 1 0 1 0 1 0 0 -1 0 4 1 4 
0 9 1 3 0 7 1 3 0 5 1 2 0 5 1 2 
0 4 1 2 0 4 1 2 0 4 1 1 0 4 1 1 
0 2 1 3 0 -1 0 2 1 2 0 1 1 2 0 2 
1 -1 0 3 1 -1 0 2 0 -1 1 1 1 1 0 1 
0 -1 1 1 1 -1 0 1 0 -1 1 -1 0 -1 1 -2 
0 -3 1 -1 0 -6 1 -3 0 -11 1 -3 0 -9 1 -3 
0 -8 1 -3 0 -7 1 -1 0 -6 1 -1 0 -4 1 -1 
0 -1 1 -1 0 -1 1 -1 0 1 0 -3 1 -1 1 -1 
1 0 1 0 1 0 1 0 1 0 1 0 1 0 1 0 
1 0 1 0 0 -8 1 -3 0 -8 1 -3 0 -6 1 -2 
0 -4 1 -2 0 -5 1 -2 0 -5 1 -1 0 -5 1 -1 
0 -5 1 -1 0 -3 1 -2 0 -3 1 -1 0 -3 1 -1 
0 -5 1 0 0 -3 3163 1860 300 MP stroke
1 -1 0 -1 0 1 1 -3 0 -2 1 -1 1 -1 0 1 
1 -1 0 2 1 -1 0 2 1 1 0 2 1 1 0 4 
1 1 0 8 1 4 0 11 1 4 0 11 1 2 0 10 
1 2 0 9 1 2 0 5 1 2 0 3 1 1 0 1 
1 1 1 1 1 0 1 -1 0 -2 0 1 2 2 1 1 
-1 0 2 0 1 -1 1 1 1 0 1 0 1 0 1 0 
1 0 1 0 1 0 1 0 1 0 1 0 1 -1 0 10 
1 4 0 8 1 3 0 4 1 3 0 5 1 2 0 5 
1 2 0 4 1 2 0 5 1 1 0 3 1 2 0 3 
1 2 0 2 1 2 0 2 1 1 0 2 1 1 0 3 
1 -1 0 2 1 1 0 1 0 -1 1 1 0 0 0 1 
1 1 0 -1 1 1 0 -1 1 -1 1 -1 0 -3 1 -1 
0 -2 1 -2 0 -9 1 -4 0 -10 1 -3 0 -9 1 -3 
0 -8 1 -3 0 -7 1 -2 0 -4 1 -1 0 -4 1 -1 
0 -2 2 0 0 -3 1 -1 1 0 1 0 1 0 1 0 
1 0 1 0 1 0 1 0 1 0 1 0 1 -2 0 -9 
1 -3 0 -8 1 -2 0 -7 1 -1 0 -6 1 -1 0 -5 
1 -3 0 -4 1 -1 0 -5 1 -1 0 -4 1 -1 0 -3 
1 -1 0 -4 1 -1 0 -3 1 -2 0 -3 1 -1 0 -4 
1 0 0 -2 1 -1 0 -2 1 1 0 -2 0 2 1 -2 
0 -1 1 2 0 -2 0 2 1 0 0 2 1 1 0 3 
1 2 0 3 1 2 0 12 1 3 0 12 1 4 0 9 
1 3 0 8 1 3 0 5 1 2 0 6 1 1 0 4 
1 1 0 1 1 1 0 1 2 0 0 -2 1 0 0 -1 
0 1 1 1 1 1 1 0 -1 0 2 0 1 1 1 0 
0 0 2 0 0 -1 1 1 1 0 1 0 1 0 1 0 
1 0 1 0 0 0 2 0 0 10 1 4 0 8 1 2 
0 7 1 3 0 6 1 2 0 4 1 2 0 5 1 0 
0 3 1 3 0 5 1 1 0 2 1 1 0 3 1 1 
0 4 1 -1 0 4 1 0 0 2 1 0 0 2 1 -1 
0 3 0 -1 1 -1 0 1 1 1 1 0 -1 0 2 -2 
0 -2 1 0 0 -1 1 -3 0 -5 1 -3 0 -11 1 -5 
0 -9 1 -4 0 -8 1 -3 0 -6 1 -2 0 -6 1 -2 
0 -4 1 -1 0 -3 2 -2 0 1 0 -1 1 1 0 -3 
1 -1 1 0 1 0 1 0 1 0 1 0 1 0 1 0 
1 0 1 0 1 0 1 0 1 0 0 -8 1 -3 0 -8 
1 -4 0 -6 1 -1 0 -6 1 -2 0 -5 1 0 0 -6 
1 -1 0 -5 1 -1 2985 1834 300 MP stroke
0 -4 1 -1 0 -4 1 -1 0 -4 1 0 0 -2 1 -3 
0 -5 1 0 0 -4 1 -1 0 1 0 -1 1 -1 0 -2 
1 -1 0 1 0 -3 1 2 0 -2 0 1 2 0 0 2 
0 -1 1 1 0 2 1 1 0 4 1 2 0 5 1 5 
0 11 1 3 0 10 1 3 0 9 1 3 0 8 1 2 
0 7 1 1 0 5 1 2 0 2 1 1 1 1 1 0 
1 0 0 -2 1 1 1 1 1 0 1 0 1 1 1 -1 
0 1 1 -1 0 1 0 -1 1 1 1 0 1 0 1 0 
1 0 1 0 1 0 1 0 0 7 1 4 0 9 1 2 
0 7 1 3 0 6 1 2 0 5 1 1 0 5 1 3 
0 4 1 2 0 4 1 1 0 4 1 2 0 1 1 3 
0 1 1 2 0 1 1 1 0 2 1 1 1 1 1 1 
-1 0 2 0 0 -1 1 1 0 -2 0 1 1 -1 0 -1 
1 -2 0 -3 1 -1 0 -4 1 -3 0 -11 1 -4 0 -10 
1 -4 0 -9 1 -3 0 -8 1 -2 0 -6 1 -1 0 -4 
1 -1 0 -2 1 -1 0 -1 0 1 1 -1 0 1 1 2 
0 -4 1 -1 1 0 1 0 1 0 1 0 1 0 1 0 
1 0 1 0 1 0 1 0 1 0 1 0 1 0 1 0 
0 -6 1 -3 0 -9 1 -2 0 -5 1 -2 0 -6 1 -2 
0 -5 1 -1 0 -5 1 -2 0 -4 1 -1 0 -4 1 -2 
0 -4 1 -1 0 -4 1 -3 0 -4 1 -1 0 -4 1 -3 
0 -3 1 -3 0 1 0 -3 1 -1 0 -3 1 1 0 -4 
1 -1 0 -2 0 1 1 -1 0 -1 2 0 1 1 0 2 
0 -3 0 2 1 1 0 2 1 1 0 3 1 3 0 4 
1 2 0 6 1 5 0 11 1 4 0 11 1 4 0 9 
1 3 0 9 1 3 0 6 1 2 0 5 1 1 0 3 
1 1 0 1 0 -1 1 1 0 -1 1 1 1 -1 1 -1 
1 1 1 0 1 1 0 -2 1 -1 0 5 1 4 0 11 
1 3 0 8 1 3 0 7 1 3 0 7 1 2 0 7 
1 2 0 6 1 2 0 7 1 2 0 5 1 2 0 5 
1 2 0 2 1 3 0 2 1 2 0 2 1 1 0 1 
0 0 1 1 0 -1 0 1 1 -1 0 -1 0 0 1 -1 
0 1 0 -2 0 1 1 -2 0 -3 1 -2 0 -4 1 -1 
0 -7 1 -5 0 -14 1 -4 0 -12 1 -4 0 -13 1 -4 
0 -10 1 -6 0 -6 1 -3 0 -18 1 -5 0 -11 1 -5 
0 -13 1 -5 0 -8 1 -3 0 -4 1 -2 0 -3 1 -2 
0 -3 1 -1 0 -4 1 0 0 -3 1 -2 0 -2 1 0 
0 -3 1 1 0 -2 2824 1875 300 MP stroke
0 1 1 -2 0 1 1 -1 0 2 0 -1 1 2 0 -1 
0 2 1 -1 0 3 1 1 0 2 1 1 0 5 1 1 
0 5 1 3 0 11 1 5 0 9 1 3 0 9 1 3 
0 8 1 3 0 6 1 2 0 5 1 1 0 3 1 1 
1 1 1 0 0 0 0 -2 1 1 0 3 1 1 1 0 
-1 0 2 0 1 1 1 0 1 0 1 0 1 0 1 -1 
0 1 0 -1 1 1 0 0 2 1 0 9 1 3 0 6 
1 2 0 5 1 1 0 6 1 1 0 5 1 0 0 4 
1 1 0 4 1 0 0 3 1 1 0 3 1 1 1 1 
1 1 0 1 0 -1 1 1 0 -3 1 -1 0 -8 1 -2 
0 -6 1 -2 0 -7 1 -1 0 -6 1 -2 0 -6 1 -1 
0 -1 1 -3 0 -4 1 -1 0 -2 1 -2 0 -1 2 -5 
0 -14 1 -4 0 -12 1 -4 0 -5 1 -3 0 -7 1 -3 
0 -4 1 -1 0 5 1 2 0 8 1 3 0 9 1 2 
0 9 1 2 0 7 1 2 0 4 1 3 0 3 1 1 
0 1 1 1 0 -1 1 1 0 -1 1 1 1 -1 1 -1 
1 1 1 0 1 1 1 0 1 0 0 -1 0 1 1 4 
0 11 1 3 0 9 1 3 0 7 1 3 0 6 1 3 
0 5 1 2 0 7 1 2 0 6 1 1 0 6 1 1 
0 5 1 1 0 4 1 1 0 4 1 1 0 1 1 2 
0 1 1 1 0 2 1 -1 0 1 0 -9 1 9 0 1 
1 -1 0 1 0 -1 1 -1 0 -2 1 -1 0 -3 1 -1 
0 -8 1 -4 0 -14 1 -4 0 -14 1 -5 0 -12 1 -4 
0 -11 1 -3 0 -9 1 -2 0 -1 1 -1 0 1 0 -1 
1 -1 1 -1 1 0 -1 0 2 0 1 0 0 -11 1 -3 
0 -9 1 -2 0 -7 1 -1 0 -6 1 -1 0 -5 1 -1 
0 -5 1 -1 0 -4 1 -2 0 -3 1 -1 0 -4 1 -1 
0 -3 1 -2 0 -3 1 -1 0 -4 1 -1 0 -3 1 -1 
1 -1 0 -2 0 1 1 -2 0 1 1 -1 1 -1 0 1 
0 -1 1 3 0 2 1 1 0 3 1 1 0 4 1 2 
0 11 1 4 0 10 1 3 0 10 1 3 0 8 1 2 
0 7 1 1 0 6 1 0 0 4 1 1 0 1 1 1 
1 1 1 -1 0 1 2 0 1 -1 -1 0 2 2 0 0 
2 0 0 -1 0 1 1 -1 1 1 1 0 1 0 1 0 
1 0 1 0 1 -1 0 5 1 4 0 10 1 3 0 7 
1 3 0 6 1 1 0 6 1 2 0 4 1 2 0 5 
1 2 0 4 1 1 0 4 1 2 0 3 1 -1 0 3 
1 2 0 3 1 0 2660 1698 300 MP stroke
0 2 1 1 0 -1 0 2 1 -1 0 2 1 -1 0 1 
2 -1 0 1 0 -1 1 -1 0 1 0 -2 1 -1 0 -2 
1 -2 0 -3 1 -3 0 -11 1 -4 0 -10 1 -4 0 -9 
1 -3 0 -8 1 -2 0 -7 1 -1 0 -4 1 -1 0 -2 
1 -1 1 -1 1 -1 0 2 0 -2 1 -1 1 -1 1 0 
1 0 1 0 1 0 1 0 1 0 1 0 1 0 1 0 
1 0 1 0 1 0 1 -1 0 -8 1 -4 0 -7 1 -3 
0 -6 1 -2 0 -3 1 -2 0 -4 1 -2 0 -4 1 -1 
0 -4 1 -2 0 -1 1 -3 0 -4 1 -2 0 -2 1 -1 
0 -6 1 1 0 -5 1 -1 0 -2 1 -2 0 -3 1 1 
0 -2 1 0 0 -2 0 1 1 -1 0 -1 0 1 1 -1 
0 1 0 -1 1 1 0 2 0 -1 1 1 0 2 1 0 
0 2 1 3 0 5 1 3 0 11 1 3 0 11 1 2 
0 8 1 3 0 8 1 2 0 6 1 2 0 5 1 2 
0 3 1 1 1 1 1 1 1 0 1 1 1 -1 1 -1 
1 1 1 1 -1 0 2 0 0 -1 1 1 1 0 1 0 
1 0 1 0 1 0 0 0 2 3 0 10 1 3 0 8 
1 2 0 6 1 3 0 5 1 2 0 5 1 2 0 5 
1 2 0 2 1 1 0 2 1 3 0 2 1 3 0 3 
1 1 0 2 1 1 0 2 1 1 0 2 1 -1 0 2 
0 -1 1 2 0 -2 0 2 1 -1 0 -1 1 1 0 1 
0 -2 2 -2 0 1 0 -3 1 -1 0 -4 1 -1 0 -8 
1 -4 0 -11 1 -3 0 -6 1 -3 0 -8 1 -3 0 -7 
1 -2 0 -5 1 -1 0 -4 1 -1 0 -2 1 1 0 -1 
0 1 1 -1 0 1 0 -2 1 -1 1 -1 1 0 1 0 
1 0 1 0 1 0 1 0 1 0 1 0 1 0 1 0 
1 0 1 0 0 -5 1 -3 0 -9 1 -4 0 -7 1 -3 
0 -6 1 -2 0 -6 1 -1 0 -5 1 -1 0 -6 1 -2 
0 -4 1 -2 0 -5 1 -3 0 -4 1 -3 0 -4 1 -2 
0 -4 1 -1 0 -5 1 -2 0 -3 1 -1 0 -4 1 -2 
0 -3 1 -1 0 -2 2 -2 0 -1 0 1 1 -1 0 1 
0 -2 0 1 1 -1 0 2 1 1 0 2 1 2 0 -1 
0 2 1 2 0 4 1 2 0 1 1 4 0 7 1 3 
0 7 1 3 0 5 1 4 0 13 1 5 0 12 1 4 
0 10 1 3 0 8 1 1 0 5 1 1 0 3 2 0 
0 -2 1 1 0 -2 0 5 1 6 0 16 1 4 0 12 
1 3 0 10 1 3 0 9 1 4 0 9 1 4 0 8 
1 3 0 6 1 4 2494 1679 300 MP stroke
0 8 1 3 0 8 1 4 0 8 1 1 0 7 1 2 
0 6 1 2 0 3 1 2 0 1 1 1 0 -1 0 1 
1 -2 0 -1 1 -3 0 -3 1 -4 0 -5 1 -4 0 -6 
1 -1 0 -10 1 -3 0 -12 1 -5 0 -18 1 -5 0 -15 
1 -5 0 -10 1 -4 0 -13 1 -3 0 -8 1 -2 0 -5 
1 -1 0 -2 1 -1 0 -1 1 1 0 -1 0 1 1 -1 
0 -2 1 -1 1 0 1 0 1 0 1 0 1 0 1 0 
1 0 -1 0 2 0 0 0 2 0 1 -1 0 1 0 -5 
1 -2 0 -10 1 -2 0 -7 1 -2 0 -5 1 -3 0 -4 
1 -3 0 -4 1 -1 0 -5 1 -1 0 -5 1 0 0 -4 
1 -2 0 -1 0 1 1 -4 0 -4 1 -1 0 -3 1 -1 
0 -3 1 -1 0 -2 1 -1 0 -2 2 -2 1 -1 0 1 
0 -1 1 1 0 2 1 1 0 2 1 2 0 1 0 -1 
1 4 0 7 1 4 0 11 1 4 0 10 1 3 0 9 
1 3 0 7 1 2 0 7 1 1 0 4 1 1 0 2 
1 1 1 1 1 0 -1 0 2 0 0 1 1 -1 1 -1 
-1 0 2 2 0 -1 1 1 0 -1 1 1 1 -1 -1 0 
2 0 1 1 0 0 2 0 1 0 1 0 1 -1 0 2 
1 4 0 10 1 3 0 8 1 2 0 7 1 1 0 6 
1 2 0 5 1 2 0 4 1 1 0 5 1 2 0 3 
1 2 0 3 1 1 0 2 1 1 0 4 1 -1 0 4 
1 -2 0 2 1 1 0 2 1 -2 0 2 2 0 0 -1 
1 1 0 -1 1 -1 0 -3 1 -1 0 -2 1 -3 0 -11 
1 -4 0 -11 1 -3 0 -9 1 -3 0 -8 1 -3 0 -6 
1 -3 0 -4 1 -2 0 -2 1 -1 1 -1 -1 0 2 0 
0 1 0 -3 1 -1 1 0 1 0 1 0 1 0 1 0 
1 0 1 0 1 0 1 0 1 0 1 0 1 0 0 -2 
1 -3 0 -9 1 -3 0 -7 1 -2 0 -6 1 -2 0 -5 
1 -2 0 -4 1 -2 0 -3 1 -1 0 -4 1 -2 0 -3 
1 -1 0 -4 1 -1 0 -4 1 -1 0 -3 1 -1 0 -2 
1 -3 0 -3 1 -1 0 -2 2 -2 1 -1 0 1 0 -1 
1 1 0 -1 0 1 1 2 0 2 1 1 0 3 1 2 
0 4 1 3 0 7 1 4 0 11 1 3 0 10 1 3 
0 8 1 2 0 7 1 2 0 5 1 1 0 4 2 2 
1 0 1 1 1 1 0 -1 0 1 1 -1 1 -1 0 1 
2 0 1 1 0 0 2 0 1 0 1 0 1 0 1 0 
1 -1 0 6 1 4 0 9 1 3 0 8 1 1 0 7 
1 2 0 6 1 0 2321 1733 300 MP stroke
0 6 1 1 0 5 1 2 0 4 1 1 0 3 1 2 
0 1 0 -1 1 3 0 4 1 0 0 2 1 2 0 2 
0 -3 0 2 1 1 0 1 1 1 0 -1 0 1 1 1 
0 -1 0 1 2 0 0 1 0 -3 1 2 0 -2 1 -1 
0 -3 1 -2 0 -5 1 -2 0 -12 1 -3 0 -12 1 -3 
0 -9 1 -2 0 -8 1 -3 0 -3 1 -3 0 -3 1 -2 
0 -3 1 -1 1 0 1 1 0 -3 1 -1 1 0 1 0 
1 0 1 0 1 0 -1 0 2 0 0 0 0 -1 1 1 
1 0 1 0 1 0 1 0 1 0 0 -1 0 1 1 -1 
0 -9 1 -3 0 -8 1 -2 0 -6 1 -1 0 -5 1 -3 
0 -4 1 -2 0 -4 1 -1 0 -3 1 -2 0 -2 1 -2 
0 -3 0 1 1 -4 0 1 0 -3 1 -1 0 -3 1 -1 
0 -3 0 1 1 -2 0 -1 0 1 1 -3 0 -3 1 1 
0 -2 1 1 0 -2 1 2 0 -2 0 1 1 1 1 1 
0 1 1 3 0 3 1 1 0 7 1 4 0 10 1 3 
0 10 1 3 0 8 1 2 0 7 1 2 0 6 1 2 
0 3 1 1 0 1 1 1 1 1 1 0 1 1 0 -2 
2 0 0 2 1 -1 1 1 0 -1 0 1 1 -1 1 1 
0 -1 0 1 1 -1 0 1 1 -1 1 1 1 0 1 0 
1 0 1 0 1 0 0 2 1 3 0 8 1 3 0 8 
1 2 0 7 1 1 0 6 1 2 0 5 1 2 0 6 
1 1 0 4 1 2 0 4 1 1 0 4 1 1 0 5 
1 0 0 4 1 1 0 3 1 1 0 2 1 1 0 3 
2 2 0 2 0 -2 1 2 1 -1 0 2 0 -3 1 1 
0 -2 1 -2 0 -2 1 -2 0 -4 1 -2 0 1 0 -4 
1 -3 0 -11 1 -4 0 -10 1 -3 0 -9 1 -3 0 -8 
1 -3 0 -6 1 -3 0 -4 1 -2 0 -2 1 -1 0 -2 
1 1 0 -2 0 2 1 -1 0 -3 1 -1 1 0 1 0 
1 0 1 0 1 0 1 0 1 0 1 0 1 -1 0 -8 
1 -3 0 -6 1 -1 0 -6 1 -1 0 -4 1 -2 0 -4 
1 -1 0 -4 1 -1 0 -3 1 -2 0 -1 1 -2 0 -2 
1 -1 0 -2 1 -1 0 -3 1 1 0 -1 0 1 1 1 
0 5 1 2 0 6 1 1 0 6 1 2 0 6 1 3 
0 7 1 1 0 5 1 2 0 2 1 1 0 2 0 -1 
1 2 0 1 1 3 1 1 -1 0 2 2 0 8 1 4 
0 10 1 2 0 8 1 2 0 7 1 2 0 2 1 -2 
0 -4 1 -2 0 -5 1 -1 0 -6 1 -2 0 -5 1 -2 
0 -5 1 -1 0 -4 2162 1770 300 MP stroke
1 -1 0 -2 2 -2 0 1 0 -2 1 -2 1 0 1 0 
1 0 1 0 1 0 1 0 1 0 1 0 1 0 1 0 
-1 0 2 -4 0 -9 1 -3 0 -8 1 -2 0 -5 1 -2 
0 -6 1 -1 0 -5 1 -2 0 -5 1 -1 0 -4 1 -2 
0 -2 1 -1 0 -3 1 -2 0 -1 1 -3 0 -4 1 -2 
0 -3 1 -1 0 -2 1 -1 0 -3 1 1 0 -2 1 -1 
0 1 0 -1 1 -1 0 2 1 -1 0 2 1 1 0 3 
1 2 0 3 1 1 0 8 1 4 0 11 1 4 0 10 
1 3 0 10 1 2 0 6 1 3 0 5 1 2 0 4 
1 1 0 2 2 2 0 -1 0 0 1 1 1 -1 1 -1 
1 0 -1 0 2 2 0 0 2 0 0 0 2 0 1 0 
-1 0 2 0 0 0 2 0 1 0 1 0 0 -2 1 2 
0 11 1 3 0 8 1 3 0 6 1 2 0 5 1 2 
0 5 1 1 0 5 1 2 0 3 1 2 0 4 1 1 
0 3 1 1 0 4 1 -1 0 3 1 1 0 2 1 1 
0 2 1 -1 0 2 1 0 0 1 0 -1 1 1 0 1 
2 0 0 -1 0 1 1 -1 0 -2 1 -1 0 -2 1 -2 
0 -7 1 -2 0 -11 1 -3 0 -11 1 -2 0 -8 1 -3 
0 -7 1 -2 0 -5 1 -2 0 -4 1 -1 1 -1 0 -1 
0 1 1 -2 0 1 0 -2 1 -1 1 -1 1 0 1 0 
1 0 1 0 1 0 1 0 1 0 1 0 1 0 1 0 
0 -4 1 -3 0 -9 1 -3 0 -4 1 -2 0 -7 1 -1 
0 -5 1 -2 0 -4 1 -2 0 -4 1 -2 0 -4 1 -1 
0 -4 1 -2 0 -3 1 -1 0 -3 0 1 1 -4 0 -2 
1 -1 0 -2 1 -3 0 -2 1 -1 0 -1 1 -1 0 -1 
1 -1 0 1 0 -1 1 -1 0 1 2 3 0 2 1 0 
0 4 1 1 0 6 1 3 0 11 1 4 0 10 1 4 
0 8 1 3 0 9 1 1 0 7 1 1 0 4 1 1 
0 3 2 2 1 0 -1 0 2 0 0 1 0 -2 1 -1 
1 1 1 2 -1 0 2 0 0 -1 1 1 0 -1 1 1 
1 -1 1 1 1 0 1 0 1 0 1 0 1 0 0 -1 
0 1 1 4 0 10 1 4 0 7 1 3 0 5 1 3 
0 5 1 2 0 5 1 2 0 2 1 2 0 5 1 1 
0 4 1 2 0 3 1 1 0 3 1 1 0 -1 0 3 
1 1 0 3 2 2 0 1 0 -1 1 1 0 1 2 0 
1 -1 0 1 0 -2 1 -1 0 -3 1 -1 0 -4 1 -1 
0 -10 1 -4 0 -7 1 -4 0 -9 1 -3 0 -9 1 -2 
0 -7 1 -2 0 -5 1990 1768 300 MP stroke
1 -2 0 -2 1 -1 1 -1 0 -1 0 1 1 -1 0 1 
0 -2 1 -1 1 -1 1 0 1 0 1 0 1 0 1 0 
1 0 1 0 1 0 1 0 1 0 1 -1 0 -9 1 -3 
0 -8 1 -1 0 -6 1 -2 0 -6 1 -1 0 -5 1 -1 
0 -2 1 -3 0 -5 1 -1 0 -3 1 -2 0 -3 1 -1 
0 -4 1 -1 0 -1 0 1 1 -3 0 -3 1 -1 0 -2 
1 -1 0 -2 1 -1 0 -2 1 1 1 -1 0 0 0 1 
2 2 0 1 0 -1 1 4 0 4 1 1 0 5 1 4 
0 10 1 4 0 10 1 3 0 9 1 3 0 6 1 3 
0 5 1 2 0 3 1 2 1 1 1 1 0 -1 1 1 
0 -1 0 1 2 0 1 -2 0 -1 1 1 1 1 1 1 
1 0 1 0 1 0 0 5 1 3 0 11 1 4 0 9 
1 3 0 7 1 3 0 4 1 3 0 5 1 3 0 6 
1 2 0 6 1 1 0 7 1 1 0 6 1 3 0 5 
1 2 0 5 1 1 0 4 1 3 0 6 1 -1 0 5 
1 2 0 -2 0 4 1 2 1 1 -1 -3 0 3 2 0 
0 -2 0 1 1 -1 0 -2 1 1 1 -2 0 -3 1 -2 
0 -4 1 -2 0 -7 1 -2 0 -10 1 -2 0 -17 1 -6 
0 -15 1 -6 0 -13 1 -5 0 -12 1 -4 0 -9 1 -1 
0 -2 1 -1 1 -1 1 0 0 2 1 1 0 -1 0 3 
1 -1 0 -10 1 -4 0 -12 1 -3 0 -6 1 -4 0 -9 
1 -3 0 -8 1 -2 0 -7 1 -1 0 -6 1 -3 0 -4 
1 -1 0 -3 1 -1 0 -4 1 1 0 -4 0 1 1 -2 
0 -1 1 -1 1 -1 0 1 0 -2 1 2 0 -2 1 1 
0 1 2 2 0 1 1 1 1 3 0 -2 0 2 2 2 
0 1 0 -2 0 1 1 -1 0 1 1 -1 0 1 0 -1 
1 1 1 -1 -1 0 2 0 0 -1 1 1 1 -1 0 1 
2 2 0 2 1 1 0 5 1 0 0 5 1 3 0 10 
1 3 0 6 1 3 0 8 1 4 0 7 1 3 0 6 
1 2 0 5 1 1 0 3 1 1 0 2 1 1 1 1 
1 1 0 -1 1 1 1 -1 1 0 -1 0 2 0 0 1 
0 -1 1 1 0 -1 0 1 1 -1 1 1 -1 0 2 0 
1 0 0 -2 0 1 1 1 0 10 1 4 0 9 1 2 
0 8 1 1 0 6 1 2 0 6 1 2 0 6 1 1 
0 5 1 2 0 4 1 2 0 1 0 -1 1 3 0 3 
1 1 0 4 2 2 0 2 1 2 0 -1 1 1 0 -1 
1 1 1 -1 1 -1 0 -2 0 0 1 -1 0 -3 1 -2 
0 -5 1 -3 0 -12 1826 1721 300 MP stroke
1 -3 0 -11 1 -4 0 -9 1 -4 0 -8 1 -2 0 -6 
1 -1 0 -4 1 -1 0 -2 1 -1 0 -1 0 1 1 -1 
0 1 2 2 0 1 0 -2 1 -1 1 -1 1 0 1 0 
1 0 1 0 1 0 1 0 1 0 1 0 1 0 1 0 
1 0 1 0 1 0 1 0 1 0 0 -5 1 -3 0 -9 
1 -3 0 -7 1 -2 0 -5 1 -2 0 -5 1 -2 0 -4 
1 -2 0 -5 1 -1 0 -4 1 -2 0 -6 1 -1 0 -5 
1 -1 0 -5 1 0 0 -4 1 -3 0 -3 1 -1 0 -3 
1 -1 0 -3 1 -1 0 1 0 -2 1 -1 1 -1 0 -2 
1 1 0 -1 0 1 2 2 0 3 1 -1 0 3 1 1 
0 5 1 2 0 1 1 4 0 10 1 4 0 11 1 4 
0 11 1 3 0 10 1 2 0 9 1 2 0 6 1 2 
0 6 1 1 1 0 1 1 -1 -1 0 1 2 0 0 -1 
1 1 1 -1 0 1 0 -1 1 1 0 -4 1 -1 0 3 
1 3 0 11 1 4 0 9 1 2 0 7 1 3 0 6 
1 3 0 7 1 1 0 7 1 2 0 6 1 1 0 5 
1 4 0 2 1 1 0 4 1 2 0 1 0 -1 1 4 
0 3 2 0 0 1 0 -1 1 -1 0 -2 1 -1 0 -3 
1 -3 0 -3 1 -3 0 -12 1 -4 0 -12 1 -5 0 -10 
1 -6 0 -9 1 -4 0 -10 1 -5 0 -21 1 -7 0 -20 
1 -6 0 -11 1 -4 0 -12 1 -3 0 -7 1 0 0 -1 
2 1 0 -1 0 1 1 1 0 2 1 1 0 2 1 2 
0 4 1 1 0 4 1 3 0 11 1 4 0 10 1 4 
0 8 1 3 0 8 1 2 0 6 1 2 0 4 1 2 
0 2 1 1 1 1 0 1 0 -1 1 1 0 -1 1 1 
1 -1 1 0 1 1 1 0 1 0 1 0 0 -3 1 2 
0 9 1 3 0 10 1 3 0 7 1 2 0 6 1 2 
0 6 1 2 0 4 1 1 0 6 1 2 0 5 1 2 
0 5 1 1 0 4 1 1 0 4 1 1 0 2 1 1 
0 1 0 0 1 1 1 1 0 1 0 -1 2 -2 0 -2 
1 -1 0 -2 1 0 0 -5 1 0 0 -2 1 -4 0 -11 
1 -3 0 -10 1 -4 0 -11 1 -4 0 -10 1 -3 0 -8 
1 -1 0 -7 1 -6 0 -17 1 -5 0 -14 1 -4 0 -12 
1 -4 0 -10 1 -3 0 -8 1 -3 0 -5 1 -1 0 -5 
1 -1 0 -2 1 -3 0 -5 1 -1 0 -3 1 -1 0 -2 
1 -1 0 1 0 -2 1 1 0 -2 0 1 1 -1 0 2 
0 -1 1 1 0 -1 0 2 1 -1 0 3 1 2 0 4 
1 0 0 6 1 1 1665 1877 300 MP stroke
0 6 1 2 0 7 1 5 0 14 1 5 0 14 1 4 
0 12 1 4 0 11 1 2 0 8 1 1 0 1 1 1 
1 1 1 0 -1 0 2 0 0 -1 1 -1 0 -4 1 0 
0 11 1 4 0 13 1 3 0 9 1 3 0 9 1 2 
0 8 1 2 0 7 1 3 0 8 1 1 0 8 1 3 
0 7 1 2 0 7 1 2 0 5 1 3 0 4 1 2 
0 3 1 2 0 -2 0 2 1 -1 0 2 0 -1 1 1 
0 -3 1 1 0 -3 0 1 1 -3 0 -4 1 -3 0 -5 
1 -3 0 -11 1 -4 0 -17 1 -4 0 -16 1 -4 0 -15 
1 -5 0 -11 1 -2 0 -6 1 -1 0 -3 0 3 1 -2 
0 -7 1 -5 0 -14 1 -4 0 -12 1 -4 0 -7 1 -3 
0 -8 1 -3 0 -5 1 -2 0 -4 1 -2 0 -2 1 -1 
0 -4 1 -1 0 -2 1 -1 0 -4 0 1 1 -1 0 1 
0 -2 1 -1 0 -2 1 1 1 -1 -1 0 2 2 0 1 
1 2 1 3 0 2 1 1 0 4 1 4 0 5 1 3 
0 12 1 3 0 10 1 3 0 10 1 3 0 6 1 3 
0 6 1 1 0 4 1 1 0 2 1 1 0 1 1 1 
1 -1 -1 0 2 0 1 1 0 0 2 0 0 0 2 0 
1 -1 0 -2 1 1 0 8 1 3 0 8 1 2 0 7 
1 2 0 6 1 2 0 5 1 1 0 6 1 1 0 4 
1 2 0 4 1 1 0 4 1 1 0 3 1 2 0 1 
1 1 0 1 1 -1 0 1 0 0 2 -2 0 -2 1 -1 
0 -3 1 -1 0 -7 1 -3 0 -10 1 -3 0 -9 1 -3 
0 -7 1 -3 0 -5 1 -2 0 -4 1 -1 0 -3 1 -1 
0 1 0 -1 1 -1 1 1 0 2 0 -1 1 1 0 -4 
1 -2 0 -14 1 -5 0 -14 1 -4 0 -13 1 -4 0 -10 
1 -3 0 -6 1 -2 0 -5 1 -1 1 3 0 3 1 1 
0 11 1 4 0 11 1 3 0 10 1 2 0 9 1 2 
0 7 1 2 0 4 1 2 0 3 1 1 0 1 1 1 
1 0 1 1 1 1 0 -1 1 1 0 0 2 -2 1 1 
0 1 0 -1 1 1 0 -1 1 1 1 0 1 0 1 0 
1 0 1 -1 0 11 1 2 0 9 1 3 0 6 1 3 
0 5 1 2 0 6 1 1 0 5 1 2 0 2 1 2 
0 4 1 2 0 4 1 1 0 2 1 2 0 3 1 -1 
0 2 1 2 0 1 1 1 0 1 0 -1 1 1 1 0 
0 1 1 -1 -1 0 2 -2 0 2 0 -2 1 -1 0 -3 
1 -1 0 -3 1 -3 0 -11 1 -3 0 -10 1 -3 0 -6 
1 -3 0 -9 1 -2 1508 1756 300 MP stroke
0 -7 1 -2 0 -4 1 -2 0 -2 1 -1 0 -1 2 0 
1 1 0 -3 1 -1 1 0 1 0 1 0 1 0 1 0 
1 0 1 0 1 0 1 0 1 0 1 0 1 0 1 0 
1 0 0 -5 1 -4 0 -7 1 -3 0 -6 1 -2 0 -5 
1 -2 0 -4 1 -2 0 -3 1 -2 0 -4 1 -2 0 -3 
1 -2 0 -4 0 1 1 -2 0 -4 1 1 0 -5 1 -2 
0 -3 1 -2 0 -3 1 1 0 -3 1 -1 0 -2 0 1 
1 -1 0 -1 1 -1 0 -2 0 2 1 0 0 -1 0 1 
1 1 0 -1 0 1 1 2 0 -1 0 3 1 1 0 4 
1 1 0 4 1 3 0 10 1 4 0 9 1 4 0 7 
1 4 0 5 1 2 0 6 1 2 0 5 1 2 0 4 
2 2 1 1 1 1 0 -1 1 1 0 -1 0 1 1 -1 
1 0 1 1 0 -1 1 1 1 0 1 0 0 0 2 -2 
0 7 1 4 0 6 1 3 0 8 1 3 0 5 1 3 
0 6 1 2 0 5 1 2 0 5 1 1 0 5 1 1 
0 5 1 1 0 4 1 1 0 1 0 -1 1 3 0 3 
1 1 0 1 1 1 1 1 1 1 1 -1 0 1 0 -1 
1 -1 1 -1 0 -3 1 -1 0 -3 1 -2 0 -9 1 -4 
0 -11 1 -4 0 -9 1 -4 0 -9 1 -2 0 -8 1 -2 
0 -5 1 -1 0 -4 2 -2 1 0 1 0 -1 0 2 2 
0 -1 1 -1 1 0 1 0 1 0 1 0 1 0 1 0 
1 0 1 0 1 0 1 0 1 0 1 0 1 0 1 0 
1 0 1 0 1 0 1 0 1 0 1 0 1 0 0 0 
2 -3 0 -9 1 -2 0 -7 1 -2 0 -6 1 -1 0 -5 
1 -1 0 -4 1 -2 0 -3 1 -2 0 -4 1 -2 0 -3 
1 -2 0 -4 1 -1 0 -2 1 -3 0 -3 1 -1 0 -3 
1 -1 0 -2 1 -1 0 -2 1 -1 0 -2 0 1 1 -1 
0 -1 2 0 1 1 0 1 0 -1 1 3 0 3 1 1 
0 3 1 2 0 5 1 3 0 10 1 3 0 10 1 3 
0 8 1 3 0 6 1 3 0 4 1 1 0 5 1 1 
0 3 1 1 0 1 1 1 0 0 0 1 1 -1 0 1 
0 -1 1 1 0 -1 0 1 1 -1 0 -1 1 1 1 1 
0 -1 0 1 1 -1 0 1 0 0 2 0 1 -1 0 -1 
0 1 1 1 0 11 1 3 0 8 1 3 0 4 1 3 
0 6 1 2 0 6 1 2 0 6 1 1 0 4 1 4 
0 3 1 2 0 4 1 1 0 4 1 1 0 2 1 1 
0 2 1 1 0 1 1 1 0 1 1 -1 0 1 0 -1 
2 -2 0 -1 1 -1 1334 1696 300 MP stroke
0 -3 1 -2 0 -2 1 0 0 -9 1 -4 0 -12 1 -3 
0 -11 1 -3 0 -9 1 -2 0 -7 1 -2 0 -5 1 -2 
0 -3 1 -1 0 -1 1 -1 1 0 1 0 -1 0 2 2 
1 -1 1 -1 1 0 1 0 1 0 1 0 1 0 0 0 
2 0 1 -1 1 1 1 -1 1 1 1 0 1 0 1 0 
1 0 1 0 1 0 1 0 1 0 1 0 1 0 1 0 
1 0 1 -1 1 1 1 0 1 0 1 0 1 0 1 0 
1 0 1 0 0 0 2 -2 0 -5 1 -3 0 -6 1 -3 
0 -7 1 -3 0 -6 1 -2 0 -6 1 -1 0 -5 1 -2 
0 -5 1 -1 0 -6 1 -2 0 -4 1 -2 0 -4 1 -2 
0 -5 1 -1 0 -4 1 -1 0 -4 1 -2 0 -3 1 -1 
0 -3 1 -1 0 -1 0 1 1 -3 0 -1 0 1 1 -1 
0 -1 1 1 0 -2 1 1 0 -1 0 1 1 1 0 1 
0 -2 0 1 1 2 0 2 1 2 0 2 1 2 0 4 
1 1 0 4 1 2 0 10 1 5 0 12 1 3 0 12 
1 4 0 10 1 3 0 8 1 3 0 6 1 2 0 3 
1 1 0 2 1 1 0 0 2 0 0 0 2 -2 0 -3 
0 1 1 2 0 2 1 4 0 9 1 3 0 8 1 2 
0 7 1 2 0 5 1 2 0 5 1 1 0 4 1 2 
0 3 1 1 0 3 1 2 0 2 0 -1 1 2 0 1 
1 1 1 1 0 0 0 1 1 -1 0 1 0 -1 1 -1 
0 -3 1 -1 0 -4 1 -3 0 -11 1 -4 0 -9 1 -3 
0 -8 1 -3 0 -5 1 -2 0 -5 1 -1 0 -3 1 -1 
0 -1 1 -1 1 0 1 0 1 0 1 0 1 0 1 0 
1 0 1 0 1 0 1 0 1 0 1 0 1 1 0 5 
1 3 0 6 1 2 0 6 1 1 0 5 1 2 0 5 
1 2 0 5 1 2 0 6 1 2 0 7 1 3 0 4 
1 3 0 9 1 3 0 5 1 -1 0 -6 1 -4 0 -25 
1 -7 0 -35 1 -9 1 0 1 0 1 0 0 0 2 0 
1 0 1 0 1 0 0 0 2 0 1 0 0 0 2 0 
1 0 0 0 2 0 1 0 0 0 2 0 0 0 2 0 
0 0 2 0 1 0 1 -1 1 1 1 0 1 0 0 0 
2 0 0 -1 1 1 0 -1 0 1 1 -1 0 0 2 0 
0 1 0 -1 1 1 0 -1 0 1 1 -1 0 1 0 -1 
1 1 1 -1 1 0 1 0 1 0 1 0 1 0 1 0 
1 0 1 0 1 -1 1 0 1 0 1 -1 1 0 1 0 
1 0 1 0 1 0 1 -1 1 -1 1 0 0 -1 0 1 
1 -1 0 1 1 -1 1137 1784 300 MP stroke
1 0 1 -1 -1 0 2 0 1 -1 1 0 1 0 1 0 
1 0 1 0 1 0 0 1 0 -1 1 1 1 0 -1 0 
2 0 1 0 -1 0 2 0 1 1 1 0 1 0 1 1 
1 1 1 0 1 1 1 0 1 0 1 1 0 1 2 0 
1 1 -1 0 2 0 1 0 1 0 1 0 1 0 1 0 
0 0 2 0 1 0 1 0 1 0 1 0 1 0 1 0 
1 0 1 0 1 0 1 0 1 0 1 0 1 0 1 0 
1 0 1 0 1 0 1 0 1 0 1 0 1 0 1 0 
1 0 1 0 1 0 1 0 1 0 1 0 1 0 1 0 
1 0 1 0 1 0 1 0 1 0 1 0 1 0 1 0 
1 0 1 0 1 0 1 0 1 0 1 0 1 0 1 0 
1 0 1 0 1 0 1 0 1 0 1 0 1 0 1 0 
1 0 1 0 1 0 1 0 1 0 1 0 1 0 0 0 
2 0 1 0 1 0 1 0 1 0 1 0 1 0 1 0 
1 0 1 0 1 0 1 0 1 0 0 0 2 0 1 0 
1 0 1 0 1 0 1 0 1 -1 0 1 1 -1 0 0 
0 1 1 -1 0 1 1 -1 0 1 1 -1 1 0 1 0 
1 0 1 0 1 0 1 0 0 -1 0 1 1 -1 1 0 
1 0 1 0 1 0 0 1 0 -1 1 1 1 0 1 0 
0 1 0 -1 1 1 0 -1 0 1 1 -1 1 1 -1 0 
2 0 0 0 2 0 1 0 1 0 1 0 1 0 1 0 
1 0 1 0 0 0 2 0 1 0 1 0 1 0 1 0 
1 0 1 0 1 -1 0 1 1 -1 0 1 0 -1 1 1 
0 -1 1 1 1 -1 1 0 -1 0 2 0 0 -1 0 0 
1 1 0 0 0 -1 1 1 0 -1 0 1 1 -1 1 0 
1 0 1 0 1 0 1 0 1 1 0 -1 1 1 1 0 
1 0 1 0 1 1 -1 0 2 0 0 0 2 0 1 0 
0 0 2 0 1 0 1 0 1 0 1 0 1 0 1 0 
1 0 1 0 1 0 1 0 0 0 2 0 1 0 1 0 
1 0 0 0 2 0 0 -1 1 1 0 -1 1 1 1 -1 
0 0 2 0 1 -1 1 -1 0 1 1 -1 0 -1 0 1 
1 -1 1 0 0 -1 0 1 1 -1 0 1 0 0 1 -1 
0 1 1 -1 1 1 1 0 0 1 1 -1 0 1 1 -1 
0 1 0 0 1 -1 0 0 0 1 1 -1 0 1 2 0 
0 1 0 -1 1 1 1 0 0 1 0 -1 1 1 0 -1 
1 1 1 0 -1 0 2 0 0 0 0 -1 0 0 1 1 
1 0 1 0 1 0 -1 0 2 0 1 -1 1 0 0 -1 
0 1 1 -1 0 -2 900 1783 300 MP stroke
1 1 0 -1 1 -1 0 -2 2 -2 0 -1 1 -1 0 -1 
1 -1 0 -1 1 -1 0 -1 1 -1 0 -2 1 -1 0 -1 
1 -1 0 -2 1 -1 0 -2 1 -1 0 -2 2 -3 0 -1 
1 -1 0 -1 1 -1 0 -2 1 -1 0 -1 1 -2 0 -2 
1 -1 0 -2 1 -1 0 -2 1 -1 0 -3 1 -1 0 -2 
1 -1 0 -2 1 -2 0 -2 1 -1 0 -2 1 -1 0 -1 
1 -3 0 -4 1 -1 0 -4 1 -1 0 -4 1 -1 0 -4 
1 -1 0 -5 1 -1 0 -5 1 0 0 -6 1 -2 0 -5 
1 -1 0 -7 1 -1 0 -4 1 -2 0 -6 1 -3 0 -5 
1 -2 0 -7 1 -3 0 1 0 -7 0 1 1 -3 0 -8 
1 -3 0 -6 1 -4 0 -5 1 -2 0 -4 1 0 0 -1 
0 2 1 3 0 15 1 10 0 43 1 20 0 82 1 25 
1 0 1 0 1 0 1 0 1 0 1 0 1 0 1 0 
1 0 1 0 1 0 1 0 1 0 1 0 1 0 1 0 
1 0 1 0 1 0 1 0 1 0 1 0 1 0 1 0 
1 0 1 0 1 0 1 0 1 0 1 0 1 0 1 0 
1 0 1 0 1 0 1 0 1 0 1 0 1 0 1 0 
1 0 1 0 1 0 1 0 1 0 1 0 1 0 1 0 
1 0 1 0 1 0 1 0 1 0 1 0 1 0 1 0 
1 0 1 0 1 0 1 0 1 0 1 0 1 0 1 0 
1 0 1 0 1 0 1 0 1 0 1 0 1 0 1 0 
1 0 1 0 1 0 1 0 1 0 1 0 1 0 1 0 
1 0 1 0 1 0 1 0 1 0 1 0 1 0 1 0 
1 0 1 0 1 0 1 0 1 0 1 0 1 0 1 0 
1 0 1 0 1 0 1 0 1 0 1 0 1 0 1 0 
1 0 1 0 1 0 1 0 1 0 1 0 1 0 1 0 
1 0 1 0 1 0 1 0 1 0 1 0 1 0 1 0 
1 0 1 0 1 0 1 0 1 0 1 0 1 0 1 0 
1 0 1 0 1 0 1 0 1 0 1 0 1 0 1 0 
1 0 1 0 1 0 1 0 1 0 1 0 1 0 1 0 
1 0 1 0 1 0 1 0 1 0 1 0 1 0 1 0 
1 0 1 0 1 0 1 0 1 0 1 0 1 0 1 0 
1 0 1 0 1 0 1 0 1 0 1 0 1 0 0 1501 
684 277 265 MP stroke
gr

c8
0 sg
2319 3569 mt 
(seconds) s
 386 1979 mt  -90 rotate
(velocity) s
90 rotate
1673  182 mt 
(velocity of a cart \(experiment\) lqr) s

end %%Color Dict

eplot
%%EndObject

epage
end

showpage

%%Trailer
%%EOF
