%!PS-Adobe-3.0 EPSF-3.0
%%Creator: MATLAB, The MathWorks, Inc. Version 8.1.0.604 (R2013a). Operating System: Linux 4.9.0-040900-generic #201612111631 SMP Sun Dec 11 21:33:00 UTC 2016 x86_64.
%%Title: /home/lukas/Universidad/Master/2 Semester/Control Theory for Embedded Systems/lab/5lab/trunk/graphics/lqr_vel_pen_exp.eps
%%CreationDate: 12/23/2016  12:09:00
%%DocumentNeededFonts: Helvetica
%%DocumentProcessColors: Cyan Magenta Yellow Black
%%LanguageLevel: 2
%%Pages: 1
%%BoundingBox:   100   241   509   549
%%EndComments

%%BeginProlog
% MathWorks dictionary
/MathWorks 160 dict begin
% definition operators
/bdef {bind def} bind def
/ldef {load def} bind def
/xdef {exch def} bdef
/xstore {exch store} bdef
% operator abbreviations
/c  /clip ldef
/cc /concat ldef
/cp /closepath ldef
/gr /grestore ldef
/gs /gsave ldef
/mt /moveto ldef
/np /newpath ldef
/cm /currentmatrix ldef
/sm /setmatrix ldef
/rm /rmoveto ldef
/rl /rlineto ldef
/s {show newpath} bdef
/sc {setcmykcolor} bdef
/sr /setrgbcolor ldef
/sg /setgray ldef
/w /setlinewidth ldef
/j /setlinejoin ldef
/cap /setlinecap ldef
/rc {rectclip} bdef
/rf {rectfill} bdef
% page state control
/pgsv () def
/bpage {/pgsv save def} bdef
/epage {pgsv restore} bdef
/bplot /gsave ldef
/eplot {stroke grestore} bdef
% orientation switch
/portraitMode 0 def /landscapeMode 1 def /rotateMode 2 def
% coordinate system mappings
/dpi2point 0 def
% font control
/FontSize 0 def
/FMS {/FontSize xstore findfont [FontSize 0 0 FontSize neg 0 0]
  makefont setfont} bdef
/reencode {exch dup where {pop load} {pop StandardEncoding} ifelse
  exch dup 3 1 roll findfont dup length dict begin
  { 1 index /FID ne {def}{pop pop} ifelse } forall
  /Encoding exch def currentdict end definefont pop} bdef
/isroman {findfont /CharStrings get /Agrave known} bdef
/FMSR {3 1 roll 1 index dup isroman {reencode} {pop pop} ifelse
  exch FMS} bdef
/csm {1 dpi2point div -1 dpi2point div scale neg translate
 dup landscapeMode eq {pop -90 rotate}
  {rotateMode eq {90 rotate} if} ifelse} bdef
% line types: solid, dotted, dashed, dotdash
/SO { [] 0 setdash } bdef
/DO { [.5 dpi2point mul 4 dpi2point mul] 0 setdash } bdef
/DA { [6 dpi2point mul] 0 setdash } bdef
/DD { [.5 dpi2point mul 4 dpi2point mul 6 dpi2point mul 4
  dpi2point mul] 0 setdash } bdef
% macros for lines and objects
/L {lineto stroke} bdef
/MP {3 1 roll moveto 1 sub {rlineto} repeat} bdef
/AP {{rlineto} repeat} bdef
/PDlw -1 def
/W {/PDlw currentlinewidth def setlinewidth} def
/PP {closepath eofill} bdef
/DP {closepath stroke} bdef
/MR {4 -2 roll moveto dup  0 exch rlineto exch 0 rlineto
  neg 0 exch rlineto closepath} bdef
/FR {MR stroke} bdef
/PR {MR fill} bdef
/L1i {{currentfile picstr readhexstring pop} image} bdef
/tMatrix matrix def
/MakeOval {newpath tMatrix currentmatrix pop translate scale
0 0 1 0 360 arc tMatrix setmatrix} bdef
/FO {MakeOval stroke} bdef
/PO {MakeOval fill} bdef
/PD {currentlinewidth 2 div 0 360 arc fill
   PDlw -1 eq not {PDlw w /PDlw -1 def} if} def
/FA {newpath tMatrix currentmatrix pop translate scale
  0 0 1 5 -2 roll arc tMatrix setmatrix stroke} bdef
/PA {newpath tMatrix currentmatrix pop	translate 0 0 moveto scale
  0 0 1 5 -2 roll arc closepath tMatrix setmatrix fill} bdef
/FAn {newpath tMatrix currentmatrix pop translate scale
  0 0 1 5 -2 roll arcn tMatrix setmatrix stroke} bdef
/PAn {newpath tMatrix currentmatrix pop translate 0 0 moveto scale
  0 0 1 5 -2 roll arcn closepath tMatrix setmatrix fill} bdef
/vradius 0 def /hradius 0 def /lry 0 def
/lrx 0 def /uly 0 def /ulx 0 def /rad 0 def
/MRR {/vradius xdef /hradius xdef /lry xdef /lrx xdef /uly xdef
  /ulx xdef newpath tMatrix currentmatrix pop ulx hradius add uly
  vradius add translate hradius vradius scale 0 0 1 180 270 arc 
  tMatrix setmatrix lrx hradius sub uly vradius add translate
  hradius vradius scale 0 0 1 270 360 arc tMatrix setmatrix
  lrx hradius sub lry vradius sub translate hradius vradius scale
  0 0 1 0 90 arc tMatrix setmatrix ulx hradius add lry vradius sub
  translate hradius vradius scale 0 0 1 90 180 arc tMatrix setmatrix
  closepath} bdef
/FRR {MRR stroke } bdef
/PRR {MRR fill } bdef
/MlrRR {/lry xdef /lrx xdef /uly xdef /ulx xdef /rad lry uly sub 2 div def
  newpath tMatrix currentmatrix pop ulx rad add uly rad add translate
  rad rad scale 0 0 1 90 270 arc tMatrix setmatrix lrx rad sub lry rad
  sub translate rad rad scale 0 0 1 270 90 arc tMatrix setmatrix
  closepath} bdef
/FlrRR {MlrRR stroke } bdef
/PlrRR {MlrRR fill } bdef
/MtbRR {/lry xdef /lrx xdef /uly xdef /ulx xdef /rad lrx ulx sub 2 div def
  newpath tMatrix currentmatrix pop ulx rad add uly rad add translate
  rad rad scale 0 0 1 180 360 arc tMatrix setmatrix lrx rad sub lry rad
  sub translate rad rad scale 0 0 1 0 180 arc tMatrix setmatrix
  closepath} bdef
/FtbRR {MtbRR stroke } bdef
/PtbRR {MtbRR fill } bdef
/stri 6 array def /dtri 6 array def
/smat 6 array def /dmat 6 array def
/tmat1 6 array def /tmat2 6 array def /dif 3 array def
/asub {/ind2 exch def /ind1 exch def dup dup
  ind1 get exch ind2 get sub exch } bdef
/tri_to_matrix {
  2 0 asub 3 1 asub 4 0 asub 5 1 asub
  dup 0 get exch 1 get 7 -1 roll astore } bdef
/compute_transform {
  dmat dtri tri_to_matrix tmat1 invertmatrix 
  smat stri tri_to_matrix tmat2 concatmatrix } bdef
/ds {stri astore pop} bdef
/dt {dtri astore pop} bdef
/db {2 copy /cols xdef /rows xdef mul dup 3 mul string
  currentfile 
  3 index 0 eq {/ASCIIHexDecode filter}
  {/ASCII85Decode filter 3 index 2 eq {/RunLengthDecode filter} if }
  ifelse exch readstring pop
  dup 0 3 index getinterval /rbmap xdef
  dup 2 index dup getinterval /gbmap xdef
  1 index dup 2 mul exch getinterval /bbmap xdef pop pop}bdef
/it {gs np dtri aload pop moveto lineto lineto cp c
  cols rows 8 compute_transform 
  rbmap gbmap bbmap true 3 colorimage gr}bdef
/il {newpath moveto lineto stroke}bdef
currentdict end def
%%EndProlog

%%BeginSetup
MathWorks begin

0 cap

end
%%EndSetup

%%Page: 1 1
%%BeginPageSetup
%%PageBoundingBox:   100   241   509   549
MathWorks begin
bpage
%%EndPageSetup

%%BeginObject: obj1
bplot

/dpi2point 12 def
portraitMode 1200 6588 csm

    0     0  4915  3687 rc
85 dict begin %Colortable dictionary
/c0 { 0.000000 0.000000 0.000000 sr} bdef
/c1 { 1.000000 1.000000 1.000000 sr} bdef
/c2 { 0.900000 0.000000 0.000000 sr} bdef
/c3 { 0.000000 0.820000 0.000000 sr} bdef
/c4 { 0.000000 0.000000 0.800000 sr} bdef
/c5 { 0.910000 0.820000 0.320000 sr} bdef
/c6 { 1.000000 0.260000 0.820000 sr} bdef
/c7 { 0.000000 0.820000 0.820000 sr} bdef
c0
1 j
1 sg
   0    0 4916 3688 rf
6 w
0 3005 3809 0 0 -3005 639 3281 4 MP
PP
-3809 0 0 3005 3809 0 0 -3005 639 3281 5 MP stroke
4 w
DO
0 sg
 639 3281 mt  639  277 L
 639  277 mt  639  277 L
1908 3281 mt 1908  277 L
1908  277 mt 1908  277 L
3178 3281 mt 3178  277 L
3178  277 mt 3178  277 L
4448 3281 mt 4448  277 L
4448  277 mt 4448  277 L
 639 3281 mt 4448 3281 L
4448 3281 mt 4448 3281 L
 639 2980 mt 4448 2980 L
4448 2980 mt 4448 2980 L
 639 2680 mt 4448 2680 L
4448 2680 mt 4448 2680 L
 639 2379 mt 4448 2379 L
4448 2379 mt 4448 2379 L
 639 2079 mt 4448 2079 L
4448 2079 mt 4448 2079 L
 639 1779 mt 4448 1779 L
4448 1779 mt 4448 1779 L
 639 1478 mt 4448 1478 L
4448 1478 mt 4448 1478 L
 639 1178 mt 4448 1178 L
4448 1178 mt 4448 1178 L
 639  877 mt 4448  877 L
4448  877 mt 4448  877 L
 639  577 mt 4448  577 L
4448  577 mt 4448  577 L
 639  277 mt 4448  277 L
4448  277 mt 4448  277 L
SO
6 w
 639 3281 mt 4448 3281 L
 639  276 mt 4448  276 L
 639 3281 mt  639  276 L
4448 3281 mt 4448  276 L
 639 3281 mt 4448 3281 L
 639 3281 mt  639  276 L
 639 3281 mt  639 3242 L
 639  277 mt  639  315 L
%%IncludeResource: font Helvetica
/Helvetica /ISOLatin1Encoding 120 FMSR

 606 3426 mt 
(0) s
1908 3281 mt 1908 3242 L
1908  277 mt 1908  315 L
1842 3426 mt 
(50) s
3178 3281 mt 3178 3242 L
3178  277 mt 3178  315 L
3078 3426 mt 
(100) s
4448 3281 mt 4448 3242 L
4448  277 mt 4448  315 L
4348 3426 mt 
(150) s
 639 3281 mt  677 3281 L
4448 3281 mt 4409 3281 L
 401 3325 mt 
(-10) s
 639 2980 mt  677 2980 L
4448 2980 mt 4409 2980 L
 468 3024 mt 
(-8) s
 639 2680 mt  677 2680 L
4448 2680 mt 4409 2680 L
 468 2724 mt 
(-6) s
 639 2379 mt  677 2379 L
4448 2379 mt 4409 2379 L
 468 2423 mt 
(-4) s
 639 2079 mt  677 2079 L
4448 2079 mt 4409 2079 L
 468 2123 mt 
(-2) s
 639 1779 mt  677 1779 L
4448 1779 mt 4409 1779 L
 538 1823 mt 
(0) s
 639 1478 mt  677 1478 L
4448 1478 mt 4409 1478 L
 538 1522 mt 
(2) s
 639 1178 mt  677 1178 L
4448 1178 mt 4409 1178 L
 538 1222 mt 
(4) s
 639  877 mt  677  877 L
4448  877 mt 4409  877 L
 538  921 mt 
(6) s
 639  577 mt  677  577 L
4448  577 mt 4409  577 L
 538  621 mt 
(8) s
 639  277 mt  677  277 L
4448  277 mt 4409  277 L
 471  321 mt 
(10) s
 639 3281 mt 4448 3281 L
 639  276 mt 4448  276 L
 639 3281 mt  639  276 L
4448 3281 mt 4448  276 L
gs 639 277 3810 3005 rc
/c8 { 0.000000 0.000000 1.000000 sr} bdef
c8
0 1659 1 -5 0 -4 1 0 0 -10 1 -4 0 -10 1 -9 
0 -10 1 -9 0 -14 1 -5 0 -9 1 -10 0 -14 1 -24 
0 -18 1 0 0 -15 1 -9 0 -19 1 -9 0 -19 1 0 
0 -19 1 -10 0 -14 1 -9 0 -14 1 4 0 -9 1 0 
0 5 1 9 0 28 1 -23 0 123 1 0 1 0 1 0 
1 0 1 0 1 0 1 0 1 0 1 0 1 0 1 0 
1 0 1 0 1 0 1 0 1 0 1 0 1 0 1 0 
1 0 1 0 1 0 1 0 1 0 1 0 1 0 1 0 
1 0 1 0 1 0 1 0 1 0 1 0 1 0 1 0 
1 0 1 0 1 0 1 0 1 0 1 0 1 0 1 0 
1 0 1 0 1 0 1 0 1 0 1 0 1 0 1 0 
1 0 1 0 1 0 1 0 1 0 1 0 1 0 1 0 
1 0 1 0 1 0 1 0 1 0 1 0 1 0 1 0 
1 0 1 0 1 0 1 0 1 0 1 0 1 0 1 0 
1 0 1 0 1 0 1 0 1 0 1 0 1 0 1 0 
1 0 1 0 1 0 1 0 1 0 1 0 1 0 1 0 
1 0 1 0 1 0 1 0 1 0 1 0 1 0 1 0 
1 0 1 0 1 0 1 0 1 0 1 0 1 0 1 0 
1 0 1 0 1 0 1 0 1 0 1 0 1 0 1 0 
1 0 1 0 1 0 1 0 1 0 1 0 1 0 1 0 
1 0 1 0 1 0 1 0 1 0 1 0 1 0 1 0 
1 0 1 0 1 0 1 0 1 0 1 0 1 0 1 0 
1 0 1 0 1 0 1 0 1 0 1 0 1 0 1 0 
1 0 1 0 1 0 1 0 1 0 1 0 1 0 1 0 
1 0 1 0 1 0 1 0 1 0 1 0 1 0 1 0 
1 0 1 0 1 0 1 0 1 0 1 0 1 0 1 0 
1 0 1 0 1 0 1 0 1 0 1 0 1 0 1 0 
1 0 1 0 1 0 1 0 1 0 1 0 1 0 1 0 
1 0 1 0 1 0 1 0 1 0 1 0 1 0 1 0 
1 0 1 0 1 0 1 0 1 0 1 0 1 0 1 0 
1 0 1 0 1 0 1 0 1 0 1 0 1 0 1 0 
1 0 1 0 639 1778 251 MP stroke
0 -1667 0 5 1 5 0 -5 1 5 0 5 1 0 0 9 
1 0 0 9 1 5 0 10 1 9 0 9 1 10 0 14 
1 5 0 14 1 9 0 33 1 5 0 10 1 4 0 10 
1 4 0 15 1 9 0 14 1 10 0 18 1 0 0 19 
1 5 0 9 1 10 0 9 1 0 0 10 1 0 0 9 
1 5 0 -5 0 5 1 -5 0 5 0 -1664 871 3282 47 MP stroke
0 1650 1 -5 0 -5 1 0 0 -4 1 -5 0 -5 1 -9 
0 -10 1 0 0 -14 1 -5 0 -14 1 0 0 -19 1 -4 
0 -33 1 -5 0 -9 1 0 0 -15 1 -9 0 -14 1 -10 
0 -19 1 0 0 -18 1 -5 0 -14 1 -5 0 -9 1 -5 
0 -10 1 -4 0 -5 1 -5 0 -4 1 -5 0 -5 0 1662 
893 277 41 MP stroke
0 -1638 0 4 1 -4 0 4 1 5 0 5 1 0 0 9 
1 0 0 10 1 4 0 10 1 0 0 19 1 0 0 14 
1 5 0 9 1 19 0 19 1 5 0 4 1 10 0 14 
1 5 0 18 1 0 0 19 1 5 0 14 1 5 0 9 
1 5 0 9 1 5 0 10 1 -5 0 9 1 5 1 0 
0 -1645 913 3282 42 MP stroke
0 1636 1 -5 0 5 0 -5 1 0 0 -10 1 5 0 -9 
1 -5 0 -9 1 0 0 -10 1 -9 0 -10 1 -4 0 -15 
1 -4 0 -10 1 -19 0 -14 1 0 0 -9 1 -5 0 -14 
1 0 0 -19 1 -5 0 -14 1 -5 0 -14 1 0 0 -19 
1 0 0 -9 1 0 0 -14 1 0 0 -5 1 -5 1 -4 
0 0 0 1638 934 277 43 MP stroke
0 -1615 1 0 1 5 0 5 0 -5 1 9 0 -4 0 4 
1 10 0 -5 0 10 1 0 0 14 1 0 0 4 1 10 
0 9 1 5 0 9 0 -4 1 23 0 15 0 -5 1 5 
0 4 1 10 0 -5 0 14 1 5 0 14 1 0 0 14 
1 5 0 14 1 0 0 9 1 10 0 5 0 -10 0 5 
1 9 0 5 1 5 0 -5 0 9 1 -4 0 4 1 5 
0 -1626 0 1621 1 5 0 -5 1 0 0 -4 0 4 1 -4 
0 -5 1 0 0 -9 1 0 0 -10 1 -5 0 -9 1 0 
0 -19 1 0 0 -9 1 -10 0 5 0 -33 1 -5 0 -4 
0 4 1 -9 0 -10 1 -4 0 -10 1 -9 0 -10 1 -4 
0 -15 1 0 0 -14 1 -4 0 -15 1 5 0 -9 1 -5 
0 -5 1 -4 0 -5 1 5 0 -10 1 5 0 1624 0 -1629 
1 5 0 -5 0 5 1 0 0 5 1 0 0 4 1 5 
0 5 1 4 0 10 1 5 0 14 1 0 0 14 1 0 
0 19 1 0 0 33 0 -5 1 10 0 -5 0 9 1 0 
0 14 1 10 0 9 1 10 0 14 1 0 0 9 1 5 
0 9 1 5 0 14 1 0 0 5 0 -5 1 10 0 9 
1 0 0 5 1 0 0 5 0 -1636 955 3282 142 MP stroke
0 1603 1 9 1 -5 0 5 0 -5 1 -4 0 -5 1 0 
0 -10 1 0 0 -9 1 -5 0 -9 1 -5 0 -14 1 5 
0 -14 1 -15 0 -14 1 -4 0 -5 1 -5 0 -9 1 0 
0 -15 1 -4 0 -14 1 0 0 -15 1 0 0 -14 1 0 
0 -9 1 -5 0 -5 1 -4 0 -5 1 0 0 -5 1 0 
0 1615 1017 277 42 MP stroke
0 -1582 0 10 1 4 0 10 1 5 0 9 1 5 0 23 
1 10 0 5 1 0 0 14 1 0 0 23 1 5 0 14 
1 -5 0 15 1 0 0 14 0 -1584 1038 3282 22 MP stroke
1 0 1 0 0 -5 0 5 1 -5 1 -4 0 4 0 -4 
1 0 0 -5 1 5 0 -5 0 9 1 -4 0 4 0 -4 
1 4 0 0 0 -4 1 9 0 5 1 5 0 -5 0 5 
1 -5 0 5 1 0 1 0 0 4 0 0 1 -4 0 4 
1 5 0 -5 0 0 1 5 0 5 0 -5 1 0 0 5 
1 -5 0 9 0 -4 1 0 0 4 1 0 0 5 1 -5 
0 5 1 0 0 5 0 0 1 0 1 0 0 5 0 -5 
1 5 1 4 0 -4 1 4 0 -4 0 4 1 0 0 5 
1 -5 0 5 1 -5 0 5 0 -5 1 0 0 5 0 -5 
1 0 1 0 0 -4 0 9 1 -5 0 -4 0 4 1 0 
0 -4 0 4 1 -4 0 4 0 -9 0 0 1 5 0 0 
0 -5 1 -5 0 5 0 -5 1 5 0 -10 0 5 1 -5 
0 5 0 -9 1 4 0 -4 1 4 0 5 0 -9 1 -5 
0 -9 1 0 1 0 0 -5 1 0 0 -10 1 5 0 -9 
0 4 1 -4 0 -5 0 0 1 0 0 -5 1 0 0 -5 
0 5 1 -9 0 4 0 -4 1 0 0 -5 0 5 1 -5 
0 -5 1 5 0 -9 1 0 0 -5 1 0 0 -5 0 5 
1 -5 1 5 0 -10 0 5 1 0 1 0 0 5 1 5 
0 -5 0 9 1 0 0 38 1 0 0 14 1 -4 0 28 
1 0 0 14 1 0 0 9 0 -4 1 0 0 -38 1 -5 
0 -9 1 0 0 -10 1 0 1 0 0 -4 1 0 0 14 
1 0 0 5 1 0 0 -5 1 5 1 0 0 4 0 -4 
1 4 0 -4 0 4 1 0 1 0 1 5 0 -5 1 5 
1 0 1 5 0 0 0 -5 1 5 1 0 1 4 0 -4 
0 0 1 4 1 0 0 5 1 -5 0 5 1 -5 0 5 
1 -5 0 5 0 -5 1 5 0 -5 1 0 0 5 0 -5 
1 5 0 -14 1 -5 0 -4 0 4 1 -4 0 4 0 -4 
1 0 0 -5 0 5 1 -5 1 -5 0 5 0 -5 1 0 
0 -5 0 5 1 -5 0 5 0 0 1 -5 0 5 0 -5 
1 5 0 -5 0 5 1 0 0 5 1 0 0 5 0 -5 
1 5 0 -5 1 5 1 -5 0 5 1 0 0 4 0 -4 
1 0 0 4 0 -4 1 4 0 -4 0 4 1 0 0 5 
0 -5 1 0 0 5 1 -5 0 5 1 5 0 -5 0 0 
1 5 0 4 1 -4 0 9 0 -14 1 -5 0 -4 1 4 
0 -4 1 0 1 0 0 -5 1 5 0 -5 1 0 0 -5 
1 0 1 0 0 -5 1 0 0 -4 0 9 1 -9 0 4 
0 0 1 -4 0 4 1 -4 0 -5 0 5 1 0 0 -5 
0 5 1 -5 0 5 4317 1797 300 MP stroke
1 -5 0 5 0 -5 1 0 0 5 0 -5 1 0 0 5 
1 -5 1 -5 0 5 1 0 1 0 0 -5 0 14 1 10 
0 5 1 -5 0 5 1 4 0 -4 0 4 1 5 0 5 
0 -5 1 5 0 9 0 -9 1 -5 0 -5 1 -9 0 -14 
1 0 0 9 1 0 0 10 1 -5 0 5 0 -5 1 5 
1 0 1 4 0 -4 0 4 1 -4 0 4 0 0 1 0 
1 0 0 5 0 -5 1 5 0 -5 0 10 1 -5 1 5 
0 -5 0 5 1 -5 0 5 1 4 0 0 0 -4 1 4 
0 -4 0 4 1 5 0 -5 0 5 1 -5 0 5 0 -5 
1 5 1 0 1 -5 0 10 0 -5 1 0 0 5 0 -5 
1 5 0 -5 0 5 1 -5 1 0 1 0 0 -5 0 5 
1 0 0 -14 1 -5 0 -4 1 4 0 -4 1 -5 0 5 
0 -5 1 -5 1 0 0 -5 1 0 0 5 1 5 1 5 
0 -5 0 5 1 0 1 0 0 4 1 0 1 5 0 -5 
0 5 1 0 0 5 1 0 0 9 0 -9 1 -10 0 -4 
1 4 0 -4 1 0 1 0 0 -5 1 5 0 -5 1 -5 
0 5 0 -5 1 0 0 -5 1 0 0 5 0 -9 1 4 
0 -4 1 0 1 -5 1 0 0 -5 1 5 0 -5 1 0 
0 -5 0 5 1 0 0 -5 0 5 1 0 0 -5 0 5 
1 0 0 -5 0 5 1 -5 0 5 1 0 1 0 0 14 
1 10 0 5 1 -5 0 9 1 0 0 14 1 0 0 19 
1 5 0 -33 1 -5 0 -14 1 5 0 -5 1 0 1 -5 
1 0 0 -4 1 0 0 14 1 0 0 0 0 5 1 0 
0 -5 0 5 1 0 1 0 0 4 0 -4 1 0 0 4 
0 0 1 -4 0 4 1 0 0 5 0 -5 1 0 0 5 
1 -5 0 10 0 -5 1 0 0 5 1 -5 0 5 1 0 
0 4 0 -4 1 0 0 4 1 0 0 5 1 -5 0 5 
1 -5 0 5 1 0 0 5 0 -5 1 0 0 5 0 -5 
1 5 0 -5 0 5 1 0 0 -5 0 5 1 -5 0 5 
0 0 1 -5 0 5 0 -5 1 5 0 -5 0 5 1 -5 
1 0 0 -19 1 0 0 -4 0 4 1 -4 1 -5 1 0 
0 -5 1 -5 0 5 0 -5 1 5 0 5 1 5 0 -5 
0 5 1 0 1 0 0 4 0 -4 1 4 0 5 0 -5 
1 5 0 5 1 0 0 4 0 -9 1 -5 0 -4 1 4 
0 -4 1 0 1 0 0 -5 0 5 1 -5 1 0 0 -5 
0 5 1 -5 1 -5 0 5 0 -5 1 0 0 0 0 -4 
1 0 0 -5 1 5 0 -10 1 5 0 -5 1 5 0 -10 
1 5 0 -5 1 5 4180 1807 300 MP stroke
0 -5 1 5 0 -5 1 5 0 -5 0 5 1 0 0 -5 
0 10 1 -10 0 10 1 -5 0 -5 0 24 1 5 0 5 
0 -5 1 5 0 4 1 0 0 10 1 9 0 10 1 9 
0 9 1 -28 0 -19 1 -4 1 0 1 0 0 -5 0 5 
1 0 0 -5 0 0 1 5 0 -5 1 0 0 5 0 -5 
1 0 1 -5 0 5 0 -5 1 5 0 0 0 -5 1 0 
1 0 0 -5 0 5 1 -5 1 0 0 -4 1 0 0 14 
1 -5 0 10 1 -5 0 5 1 0 0 -5 0 5 1 0 
0 4 0 -4 1 0 0 4 0 -4 1 4 0 -4 0 4 
1 0 1 0 0 5 0 -5 1 5 0 -5 0 5 1 0 
0 5 0 -5 1 5 0 -5 0 5 1 -5 0 5 1 0 
0 4 0 -4 1 4 1 0 1 0 0 5 0 -5 1 5 
0 0 0 -5 1 5 0 -5 0 5 1 0 0 -5 0 5 
1 0 1 -5 0 5 1 0 0 -5 1 5 0 -14 1 0 
0 -9 0 4 1 -4 0 4 0 -4 1 -5 0 5 0 -5 
1 0 0 -5 1 0 1 -5 0 5 1 -5 0 5 0 -5 
1 0 0 5 0 0 1 -5 0 0 0 5 1 0 0 5 
1 5 0 -5 1 5 1 -5 0 5 1 0 0 4 0 -4 
1 0 0 4 1 0 0 -4 0 9 1 -5 0 5 0 -5 
1 5 1 5 0 -5 0 5 1 0 0 4 0 -4 1 -5 
0 -9 0 4 1 -4 0 4 0 -4 1 0 1 0 0 -5 
0 5 1 -5 0 5 0 -5 1 -5 0 5 0 -5 1 0 
0 5 0 -5 1 0 0 -5 0 0 1 5 0 -5 1 -4 
0 4 1 -4 0 -5 1 5 0 -5 0 5 1 -5 0 5 
0 -5 1 0 1 0 1 0 0 -5 0 5 1 0 1 0 
0 -5 0 5 1 0 0 5 0 -5 1 0 0 5 0 -5 
1 0 0 19 1 0 0 5 1 -5 0 9 1 -4 0 4 
1 5 0 5 1 -5 0 5 1 4 0 -4 1 4 0 -4 
1 0 0 -5 0 5 1 -5 0 5 0 -5 1 -5 0 5 
1 0 0 -5 0 5 1 -5 0 -4 1 4 0 -4 0 4 
1 -4 0 4 1 -4 1 0 1 0 1 0 1 -5 0 5 
1 -5 0 5 0 -5 1 0 0 5 0 -5 1 -5 0 5 
1 -5 0 5 0 -5 1 0 1 0 0 -5 0 5 1 -5 
1 0 0 0 0 -4 1 0 0 -5 1 5 0 -5 0 5 
1 0 1 4 0 -4 0 4 1 0 0 -4 0 4 1 5 
0 10 1 -5 0 5 0 -5 1 5 1 0 1 4 0 -4 
0 4 1 0 0 -4 0 4 1 0 0 0 0 5 1 0 
1 5 0 -5 0 5 4050 1764 300 MP stroke
1 0 1 4 0 -4 0 4 1 0 0 5 0 -5 1 5 
1 0 0 5 0 -5 1 5 1 0 0 5 1 -5 0 5 
0 0 1 0 1 0 0 4 1 -4 0 4 0 -4 1 4 
1 0 1 0 1 0 0 -4 0 4 1 -4 0 4 0 -4 
1 0 0 4 0 -4 1 -5 0 5 0 -5 1 5 0 -5 
1 0 0 -5 1 0 1 -5 0 5 0 -5 1 0 0 0 
0 -4 1 4 0 -4 0 4 1 0 0 -14 1 0 0 -4 
0 4 1 -4 0 -5 0 5 1 -5 1 -5 0 -5 1 5 
0 -9 0 4 1 -4 0 -5 1 0 0 -5 1 0 0 -9 
0 4 1 0 0 -9 0 5 1 -5 0 0 0 -5 0 0 
1 0 0 5 0 -9 1 0 0 4 0 -4 1 -5 0 5 
1 -5 0 -5 0 5 1 0 0 -5 1 0 1 0 0 -5 
0 5 1 5 0 -5 0 5 1 5 0 -5 0 9 1 5 
0 24 1 9 0 10 1 0 0 14 1 0 0 14 1 5 
1 4 0 0 0 -23 1 -10 0 -4 0 4 1 -4 0 -5 
0 5 1 0 0 -5 0 5 1 0 0 -5 1 5 1 0 
0 4 1 5 0 5 1 -5 0 5 1 -5 0 -5 0 5 
1 -5 0 5 1 0 1 0 0 5 0 0 1 -5 0 0 
0 5 1 0 0 4 1 -4 0 4 0 -4 1 0 0 4 
1 -4 0 9 0 -5 1 0 0 5 1 0 0 -5 0 5 
1 0 0 -5 1 5 0 -5 1 0 0 5 0 -5 1 0 
0 5 0 -5 1 5 0 -9 1 -10 0 -4 1 4 0 -4 
1 0 0 -5 1 0 1 -5 1 0 0 -5 0 5 1 0 
0 -5 0 0 1 0 0 10 1 0 0 5 1 -5 0 5 
0 -5 1 5 1 0 1 4 0 -4 1 4 1 0 0 5 
0 -5 1 5 1 0 0 5 1 0 0 4 0 -4 1 -5 
0 -9 1 4 0 -4 1 0 1 0 0 -5 0 0 1 5 
0 -5 1 0 0 -5 1 5 0 -5 1 -5 0 0 0 5 
1 -9 0 4 1 0 0 -4 1 0 0 4 0 -9 1 5 
0 -5 1 5 0 -5 0 5 1 -5 0 5 0 -5 1 0 
0 5 0 -5 1 0 1 0 1 0 0 -5 1 5 0 -5 
0 5 1 0 0 -5 1 10 0 14 1 5 0 -5 0 5 
1 0 1 4 1 5 0 5 0 -5 1 5 0 4 0 -4 
1 4 0 -4 1 0 0 0 0 -5 1 5 0 -5 1 0 
0 5 1 -5 0 -5 1 0 0 -4 0 4 1 -4 0 4 
0 -4 1 0 1 0 0 -5 1 5 0 -10 0 5 1 -5 
0 5 0 -5 1 5 0 -5 1 -5 0 5 0 -5 1 5 
0 -5 1 -4 0 14 3917 1783 300 MP stroke
1 0 0 5 1 0 0 -5 1 5 1 0 0 4 1 -4 
0 4 0 -4 1 4 1 0 1 0 0 5 1 -5 0 5 
0 0 1 0 0 5 0 -10 0 5 1 0 0 5 1 -5 
0 5 1 0 0 4 0 -9 0 5 1 0 0 4 1 -4 
0 4 1 -4 0 4 1 0 1 5 0 -5 0 5 1 -5 
0 5 0 -5 1 5 0 -5 0 0 1 5 0 -5 0 5 
1 -5 0 5 1 -5 0 -14 1 0 0 -4 0 4 1 -4 
1 0 0 -5 1 0 0 -5 1 5 0 -5 1 0 0 -5 
0 5 1 0 0 0 0 -5 1 5 0 -5 0 5 1 0 
0 -5 0 5 1 0 0 5 1 0 0 5 1 -5 0 5 
0 -5 1 5 1 -5 0 5 1 0 1 0 0 4 0 -4 
1 4 0 -4 1 4 1 0 0 5 1 -5 0 5 0 -5 
1 5 0 5 0 -5 1 0 0 5 0 -5 1 5 0 4 
0 0 1 0 0 -18 1 4 0 -4 1 0 1 0 0 -5 
1 5 0 -5 1 0 1 0 0 -5 0 5 1 -5 0 -5 
0 5 1 0 0 -5 1 0 0 5 0 -5 1 0 0 -4 
0 4 1 -4 0 4 1 -4 0 4 1 -4 0 -5 0 9 
1 -4 0 -5 0 5 1 0 0 -5 0 5 1 -5 0 5 
0 0 1 -5 0 5 0 -10 1 5 0 5 0 -5 1 0 
1 0 0 5 0 -5 1 0 0 19 0 -5 1 10 0 -5 
0 5 1 -5 0 9 0 -4 1 0 0 9 0 -5 1 5 
0 -5 0 10 1 -5 0 5 1 0 0 -5 0 9 1 -4 
0 -5 0 5 1 0 0 -5 0 5 1 -5 0 5 0 -10 
1 5 1 0 0 -5 0 5 1 -5 1 -4 0 4 0 -4 
1 0 0 4 0 -4 1 0 0 4 1 -4 1 0 1 0 
1 -5 0 5 0 -5 1 5 0 -5 1 5 0 -5 1 0 
1 0 0 -5 1 5 0 -5 1 0 1 -5 0 5 0 -5 
1 0 0 -4 0 9 1 0 0 10 0 -5 1 5 0 -5 
0 5 1 0 1 0 1 4 0 -4 0 4 1 0 0 -4 
0 4 1 0 1 0 0 5 0 -5 1 0 0 5 0 0 
1 0 0 -5 0 5 1 0 0 5 0 -5 1 0 0 0 
0 5 1 0 0 -5 0 5 1 0 0 4 1 -4 0 4 
1 -4 0 4 1 -4 0 4 1 5 0 -5 0 5 1 -5 
0 5 0 -5 1 0 0 5 0 -5 1 0 0 5 0 -5 
1 0 0 5 0 -5 1 5 0 -19 1 5 0 -9 1 4 
0 -4 1 0 0 -5 0 5 1 -5 1 -5 0 5 0 -5 
1 0 0 -5 0 5 1 0 0 -5 0 0 1 5 0 -5 
0 5 1 0 0 -5 3790 1793 300 MP stroke
0 5 1 0 0 5 1 0 0 5 0 -5 1 5 0 -5 
0 5 1 0 1 -5 0 5 1 0 1 4 0 -4 0 4 
1 -4 0 4 0 0 1 0 1 0 0 5 0 -5 1 5 
1 0 0 5 1 0 0 -5 0 9 1 -4 0 4 0 -9 
1 -5 0 -4 1 4 0 -4 1 0 1 0 0 -5 1 0 
1 0 0 -5 0 5 1 -5 1 0 0 -5 0 5 1 -5 
0 5 0 -5 1 0 0 -4 1 4 0 -4 0 4 1 -4 
0 4 0 -4 1 0 0 4 0 -4 1 0 1 0 0 -5 
0 5 1 0 0 -5 0 5 1 -5 0 5 0 -5 1 0 
1 0 0 5 1 -5 0 5 1 -5 0 14 1 5 0 5 
0 -5 1 5 1 0 0 4 1 0 0 5 1 0 0 5 
1 0 0 -5 0 5 1 0 1 -5 0 5 1 -5 0 5 
0 -5 1 0 0 -5 0 5 1 0 1 -5 0 5 0 -5 
1 0 0 -4 1 0 0 4 0 -4 1 0 0 4 0 -4 
1 0 1 4 0 -9 1 5 1 0 0 -5 1 5 0 -5 
0 5 1 -5 0 5 0 -5 1 0 1 0 0 -5 0 5 
1 -5 0 5 0 -5 1 0 1 0 0 0 0 -5 1 5 
0 -9 1 9 0 5 1 5 0 -5 0 5 1 0 1 0 
1 0 0 4 0 0 1 -4 0 4 1 0 0 -4 0 9 
1 -5 1 0 0 0 0 5 1 0 0 -5 0 5 1 0 
1 5 0 0 0 -5 1 5 0 -5 0 5 1 0 0 4 
0 -4 1 0 0 4 1 -4 0 4 1 -4 0 9 1 -5 
0 5 0 -5 1 0 0 5 0 -5 1 5 0 -5 1 5 
0 0 0 -5 1 5 0 -5 1 5 0 -14 1 -5 0 -4 
1 0 0 4 0 -4 1 0 0 -5 1 0 0 5 0 -10 
1 5 0 -5 0 5 1 -5 0 -5 0 5 1 0 0 0 
0 -5 1 5 0 -5 1 5 1 0 0 5 0 -10 0 5 
1 5 0 5 0 -5 1 5 0 -5 0 5 1 0 0 -5 
0 5 1 0 1 0 1 0 0 4 1 -4 0 4 1 -4 
0 4 1 0 0 5 1 -5 0 5 0 -5 1 5 0 5 
0 -5 1 0 0 5 0 -5 1 5 0 4 0 -4 1 0 
0 -10 1 -4 0 4 0 -4 1 0 1 0 0 -5 1 5 
0 -5 1 0 0 -5 1 0 0 5 0 -5 1 0 0 -5 
0 5 1 -5 0 5 0 -5 1 0 1 0 0 -4 1 4 
0 -4 1 4 0 -4 1 4 0 -4 1 0 0 -5 0 5 
1 0 1 -5 0 5 1 -5 1 0 0 5 0 -5 1 0 
1 5 0 -5 1 14 0 5 1 5 0 -5 0 5 1 0 
0 4 1 -4 0 9 3657 1769 300 MP stroke
0 -5 1 5 0 5 1 -5 0 5 0 0 1 0 1 -5 
0 5 1 -5 0 5 0 -5 1 0 0 5 0 -5 1 0 
0 -5 0 5 1 0 0 -5 0 5 1 0 0 -5 1 0 
0 0 0 -4 1 4 0 -4 0 4 1 -4 1 4 0 -4 
1 0 1 0 1 0 1 0 0 -5 0 5 1 0 0 -5 
1 5 0 -5 0 5 1 -5 1 0 1 -5 0 5 0 -5 
1 0 0 5 0 -5 1 0 0 -5 1 5 0 -5 1 0 
0 -4 1 9 0 5 1 5 0 -5 0 5 1 0 1 0 
1 4 0 -4 1 4 0 -4 0 4 1 0 1 0 1 5 
0 -5 1 5 0 -5 0 5 1 0 0 5 1 -5 0 5 
1 -5 0 5 1 0 0 4 1 -4 0 4 1 -4 0 4 
0 -4 1 4 0 5 1 -5 0 5 0 -5 1 5 0 -5 
0 5 1 -5 0 5 0 -5 1 5 0 -5 1 5 0 -5 
0 5 1 0 0 -14 1 -5 0 -4 0 4 1 -4 1 0 
0 -5 1 5 0 -10 0 5 1 0 0 -5 1 0 0 -5 
1 5 0 -5 1 5 0 -5 0 5 1 0 0 -5 0 5 
1 0 0 5 1 0 0 5 1 -5 0 5 1 0 0 -5 
1 5 1 0 1 0 0 4 0 -4 1 0 0 4 1 -4 
0 4 1 0 1 5 0 -5 1 5 1 5 0 -5 1 5 
0 4 1 0 0 -14 1 -4 0 4 1 -4 1 0 0 -5 
1 5 0 -5 1 0 1 -5 0 5 0 -5 1 0 1 0 
0 -5 0 5 1 -5 0 5 1 -5 0 -4 0 4 1 0 
0 -4 0 4 1 -4 0 4 0 -4 1 0 0 4 0 -4 
1 0 1 -5 0 5 1 0 0 -5 1 5 0 -5 0 5 
1 -5 1 0 1 0 0 5 0 -5 1 0 0 19 1 0 
0 5 1 0 1 4 0 -4 0 4 1 5 0 -5 0 5 
1 0 0 5 0 -5 1 5 1 0 0 -5 0 5 1 0 
0 -5 1 5 0 -5 1 0 1 0 0 -5 0 5 1 -5 
1 -4 0 4 0 -4 1 4 0 -4 1 4 0 -4 1 0 
1 0 1 0 1 -5 0 5 0 -5 1 5 0 -5 1 0 
0 5 0 -5 1 0 0 -5 1 5 0 -5 1 5 0 -5 
1 0 0 -5 0 5 1 -5 0 5 0 -5 1 -4 0 9 
1 5 0 5 1 -5 0 5 1 0 1 0 0 4 0 -4 
1 4 0 -4 0 4 1 -4 0 4 1 0 0 5 0 -5 
1 0 0 5 0 -5 1 5 0 -5 1 5 0 5 1 -5 
0 5 0 -5 1 5 0 -5 0 5 1 0 0 4 0 -4 
1 0 0 4 1 -4 0 4 0 -4 1 4 1 0 0 5 
0 0 1 -5 0 0 3518 1760 300 MP stroke
0 5 1 0 0 -5 0 5 1 -5 0 0 0 5 1 0 
0 -5 0 5 1 -5 0 5 0 -9 1 -10 0 -4 1 4 
0 -4 1 0 1 -5 1 0 0 -5 0 0 1 0 0 -5 
1 5 0 -5 0 0 1 5 0 0 0 -5 1 5 0 -5 
0 5 1 0 1 5 0 5 0 -5 1 5 0 -5 0 5 
1 -5 0 5 1 0 1 0 1 0 0 4 0 -4 1 0 
0 4 0 -4 1 4 1 0 0 5 0 -5 1 5 0 -5 
0 5 1 0 0 5 1 -5 0 5 1 0 0 4 1 -9 
0 -9 1 4 0 -4 0 4 1 -4 1 0 0 -5 1 5 
0 -5 1 0 0 -5 0 5 1 -5 1 0 0 -5 1 5 
0 -5 1 0 1 0 0 -4 0 4 1 0 0 -4 1 4 
0 -4 0 4 1 -4 1 0 0 -5 0 9 1 -9 0 5 
0 0 1 0 0 -5 1 0 1 0 1 0 1 5 0 -5 
1 5 0 14 1 5 0 -5 0 5 1 0 0 4 1 0 
0 5 1 -5 0 10 1 -5 0 5 1 -5 0 5 1 0 
0 -5 0 5 1 0 0 -5 0 5 1 -5 0 -5 0 5 
1 0 1 0 0 -5 1 0 0 -4 0 4 1 -4 0 4 
0 -4 1 0 1 0 0 4 0 -4 1 -5 0 5 1 0 
0 -5 0 5 1 0 0 -5 0 5 1 -5 1 0 0 -5 
1 5 0 -5 0 5 1 -5 1 -5 0 5 0 -5 1 0 
0 -4 0 9 1 5 0 5 0 -5 1 5 0 -5 0 5 
1 0 1 0 0 4 1 -4 0 4 1 0 0 5 1 -5 
0 5 0 0 1 0 0 -5 0 5 1 0 0 5 1 -5 
0 5 0 -5 1 5 0 -5 0 5 1 0 1 0 0 4 
1 -4 0 4 1 -4 0 4 1 0 0 5 0 -5 1 0 
0 5 0 -5 1 5 0 -5 0 5 1 0 0 0 0 -5 
1 0 0 0 0 5 1 -5 0 5 0 -14 1 0 0 -9 
1 4 0 -4 1 0 0 -5 0 5 1 -5 0 -5 0 5 
1 -5 0 5 0 -5 1 -5 0 5 0 -5 1 5 0 -5 
1 5 1 -5 0 5 1 5 0 -5 0 10 1 -5 0 5 
1 0 0 -5 0 5 1 0 1 0 1 0 0 4 1 -4 
0 4 0 -4 1 4 1 0 0 5 1 -5 0 5 1 0 
1 5 0 -5 0 5 1 0 0 4 1 -4 0 4 1 5 
0 -5 0 5 1 -9 0 -14 1 4 0 -4 0 4 1 -4 
0 4 1 -4 1 -5 0 5 0 -5 1 5 0 -5 0 5 
1 -5 0 -5 0 5 1 0 0 -5 0 0 1 5 0 -5 
1 0 0 -5 0 0 1 5 0 -5 1 0 0 -4 1 0 
0 4 0 -9 1 5 3386 1797 300 MP stroke
0 -5 1 0 1 -5 0 5 0 -5 1 0 0 5 0 -5 
1 0 1 0 1 -5 0 5 0 -5 1 5 0 -5 1 5 
0 -5 0 5 1 0 0 -5 0 10 1 -5 0 5 1 0 
0 -5 1 14 0 10 1 5 0 -5 0 5 1 0 0 4 
1 0 0 5 1 0 0 5 1 0 0 4 1 -4 0 4 
0 -14 1 0 0 0 0 -4 1 0 0 4 0 -4 1 0 
0 -5 1 5 0 -5 1 5 0 -5 0 5 1 0 1 0 
0 4 0 0 1 -4 0 4 1 5 0 0 0 -5 1 5 
1 5 0 -5 0 5 1 0 0 -10 1 0 0 0 0 -4 
1 0 0 4 0 -4 1 0 0 -5 1 5 0 -10 1 5 
1 0 0 5 1 -5 0 5 1 0 0 -5 0 5 1 0 
1 0 1 4 0 -4 0 4 1 0 1 0 0 5 1 0 
0 5 0 -10 1 0 0 -4 1 0 0 4 0 -4 1 0 
1 0 1 -5 0 5 1 0 1 0 1 4 0 -4 0 4 
1 5 0 -5 1 5 1 0 1 0 0 5 0 -5 1 0 
0 0 0 5 1 0 1 4 0 -4 0 4 1 0 1 0 
0 5 0 -5 1 0 0 5 1 -5 0 5 0 0 1 0 
0 -5 1 5 1 0 0 -5 0 5 1 0 1 -5 0 5 
1 0 0 -5 0 5 1 -5 0 5 1 -9 0 -14 1 4 
0 -4 0 4 1 -4 0 -5 0 5 1 -5 0 -5 1 0 
0 -5 1 5 0 0 0 -5 1 0 0 5 0 -5 1 0 
0 5 1 0 0 10 1 -5 0 5 0 -5 1 5 1 0 
1 0 0 4 0 -4 1 0 0 4 0 -4 1 0 0 4 
0 -4 1 0 0 -5 1 5 0 -10 0 5 1 0 0 -5 
1 0 0 -5 1 5 0 -5 1 0 1 0 0 -4 0 4 
1 -4 0 4 0 -4 1 4 0 -4 1 0 1 0 1 0 
0 -5 0 5 1 0 0 -5 0 9 1 5 0 10 1 -5 
0 5 1 0 1 4 0 -4 0 4 1 0 0 0 0 5 
1 0 0 -5 0 5 1 0 1 -5 0 10 0 -5 1 5 
0 -14 1 4 0 -4 1 0 1 0 1 0 1 -5 0 9 
1 -4 0 4 1 5 0 5 1 0 0 4 1 5 0 -5 
0 5 1 0 0 5 1 0 0 0 0 -5 1 5 1 -5 
0 5 1 -5 1 0 0 5 0 -10 0 0 1 -9 0 -9 
1 4 0 -4 1 0 0 -5 1 0 0 -5 1 0 0 -5 
0 5 1 -5 0 5 0 -5 1 0 1 0 0 10 1 5 
0 -5 0 5 1 -5 0 5 1 0 1 0 0 4 0 -4 
1 0 0 4 0 -4 1 4 0 -4 1 0 0 -5 1 0 
1 0 0 -5 1 0 3246 1788 300 MP stroke
1 -5 0 5 0 -5 1 0 1 0 0 0 0 -4 1 4 
0 -4 1 0 1 0 0 -5 0 5 1 0 0 -5 0 5 
1 -5 0 5 1 -5 1 5 0 -5 0 0 1 0 0 14 
1 5 0 5 0 -5 1 5 1 0 0 4 1 0 0 10 
1 -5 0 5 1 0 0 4 0 -4 1 4 0 0 0 -4 
1 4 0 -4 1 0 0 4 0 -4 1 0 0 -5 0 5 
1 0 0 -5 1 5 0 -5 1 5 0 -5 1 5 0 -5 
1 5 0 0 0 -5 1 0 0 5 0 -5 1 5 1 9 
0 -19 1 0 0 -4 1 4 0 -4 1 0 0 -5 0 5 
1 0 0 -5 1 0 1 0 0 -5 0 5 1 -5 0 5 
0 -5 1 0 0 -5 1 5 0 -5 0 5 1 -5 0 5 
0 -5 1 0 0 5 0 -5 1 0 0 -4 1 4 0 -4 
1 4 0 -4 0 4 1 -4 0 4 0 -4 1 0 1 0 
0 -5 0 5 1 0 0 -5 0 5 1 0 0 -5 0 5 
1 -5 0 5 1 0 0 -5 0 9 1 10 1 5 0 -5 
0 5 1 0 0 4 0 -4 1 4 1 0 0 5 1 0 
1 -5 0 5 1 0 0 -5 1 5 0 5 0 -5 1 0 
0 -5 1 -4 0 4 0 -4 1 0 0 4 0 -4 1 0 
1 0 1 0 0 -5 0 5 1 -5 0 5 0 -5 1 0 
0 -5 1 5 0 -5 1 0 0 -5 1 5 0 -5 1 0 
0 10 1 5 0 -5 0 5 1 0 1 0 1 0 0 4 
1 0 1 0 0 5 0 -5 1 5 1 0 1 0 0 5 
0 -5 1 5 0 -5 0 5 1 0 1 4 0 0 0 -4 
1 4 1 -4 0 9 0 -5 1 0 0 5 0 -5 1 5 
0 -5 0 5 1 0 0 -5 1 5 0 5 0 -5 1 0 
0 -5 0 5 1 0 0 -5 1 5 0 -14 1 -5 0 -4 
0 4 1 -4 1 0 0 -5 1 0 0 -5 1 0 0 -5 
0 5 1 -5 1 0 0 5 0 -5 1 0 0 5 1 -5 
0 5 0 -5 1 5 0 5 1 -5 0 5 0 -5 1 5 
1 0 0 5 0 -5 1 5 1 -5 0 5 1 0 0 -5 
1 5 1 4 0 -4 1 0 0 4 0 -4 1 4 0 0 
0 -4 1 4 1 0 1 0 0 5 0 0 1 0 0 -5 
0 5 1 0 0 5 0 -5 1 0 0 5 1 0 0 4 
1 -9 0 -5 1 -4 0 4 0 -4 1 0 1 0 0 -5 
0 5 1 0 0 -5 0 5 1 -10 0 5 1 0 0 -5 
1 0 0 5 0 -5 1 0 0 -5 0 5 1 0 0 -5 
0 5 1 -5 0 5 1 -5 1 -4 0 4 1 -4 0 0 
0 4 1 -4 0 4 3112 1793 300 MP stroke
0 -4 1 0 0 4 0 -4 1 -5 0 5 1 -5 0 5 
0 -5 1 5 0 -5 1 0 0 5 1 -5 0 5 0 0 
1 -5 0 19 1 0 0 5 0 -5 1 5 1 0 0 4 
0 -4 1 4 0 5 0 -5 1 5 0 -5 0 5 1 0 
0 5 1 -5 1 0 1 0 0 -5 1 0 0 -4 0 4 
1 -4 0 4 0 -4 1 0 0 4 1 -4 1 0 0 -5 
0 5 1 0 0 -5 0 0 1 5 0 -5 1 0 0 -5 
0 5 1 -5 0 5 0 -5 1 0 0 -5 1 5 0 -9 
0 9 1 0 0 10 0 -5 1 5 0 -5 0 5 1 0 
1 0 0 4 0 -4 1 4 0 -4 0 4 1 0 0 5 
1 -5 0 5 1 0 0 -5 0 5 1 0 1 5 0 -5 
0 0 1 5 0 -5 0 5 1 0 0 4 1 -4 0 4 
1 0 0 -4 0 4 1 0 0 5 0 -5 1 0 0 5 
0 -5 1 5 1 0 0 -5 0 5 1 0 0 5 0 -5 
1 0 0 -5 0 5 1 0 0 -5 0 10 1 -10 0 -18 
1 4 0 -4 1 0 1 -5 1 0 0 -5 1 0 0 -5 
1 5 0 -5 1 0 0 5 0 -5 1 0 0 5 0 -5 
1 5 0 -5 0 5 1 0 1 5 0 -5 0 5 1 -5 
0 10 1 -5 0 5 1 0 0 -5 0 5 1 0 0 -5 
0 5 1 0 1 0 1 0 0 4 0 -4 1 0 0 4 
0 -4 1 4 0 -4 1 4 1 0 1 5 0 -5 1 5 
1 0 0 5 1 -5 0 5 1 0 0 4 1 -9 0 -9 
1 4 0 -4 1 4 0 -4 1 -5 0 5 0 -5 1 0 
0 5 0 -10 1 5 0 -5 1 5 0 -5 0 5 1 -5 
0 -5 0 5 1 0 0 -5 1 5 0 -5 1 0 1 0 
1 -4 0 4 1 -4 0 4 0 -4 1 4 0 -4 1 0 
0 4 0 -9 1 5 0 -5 0 5 1 0 0 -5 0 5 
1 -5 1 5 0 -5 0 5 1 0 0 -5 0 5 1 4 
0 10 1 5 0 -5 0 5 1 0 0 4 1 -4 0 9 
1 -5 0 5 1 0 0 5 0 -5 1 0 0 5 0 -5 
1 0 0 5 0 -5 1 0 1 0 1 -5 0 -4 1 4 
0 -4 1 4 0 -4 1 0 0 4 0 -4 1 0 0 -5 
0 5 1 0 0 -5 1 5 0 -5 0 5 1 -5 0 -5 
1 5 0 -5 0 5 1 -5 1 0 0 -5 1 0 1 0 
0 15 1 -5 0 5 1 0 1 0 0 4 1 -4 0 4 
1 -4 0 4 1 0 0 5 0 -5 1 5 0 -5 0 5 
1 0 0 -5 0 10 1 -5 0 5 1 -5 0 0 0 5 
1 0 1 0 0 4 2980 1760 300 MP stroke
1 -4 0 4 0 -4 1 4 1 0 0 5 0 -5 1 0 
0 5 1 -5 0 5 1 0 1 0 0 -5 0 5 1 0 
0 -5 0 5 1 -5 0 5 0 -5 1 -14 1 -4 0 4 
0 -4 1 0 0 -5 0 5 1 -5 0 -5 1 5 0 -10 
0 5 1 0 0 -5 1 0 0 5 0 -5 1 0 1 5 
0 -5 0 5 1 -5 0 5 1 0 0 5 0 -5 1 5 
0 5 1 0 0 -5 0 5 1 -5 0 5 1 0 0 -5 
0 5 1 0 1 0 0 4 0 -4 1 0 0 4 0 -4 
1 4 0 -4 0 4 1 0 1 0 0 5 0 -5 1 5 
1 0 1 5 0 -5 0 5 1 0 0 4 1 -4 0 -10 
1 -4 0 4 0 -4 1 4 0 -4 1 0 0 -5 0 5 
1 -5 0 5 0 -5 1 0 0 -5 0 5 1 -5 0 5 
0 -5 1 0 0 -5 0 5 1 0 0 -5 0 0 1 0 
0 5 0 -5 1 -4 0 4 1 -4 0 4 0 -4 1 4 
0 -4 0 0 1 0 0 4 0 -4 1 0 1 0 1 0 
0 -5 0 5 1 -5 0 5 0 -5 1 0 0 5 0 -5 
1 0 0 5 0 -5 1 5 0 -5 0 5 1 4 0 15 
1 -5 0 5 0 -5 1 5 0 4 1 -4 0 9 0 -5 
1 5 1 0 0 5 1 -5 0 5 0 -5 1 0 0 5 
0 -5 1 0 0 -5 1 5 0 5 0 -5 1 0 0 -5 
1 0 0 -4 0 4 1 -4 0 4 0 -4 1 0 0 4 
1 -4 1 0 1 0 0 -5 0 5 1 -5 0 0 0 5 
1 -5 0 5 0 -5 1 0 0 -5 0 5 1 0 0 -5 
0 5 1 -5 1 -5 0 0 0 5 1 -5 1 -4 0 9 
1 5 0 5 1 -5 0 5 1 0 1 0 1 0 0 4 
1 -4 0 4 0 0 1 0 0 -4 0 4 1 0 0 5 
0 -5 1 0 0 5 0 -5 1 5 1 0 0 5 0 -5 
1 5 1 0 0 4 1 -4 0 0 0 4 1 -4 0 9 
1 -5 0 5 0 -5 1 5 0 -5 0 5 1 0 0 -5 
1 5 1 0 1 0 0 5 0 -5 1 0 1 0 0 -5 
1 5 0 -9 1 -5 0 -5 1 -4 0 4 1 -9 0 5 
0 -5 1 5 0 -10 0 5 1 -5 1 0 0 -5 1 5 
0 -5 0 5 1 0 0 10 1 -5 0 5 0 -5 1 5 
1 0 1 0 0 4 0 -4 1 4 1 5 0 -5 0 5 
1 0 0 5 1 4 0 -14 1 -4 0 4 0 -4 1 4 
0 -4 1 0 0 -5 0 5 1 -5 1 0 0 -5 1 5 
0 -10 0 5 1 -5 0 5 0 -5 1 0 0 -4 0 4 
1 -4 1 -5 0 5 2850 1797 300 MP stroke
0 -5 1 0 1 0 0 -5 0 0 1 5 0 -5 1 0 
0 5 0 -5 1 5 0 -5 1 5 0 -5 1 5 0 -5 
0 5 1 -5 0 0 0 5 1 0 0 -5 0 14 1 5 
0 5 1 5 0 -5 0 9 1 -4 0 4 1 0 0 5 
0 -5 1 5 0 -9 1 4 0 5 1 0 1 0 1 0 
0 -5 1 5 0 -5 0 5 1 0 1 0 0 5 0 -5 
1 5 0 -5 0 5 1 0 0 4 0 -4 1 4 0 -4 
0 4 1 -4 0 4 1 0 0 5 0 -5 1 0 0 5 
1 -5 0 5 1 -5 0 5 1 0 0 -5 0 5 1 -5 
0 5 0 -5 1 5 0 -5 1 5 0 -9 1 -5 0 -9 
0 4 1 -4 0 4 0 -4 1 0 0 -5 0 5 1 -5 
0 -5 1 0 0 5 0 -5 1 -5 0 5 0 -5 1 5 
0 -5 1 5 0 -5 0 5 1 -5 0 5 1 0 0 5 
0 -5 1 -5 0 10 1 0 0 5 0 -5 1 5 0 -5 
0 5 1 0 0 -5 0 5 1 0 1 0 1 0 0 4 
0 -4 1 0 0 4 0 -4 1 4 1 0 0 5 0 -5 
1 5 0 -5 1 0 1 -4 0 4 0 -4 1 0 1 0 
0 -5 1 5 0 -5 1 -5 0 5 0 -5 1 0 0 5 
0 -5 1 0 0 -5 0 5 1 -5 0 5 0 -5 1 0 
0 5 0 -9 0 4 1 0 1 0 0 -4 1 4 0 -4 
0 4 1 -4 0 14 1 -5 0 10 1 -5 0 5 1 0 
0 4 1 0 1 5 1 0 0 0 0 5 1 0 0 -5 
0 5 1 0 1 0 0 -5 1 0 0 -5 0 5 1 0 
0 5 1 0 0 4 0 0 1 5 0 -5 1 5 0 -5 
1 0 0 5 1 -5 0 -14 1 0 0 -4 1 4 0 -9 
1 5 0 -5 1 0 0 -5 1 5 0 -5 1 -5 0 5 
1 -5 0 10 1 0 0 5 1 -5 0 5 0 -5 1 5 
1 0 1 4 0 0 0 -4 1 4 1 0 0 5 1 0 
1 5 0 -5 0 5 1 0 0 4 0 -9 1 -5 0 -4 
1 4 0 -4 1 0 1 -5 0 5 0 -5 1 0 1 0 
0 -5 1 0 1 -5 1 0 0 -4 1 4 0 -4 0 4 
1 -4 0 -5 0 5 1 0 0 -5 1 0 0 5 1 -5 
0 5 0 -5 1 0 1 0 1 0 0 -5 0 5 1 0 
0 -5 0 5 1 -5 0 5 1 -5 0 10 1 9 0 10 
1 -5 0 5 1 4 0 -4 0 4 1 5 0 5 1 -5 
0 9 1 -4 0 -14 1 4 0 -4 1 0 0 4 0 -4 
1 0 0 -5 1 5 0 -10 0 5 1 -5 0 5 1 0 
0 5 0 -5 1 5 2716 1778 300 MP stroke
0 -5 1 5 0 4 1 -4 0 4 1 -4 0 4 1 0 
1 5 0 -5 1 5 0 -5 0 5 1 0 1 5 0 0 
0 -5 1 5 0 -5 0 5 1 0 0 4 0 -4 1 0 
0 4 1 0 0 -4 1 4 0 5 1 -5 0 5 0 -5 
1 0 0 5 1 0 0 -5 0 5 1 0 1 0 0 -5 
1 5 0 -5 0 5 1 0 0 -19 1 -4 0 4 0 0 
1 -4 0 -5 0 5 1 0 0 -5 1 -5 0 5 0 -5 
1 0 0 -5 1 5 0 0 0 -5 1 0 0 0 0 5 
1 -5 0 5 0 -5 1 5 1 0 0 5 1 0 0 5 
1 -5 0 5 0 -5 1 5 1 -5 0 5 1 0 1 4 
0 -4 1 4 0 -4 1 4 1 0 0 5 1 -5 0 5 
0 0 1 0 1 5 0 -5 0 5 1 -5 0 9 1 -4 
0 -10 1 0 0 -4 1 0 0 4 0 -4 1 -5 0 5 
0 -5 1 5 0 -5 1 0 0 -5 0 5 1 -5 0 5 
0 -5 1 0 1 -5 0 5 0 -5 1 0 0 5 0 -5 
1 0 1 -4 0 4 0 -4 1 4 0 -4 0 0 1 0 
0 4 0 -4 1 0 0 4 0 -4 1 0 0 -5 1 5 
1 -5 0 5 0 -5 1 5 0 -5 1 5 0 -5 1 5 
0 -5 1 9 0 15 1 -5 0 5 1 0 0 4 0 -4 
1 0 0 9 0 -5 1 0 0 5 1 0 0 5 1 -5 
0 5 1 -5 0 5 0 -5 1 0 1 0 1 0 0 -5 
1 0 0 -4 1 4 0 -4 1 4 0 -4 1 0 0 4 
0 -4 1 0 1 0 0 -5 0 5 1 0 0 -5 1 0 
0 5 0 -5 1 0 1 -5 0 5 1 -5 1 0 0 -5 
1 5 0 -9 0 4 1 5 0 5 1 5 0 -5 0 5 
1 0 1 0 1 4 0 -4 0 4 1 0 0 -4 0 4 
1 0 1 5 0 -5 0 0 1 5 0 -5 0 5 1 0 
1 0 0 5 1 -5 0 5 1 0 1 4 0 -4 1 4 
0 -4 1 4 0 5 1 -5 0 5 0 -5 1 5 0 -5 
0 5 1 0 0 -5 0 5 1 0 0 -5 0 5 1 -5 
0 5 0 -5 1 0 0 5 1 -14 0 -5 1 -4 0 4 
0 -4 1 0 1 -5 1 0 0 -5 0 5 1 -5 0 -5 
0 5 1 -5 0 5 0 0 1 -5 0 5 1 -5 0 5 
0 0 1 0 1 0 0 5 1 0 0 5 0 -5 1 5 
0 -5 0 5 1 0 1 -5 0 5 1 0 0 4 0 -4 
1 0 0 4 0 -4 1 0 0 4 0 -4 1 4 1 0 
0 5 0 -5 1 5 0 -5 0 5 1 0 0 5 1 -5 
0 5 1 0 0 4 2582 1760 300 MP stroke
0 -9 1 -5 0 0 0 -4 1 4 0 -4 1 0 1 -5 
0 5 1 -5 1 -5 0 5 0 -5 1 0 0 5 0 -10 
1 5 1 -5 0 5 0 -5 1 0 0 5 0 -5 1 -4 
0 4 1 0 0 0 0 -4 1 4 0 -4 1 0 0 4 
0 -4 1 0 0 4 0 -4 1 0 1 0 0 -5 0 5 
1 -5 0 5 1 -5 0 5 0 0 1 -5 0 0 0 5 
1 -5 0 14 1 5 0 0 0 5 1 0 1 0 0 4 
1 0 0 5 1 0 1 0 0 5 1 -5 0 5 1 -5 
0 -5 0 5 1 0 1 0 0 -5 1 -4 0 4 1 -4 
0 4 1 -4 1 0 1 0 0 -5 0 5 1 0 0 -5 
0 0 1 0 1 0 1 -5 0 5 0 -5 1 0 1 -5 
0 5 0 -5 1 0 0 -4 0 4 1 -4 1 9 0 5 
1 5 0 -5 0 5 1 0 1 0 1 0 0 4 1 -4 
0 4 1 -4 0 4 1 0 0 5 1 -5 0 5 0 -5 
1 5 1 5 0 -5 0 5 1 -5 0 5 1 0 0 4 
0 -4 1 4 0 -4 0 4 1 0 0 5 1 0 0 -5 
0 5 1 0 1 0 1 5 0 -5 0 5 1 -5 0 5 
0 0 1 -5 0 5 0 -5 1 0 0 5 0 0 1 -5 
0 0 0 5 1 -5 0 5 0 -5 1 0 0 -5 1 5 
0 -5 1 5 0 -5 1 0 0 -14 1 -4 0 4 0 -4 
1 0 1 0 0 -5 0 5 1 0 1 0 1 4 1 5 
0 9 1 0 0 -14 1 0 0 -4 1 0 1 0 0 -5 
1 5 0 -5 1 -5 0 5 0 -5 1 0 0 -5 1 0 
0 5 0 -5 1 -4 0 4 0 -4 1 -5 0 5 0 -5 
1 0 1 -5 1 0 0 -5 1 0 0 5 0 -5 1 -4 
0 4 1 0 0 -4 0 4 1 0 0 5 1 -5 0 5 
1 0 0 5 0 -5 1 0 0 5 0 -5 1 5 0 -5 
0 5 1 -5 0 14 1 10 0 5 0 -5 1 5 1 0 
0 4 1 0 0 5 1 0 0 -5 0 5 1 5 0 -5 
1 5 0 -5 0 5 1 -5 1 0 1 0 0 -5 1 0 
0 -4 1 0 0 4 0 -4 1 4 0 -4 1 0 1 0 
0 -5 1 5 0 -5 0 5 1 -5 1 0 0 -5 1 5 
0 -5 1 5 0 -10 0 5 1 0 0 -5 1 0 0 15 
1 -5 0 5 1 -5 0 5 1 0 1 4 0 -4 1 4 
1 0 0 5 0 -5 1 5 0 -5 0 5 1 -5 0 5 
1 0 0 5 0 -5 1 5 0 -5 0 5 1 0 1 0 
0 4 0 -4 1 4 0 -4 0 4 1 0 1 0 0 5 
0 -5 1 0 0 5 2443 1755 300 MP stroke
0 -5 1 5 1 0 1 0 0 -5 0 5 1 0 0 -5 
0 5 1 -5 0 5 0 -9 1 -10 0 -4 1 0 0 4 
0 -4 1 0 0 -5 1 0 0 -5 0 5 1 -5 0 -5 
1 5 0 -5 1 0 0 5 0 -5 1 5 0 -5 0 5 
1 -5 0 5 0 -5 1 5 1 5 1 5 0 -5 1 5 
1 -5 0 5 1 0 1 0 0 4 1 -4 0 4 0 -4 
1 4 0 -4 0 4 1 0 0 5 1 -5 0 5 1 -5 
0 5 1 5 0 -5 0 5 1 0 0 4 1 -4 0 -10 
1 0 0 -4 0 4 1 -4 1 0 0 -5 1 5 0 -5 
1 0 0 -5 1 5 0 -5 1 5 0 -10 1 5 0 -5 
0 5 1 -5 0 5 0 -5 1 0 1 0 0 -4 1 4 
0 -4 1 4 0 -4 0 4 1 -4 1 4 0 -9 0 5 
1 0 0 -5 1 5 0 0 0 -5 1 0 0 5 0 -5 
1 0 0 5 0 -5 1 0 0 0 0 5 1 -10 0 24 
1 0 0 0 0 5 1 0 1 4 0 -4 0 4 1 0 
0 5 0 0 1 0 0 5 0 -5 1 5 0 -5 1 0 
0 5 0 -5 1 0 1 0 1 0 0 -5 1 -4 0 4 
0 -4 1 0 0 4 0 -4 1 0 0 4 0 -4 1 0 
1 0 0 -5 0 5 1 0 0 -5 0 5 1 -5 0 5 
1 -5 0 -5 0 5 1 0 0 -5 0 5 1 -5 1 -5 
0 5 0 -5 1 0 0 10 1 0 0 5 1 0 0 -5 
0 5 1 0 1 4 0 -4 0 4 1 0 0 -4 0 4 
1 0 1 5 0 -5 0 5 1 -5 0 5 0 -5 1 5 
0 5 1 -5 0 5 1 0 0 -5 0 5 1 0 0 4 
1 -4 0 4 0 0 1 -4 0 4 1 0 1 5 0 -5 
1 5 0 -5 0 5 1 0 1 0 0 -5 0 5 1 0 
0 -5 0 5 1 -5 0 5 1 -14 0 -5 1 0 0 -4 
0 4 1 -4 1 -5 1 0 0 -5 0 5 1 -10 0 5 
1 -5 0 5 0 -5 1 5 0 -5 0 5 1 0 0 -5 
0 5 1 0 0 -5 0 5 1 5 0 -5 0 10 1 -5 
0 5 1 0 0 -5 0 5 1 0 0 -5 1 5 1 4 
0 -4 1 0 0 4 0 -4 1 4 0 -4 0 4 1 0 
1 5 0 -5 0 0 1 5 1 0 0 5 0 -5 1 5 
0 4 1 0 0 -14 1 0 0 0 0 -4 1 0 1 0 
0 -5 0 5 1 -5 0 5 0 -5 1 0 0 -5 0 5 
1 0 0 -5 1 0 1 -5 0 5 0 -5 1 0 0 5 
1 -5 0 -4 0 4 1 0 0 -4 0 4 1 0 0 -4 
0 4 1 -4 0 4 2313 1793 300 MP stroke
0 -4 1 0 1 0 1 0 0 -5 0 0 1 5 0 -5 
0 5 1 -5 1 5 0 -5 1 5 0 -5 1 14 0 10 
1 -5 0 5 1 0 1 4 0 5 1 0 0 -5 0 5 
1 5 0 -5 1 5 0 -5 0 5 1 -5 0 5 0 -5 
1 0 0 -5 1 5 0 5 0 -5 1 0 0 -5 1 0 
0 0 0 -4 1 0 0 4 0 -4 1 0 0 4 0 -4 
1 0 1 0 0 -5 0 5 1 0 0 -5 0 5 1 -5 
0 5 0 -5 1 0 1 -5 0 5 1 -5 1 0 0 -5 
1 0 0 5 1 5 0 5 1 -5 0 5 1 0 1 0 
0 4 0 -4 1 4 1 0 1 5 0 -5 0 5 1 -5 
0 5 0 -5 1 5 0 5 0 -5 1 0 0 5 0 -5 
1 5 0 -5 0 5 1 0 1 4 0 0 0 -4 1 4 
1 0 1 0 0 5 0 -5 1 0 0 5 1 -5 0 5 
1 0 0 -5 1 5 0 -5 0 0 1 5 0 -14 1 -5 
0 -4 0 4 1 -4 1 0 0 -5 0 5 1 -5 0 0 
0 -5 1 5 0 -5 1 -5 0 5 1 -5 0 5 0 0 
1 -5 0 5 0 -5 1 5 1 0 1 5 0 5 1 -5 
0 5 0 -5 1 5 0 -5 1 5 1 0 1 0 1 0 
0 4 0 -4 1 4 0 -4 0 4 1 0 0 -4 0 4 
1 5 0 -5 1 5 0 -5 0 5 1 0 1 0 0 0 
0 5 1 0 0 4 1 -4 0 4 0 -4 1 -10 0 -4 
1 4 0 -4 1 4 0 -4 1 0 0 -5 0 5 1 -5 
0 5 0 -5 1 0 1 0 0 -5 0 0 1 5 0 -5 
1 0 0 -5 1 5 0 0 0 -5 1 0 0 5 0 -5 
1 0 0 -4 0 4 1 0 0 -4 1 4 0 -4 1 0 
0 -5 1 5 0 -5 0 0 1 0 1 5 0 -5 1 0 
1 0 0 5 0 -5 1 0 0 5 1 -5 0 5 0 0 
1 0 0 19 1 -5 0 0 0 5 1 0 1 4 1 0 
0 5 0 -5 1 5 0 5 0 -5 1 5 0 -5 1 0 
0 5 0 -5 1 0 1 5 0 -5 1 -5 0 -4 1 4 
0 -4 0 4 1 -4 1 4 0 -4 1 0 0 -5 0 5 
1 0 0 -5 0 0 1 5 0 -5 1 -5 0 5 1 0 
0 5 1 -5 0 5 1 0 1 0 0 4 0 0 1 -4 
0 4 1 0 0 5 1 -5 0 5 1 0 1 0 0 5 
0 -5 1 0 0 5 0 -5 1 5 1 0 0 4 1 -4 
0 4 0 -4 1 -10 0 5 0 -9 0 4 1 -4 0 4 
0 -4 1 0 1 -5 0 5 0 -5 1 -5 0 5 0 -5 
1 0 0 0 0 -5 2178 1793 300 MP stroke
1 5 0 -5 0 5 1 -5 0 5 0 -5 1 0 0 5 
0 -5 1 5 0 5 0 -5 1 5 0 5 0 -5 1 0 
0 -5 1 0 0 -5 1 5 0 -9 0 4 1 -4 0 4 
0 -4 1 0 0 9 1 5 0 5 1 0 0 -5 0 5 
1 0 0 4 1 0 1 0 0 5 0 -5 1 5 0 5 
1 -5 1 0 1 0 0 5 0 -10 1 5 0 -9 0 4 
1 -4 0 4 0 -4 1 0 0 4 0 -4 1 0 1 0 
1 -5 0 5 0 -5 1 0 0 5 0 -5 1 0 0 -5 
0 5 1 -5 0 5 0 -5 1 0 0 0 0 -5 1 0 
0 10 1 0 0 5 0 -5 1 5 1 0 1 0 0 4 
1 -4 0 4 1 0 0 5 0 -5 1 5 0 -5 0 5 
1 0 1 0 1 5 0 -5 0 5 1 -5 0 5 1 0 
0 4 1 -4 0 4 1 -4 0 9 1 -5 0 5 0 -5 
1 5 0 -5 0 5 1 0 0 -5 0 5 1 0 0 5 
0 -10 0 5 1 0 0 5 0 -10 0 5 1 0 0 -5 
1 5 0 -14 1 -5 0 -4 1 0 1 0 0 -5 1 0 
0 -5 0 5 1 -10 0 5 1 -5 0 5 0 -5 1 0 
0 5 0 -5 1 5 0 -5 0 5 1 -5 0 5 1 0 
1 0 0 10 1 -5 0 0 0 5 1 0 0 -5 0 5 
1 0 1 0 1 0 1 0 0 4 0 -4 1 4 0 -4 
0 4 1 0 1 0 0 5 0 -5 1 0 0 5 0 -5 
1 5 0 5 0 -5 1 0 0 5 0 0 1 0 0 4 
0 -4 1 -10 1 -4 1 0 1 0 0 -5 1 5 0 -5 
1 0 0 -5 0 5 1 -5 0 5 0 -5 1 0 0 -5 
1 5 0 -5 0 5 1 -5 0 5 0 -5 1 0 1 0 
1 -4 0 4 0 -4 1 4 0 0 0 -4 1 4 0 -4 
0 4 1 -4 1 0 0 -5 0 5 1 -5 0 5 0 -5 
1 5 0 -5 0 0 1 0 0 5 1 -5 0 9 1 5 
0 10 1 -5 0 5 1 0 0 4 1 -4 0 9 1 -5 
0 5 1 0 0 5 1 -5 1 0 0 -5 1 5 0 5 
1 -5 0 -5 1 -4 0 4 0 0 1 -4 1 4 0 -4 
1 0 1 0 0 -5 0 5 1 -5 0 5 0 -5 1 0 
1 0 0 -5 0 0 1 0 1 0 0 0 0 -9 1 4 
0 10 1 5 0 -5 0 5 1 -5 0 5 1 0 0 4 
1 -4 0 4 0 -4 1 4 0 -4 1 4 0 5 0 -5 
1 5 0 -5 1 5 0 -5 0 5 1 5 0 -5 1 5 
0 -5 0 5 1 0 1 0 1 4 0 -4 0 4 1 0 
0 -4 0 4 1 0 2046 1760 300 MP stroke
0 5 0 -5 1 5 0 -5 1 5 1 0 0 -5 0 10 
1 -5 0 -5 0 5 1 0 0 -5 0 5 1 -5 0 5 
0 -5 1 -9 0 -5 1 -4 0 4 0 -4 1 0 0 -5 
0 5 1 -5 0 -5 0 5 1 -5 1 0 0 0 0 -5 
1 5 0 -5 0 5 1 -5 0 5 0 -5 1 5 1 -5 
0 10 1 -5 0 10 1 -5 0 0 0 5 1 0 0 -5 
1 5 1 0 1 0 1 0 0 4 1 -4 0 4 1 0 
1 0 0 5 1 -5 0 5 1 0 0 5 1 -5 0 5 
1 4 0 -14 1 0 0 -4 0 4 1 -4 1 0 1 -5 
0 5 0 -5 1 5 0 -10 1 5 0 -5 1 0 0 5 
0 -5 1 0 0 -5 0 5 1 -5 0 0 0 5 1 -5 
1 0 1 -4 0 4 1 -4 0 4 1 -4 1 0 0 4 
0 -9 1 5 0 -5 1 5 0 -5 1 5 0 -5 1 5 
0 -5 1 5 0 -5 0 5 1 -5 0 19 1 0 0 5 
0 -5 1 5 1 0 0 4 1 0 0 5 1 0 1 0 
0 5 0 -5 1 5 0 -5 1 0 1 0 1 0 0 -5 
1 -4 0 4 0 -4 1 0 0 4 0 -4 1 0 0 4 
0 -4 1 0 0 -5 1 5 0 -5 1 5 0 -5 1 0 
0 5 1 -10 0 5 1 -5 0 5 0 -5 1 0 0 -5 
0 5 1 -5 0 10 1 -5 0 10 0 -5 1 5 1 -5 
0 9 0 -4 1 0 0 4 0 -4 1 4 0 -4 0 4 
1 0 0 5 1 -5 0 5 1 -5 0 5 1 0 1 5 
0 -5 0 5 1 0 0 -5 0 5 1 0 0 4 0 -4 
1 0 0 4 1 -4 0 4 1 0 0 5 1 -5 0 5 
0 -5 1 5 0 -5 0 5 1 -5 0 5 1 -5 0 5 
0 -5 1 5 0 -5 1 5 0 -9 1 -5 0 -9 1 0 
0 4 0 -4 1 0 0 -5 1 5 0 -10 0 5 1 -5 
0 5 0 -5 1 -5 0 5 1 -5 0 5 0 -5 1 5 
0 5 1 0 0 5 1 0 0 -5 0 5 1 0 1 0 
0 4 1 -4 0 4 0 0 1 0 1 0 0 5 0 -5 
1 5 0 5 1 -5 0 5 1 0 0 0 0 4 1 0 
0 5 0 -9 1 -5 0 -9 0 4 1 0 0 -4 1 0 
0 4 0 -4 1 0 0 -5 0 5 1 0 0 -5 1 0 
1 0 0 -5 0 0 1 5 0 -5 1 0 0 -5 0 5 
1 -5 1 0 0 -4 1 4 0 -4 1 0 0 -5 1 0 
1 -5 0 5 0 -5 1 0 1 0 0 -5 1 5 0 -5 
1 0 0 5 0 -5 1 0 0 5 0 -5 1 0 0 5 
0 -5 1 5 0 -9 1912 1816 300 MP stroke
0 9 1 -5 0 5 1 0 0 5 0 -5 1 0 0 24 
1 0 0 5 1 0 0 4 1 0 0 5 1 5 0 -5 
0 9 1 -9 0 -5 1 0 0 -4 0 4 1 -4 1 0 
0 -5 1 -5 1 5 0 5 0 -5 1 5 0 -5 0 5 
1 0 1 0 0 4 1 0 0 -4 0 4 1 5 0 -5 
0 5 1 -5 0 5 1 -5 0 5 1 0 0 -5 0 5 
1 0 1 0 0 5 0 -5 1 0 1 5 0 -5 1 0 
0 5 1 -5 1 5 0 -5 1 0 1 5 0 -5 1 0 
1 0 1 0 0 5 0 -5 1 0 0 5 0 0 1 -5 
0 5 1 0 0 -5 0 5 1 4 0 -4 1 4 0 -4 
0 0 1 4 1 0 0 5 0 -5 1 5 0 0 0 -5 
1 5 0 -5 0 5 1 -5 0 5 1 -5 0 5 1 -5 
0 5 0 -5 1 -9 0 -9 1 4 0 -4 0 4 1 -4 
1 -5 0 5 0 -5 1 0 0 -5 1 0 0 5 0 -5 
1 0 0 -5 0 5 1 0 0 -5 1 5 1 5 0 5 
1 -5 0 5 0 -5 1 5 1 0 1 0 1 4 0 -4 
0 4 1 -4 0 4 1 5 0 -5 1 5 1 0 0 0 
0 5 1 0 0 4 0 -9 1 -5 0 -4 1 0 0 4 
0 -4 1 0 0 -5 1 5 0 -5 1 0 1 -5 0 5 
0 -5 1 0 1 -5 0 5 0 -5 1 0 1 0 0 -4 
0 4 1 -4 0 4 0 -4 1 0 0 4 0 -4 1 0 
0 -5 0 5 1 0 0 -5 0 5 1 0 0 -5 1 5 
0 -5 1 5 0 -5 0 5 1 -5 1 0 0 5 0 -5 
1 0 0 5 1 4 0 15 1 -5 0 5 1 0 0 4 
1 0 0 5 0 -5 1 10 0 -5 1 5 0 -5 0 5 
1 0 0 -5 0 5 1 0 0 -5 0 5 1 -5 0 5 
0 -5 1 0 0 -5 1 5 0 -5 0 5 1 0 0 -5 
0 0 1 -4 0 4 1 -4 0 4 0 -4 1 0 0 4 
1 -4 1 0 1 0 1 -5 0 5 0 -5 1 5 0 -5 
1 0 0 5 0 -5 1 0 0 -5 0 5 1 0 0 -5 
0 0 1 5 0 -5 1 0 0 -5 0 5 1 -5 0 5 
0 -5 1 0 0 -4 1 4 0 -4 0 4 1 10 0 5 
1 0 0 -5 0 5 1 0 0 -5 0 5 1 0 0 4 
0 -4 1 0 0 4 0 -4 1 0 0 4 1 0 1 0 
0 5 0 -5 1 5 1 0 0 5 1 -5 0 5 1 0 
1 0 0 4 1 -4 0 4 1 0 1 5 0 -5 1 5 
0 -5 0 5 1 0 1 -5 0 5 1 0 1 0 0 5 
0 -5 1 0 0 -5 1777 1760 300 MP stroke
1 5 0 -5 0 5 1 0 0 -19 1 0 0 -4 1 0 
1 0 0 -5 1 0 0 -5 1 0 1 -5 0 5 0 -5 
1 0 0 10 1 0 0 5 0 -5 1 5 0 -5 1 5 
1 0 0 4 1 -4 0 4 1 5 0 5 1 -5 0 -5 
1 0 0 -4 1 0 1 0 0 -5 0 5 1 -5 1 -5 
0 5 0 -5 1 0 0 -5 1 0 1 0 0 -4 0 4 
1 -9 0 5 1 0 0 -5 0 0 1 0 0 -5 1 5 
0 0 0 -5 1 0 0 5 0 -10 1 5 0 5 0 -10 
1 5 0 5 0 -5 1 0 0 0 0 5 1 0 0 -5 
0 0 1 10 0 14 1 0 0 5 1 0 0 4 1 0 
0 5 1 0 0 9 1 -9 0 14 1 -5 0 5 1 0 
0 5 1 -5 1 -5 0 5 0 0 1 -5 0 5 0 -5 
1 5 0 -5 0 5 1 -5 0 0 0 5 1 0 0 -5 
0 5 1 -5 0 5 1 -5 0 5 0 -5 1 5 0 0 
0 -5 0 0 1 -9 0 -9 1 4 0 -4 0 4 1 -9 
0 5 1 -5 1 -5 0 5 0 -5 1 0 0 -5 0 5 
1 0 0 -5 1 5 0 -5 0 5 1 5 0 5 1 -5 
0 5 0 -5 1 5 1 0 1 0 0 4 0 0 1 -4 
0 4 1 0 0 0 0 5 1 0 1 5 1 -10 0 -4 
1 4 0 -4 1 0 1 0 0 -5 1 0 0 5 0 -10 
0 5 1 0 0 -5 1 5 0 -10 1 5 0 0 0 -5 
1 0 0 -4 0 4 1 -4 0 4 0 -4 1 0 0 -5 
1 5 0 -5 0 5 1 -5 0 5 0 -5 1 0 1 0 
1 -5 0 5 1 0 0 -5 0 5 1 0 0 -5 0 5 
1 -5 0 5 1 0 0 -5 0 5 1 0 0 -5 0 24 
1 -5 0 10 0 -5 1 5 0 -5 0 5 1 0 0 4 
0 -4 1 4 0 -4 0 4 1 -4 0 4 0 -4 1 4 
1 5 0 -5 0 5 1 5 0 -5 1 5 0 -5 0 5 
1 -5 0 5 1 -5 0 5 1 0 1 0 0 4 1 -4 
0 9 0 -5 1 0 0 0 0 5 1 0 1 0 0 5 
0 -5 1 5 0 -5 1 5 0 -5 0 0 1 5 0 -5 
1 5 0 5 0 -5 1 0 0 -5 0 5 1 0 0 0 
0 -5 1 5 0 -5 1 0 0 5 0 -5 1 -14 0 -9 
1 4 0 -4 1 0 0 -5 1 0 0 -5 1 0 0 -5 
1 5 0 5 1 5 0 -5 0 5 1 0 0 -5 0 5 
1 4 0 -4 1 4 1 10 0 -5 1 0 0 -9 1 4 
0 -4 1 0 1 -5 0 5 0 -5 1 0 1 -5 0 5 
0 -5 1 0 0 -5 1646 1793 300 MP stroke
0 0 1 0 1 -4 1 0 0 0 0 -5 1 0 0 -5 
1 5 0 -5 1 0 0 -5 1 0 0 5 0 -5 1 0 
1 0 0 5 0 -5 1 0 0 5 0 -5 1 0 0 5 
1 0 0 5 1 -5 0 19 1 0 0 10 1 -5 0 9 
1 -4 0 9 0 -5 1 5 1 0 0 -9 1 4 0 -4 
1 0 1 0 0 4 1 5 0 -5 0 10 1 -5 1 0 
1 0 1 0 1 5 0 0 0 -5 1 5 1 0 0 4 
1 -4 0 4 1 -4 0 9 1 -5 0 5 1 -5 0 5 
1 0 0 -5 0 5 1 -5 0 5 1 -5 0 5 1 -5 
0 5 0 0 1 0 0 -5 1 5 0 -19 1 5 0 -9 
1 0 0 4 0 -4 1 -5 0 5 1 -10 0 5 1 -5 
0 -5 0 5 1 0 0 -5 1 5 0 -5 1 5 0 -5 
0 5 1 0 0 10 1 -5 0 5 1 0 0 -5 0 5 
1 0 1 0 0 4 0 -4 1 0 0 4 0 -4 1 4 
0 5 1 -5 0 5 1 0 0 -5 0 0 1 0 0 0 
0 -4 1 0 0 4 0 -4 1 0 0 -5 0 5 1 -5 
0 5 0 -5 1 -5 0 5 0 -5 1 5 0 -10 1 5 
0 -5 0 5 1 -5 1 0 0 -4 0 4 1 -4 1 -5 
0 5 0 -5 1 5 0 -5 1 5 0 -5 1 0 1 5 
0 -5 1 5 0 -5 0 5 1 -5 0 14 1 5 0 5 
1 -5 0 5 1 0 0 4 0 -4 1 4 0 5 0 -5 
1 0 0 5 0 0 1 0 1 0 0 -5 0 5 1 0 
0 -5 1 0 0 -4 0 4 1 0 0 5 0 -5 1 0 
0 10 1 4 0 5 1 0 0 10 1 -5 0 5 0 -5 
1 5 1 4 0 -9 1 0 0 -5 1 -5 0 0 0 10 
1 -5 0 -19 1 -4 0 4 0 -4 1 4 0 -9 1 5 
0 -5 1 0 0 -5 0 0 1 -5 0 5 1 -5 0 5 
1 -5 0 5 1 -5 0 5 1 0 0 -5 0 10 1 0 
0 5 1 -5 0 5 1 -5 0 5 1 0 1 0 1 0 
0 4 1 -4 0 4 0 -4 1 4 1 5 0 -5 0 5 
1 0 0 -5 0 5 1 5 0 -5 0 5 1 0 0 4 
0 -9 1 0 0 -9 1 4 0 -4 1 0 1 0 0 -5 
0 0 1 5 0 -10 1 5 0 0 0 -5 1 0 0 5 
0 -5 1 -5 0 5 1 -5 0 5 0 -5 1 0 1 0 
0 -4 1 4 0 -4 0 4 1 -4 0 4 0 -4 1 0 
1 0 1 0 0 -5 0 5 1 0 0 0 0 -5 1 5 
0 -5 1 0 0 5 0 0 1 -5 0 5 0 -5 1 5 
0 14 1 0 0 5 1511 1778 300 MP stroke
0 -5 1 5 1 4 0 -4 0 4 1 0 0 5 1 0 
1 5 0 -5 1 5 0 -5 0 5 1 -5 1 0 0 -5 
0 5 1 0 0 -5 1 5 0 -5 1 -4 0 4 0 -4 
1 0 0 4 0 -4 1 0 0 4 0 -4 1 0 1 0 
1 -5 0 5 1 -5 0 5 0 -5 1 0 0 5 0 -5 
1 0 1 0 0 -5 0 0 1 5 0 -5 1 0 0 -5 
1 5 0 -5 1 -4 0 14 1 5 0 -5 1 5 1 0 
1 0 0 4 0 -4 1 4 0 -4 0 4 1 0 0 -4 
0 4 1 5 0 -5 1 5 0 -5 0 5 1 0 1 0 
0 5 0 -5 1 5 1 0 1 0 0 4 1 -4 0 4 
1 -4 0 9 1 -5 0 5 0 -5 1 5 0 -5 0 5 
1 0 0 -5 0 5 1 -5 0 0 0 5 1 0 0 -5 
0 0 1 0 0 0 0 5 1 -9 0 -10 1 -4 0 4 
0 -4 1 0 1 -5 1 0 0 -5 1 5 0 -5 1 -5 
0 5 1 -5 0 5 0 -5 1 5 1 5 0 5 1 -5 
0 5 0 -5 1 5 1 0 1 0 0 4 1 -4 0 4 
0 -4 1 4 0 5 1 -5 0 5 1 0 1 5 1 0 
0 -10 1 0 0 -4 1 0 0 4 0 -4 1 -5 0 5 
1 -5 1 0 0 -5 1 5 0 -5 1 0 0 -5 1 5 
0 -5 1 0 1 0 0 -4 0 0 1 0 0 4 0 -4 
1 0 1 0 0 -5 1 5 0 -5 0 5 1 -5 0 0 
0 5 1 -5 0 5 0 -5 1 5 0 -5 1 0 0 5 
0 -5 1 0 0 5 1 -5 0 19 1 0 0 5 0 -5 
1 5 1 4 0 -4 0 9 1 -5 0 10 1 -5 0 5 
1 -5 0 5 1 0 1 -5 0 5 1 -5 0 5 0 -5 
1 0 1 -5 0 5 0 -5 1 5 0 -5 1 5 0 -5 
1 5 0 -9 1 4 0 -4 1 4 0 -4 1 4 0 -4 
1 0 0 4 0 -4 1 0 1 0 1 0 1 0 1 -5 
0 5 1 -5 0 5 0 -5 1 5 0 -5 1 5 0 -5 
1 5 0 -5 1 0 0 -5 1 5 0 -5 1 5 0 -5 
1 0 0 5 0 -5 1 -5 0 5 1 -5 0 5 0 -5 
1 0 0 -4 0 4 1 5 0 10 1 -5 0 5 0 -5 
1 5 1 0 1 4 0 -4 0 4 1 -4 0 4 0 0 
1 0 1 0 0 5 0 -5 1 5 1 0 0 5 1 -5 
0 5 0 -5 1 5 0 -5 0 5 1 0 0 4 0 -4 
1 0 0 4 0 0 1 -4 0 4 1 0 1 5 0 -5 
0 5 1 0 0 -5 1 5 0 -5 0 0 1 5 0 0 
0 -5 1 0 0 5 1371 1755 300 MP stroke
0 -5 1 0 0 5 0 -9 1 -10 0 -4 1 4 0 -4 
1 0 0 -5 1 5 0 -5 1 -5 0 5 0 -5 1 0 
1 0 1 -5 0 5 1 0 0 10 0 -5 1 5 0 -5 
0 5 1 -5 0 5 1 0 1 0 0 4 1 -4 0 4 
0 -4 1 4 0 5 0 -5 1 0 0 5 0 -5 1 5 
0 5 1 0 0 -5 1 -5 0 -4 1 0 0 4 0 -4 
1 0 0 -5 1 5 0 -5 0 5 1 -5 0 -5 1 5 
0 -5 1 0 1 -5 0 5 0 -5 1 0 0 -4 0 4 
1 0 0 -4 1 0 0 4 0 -4 1 0 0 -5 0 5 
1 0 0 -5 0 5 1 -5 0 5 0 -5 1 5 0 -5 
1 5 0 -5 0 5 1 -5 0 5 1 -5 1 5 0 -5 
1 0 0 14 1 5 0 5 1 -5 0 9 1 -4 0 4 
1 0 0 5 1 0 0 5 0 -5 1 5 0 -5 1 5 
1 -5 0 5 0 -5 1 5 0 -5 1 0 1 0 0 -5 
0 5 1 -5 0 5 1 -5 0 5 1 -5 1 0 1 0 
1 0 0 -4 0 4 1 0 0 -4 1 0 0 4 0 -4 
1 4 0 -4 1 0 0 4 0 -4 1 0 1 0 0 4 
0 -4 1 0 1 0 1 0 1 0 1 0 1 0 1 0 
0 -5 0 5 1 0 0 -5 1 5 1 -5 0 5 0 -5 
1 5 0 -5 0 5 1 -5 0 5 0 -5 1 5 0 -5 
1 0 0 5 0 -5 1 0 1 0 0 -5 1 5 0 -5 
0 5 1 -5 0 5 0 -5 1 5 0 -5 1 0 0 -5 
1 5 0 -5 1 0 1 -4 0 4 0 -4 1 0 0 4 
1 5 0 5 1 0 0 5 0 -5 1 5 1 0 1 0 
1 4 0 -4 0 4 1 -4 0 4 1 5 0 -5 0 5 
1 -5 0 5 1 0 0 5 1 -5 0 5 0 -5 1 5 
1 0 0 4 1 -4 0 4 1 0 0 5 1 -5 0 5 
1 0 0 -5 0 5 1 -5 0 5 1 0 1 0 1 0 
1 0 1 0 0 -5 0 5 1 0 0 -5 1 10 0 -19 
1 -5 0 -4 1 0 0 4 0 -9 1 5 0 -10 1 5 
0 -5 1 0 0 -5 0 5 1 -5 0 5 0 -5 1 5 
0 -5 0 5 1 0 0 10 0 -5 1 5 0 -5 0 5 
1 0 1 0 1 0 0 4 0 -4 1 0 0 4 0 -4 
1 0 1 -5 0 5 0 -5 1 0 0 -5 1 0 1 -5 
0 5 0 -5 1 0 1 0 0 -4 1 4 0 -4 1 0 
0 -5 0 5 1 0 0 -5 1 0 0 5 1 -5 0 5 
0 -10 0 5 1 0 0 -5 0 5 1 0 0 5 0 -5 
1 0 0 5 0 -5 1232 1802 300 MP stroke
1 9 0 15 0 -5 1 5 0 -5 0 5 1 0 0 4 
1 -4 0 4 1 5 0 -5 0 5 1 0 1 0 1 0 
1 0 0 -5 0 5 1 -5 0 5 0 -5 1 0 1 0 
0 -4 1 4 0 -4 1 4 0 -4 1 0 0 4 0 -4 
1 0 1 0 1 0 1 -5 0 5 1 -5 0 5 0 -5 
1 0 0 -5 0 5 1 -10 0 5 0 -9 0 4 1 -4 
0 -5 1 0 0 -10 1 0 0 -9 1 0 0 -5 1 -4 
0 -10 1 0 0 -14 1 0 0 -9 1 -10 0 5 0 -19 
1 0 0 5 0 -5 1 0 0 14 1 10 0 23 1 10 
0 37 1 -4 0 4 0 -4 1 0 0 -5 0 5 1 -5 
1 0 0 -5 0 5 1 -5 1 -5 0 5 0 0 1 -5 
1 0 0 -4 1 4 0 -4 1 0 1 0 0 4 1 -4 
0 9 1 -5 0 5 1 0 1 0 1 0 0 -5 1 -4 
0 -5 1 5 0 -10 1 5 0 -5 1 0 1 0 0 -4 
1 0 0 4 0 -4 1 0 1 4 0 -9 0 5 1 -5 
1 0 0 -5 1 0 1 0 0 5 0 -5 1 0 1 -5 
0 5 1 5 0 -5 0 5 1 0 0 5 0 -5 1 0 
1 0 0 5 1 -5 0 5 1 0 0 0 0 -5 1 5 
1 0 0 4 1 0 0 5 0 -5 1 5 0 -5 1 5 
0 -5 0 5 1 0 0 -9 1 0 0 -5 1 -5 0 -5 
1 0 0 -4 1 4 0 -4 0 4 1 -4 1 0 0 -5 
1 0 0 -5 1 0 0 -4 1 0 0 4 0 -9 0 5 
1 0 0 -5 0 5 1 0 0 -5 0 9 1 -4 0 14 
1 -5 0 5 1 4 0 5 1 5 0 5 1 0 0 4 
0 -4 1 -5 1 0 0 -5 1 -5 0 5 0 -9 0 4 
1 -9 0 5 0 -10 1 5 0 -5 0 5 1 0 0 5 
0 -10 0 5 1 5 0 4 1 5 0 5 1 0 0 5 
0 -5 1 0 0 -5 1 5 0 -10 1 5 0 -9 1 0 
0 -5 1 0 0 -5 1 0 0 -9 1 -5 0 -5 1 0 
0 -4 0 4 1 -4 0 4 0 -4 1 4 0 -4 0 4 
1 5 1 0 0 5 0 -5 1 0 1 0 0 -5 0 5 
1 0 0 5 0 -5 1 0 0 -5 0 5 1 -5 0 -4 
0 4 1 -4 0 4 0 -4 1 0 0 -5 1 5 0 -5 
1 0 1 0 0 -5 0 5 1 -5 0 5 1 5 0 4 
1 0 0 5 1 0 0 5 1 0 0 5 1 0 0 -10 
1 5 0 -10 1 0 1 0 0 5 0 -5 1 5 0 -5 
0 5 1 0 0 -5 0 5 1 0 1 0 1 0 0 -5 
0 5 1 0 0 -5 1094 1878 300 MP stroke
0 5 1 -5 1 5 0 -5 1 -4 0 4 0 -4 1 0 
1 0 0 -5 1 5 0 -10 1 5 0 -5 1 -4 0 4 
0 -4 1 -5 0 5 1 0 0 4 0 -4 1 4 0 5 
1 0 0 9 0 -4 1 9 0 -5 0 5 1 0 0 5 
1 0 0 5 0 -5 1 5 0 4 1 -4 0 4 1 0 
0 -4 0 4 1 0 0 -4 0 4 1 0 1 -4 0 4 
0 -4 1 0 0 -5 0 5 1 -5 0 5 0 -5 1 0 
0 5 0 -5 1 0 1 5 0 -5 0 5 1 4 0 -4 
1 0 1 4 0 5 1 -5 0 5 0 -5 0 5 1 0 
0 -5 0 5 1 0 0 5 0 -5 1 5 0 -5 0 5 
1 0 0 -5 1 0 0 -5 0 5 1 -5 1 0 0 -4 
1 4 0 -9 1 5 0 -5 1 0 1 -5 0 5 0 0 
1 -5 0 5 1 -5 0 5 0 -10 0 5 1 0 1 5 
1 0 0 1591 1048 277 107 MP stroke
gr

c8
0 sg
2319 3569 mt 
(seconds) s
 319 1979 mt  -90 rotate
(velocity) s
90 rotate
1512  182 mt 
(velocity of a pendulum \(experiment\) lqr) s

end %%Color Dict

eplot
%%EndObject

epage
end

showpage

%%Trailer
%%EOF
